       0            0   -68729.481            0   -68729.481   -66394.627    179272.71 
      10    34.939905   -68804.052            0   -68729.699    -62136.87    179454.41 
      20    55.304331   -68849.216            0   -68731.528   -47282.393    180179.83 
      30    60.612477   -68863.301            0   -68734.317   -35037.058    179454.28 
      40    69.424255   -68886.137            0   -68738.402   -27078.497    180805.56 
      50    75.689258   -68904.213            0   -68743.145   -19339.423    180219.71 
      60    79.276065   -68917.205            0   -68748.505   -11988.147    180747.16 
      70    84.390648   -68933.898            0   -68754.314   -3309.9965    180135.17 
      80    83.265377   -68937.308            0   -68760.118    3921.8959    179544.87 
      90     77.64976   -68930.704            0   -68765.464     9224.873    179385.16 
     100     73.47124   -68926.482            0   -68770.134    15635.527    179713.14 
     110    69.859968   -68923.077            0   -68774.414    20709.927     179730.1 
     120    63.818291   -68913.866            0    -68778.06    26126.832    179565.55 
     130    61.506333   -68912.002            0   -68781.116    29295.495    179418.85 
     140    58.618524   -68908.384            0   -68783.644    31055.889    179423.75 
     150    62.459623   -68918.909            0   -68785.994    28905.423    180095.81 
     160    67.505279   -68932.075            0   -68788.423    23588.347    181661.28 
     170    67.630351   -68934.729            0   -68790.811    18137.835    183857.77 
     180     68.84033   -68939.664            0   -68793.171    12945.838    184846.52 
     190    70.600347   -68945.699            0   -68795.461    8676.7253    186055.41 
     200    70.434266   -68947.492            0   -68797.607    4434.8646    187014.41 
     210    71.070911   -68950.837            0   -68799.597    14.059484    188590.92 
     220    70.747874   -68951.884            0   -68801.332   -4466.1499    189650.52 
     230    68.630844   -68948.792            0   -68802.745   -8239.1034    190586.44 
     240    66.453036   -68945.183            0    -68803.77   -11863.373    189607.07 
     250     64.49485   -68941.522            0   -68804.276    -14715.54     189519.2 
     260    62.784394   -68937.767            0   -68804.161   -16326.764    189948.26 
     270    61.418152   -68934.077            0   -68803.378   -17684.451     190251.9 
     280    58.512044   -68926.409            0   -68801.895   -17046.653    190489.52 
     290    58.415371   -68924.146            0   -68799.838   -14543.914    190535.47 
     300    56.538409   -68917.746            0   -68797.432    -12539.83    190359.42 
     310    56.469598   -68915.049            0   -68794.881   -9410.1253    189904.08 
     320    57.938463   -68915.474            0   -68792.181   -6571.4894     188837.5 
     330    59.733489   -68916.487            0   -68789.374   -4257.4515    188177.77 
     340    61.691325    -68917.72            0    -68786.44   -2811.7914    187929.13 
     350    62.440566     -68916.3            0   -68783.426   -1136.7771    187205.47 
     360    65.781215   -68920.324            0   -68780.341    1842.1152    186801.39 
     370    68.573952   -68923.003            0   -68777.077    5403.1127    186591.28 
     380    69.739621   -68922.144            0   -68773.737    9054.4239    186371.93 
     390    70.648625   -68920.686            0   -68770.345    10865.833    186198.62 
     400    72.066357    -68920.24            0   -68766.882    11388.079    186626.93 
     410    70.872213   -68914.186            0   -68763.369    12480.583    187809.46 
     420    69.017969   -68906.756            0   -68759.885     12337.65    188311.78 
     430    67.590908   -68900.278            0   -68756.444    12424.883    188948.17 
     440    66.728752   -68894.985            0   -68752.986    12738.009    189560.13 
     450     66.15201   -68890.259            0   -68749.487    11848.295    191254.23 
     460    67.288129   -68889.144            0   -68745.954    10542.802       191493 
     470    70.206209   -68891.691            0   -68742.291    9193.4791    192105.51 
     480    72.424795   -68892.602            0   -68738.482    8517.1478    192611.96 
     490    77.159633    -68898.71            0   -68734.513    7301.3318       194245 
     500    79.970814   -68900.519            0    -68730.34    5704.9358    194671.98 
     510    81.046181   -68898.574            0   -68726.107    4568.6126    195859.99 
     520    80.315177   -68892.746            0   -68721.834    2981.5563    197636.41 
     530    78.474099   -68884.612            0   -68717.618    1480.7157    199235.35 
     540    78.127222   -68879.648            0   -68713.393    -340.1707    199658.14 
     550    78.306684   -68875.796            0   -68709.158   -2554.2155    200196.54 
     560    79.261533   -68873.515            0   -68704.845   -4625.6718    201324.37 
     570    78.003367   -68866.454            0   -68700.462   -6295.1688    202963.84 
     580    78.179318    -68862.48            0   -68696.114   -7829.4579    203634.71 
     590    78.656633   -68859.079            0   -68691.697   -9377.7073     203615.6 
     600    81.150165   -68859.867            0   -68687.179   -10566.198    202921.89 
     610     83.51775   -68860.268            0   -68682.542   -11008.592    202360.76 
     620    85.191405   -68859.052            0   -68677.764   -10414.565    202078.42 
     630    86.953001   -68857.906            0    -68672.87   -9070.8783    201916.44 
     640    90.009131   -68859.418            0   -68667.878    -7199.579    202919.79 
     650    93.456412   -68861.586            0    -68662.71   -4479.0651    203265.04 
     660    93.533236   -68856.443            0   -68657.404   -1963.5064    201987.27 
     670    94.860153   -68853.977            0   -68652.114    539.64689    201153.85 
     680    95.911435   -68850.801            0     -68646.7    3415.8062    200030.64 
     690    95.436435    -68844.31            0    -68641.22    5630.7772    199835.31 
     700    97.218849   -68842.613            0   -68635.731    7268.1658    200987.14 
     710    99.273156   -68841.317            0   -68630.063    8864.6434    201981.54 
     720    98.498424   -68833.998            0   -68624.392    10806.104    202683.96 
     730    99.603397   -68830.654            0   -68618.697    11246.897    203626.98 
     740    99.186291   -68823.999            0    -68612.93    11259.755     204874.1 
     750    101.20359    -68822.46            0   -68607.098    11217.846    205187.29 
     760    102.07413   -68818.358            0   -68601.143    10302.848    206419.07 
     770    103.56836   -68815.502            0   -68595.107     9743.641    207190.65 
     780    105.03735   -68812.496            0   -68588.976    8659.8916    206906.99 
     790    106.28752   -68808.903            0   -68582.722    7016.8794    206479.28 
     800    108.71475   -68807.762            0   -68576.416    5191.3323    206467.33 
     810    110.72676   -68805.567            0   -68569.939    2802.1937    205979.09 
     820    112.26881   -68802.252            0   -68563.343    388.83228    204555.93 
     830     112.4161   -68795.879            0   -68556.656   -1460.6213    204918.42 
     840    113.87094   -68792.224            0   -68549.906   -3077.6659    205097.58 
     850      115.306   -68788.469            0   -68543.097   -5408.0045    204303.68 
     860    115.80983   -68782.615            0   -68536.171   -7455.3669     203157.7 
     870    117.36535   -68778.941            0   -68529.187   -8948.6426    202317.43 
     880    119.53059    -68776.44            0   -68522.078   -10096.657    201751.51 
     890     124.6906   -68780.137            0   -68514.794   -9675.3951    202345.96 
     900     126.4796   -68776.422            0   -68507.272   -7902.6514    201959.95 
     910    129.50293   -68775.204            0   -68499.621   -6549.6755    201609.06 
     920    131.29605    -68771.29            0   -68491.891   -4973.6148    200753.03 
     930     131.6661    -68764.24            0   -68484.054   -3640.0097     201662.7 
     940    132.45482   -68758.078            0   -68476.212   -1908.5094    201033.26 
     950    134.05896   -68753.488            0   -68468.209   -29.065011       200739 
     960    136.32568   -68750.202            0     -68460.1    1887.5148    201431.05 
     970    138.31162   -68746.193            0   -68451.864    3760.3265    200567.07 
     980    137.62274   -68736.427            0   -68443.565    4961.7157    200640.66 
     990    141.11004   -68735.469            0   -68435.186    5782.5635     200324.8 
    1000    141.48217   -68727.642            0   -68426.566    6591.7566    200808.26