units metal
boundary s s s
atom_style atomic

region r1 block 0.0 50.0 0.0 50.0 0.0 6.0 units box
create_box 2 r1

lattice custom 9.84 &
a1 1.0 0.0 0.0 &
a2 0.0 0.86666 0.0 &
a3 0.0 0.0 1.0 &
basis 0.0 0.0 0.15 &
basis 0.0 0.3333 0.15 &
basis 0.125 0.0833 0.15 &
basis 0.125 0.25 0.15 &
basis 0.25 0.0 0.15 &
basis 0.25 0.3333 0.15 &
basis 0.375 0.0833 0.15 &
basis 0.375 0.25 0.15 &
basis 0.50 0.0 0.15 &
basis 0.50 0.3333 0.15 &
basis 0.625 0.0833 0.15 &
basis 0.625 0.25 0.15 &
basis 0.75 0.0 0.15 &
basis 0.75 0.3333 0.15 &
basis 0.875 0.08333 0.15 &
basis 0.875 0.25 0.15 &
basis 0.0 0.5 0.15 &
basis 0.0 0.8333 0.15 &
basis 0.125 0.5833 0.15 &
basis 0.125 0.75 0.15 &
basis 0.25 0.5 0.15 &
basis 0.25 0.8333 0.15 &
basis 0.375 0.5833 0.15 &
basis 0.375 0.75 0.15 &
basis 0.50 0.50 0.15 &
basis 0.50 0.8333 0.15 &
basis 0.625 0.5833 0.15 &
basis 0.625 0.75 0.15 &
basis 0.75 0.50 0.15 &
basis 0.75 0.8333 0.15 &
basis 0.875 0.5833 0.15 &
basis 0.875 0.75 0.15 &
basis 0.0 0.0 0.0 &

create_atoms 1 region r1 &
basis 1 1 &
basis 2 1 &
basis 3 1 &
basis 4 1 &
basis 5 1 &
basis 6 1 &
basis 7 1 &
basis 8 1 &
basis 9 1 &
basis 10 1 &
basis 11 1 &
basis 12 1 &
basis 13 1 &
basis 14 1 &
basis 15 1 &
basis 16 1 &
basis 17 1 &
basis 18 1 &
basis 19 1 &
basis 20 1 &
basis 21 1 &
basis 22 1 &
basis 23 1 &
basis 24 1 &
basis 25 1 &
basis 26 1 &
basis 27 1 &
basis 28 1 &
basis 29 1 &
basis 30 1 &
basis 31 1 &
basis 32 1 &
basis 33 2 &

group g1 region r1

pair_style mlip ../potentials/HG_def_1.ini
pair_coeff * *

mass 1 12.011
mass 2 1.00784

timestep 0.0001

neighbor 0.3 nsq
neigh_modify delay 5

fix f1 g1 nvt temp 10 10.0 0.1

compute T_1 g1 temp

dump d1 all custom 10 HG32_hor/dumps/HG32.eq.dump id type x y z vx vy vz fx fy fz
dump_modify d1 sort id

thermo 10

run 1000
write_data HG32_hor/data/HG32.eq.data