LAMMPS (29 Sep 2021 - Update 2)
Reading data file ...
  orthogonal box = (-0.10064858 -0.12487425 0.14322634) to (49.300649 49.749657 1.4888104)
  1 by 1 by 1 MPI processor grid
  reading atoms ...
  1116 atoms
  reading velocities ...
  1116 velocities
  read_data CPU = 0.005 seconds
Reading data file ...
  orthogonal box = (-0.10064858 -10.124874 0.14369178) to (49.300649 49.749645 6.4888104)
  1 by 1 by 1 MPI processor grid
  reading atoms ...
  1116 atoms
  reading velocities ...
  1116 velocities
  read_data CPU = 0.004 seconds
Displacing atoms ...
984 atoms in group g1
984 atoms in group g2
1116 atoms in group g3
0 atoms in group g4
132 atoms in group g5
132 atoms in group g6
264 atoms in group g7
93 atoms in group g8
61 atoms in group g9
93 atoms in group g10
61 atoms in group g11
60 atoms in group g12
60 atoms in group g13
84 atoms in group g14
36 atoms in group g15
WARNING: One or more atoms are time integrated more than once (../modify.cpp:281)
Neighbor list info ...
  update every 1 steps, delay 5 steps, check yes
  max neighbors/atom: 2000, page size: 100000
  master list distance cutoff = 6.3
  ghost atom cutoff = 6.3
  binsize = 3.15, bins = 16 20 3
  1 neighbor lists, perpetual/occasional/extra = 1 0 0
  (1) pair mlip, perpetual
      attributes: full, newton on
      pair build: full/bin/atomonly
      stencil: full/bin/3d
      bin: standard
Setting up Verlet run ...
  Unit style    : metal
  Current step  : 0
  Time step     : 5e-05
138.61140160431921231 -310049.20092116319574 666.08795230197949877 0 3191.3942100664371537 3191.3942100664362442
Per MPI rank memory allocation (min/avg/max) = 8.847 | 8.847 | 8.847 Mbytes
Step Temp E_pair E_mol TotEng Press Volume 
       0    480.65642    -310049.2            0   -309910.59   -33268.065    23979.907 
      10    175.75823   -310047.95            0   -309997.27   -37105.852    23979.907 
      20    162.64943   -310044.17            0   -309997.26   -36999.546    23979.907 
      30    141.54403   -310038.08            0   -309997.26   -36587.935    23979.907 
      40    113.67765   -310030.03            0   -309997.25   -35694.617    23979.907 
      50    81.340677    -310020.7            0   -309997.24   -34368.237    23979.026 
      60    49.069574   -310011.38            0   -309997.23   -32937.606    23979.026 
      70    23.799066   -310004.09            0   -309997.22   -31902.712    23979.026 
      80    12.300566   -310000.76            0   -309997.21   -31646.952    23979.026 
      90    17.158614   -310002.15            0   -309997.21   -32317.816    23979.026 
10.1444454459762472 -310007.34162203822052 12.640894409267243503 0 107.59234554452653754 701.33883545714229513
     100     35.17743   -310007.34            0    -309997.2   -33762.276    23979.026 
     110    59.999829   -310014.49            0   -309997.19   -35583.975    23979.026 
     120    86.151979   -310022.02            0   -309997.18   -37321.374    23979.026 
     130     110.8243   -310029.13            0   -309997.17   -38647.936    23977.324 
     140    132.95205   -310035.51            0   -309997.16   -39471.555    23977.324 
     150    151.62741   -310040.88            0   -309997.16   -39893.522    23977.324 
     160    165.40815   -310044.85            0   -309997.15    -40080.15    23977.324 
     170    172.68777   -310046.95            0   -309997.15   -40171.899    23976.543 
     180    172.51251   -310046.89            0   -309997.14   -40223.636    23976.543 
     190    165.11595   -310044.76            0   -309997.14   -40198.823    23976.543 
43.763528189892916487 -310040.90187577466713 281.07192376259928324 0 2392.3297327885361483 1363.305932268798415
     200    151.75679    -310040.9            0   -309997.14   -39983.971    23976.543 
     210    134.02686   -310035.79            0   -309997.14   -39440.224    23975.742 
     220      113.223   -310029.79            0   -309997.14   -38449.798    23975.742 
     230    90.445323   -310023.22            0   -309997.14   -36996.768    23975.742 
     240    67.586115   -310016.63            0   -309997.14    -35291.77    23975.742 
     250    48.481015   -310011.12            0   -309997.13   -33684.968    23974.961 
     260    38.579856   -310008.26            0   -309997.13   -32579.641    23974.961 
     270    42.351739   -310009.35            0   -309997.13   -32241.194    23974.961 
     280    60.316905   -310014.53            0   -309997.14   -32703.582    23974.961 
     290    88.644988    -310022.7            0   -309997.14   -33766.268     23974.24 
35.082493313659902867 -310032.22057201521238 179.65408530830808331 0 1529.1168329676606845 1437.2344400307140404
     300    121.65396   -310032.22            0   -309997.14   -35073.434     23974.24 
     310    154.53434    -310041.7            0   -309997.14   -36319.967     23974.24 
     320    184.13124   -310050.24            0   -309997.14   -37373.319    23973.579 
     330     208.2445   -310057.19            0   -309997.14   -38333.163    23973.579 
     340     224.8732   -310061.98            0   -309997.14   -39460.489    23973.579 
     350    232.32024   -310064.13            0   -309997.13   -40711.106    23973.019 
     360     230.0502   -310063.47            0   -309997.13   -41653.364    23973.019 
     370    219.16013   -310060.32            0   -309997.12   -42501.998    23972.538 
     380    201.57781   -310055.24            0   -309997.11   -43246.328    23972.538 
     390     180.6195   -310049.19            0    -309997.1   -43648.796    23972.118 
46.29150660752008406 -310043.37396405974869 216.37252195585216441 0 1841.6439845860702462 2091.5209721235678444
     400    160.52294   -310043.37            0   -309997.08   -43590.478    23972.118 
     410    145.14265   -310038.92            0   -309997.06   -43049.234    23971.777 
     420    135.66025   -310036.16            0   -309997.04   -41966.183    23971.777 
     430     129.6875   -310034.42            0   -309997.03   -40416.033    23971.457 
     440    124.35851   -310032.88            0   -309997.02   -38766.009    23971.136 
     450    120.20025   -310031.68            0   -309997.02   -37534.494    23971.136 
     460    120.54675   -310031.79            0   -309997.03   -37006.745    23970.756 
     470    128.63086   -310034.13            0   -309997.04   -37131.973    23970.756 
     480    146.26955   -310039.24            0   -309997.06   -37660.975    23970.376 
     490    173.65923   -310047.16            0   -309997.08     -38562.2    23970.376 
59.993436896702270644 -310057.08776283852058 234.10785318481828199 0 1992.5973763440640596 3036.4497456337858239
     500     208.0365   -310057.09            0   -309997.09   -39895.183    23969.935 
     510    241.80624   -310066.84            0   -309997.11   -41721.313    23969.935 
     520    264.19554   -310073.31            0   -309997.12   -43823.804    23969.555 
     530    268.11895   -310074.45            0   -309997.13   -45630.571    23969.555 
     540    254.95185   -310070.65            0   -309997.13   -46551.999    23969.234 
     550    231.03384   -310063.75            0   -309997.12   -46454.239    23968.894 
     560    202.11459   -310055.41            0   -309997.12   -45546.564    23968.894 
     570    171.86511   -310046.68            0   -309997.12   -44276.176    23968.493 
     580    143.04417   -310038.37            0   -309997.12   -42925.631    23968.493 
     590    118.42027   -310031.27            0   -309997.12   -41747.782    23968.493 
29.142639906568092556 -310026.26046901202062 135.98346754306768958 0 1157.4165367215305196 1139.3394892194251042
     600     101.0566   -310026.26            0   -309997.12   -41030.045    23968.033 
     610    93.577082   -310024.11            0   -309997.12    -40697.67    23968.033 
     620    97.046132   -310025.11            0   -309997.12     -40820.7    23967.492 
     630    110.67699   -310029.05            0   -309997.13   -41498.153    23967.492 
     640    132.26373   -310035.28            0   -309997.13   -42824.906    23967.492 
     650    158.95435   -310042.98            0   -309997.14    -44672.69    23967.011 
     660    187.94976   -310051.34            0   -309997.14   -46814.472    23967.011 
     670    216.81849   -310059.66            0   -309997.14   -49126.843    23966.651 
     680    243.54525   -310067.36            0   -309997.13   -51385.238    23966.351 
     690    267.62517   -310074.29            0   -309997.11   -53432.522    23966.351 
83.745818998965674496 -310080.83016860653879 331.29782581235423322 0 2819.8250059601145949 3931.5046384533179662
     700    290.40155   -310080.83            0   -309997.08   -55350.076     23966.05 
     710     313.8063   -310087.54            0   -309997.05   -57043.156     23965.73 
     720    337.08416   -310094.21            0      -309997   -58085.976     23965.73 
     730     351.6782   -310098.37            0   -309996.95   -58590.014     23965.47 
     740    349.23775   -310097.62            0   -309996.91   -58865.386    23965.229 
     750    338.15848   -310094.39            0   -309996.87   -60020.641    23964.969 
     760    339.59704   -310094.77            0   -309996.84    -62441.65    23964.709 
     770    367.73561   -310102.85            0   -309996.81   -66056.271    23964.709 
     780    420.22335   -310117.97            0   -309996.78   -70342.587    23964.428 
     790    472.70166    -310133.1            0   -309996.79   -72923.026    23964.208 
143.31466467593085667 -310140.1341568006319 460.47280563622405225 0 3919.2914372854188514 6959.8774016468714763
     800    496.96571   -310140.13            0   -309996.82   -73383.776    23963.988 
     810    491.10236   -310138.49            0   -309996.87   -72991.677    23963.767 
     820    472.29491   -310133.12            0   -309996.92   -73429.279    23963.547 
     830     457.2122    -310128.8            0   -309996.95   -76120.267    23963.327 
     840    457.27756   -310128.83            0   -309996.96   -79853.847    23963.087 
     850    472.46088   -310133.22            0   -309996.97     -82533.6    23963.087 
     860    494.61789   -310139.63            0   -309996.99   -83103.825    23962.866 
     870    513.38961   -310145.06            0   -309997.01   -82262.843    23962.646 
     880    521.86611   -310147.54            0   -309997.05   -80149.889    23962.426 
     890    520.20114    -310147.1            0   -309997.08   -78655.503    23962.186 
148.63905041087477343 -310145.75701321801171 766.25684327311194011 0 6521.9571011413736414 5149.1963412995655744
     900    515.42884   -310145.76            0   -309997.12   -77713.787    23961.945 
     910    511.10978   -310144.55            0   -309997.16   -76705.647    23961.685 
     920    506.05767   -310143.13            0    -309997.2   -74465.352    23961.685 
     930    501.85825   -310141.97            0   -309997.24   -71558.196    23961.425 
     940    503.30632   -310142.43            0   -309997.29     -70092.5    23961.164 
     950    519.62806   -310147.18            0   -309997.33    -70693.49    23960.904 
     960    138267.65   -313045.39            0   -273171.85     203425.5    23960.684 
     970    6752679.4   -310314.45            0    1637019.1     75762513    27399.774 
ERROR on proc 0: Too many neighbor bins (../nbin_standard.cpp:213)
Last command: run 500000
 990    154.83333   -310041.79            0   -309997.14   -40049.007    23976.567 
43.765200880234829128 -310040.90507281577447 281.07074862581509933 0 2392.3197306701058551 1363.4669355399237247
    1000    151.76259   -310040.91            0   -309997.14   -39983.586    23976.567 
    1010    148.51831   -310039.97            0   -309997.14   -39904.653    23976.567 
    1020    145.11245   -310038.99            0   -309997.14   -39811.701    23976.567 
    1030     141.5562   -310037.96            0   -309997.14   -39702.727    23976.567 
    1040    137.85993   -310036.89            0   -309997.14   -39579.667     23975.77 
    1050    134.03295   -310035.79            0   -309997.14   -39440.009     23975.77 
    1060    130.08401   -310034.65            0   -309997.14   -39281.501     23975.77 
    1070    126.02135   -310033.48            0   -309997.14   -39103.503     23975.77 
    1080    121.85279   -310032.28            0   -309997.14   -38905.605     23975.77 
    1090    117.58612   -310031.05            0   -309997.14   -38687.659     23975.77 
32.653020131836562712 -310029.79107135051163 236.90307191211886106 0 2016.3887418474239439 761.22586127152294466
    1100    113.22938   -310029.79            0   -309997.14   -38449.812     23975.77 
    1110    108.79132   -310028.51            0   -309997.14   -38192.526     23975.77 
    1120    104.28183   -310027.21            0   -309997.14   -37917.433     23975.77 
    1130    99.712454   -310025.89            0   -309997.14   -37625.319     23975.77 
    1140    95.096953   -310024.56            0   -309997.14   -37317.649     23975.77 
    1150    90.451738   -310023.22            0   -309997.14   -36997.049     23975.77 
    1160    85.796335   -310021.88            0   -309997.14   -36666.803     23975.77 
    1170    81.153754   -310020.54            0   -309997.14   -36328.552     23975.77 
    1180     76.55089   -310019.21            0   -309997.14   -35983.963     23975.77 
    1190    72.018557   -310017.91            0   -309997.14   -35637.985     23975.77 
19.49198301102644848 -310016.62996637367178 141.79704476670872282 0 1206.8985108006124847 408.21699140047508081
    1200    67.591458   -310016.63            0   -309997.14   -35292.333     23975.77 
    1210    63.308081   -310015.39            0   -309997.14   -34949.948     23975.77 
    1220    59.210225   -310014.21            0   -309997.14   -34614.414     23975.77 
    1230    55.342401    -310013.1            0   -309997.14   -34290.043    23975.001 
    1240     51.75103   -310012.06            0   -309997.14   -33978.887    23975.001 
    1250    48.483426   -310011.12            0   -309997.14   -33685.733    23975.001 
    1260    45.586768   -310010.28            0   -309997.14   -33412.525    23975.001 
    1270    43.106847   -310009.57            0   -309997.14   -33162.125    23975.001 
    1280    41.086772   -310008.99            0   -309997.14   -32938.723    23975.001 
    1290    39.565685   -310008.55            0   -309997.14   -32744.718    23975.001 
11.124988997782438105 -310008.26365816767793 54.32947414928253238 0 462.4226234843513339 407.99181374483578111
    1300    38.577616   -310008.26            0   -309997.14   -32580.451    23975.001 
    1310    38.150397   -310008.14            0   -309997.14   -32447.023    23975.001 
    1320    38.304735   -310008.19            0   -309997.14   -32345.589    23975.001 
    1330    39.053504    -310008.4            0   -309997.14   -32277.674    23975.001 
    1340    40.401292   -310008.79            0   -309997.14   -32243.227    23975.001 
    1350    42.344325   -310009.35            0   -309997.14   -32241.814    23975.001 
    1360    44.870551   -310010.08            0   -309997.14   -32272.926    23975.001 
    1370    47.960023   -310010.97            0   -309997.14   -32336.616    23975.001 
    1380    51.585548   -310012.02            0   -309997.14   -32431.062    23975.001 
    1390    55.713589   -310013.21            0   -309997.14    -32554.21    23975.001 
17.390795883012152956 -310014.53043436253211 75.212698487699000793 0 640.16915125026253008 773.95878728976538241
    1400    60.305268   -310014.53            0   -309997.14   -32703.838    23975.001 
    1410     65.31751   -310015.98            0   -309997.14   -32878.586     23974.28 
    1420    70.704258   -310017.53            0   -309997.14   -33073.955     23974.28 
    1430    76.417658   -310019.18            0   -309997.14   -33288.981     23974.28 
    1440    82.409191   -310020.91            0   -309997.14   -33521.089     23974.28 
    1450    88.630802    -310022.7            0   -309997.14    -33766.15     23974.28 
    1460    95.035792   -310024.55            0   -309997.14   -34020.617     23974.28 
    1470    101.57953   -310026.43            0   -309997.14   -34281.354     23974.28 
    1480    108.22005   -310028.35            0   -309997.14    -34545.51     23974.28 
    1490    114.91839   -310030.28            0   -309997.14   -34810.178     23974.28 
35.078114341245644425 -310032.21817549539264 179.63702632984799834 0 1528.9716363189354524 1437.0020028255280522
    1500    121.63877   -310032.22            0   -309997.14   -35073.114     23974.28 
    1510    128.34821   -310034.15            0   -309997.14   -35334.884     23974.28 
    1520    135.01656   -310036.08            0   -309997.14   -35592.226     23974.28 
    1530    141.61698   -310037.98            0   -309997.14   -35842.784     23974.28 
    1540    148.12528   -310039.86            0   -309997.14   -36085.444     23974.28 
    1550    154.51947    -310041.7            0   -309997.14   -36319.631     23974.28 
    1560    160.77944   -310043.51            0   -309997.14   -36545.586     23974.28 
    1570     166.8865   -310045.27            0   -309997.14   -36764.057    23973.628 
    1580    172.82308   -310046.98            0   -309997.14   -36973.566    23973.628 
    1590    178.57238   -310048.64            0   -309997.14   -37176.114    23973.628 
53.095873229144388006 -310050.23494638799457 276.27324162257576745 0 2351.4859878562751874 2196.6853948990565186
    1600    184.11813   -310050.23            0   -309997.14   -37373.065    23973.628 
    1610    189.44434   -310051.77            0   -309997.14   -37565.445    23973.628 
    1620    194.53506   -310053.24            0   -309997.14   -37755.854    23973.628 
    1630     199.3744   -310054.63            0   -309997.14   -37945.185    23973.628 
    1640    203.94635   -310055.95            0   -309997.14   -38136.404    23973.628 
    1650    208.23484   -310057.19            0   -309997.14   -38332.993    23973.628 
    1660     212.2237   -310058.34            0   -309997.14   -38538.993    23973.628 
    1670    215.89648    -310059.4            0   -309997.14   -38756.721    23973.628 
    1680    219.23756   -310060.36            0   -309997.14   -38983.866    23973.628 
    1690    222.23264   -310061.22            0   -309997.14   -39218.231    23973.628 
64.847449207318859976 -310061.9836528551532 332.54852287302708191 0 2830.4702519345437395 2747.7925632633155146
    1700    224.86853   -310061.98            0   -309997.14   -39460.335    23973.628 
    1710    227.13359   -310062.64            0   -309997.14   -39707.522    23973.063 
    1720    229.01823   -310063.18            0   -309997.14   -39956.339    23973.063 
    1730    230.51472   -310063.61            0   -309997.13   -40207.274    23973.063 
    1740    231.61687   -310063.93            0   -309997.13   -40461.991    23973.063 
    1750    232.32134   -310064.13            0   -309997.13   -40710.976    23973.063 
    1760    232.62921   -310064.22            0   -309997.13   -40945.744    23973.063 
    1770    232.54576   -310064.19            0   -309997.13   -41158.732    23973.063 
    1780     232.0805   -310064.06            0   -309997.13   -41345.808    23973.063 
    1790    231.24597   -310063.82            0   -309997.13   -41506.652    23973.063 
66.343655033326925263 -310063.47320839605527 332.15452112269207419 0 2827.1167255862724232 2877.5162870415192629
    1800    230.05686   -310063.47            0   -309997.13   -41653.329    23973.063 
    1810    228.52012   -310063.03            0   -309997.13   -41831.636    23973.063 
    1820    226.64899   -310062.49            0   -309997.13   -41979.742    23973.063 
    1830    224.46234   -310061.86            0   -309997.13   -42137.672    23972.586 
    1840    221.96503   -310061.13            0   -309997.12   -42324.255    23972.586 
    1850    219.17257   -310060.33            0   -309997.12   -42502.108    23972.586 
    1860    216.10548   -310059.44            0   -309997.12   -42680.182    23972.586 
    1870    212.78671   -310058.48            0   -309997.12    -42843.12    23972.586 
    1880     209.2428   -310057.46            0   -309997.12    -42990.32    23972.586 
    1890    205.50269   -310056.38            0   -309997.12    -43117.39    23972.586 
58.135787864608651887 -310055.25014431634918 281.05043332777330534 0 2392.1468180188339829 2586.5643765726258607
    1900    201.59481   -310055.25            0   -309997.11   -43246.752    23972.586 
    1910    197.54756   -310054.08            0   -309997.11   -43362.801    23972.586 
    1920     193.3937   -310052.88            0   -309997.11   -43461.598    23972.586 
    1930     189.1674   -310051.66            0   -309997.11   -43542.578    23972.586 
    1940     184.9039   -310050.43            0    -309997.1   -43605.682    23972.166 
    1950    180.63917   -310049.19            0    -309997.1   -43649.587    23972.166 
    1960    176.40949   -310047.97            0    -309997.1   -43674.735    23972.166 
    1970    172.25084   -310046.77            0    -309997.1   -43681.446    23972.166 
    1980    168.19827    -310045.6            0   -309997.09   -43669.329    23972.166 
    1990     164.2852   -310044.47            0   -309997.09   -43640.063    23972.166 
46.297164103680472635 -310043.38216184900375 216.39778225570299242 0 1841.8589863748768494 2091.8121793645104844
    2000    160.54256   -310043.38            0   -309997.08   -43591.521    23972.166 
    2010    156.99755   -310042.36            0   -309997.08   -43522.102    23972.166 
    2020    153.67292   -310041.39            0   -309997.08   -43432.026    23971.817 
    2030    150.58555    -310040.5            0   -309997.07   -43323.275    23971.817 
    2040    147.74645   -310039.68            0   -309997.07   -43196.823    23971.817 
    2050     145.1595   -310038.93            0   -309997.06   -43050.289    23971.817 
    2060    142.82179   -310038.25            0   -309997.06   -42880.029    23971.817 
    2070    140.72359   -310037.64            0   -309997.06   -42685.454    23971.817 
    2080    138.84858   -310037.09            0   -309997.05   -42466.959    23971.817 
    2090    137.17396   -310036.61            0   -309997.05   -42227.401    23971.817 
39.125131796222824221 -310036.168502622284 167.74222192553116884 0 1427.729598831811245 1854.0318940797712912
    2100    135.67243   -310036.17            0   -309997.04   -41967.536    23971.509 
    2110    134.31315   -310035.77            0   -309997.04   -41688.996    23971.509 
    2120    133.06465   -310035.41            0   -309997.04    -41391.65    23971.509 
    2130    131.89632   -310035.07            0   -309997.03   -41078.273    23971.509 
    2140    130.78038   -310034.74            0   -309997.03   -40751.929    23971.509 
    2150    129.69367   -310034.43            0   -309997.03   -40416.484    23971.509 
    2160    128.61911   -310034.11            0   -309997.02   -40076.019    23971.509 
    2170    127.54679    -310033.8            0   -309997.02   -39735.225    23971.509 
    2180    126.47433   -310033.49            0   -309997.02   -39401.467    23971.201 
    2190    125.40714   -310033.18            0   -309997.02   -39076.237    23971.201 
35.862227789269063294 -310032.87955020274967 124.39938740684100082 0 1058.8192134246392015 1856.3806564207195606
    2200    124.35781   -310032.88            0   -309997.02   -38766.115    23971.201 
    2210    123.34526   -310032.59            0   -309997.02   -38474.337    23971.201 
    2220    122.39362   -310032.31            0   -309997.02   -38203.029    23971.201 
    2230    121.53074   -310032.06            0   -309997.02   -37955.147    23971.201 
    2240    120.78689   -310031.85            0   -309997.02    -37731.85    23971.201 
    2250     120.1934   -310031.68            0   -309997.02   -37534.331    23971.201 
    2260    119.78163   -310031.56            0   -309997.02   -37366.672    23971.201 
    2270    119.58212   -310031.51            0   -309997.02   -37229.707    23970.824 
    2280    119.62348   -310031.52            0   -309997.02    -37119.63    23970.824 
    2290    119.93293   -310031.61            0   -309997.03   -37047.273    23970.824 
34.760029849436222094 -310031.78812477836618 91.975025769555244892 0 782.84086819125275269 1914.680680938923615
    2300    120.53577   -310031.79            0   -309997.03   -37006.274    23970.824 
    2310    121.45365   -310032.06            0   -309997.03   -36991.567    23970.824 
    2320    122.70545   -310032.42            0   -309997.03   -36999.239    23970.824 
    2330    124.30769   -310032.88            0   -309997.04   -37027.348    23970.824 
    2340    126.27444   -310033.45            0   -309997.04     -37071.8    23970.824 
    2350    128.61757   -310034.13            0   -309997.04   -37131.466    23970.824 
    2360    131.34699   -310034.92            0   -309997.05    -37207.55     23970.46 
    2370    134.47107   -310035.83            0   -309997.05   -37302.555     23970.46 
    2380    137.99569   -310036.85            0   -309997.05    -37408.71     23970.46 
    2390     141.9238   -310037.98            0   -309997.06   -37526.513     23970.46 
42.176957241048619096 -310039.23705191211775 120.8415970984958534 0 1028.5372577467396695 2302.6375049346688684
    2400    146.25511   -310039.24            0   -309997.06    -37660.41     23970.46 
    2410    150.98503    -310040.6            0   -309997.06   -37811.434     23970.46 
    2420    156.10532   -310042.08            0   -309997.07   -37975.165     23970.46 
    2430    161.60289   -310043.67            0   -309997.07   -38155.025     23970.46 
    2440    167.45851   -310045.37            0   -309997.07   -38348.864     23970.46 
    2450    173.64544   -310047.15            0   -309997.08   -38561.533     23970.46 
    2460     180.1289   -310049.03            0   -309997.08   -38792.513    23970.055 
    2470     186.8658   -310050.97            0   -309997.09   -39038.823    23970.055 
    2480    193.80393   -310052.98            0   -309997.09   -39303.655    23970.055 
    2490     200.8814   -310055.02            0   -309997.09    -39588.09    23970.055 
59.990795320960089043 -310057.08629592362558 234.0900870631209898 0 1992.4461608807625908 3036.3499470885276423
    2500    208.02734   -310057.09            0    -309997.1   -39894.223    23970.055 
    2510    215.16235   -310059.15            0    -309997.1   -40221.642    23970.055 
    2520    222.20022   -310061.18            0    -309997.1   -40568.792    23970.055 
    2530    229.04965   -310063.16            0    -309997.1   -40934.729    23970.055 
    2540    235.61647   -310065.05            0   -309997.11     -41319.1    23970.055 
    2550    241.80659   -310066.84            0   -309997.11   -41719.962    23970.055 
    2560    247.52896    -310068.5            0   -309997.11   -42132.889    23970.055 
    2570    252.69889   -310069.99            0   -309997.12   -42554.975    23969.651 
    2580    257.24127    -310071.3            0   -309997.12   -42980.389    23969.651 
    2590    261.09334   -310072.41            0   -309997.12   -43404.711    23969.651 
76.191829380269652461 -310073.31299031485105 356.1471013624274633 0 3031.3283818252416495 3535.6955554513438074
    2600    264.20692   -310073.31            0   -309997.12   -43822.242    23969.651 
    2610    266.54979   -310073.99            0   -309997.12   -44229.561    23969.651 
    2620     268.1063   -310074.44            0   -309997.12   -44619.818    23969.651 
    2630    268.87709   -310074.66            0   -309997.13    -44987.99    23969.651 
    2640    268.87784   -310074.66            0   -309997.13   -45325.744    23969.651 
    2650    268.13774   -310074.45            0   -309997.13   -45629.786     23969.33 
    2660    266.69733   -310074.04            0   -309997.13   -45897.432     23969.33 
    2670    264.60562   -310073.43            0   -309997.13   -46127.725     23969.33 
    2680    261.91621   -310072.66            0   -309997.13    -46315.69     23969.33 
    2690    258.68612   -310071.73            0   -309997.13   -46457.254     23969.33 
73.529053146550637621 -310070.65642598748673 378.97837311095128143 0 3225.6556184634405327 3116.8061273908160729
    2700    254.97333   -310070.66            0   -309997.13   -46551.169     23969.33 
    2710    250.83475   -310069.46            0   -309997.13   -46604.581     23969.33 
    2720    246.32434   -310068.16            0   -309997.13    -46622.19    23969.014 
    2730    241.49362   -310066.77            0   -309997.13    -46606.17    23969.014 
    2740    236.38982    -310065.3            0   -309997.13   -46549.552    23969.014 
    2750    231.05561   -310063.76            0   -309997.13   -46453.999    23969.014 
    2760    225.52907   -310062.16            0   -309997.13   -46326.646    23969.014 
    2770    219.84439   -310060.52            0   -309997.12   -46167.598    23969.014 
    2780    214.03269   -310058.85            0   -309997.12   -45982.182    23969.014 
    2790    208.12153   -310057.14            0   -309997.12   -45775.357    23969.014 
58.291806496823248551 -310055.41506051173201 317.27032546515835065 0 2700.4306327759663873 2259.4778863238602753
    2800    202.13583   -310055.42            0   -309997.12   -45546.824    23969.014 
    2810    196.09918   -310053.67            0   -309997.12   -45304.809    23968.653 
    2820    190.03398   -310051.92            0   -309997.12   -45051.915    23968.653 
    2830    183.96243   -310050.17            0   -309997.12   -44791.963    23968.653 
    2840    177.90494   -310048.43            0   -309997.12   -44525.294    23968.653 
    2850    171.88492   -310046.69            0   -309997.12   -44276.712    23968.653 
    2860    165.92308   -310044.97            0   -309997.12   -44016.159    23968.653 
    2870    160.03904   -310043.27            0   -309997.12   -43746.902    23968.653 
    2880    154.25292    -310041.6            0   -309997.12   -43469.145    23968.653 
    2890    148.58597   -310039.97            0   -309997.12   -43187.955    23968.653 
41.255931808694434437 -310038.37589591427241 219.82171372427242773 0 1871.0016091798761408 1542.0243698210858838
    2900    143.06131   -310038.38            0   -309997.12   -42926.412    23968.653 
    2910    137.70452   -310036.83            0   -309997.12   -42673.976    23968.653 
    2920    132.53924   -310035.34            0   -309997.12   -42423.913    23968.229 
    2930    127.58933   -310033.91            0   -309997.12   -42184.828    23968.229 
    2940    122.87892   -310032.56            0   -309997.12   -41959.494    23968.229 
    2950    118.43283   -310031.27            0   -309997.12   -41749.351    23968.229 
    2960    114.27745   -310030.08            0   -309997.12   -41565.524    23968.229 
    2970    110.43921   -310028.97            0   -309997.12   -41405.052    23968.229 
    2980    106.94293   -310027.96            0   -309997.12   -41267.339    23968.229 
    2990    103.81106   -310027.06            0   -309997.12   -41144.996    23968.229 
29.144318139677956481 -310026.26599147677189 136.00005477614618599 0 1157.5577181328474126 1139.3476720965961704
    3000    101.06242   -310026.27            0   -309997.12   -41030.683    23968.229 
    3010    98.713923   -310025.59            0   -309997.12   -40929.839    23968.229 
    3020    96.780522   -310025.03            0   -309997.12   -40846.162    23968.229 
    3030    95.274338    -310024.6            0   -309997.12   -40778.251    23968.229 
    3040    94.203866   -310024.29            0   -309997.12   -40729.148    23968.229 
    3050    93.575118   -310024.11            0   -309997.12    -40698.94    23967.724 
    3060    93.390798   -310024.06            0   -309997.13   -40684.804    23967.724 
    3070     93.65012   -310024.13            0   -309997.13   -40687.338    23967.724 
    3080    94.349216   -310024.34            0   -309997.13   -40710.758    23967.724 
    3090    95.481242   -310024.66            0   -309997.13   -40755.846    23967.724 
27.98333775882053942 -310025.11161820462439 116.53129584406816832 0 991.85034248958788794 1139.1011808602688689
    3100    97.036541   -310025.11            0   -309997.13   -40820.748    23967.724 
    3110    99.002984   -310025.68            0   -309997.13   -40907.546    23967.724 
    3120    101.36628   -310026.36            0   -309997.13   -41019.004    23967.724 
    3130    104.10972   -310027.15            0   -309997.13    -41152.75    23967.724 
    3140    107.21472   -310028.05            0   -309997.13   -41311.029    23967.724 
    3150    110.66115   -310029.04            0   -309997.13   -41497.838    23967.724 
    3160     114.4279   -310030.13            0   -309997.13   -41715.247    23967.724 
    3170    118.49235    -310031.3            0   -309997.13    -41955.61    23967.724 
    3180    122.83193   -310032.56            0   -309997.13   -42224.606     23967.18 
    3190    127.42384   -310033.88            0   -309997.14   -42513.553     23967.18 
38.136398235988664851 -310035.27249410020886 164.45191974279993019 0 1399.7243550627626973 1532.5658081334138387
    3200    132.24384   -310035.27            0   -309997.14    -42825.31     23967.18 
    3210    137.26802   -310036.72            0   -309997.14    -43158.51     23967.18 
    3220    142.47262   -310038.22            0   -309997.14   -43513.978     23967.18 
    3230    147.83355   -310039.77            0   -309997.14   -43884.774     23967.18 
    3240    153.32774   -310041.36            0   -309997.14   -44270.203     23967.18 
    3250    158.93277   -310042.97            0   -309997.14   -44672.069     23967.18 
    3260    164.62787   -310044.61            0   -309997.14   -45082.962     23967.18 
    3270    170.39479   -310046.28            0   -309997.14   -45497.075     23967.18 
    3280    176.21426   -310047.96            0   -309997.14   -45931.734    23966.795 
    3290    182.06444   -310049.64            0   -309997.14   -46373.887    23966.795 
54.194734167039896988 -310051.3344913420151 234.86318694644165816 0 1999.0263621777287426 2230.9952685410244158
    3300     187.9286   -310051.33            0   -309997.14   -46814.563    23966.795 
    3310    193.79029   -310053.02            0   -309997.14   -47265.468    23966.795 
    3320     199.6261   -310054.71            0   -309997.14   -47725.406    23966.795 
    3330     205.4177   -310056.38            0   -309997.14   -48191.977    23966.795 
    3340    211.14765   -310058.03            0   -309997.14   -48660.471    23966.795 
    3350    216.80024   -310059.66            0   -309997.14   -49126.263    23966.795 
    3360    222.36198   -310061.26            0   -309997.14   -49586.796    23966.479 
    3370    227.82188   -310062.83            0   -309997.13   -50045.351    23966.479 
    3380    233.17216   -310064.37            0   -309997.13   -50502.471    23966.479 
    3390    238.40861   -310065.88            0   -309997.13   -50950.212    23966.479 
70.229269642695143716 -310067.35765848163282 293.08032903599928432 0 2494.5386784361771788 3070.3951665264389703
    3400    243.53083   -310067.36            0   -309997.13   -51384.818    23966.479 
    3410    248.54114    -310068.8            0   -309997.13   -51807.591    23966.479 
    3420    253.44401   -310070.21            0   -309997.12   -52219.139    23966.479 
    3430    258.24796   -310071.59            0   -309997.12    -52626.82    23966.194 
    3440    262.96622   -310072.95            0   -309997.12   -53028.477    23966.194 
    3450    267.61486   -310074.29            0   -309997.11   -53432.945    23966.194 
    3460    272.21167   -310075.61            0   -309997.11   -53821.966    23966.194 
    3470    276.77519   -310076.92            0    -309997.1   -54197.937    23966.194 
    3480    281.31899   -310078.22            0    -309997.1   -54600.867    23966.194 
    3490     285.8532   -310079.53            0   -309997.09   -54986.522    23966.194 
83.744303898531327945 -310080.83064733672654 331.29735382416595257 0 2819.8209886560694031 3931.3468516420816741
    3500    290.39629   -310080.83            0   -309997.09   -55351.136    23965.906 
    3510    294.96553   -310082.14            0   -309997.08   -55703.439    23965.906 
    3520    299.58135   -310083.47            0   -309997.07    -56065.68    23965.906 
    3530    304.26008   -310084.81            0   -309997.07   -56415.758    23965.906 
    3540    309.00291   -310086.17            0   -309997.06   -56732.417    23965.906 
    3550    313.80741   -310087.54            0   -309997.05   -57043.982    23965.906 
    3560    318.64787   -310088.93            0   -309997.04   -57336.087    23965.906 
    3570    323.47251   -310090.31            0   -309997.03   -57605.054    23965.622 
    3580    328.21181   -310091.67            0   -309997.02   -57824.357    23965.622 
    3590    332.78401   -310092.98            0   -309997.01   -57979.434    23965.622 
97.212462027384503926 -310094.21323209896218 352.45400658938899596 0 2999.8947889096853032 4784.546054792124778
    3600    337.09921   -310094.21            0      -309997   -58087.964    23965.622 
    3610    341.07392   -310095.35            0   -309996.99   -58163.869    23965.622 
    3620    344.60791   -310096.36            0   -309996.98   -58263.011    23965.622 
    3630    347.61417   -310097.21            0   -309996.97   -58399.373    23965.373 
    3640    350.00961    -310097.9            0   -309996.96   -58513.519    23965.373 
    3650    351.70953   -310098.38            0   -309996.95    -58592.17    23965.373 
    3660    352.66201   -310098.64            0   -309996.94   -58676.368    23965.373 
    3670    352.84939   -310098.69            0   -309996.93   -58720.669    23965.373 
    3680    352.29118   -310098.52            0   -309996.92   -58736.639    23965.373 
    3690    351.06056   -310098.15            0   -309996.91   -58781.553    23965.133 
100.72395687324112146 -310097.63013816211605 362.90179219369713337 0 3088.8205976791782632 4754.8749573104141746
    3700    349.27586   -310097.63            0   -309996.91   -58867.071    23965.133 
    3710     347.0999      -310097            0    -309996.9   -58979.026    23965.133 
    3720    344.71169    -310096.3            0   -309996.89   -59184.721    23965.133 
    3730    342.30185    -310095.6            0   -309996.88   -59423.783    23965.133 
    3740     340.0668   -310094.95            0   -309996.88   -59677.798    23965.133 
    3750    338.18708    -310094.4            0   -309996.87   -60020.888    23965.133 
    3760    336.83727      -310094            0   -309996.87   -60427.031    23964.881 
    3770    336.17646   -310093.81            0   -309996.86   -60877.249    23964.881 
    3780    336.34524   -310093.85            0   -309996.85   -61371.789    23964.881 
    3790    337.45883   -310094.16            0   -309996.85   -61889.821    23964.881 
97.936558802030219795 -310094.77730632101884 388.02287197689452114 0 3302.6374217880720607 4100.7346486713768172
    3800    339.61013   -310094.78            0   -309996.84   -62440.939    23964.881 
    3810    342.87775   -310095.71            0   -309996.83   -63057.697    23964.881 
    3820    347.31758   -310096.99            0   -309996.83   -63757.218    23964.629 
    3830    352.95987   -310098.61            0   -309996.82   -64504.736    23964.629 
    3840    359.78529   -310100.57            0   -309996.82   -65263.799    23964.629 
    3850     367.7356   -310102.86            0   -309996.81   -66055.498    23964.629 
    3860    376.73438   -310105.45            0    -309996.8   -66918.511    23964.629 
    3870    386.67411   -310108.31            0    -309996.8   -67810.131    23964.629 
    3880    397.37725   -310111.39            0   -309996.79   -68681.828     23964.38 
    3890    408.64223   -310114.63            0   -309996.79   -69547.196     23964.38 
121.18507941141811557 -310117.96672857302474 449.31443599153067225 0 3824.3175277141735933 5299.475963799103738
    3900    420.22796   -310117.97            0   -309996.78   -70341.761     23964.38 
    3910    431.84045   -310121.31            0   -309996.78   -71036.092     23964.38 
    3920    443.17731   -310124.58            0   -309996.78   -71640.548     23964.38 
    3930      453.943   -310127.68            0   -309996.77   -72149.012     23964.38 
    3940    463.86892   -310130.55            0   -309996.78   -72589.507    23964.164 
    3950    472.72886    -310133.1            0   -309996.78   -72922.334    23964.164 
    3960    480.35417   -310135.31            0   -309996.78   -73118.704    23964.164 
    3970    486.62597   -310137.12            0   -309996.79   -73236.584    23964.164 
    3980    491.48476   -310138.53            0   -309996.79   -73317.036    23964.164 
    3990    494.93347   -310139.53            0    -309996.8   -73353.394     23963.96 
143.32679299459420008 -310140.13687064836267 460.56550808691832799 0 3920.0804695947631444 6960.0952252734914509
    4000    497.00777   -310140.14            0   -309996.81   -73384.166     23963.96 
    4010    497.78977   -310140.37            0   -309996.82   -73362.324     23963.96 
    4020     497.4219   -310140.28            0   -309996.83   -73293.873     23963.96 
    4030    496.08106    -310139.9            0   -309996.84   -73192.268     23963.96 
    4040    493.93725    -310139.3            0   -309996.85   -73075.143    23963.743 
    4050    491.14406    -310138.5            0   -309996.87   -72991.436    23963.743 
    4060    487.83119   -310137.56            0   -309996.88   -72989.362    23963.743 
    4070    484.16453   -310136.51            0   -309996.89   -73026.197    23963.743 
    4080     480.2804    -310135.4            0    -309996.9   -73095.147    23963.743 
    4090    476.30375   -310134.26            0   -309996.91   -73211.268    23963.743 
136.21264408181451699 -310133.12754272692837 377.36629768065660073 0 3211.9345184269632227 7045.7707447338798374
    4100    472.33836   -310133.13            0   -309996.91   -73429.079    23963.519 
    4110    468.51038   -310132.03            0   -309996.92   -73777.764    23963.519 
    4120     464.9657   -310131.02            0   -309996.93   -74255.548    23963.519 
    4130    461.83798   -310130.12            0   -309996.94   -74852.798    23963.519 
    4140    459.24196   -310129.38            0   -309996.94   -75468.424    23963.519 
    4150    457.25409   -310128.81            0   -309996.95   -76120.332    23963.303 
    4160    455.92029   -310128.43            0   -309996.95   -76828.447    23963.303 
    4170    455.25361   -310128.24            0   -309996.95   -77577.776    23963.303 
    4180    455.26672   -310128.25            0   -309996.96   -78326.533    23963.303 
    4190    455.95556   -310128.45            0   -309996.96   -79090.886    23963.303 
131.87988752510443646 -310128.84197344869608 339.65547264313232745 0 2890.9607022678819703 6946.4277054587091698
    4200    457.31385   -310128.84            0   -309996.96    -79853.08    23963.303 
    4210    459.31489   -310129.42            0   -309996.96   -80573.804    23963.075 
    4220    461.90792   -310130.17            0   -309996.97   -81211.789    23963.075 
    4230    465.02045   -310131.07            0   -309996.97   -81733.445    23963.075 
    4240    468.57524    -310132.1            0   -309996.97   -82180.832    23963.075 
    4250    472.48897   -310133.23            0   -309996.97   -82533.019    23963.075 
    4260    476.68376   -310134.44            0   -309996.97   -82822.954    23962.858 
    4270    481.08433   -310135.71            0   -309996.98   -83016.242    23962.858 
    4280    485.60961   -310137.02            0   -309996.98   -83089.923    23962.858 
    4290    490.16026   -310138.33            0   -309996.98   -83118.722    23962.858 
142.64285849841215281 -310139.62740792077966 432.78337331320796011 0 3683.6142079711980841 7140.1071589678576856
    4300    494.63612   -310139.63            0   -309996.98    -83103.53    23962.858 
    4310    498.95876   -310140.88            0   -309996.99   -83053.745    23962.858 
    4320    503.05746   -310142.06            0   -309996.99   -82937.835    23962.642 
    4330    506.86908   -310143.17            0      -309997   -82770.071    23962.642 
    4340    510.33329   -310144.17            0      -309997   -82548.416    23962.642 
    4350    513.40441   -310145.06            0   -309997.01   -82263.246    23962.642 
    4360    516.04391   -310145.83            0   -309997.02   -81899.369    23962.642 
    4370    518.22166   -310146.47            0   -309997.02   -81495.157    23962.426 
    4380    519.91915   -310146.96            0   -309997.03   -81041.992    23962.426 
    4390    521.13527   -310147.32            0   -309997.04   -80576.667    23962.426 
150.50278320361005058 -310147.54511082277168 620.62476895473230343 0 5282.4169265994396483 6408.8496474499725082
    4400    521.89162   -310147.55            0   -309997.04   -80151.739    23962.426 
    4410    522.21644   -310147.65            0   -309997.05   -79759.587    23962.426 
    4420    522.14538   -310147.63            0   -309997.06   -79405.876    23962.426 
    4430    521.73544   -310147.52            0   -309997.06   -79107.091    23962.194 
    4440    521.07139   -310147.34            0   -309997.07   -78897.814    23962.194 
    4450    520.24267   -310147.11            0   -309997.08   -78659.993    23962.194 
    4460    519.29578   -310146.84            0   -309997.09   -78420.163    23962.194 
    4470    518.28784   -310146.56            0   -309997.09   -78209.802    23962.194 
    4480    517.30183   -310146.28            0    -309997.1   -78096.454    23962.194 
    4490    516.36059   -310146.02            0   -309997.11   -77938.503    23961.957 
148.65380917816614215 -310145.76934734964743 766.36644974480759629 0 6522.8900111867214946 5149.0779904310138591
    4500    515.48002   -310145.77            0   -309997.12   -77720.044    23961.957 
    4510     514.6548   -310145.54            0   -309997.12   -77504.291    23961.957 
    4520    513.83598   -310145.31            0   -309997.13   -77336.523    23961.957 
    4530    512.99006   -310145.07            0   -309997.14   -77145.447    23961.957 
    4540    512.09888   -310144.82            0   -309997.15   -76951.396    23961.957 
    4550    511.16424   -310144.56            0   -309997.15   -76712.068    23961.713 
    4560    510.18505   -310144.29            0   -309997.16   -76409.122    23961.713 
    4570    509.17564   -310144.01            0   -309997.17   -76029.237    23961.713 
    4580    508.14956   -310143.72            0   -309997.18    -75580.27    23961.713 
    4590     507.1175   -310143.43            0   -309997.19   -75054.639    23961.713 
145.94739832931963974 -310143.14205005060649 777.33027574917673519 0 6616.2080722162754682 4615.9873262427154259
    4600    506.09512   -310143.14            0   -309997.19   -74472.148    23961.713 
    4610    505.09613   -310142.86            0    -309997.2   -73865.757    23961.461 
    4620     504.1424    -310142.6            0   -309997.21   -73239.021    23961.461 
    4630    503.26681   -310142.35            0   -309997.22   -72613.326    23961.461 
    4640    502.49492   -310142.14            0   -309997.23   -72067.074    23961.461 
    4650    501.86898   -310141.97            0   -309997.24   -71563.268    23961.461 
    4660    501.45162   -310141.86            0   -309997.25    -71140.87    23961.461 
    4670    501.31096   -310141.83            0   -309997.26   -70770.269    23961.216 
    4680    501.52352    -310141.9            0   -309997.27   -70476.793    23961.216 
    4690    502.16207   -310142.09            0   -309997.28   -70251.718    23961.216 
145.14114319846842704 -310142.42843960097525 675.13917166194539732 0 5746.4135603287722915 5241.7575155994863962
    4700     503.2993   -310142.43            0   -309997.29   -70096.144    23961.216 
    4710    505.01721   -310142.93            0    -309997.3   -70079.383    23961.216 
    4720     507.4072   -310143.63            0   -309997.31   -70136.985    23961.216 
    4730    510.55944   -310144.55            0   -309997.31   -70257.053    23960.968 
    4740    514.58248   -310145.72            0   -309997.32   -70447.018    23960.968 
    4750    519.61917   -310147.18            0   -309997.33   -70696.638    23960.968 
    4760    525.95979   -310149.02            0   -309997.34   -71021.777    23960.968 
    4770    534.47244   -310151.48            0   -309997.35   -71601.063    23960.968 
    4780    548.93592   -310155.65            0   -309997.35   -73197.002    23960.968 
    4790    603.10105    -310171.2            0   -309997.28   -81823.763    23960.724 
144404240377407.46875 -1261463344.1973743439 2425283.1141377314925 0 20642676.887508176267 12146949812231038
    4800 5.0074398e+14 -1.2614633e+09            0 1.4440298e+14 6.4370864e+15    23960.684 
ERROR on proc 0: Too many neighbor bins (../nbin_standard.cpp:213)
Last command: run 5000
