LAMMPS (29 Sep 2021 - Update 2)
Created orthogonal box = (0.0000000 0.0000000 0.0000000) to (50.000000 50.000000 6.0000000)
  1 by 1 by 1 MPI processor grid
Lattice spacing in x,y,z = 4.9200000 4.2639672 9.8400000
Created 1116 atoms
  using lattice units in orthogonal box = (-0.0050000000 -0.0050000000 -0.00060000000) to (50.005000 50.005000 6.0006000)
  create_atoms CPU = 0.001 seconds
1116 atoms in group g1
Neighbor list info ...
  update every 1 steps, delay 5 steps, check yes
  max neighbors/atom: 2000, page size: 100000
  master list distance cutoff = 6.3
  ghost atom cutoff = 6.3
  1 neighbor lists, perpetual/occasional/extra = 1 0 0
  (1) pair mlip, perpetual
      attributes: full, newton on
      pair build: full/nsq
      stencil: none
      bin: none
Setting up Verlet run ...
  Unit style    : metal
  Current step  : 0
  Time step     : 5e-05
Per MPI rank memory allocation (min/avg/max) = 4.480 | 4.480 | 4.480 Mbytes
Step Temp E_pair E_mol TotEng Press Volume 
       0            0   -154955.47            0   -154955.47   -145984.59    3616.9135 
      10    5.6570293   -154956.29            0   -154955.47   -146104.39    3616.9135 
      20    22.729319   -154958.75            0   -154955.47   -146369.92    3616.9135 
      30    51.445861   -154962.89            0   -154955.47    -146502.8    3616.9135 
      40      91.9322   -154968.73            0   -154955.48   -146058.15    3616.9135 
      50    143.81792   -154976.21            0   -154955.49   -144480.22    3616.9135 
      60    205.73505   -154985.17            0   -154955.52   -141224.34    3616.9135 
      70     274.8927   -154995.22            0    -154955.6    -135949.4    3616.9135 
      80    347.06324   -155005.79            0   -154955.77   -128707.05    3616.9135 
      90    417.26074   -155016.19            0   -154956.06   -127477.38    3403.0903 
     100    480.87196   -155025.82            0   -154956.51   -117007.88    3403.0903 
Loop time of 8.51593 on 1 procs for 100 steps with 1116 atoms

Performance: 0.051 ns/day, 473.107 hours/ns, 11.743 timesteps/s
100.0% CPU use with 1 MPI tasks x no OpenMP threads

MPI task timing breakdown:
Section |  min time  |  avg time  |  max time  |%varavg| %total
---------------------------------------------------------------
Pair    | 8.5001     | 8.5001     | 8.5001     |   0.0 | 99.81
Neigh   | 0.005919   | 0.005919   | 0.005919   |   0.0 |  0.07
Comm    | 7.7366e-05 | 7.7366e-05 | 7.7366e-05 |   0.0 |  0.00
Output  | 0.0050815  | 0.0050815  | 0.0050815  |   0.0 |  0.06
Modify  | 0.0040592  | 0.0040592  | 0.0040592  |   0.0 |  0.05
Other   |            | 0.0006781  |            |       |  0.01

Nlocal:        1116.00 ave        1116 max        1116 min
Histogram: 1 0 0 0 0 0 0 0 0 0
Nghost:         0.00000 ave           0 max           0 min
Histogram: 1 0 0 0 0 0 0 0 0 0
Neighs:         0.00000 ave           0 max           0 min
Histogram: 1 0 0 0 0 0 0 0 0 0
FullNghs:      49526.0 ave       49526 max       49526 min
Histogram: 1 0 0 0 0 0 0 0 0 0

Total # of neighbors = 49526
Ave neighs/atom = 44.378136
Neighbor list builds = 1
Dangerous builds = 0
System init for write_data ...
Total wall time: 0:00:08
