Friction coeff (normalized): 0.06611808437188475
Friction coeff (mean): 0.06614884496348591
fy: 1.5318126623333364
fz: 23.157058345899994
Friction coeff (normalized): 0.06611808437188475
Friction coeff (mean): 0.06614884496348591
fy: 1.5318126623333364
fz: 23.157058345899994
