
The following have been reloaded with a version change:
  1) GCC/7.3.0-2.30 => GCC/9.3.0
  2) GCCcore/7.3.0 => GCCcore/9.3.0
  3) OpenBLAS/0.3.1-GCC-7.3.0-2.30 => OpenBLAS/0.3.9-GCC-9.3.0
  4) OpenMPI/3.1.1-GCC-7.3.0-2.30 => OpenMPI/4.0.3-GCC-9.3.0
  5) ScaLAPACK/2.0.2-gompi-2018b-OpenBLAS-0.3.1 => ScaLAPACK/2.1.0-gompi-2020a
  6) XZ/5.2.4-GCCcore-7.3.0 => XZ/5.2.5-GCCcore-9.3.0
  7) binutils/2.30-GCCcore-7.3.0 => binutils/2.34-GCCcore-9.3.0
  8) gompi/2018b => gompi/2020a
  9) hwloc/1.11.10-GCCcore-7.3.0 => hwloc/2.2.0-GCCcore-9.3.0
 10) libpciaccess/0.14-GCCcore-7.3.0 => libpciaccess/0.16-GCCcore-9.3.0
 11) libxml2/2.9.8-GCCcore-7.3.0 => libxml2/2.9.10-GCCcore-9.3.0
 12) numactl/2.0.11-GCCcore-7.3.0 => numactl/2.0.13-GCCcore-9.3.0
 13) zlib/1.2.11-GCCcore-7.3.0 => zlib/1.2.11-GCCcore-9.3.0

/home/partners/manex/lmp-mlip/lammps-friction/graphs/fun.py:369: RuntimeWarning: invalid value encountered in double_scalars
  fr_coeff[i] = abs(fy[i] / fz[i])
Starting the build up for the HG32-HG32 friction simulation.
no potentials
The HG32-HG32 friction simulation has started, this could take hours depending on the materials and the size of the slides ...
The HG32-HG32 friction simulation has finished. TIME: 4171.121755599976
Reading the file...
File read: 2001 frames, 2040 atoms.
rm: cannot remove '/home/partners/manex/.config/matplotlib/matplotlibrc': No such file or directory
