/home/partners/manex/lmp-mlip/lammps-friction/graphs/fun.py:369: RuntimeWarning: invalid value encountered in double_scalars
  fr_coeff[i] = abs(fy[i] / fz[i])
Starting the build up for the SiC-SiC friction simulation.
The SiC-SiC friction simulation has started, this could take hours depending on the materials and the size of the slides ...
The SiC-SiC friction simulation has finished. TIME: 10333.909285068512
Reading the file...
File read: 796 frames, 28490 atoms.
rm: cannot remove '/home/partners/manex/.config/matplotlib/matplotlibrc': No such file or directory
