/home/partners/manex/lmp-mlip/lammps-friction/graphs/fun.py:369: RuntimeWarning: invalid value encountered in double_scalars
  fr_coeff[i] = abs(fy[i] / fz[i])
Starting the build up for the SiC-SiC friction simulation.
The SiC-SiC friction simulation has started, this could take hours depending on the materials and the size of the slides ...
The SiC-SiC friction simulation has finished. TIME: 43412.499053001404
Reading the file...
File read: 3980 frames, 28490 atoms.
