Friction coeff (normalized): 0.0642753591959706
Friction coeff (mean): 0.06396953193037042
fy: -2.3856635887333364
fz: -37.293747769330004
Friction coeff (normalized): 0.0642753591959706
Friction coeff (mean): 0.06396953193037042
fy: -2.3856635887333364
fz: -37.293747769330004
Friction coeff (normalized): 0.11092912870607537
Friction coeff (mean): 0.01992285914206668
fy: -0.08068823002000299
fz: -4.050032650666669
Friction coeff (normalized): 0.11092912870607537
Friction coeff (mean): 0.01992285914206668
fy: -0.08068823002000299
fz: -4.050032650666669
Friction coeff (normalized): 0.11092912870607537
Friction coeff (mean): 0.01992285914206668
fy: -0.08068823002000299
fz: -4.050032650666669
Friction coeff (normalized): 0.11092912870607537
Friction coeff (mean): 0.01992285914206668
fy: -0.08068823002000299
fz: -4.050032650666669
Friction coeff (normalized): 0.11092912870607537
Friction coeff (mean): 0.01992285914206668
fy: -0.08068823002000299
fz: -4.050032650666669
Friction coeff (normalized): 0.11092912870607537
Friction coeff (mean): 0.01992285914206668
fy: -0.08068823002000299
fz: -4.050032650666669
Friction coeff (normalized): 0.11092912870607537
Friction coeff (mean): 0.01992285914206668
fy: -0.08068823002000299
fz: -4.050032650666669
Friction coeff (normalized): 0.11092912870607537
Friction coeff (mean): 0.01992285914206668
fy: -0.08068823002000299
fz: -4.050032650666669
Friction coeff (normalized): 0.11092912870607537
Friction coeff (mean): 0.01992285914206668
fy: -0.08068823002000299
fz: -4.050032650666669
Friction coeff (normalized): 0.11092912870607537
Friction coeff (mean): 0.01992285914206668
fy: -0.08068823002000299
fz: -4.050032650666669
Friction coeff (normalized): 0.11092912870607537
Friction coeff (mean): 0.01992285914206668
fy: -0.08068823002000299
fz: -4.050032650666669
Friction coeff (normalized): 0.11092912870607537
Friction coeff (mean): 0.01992285914206668
fy: -0.08068823002000299
fz: -4.050032650666669
Friction coeff (normalized): 0.11092912870607537
Friction coeff (mean): 0.01992285914206668
fy: -0.08068823002000299
fz: -4.050032650666669
Friction coeff (normalized): 0.11092912870607537
Friction coeff (mean): 0.01992285914206668
fy: -0.08068823002000299
fz: -4.050032650666669
Friction coeff (normalized): 0.11092912870607537
Friction coeff (mean): 0.01992285914206668
fy: -0.08068823002000299
fz: -4.050032650666669
Friction coeff (normalized): 0.11092912870607537
Friction coeff (mean): 0.01992285914206668
fy: -0.08068823002000299
fz: -4.050032650666669
Friction coeff (normalized): 0.6680379757241145
Friction coeff (mean): 0.37888510538238696
fy: -3.40315523002
fz: -8.982024317333329
Friction coeff (normalized): 0.6680379757241145
Friction coeff (mean): 0.37888510538238696
fy: -3.40315523002
fz: -8.982024317333329
Friction coeff (normalized): 0.6680379757241145
Friction coeff (mean): 0.37888510538238696
fy: -3.40315523002
fz: -8.982024317333329
Friction coeff (normalized): 0.6680379757241145
Friction coeff (mean): 0.37888510538238696
fy: -3.40315523002
fz: -8.982024317333329
Friction coeff (normalized): 0.16853107668722223
Friction coeff (mean): 0.15303504575377383
fy: -2.9260081188333324
fz: -19.11985652973334
Friction coeff (normalized): 0.16853107668722223
Friction coeff (mean): 0.15303504575377383
fy: -2.9260081188333324
fz: -19.11985652973334
Friction coeff (normalized): 0.16853107668722223
Friction coeff (mean): 0.15303504575377383
fy: -2.9260081188333324
fz: -19.11985652973334
Friction coeff (normalized): 0.06611808437188475
Friction coeff (mean): 0.06614884496348591
fy: 1.5318126623333364
fz: 23.157058345899994
Friction coeff (normalized): 0.06611808437188475
Friction coeff (mean): 0.06614884496348591
fy: 1.5318126623333364
fz: 23.157058345899994
Friction coeff (normalized): 0.06611808437188475
Friction coeff (mean): 0.06614884496348591
fy: 1.5318126623333364
fz: 23.157058345899994
Friction coeff (normalized): 0.06611808437188475
Friction coeff (mean): 0.06614884496348591
fy: 1.5318126623333364
fz: 23.157058345899994
Friction coeff (normalized): 0.06611808437188475
Friction coeff (mean): 0.06614884496348591
fy: 1.5318126623333364
fz: 23.157058345899994
Friction coeff (normalized): 0.06611808437188475
Friction coeff (mean): 0.06614884496348591
fy: 1.5318126623333364
fz: 23.157058345899994
Friction coeff (normalized): 0.06611808437188475
Friction coeff (mean): 0.06614884496348591
fy: 1.5318126623333364
fz: 23.157058345899994
Friction coeff (normalized): 0.06611808437188475
Friction coeff (mean): 0.06614884496348591
fy: 1.5318126623333364
fz: 23.157058345899994
Friction coeff (normalized): 0.06611808437188475
Friction coeff (mean): 0.06614884496348591
fy: 1.5318126623333364
fz: 23.157058345899994
Friction coeff (normalized): 0.16853107668722223
Friction coeff (mean): 0.15303504575377383
fy: -2.9260081188333324
fz: -19.11985652973334
Friction coeff (normalized): 0.778683741458988
Friction coeff (mean): 0.7094344414012654
fy: -3.2285453086900007
fz: -4.5508719626200005
Friction coeff (normalized): 0.778683741458988
Friction coeff (mean): 0.7094344414012654
fy: -3.2285453086900007
fz: -4.5508719626200005
Friction coeff (normalized): 0.778683741458988
Friction coeff (mean): 0.7094344414012654
fy: -3.2285453086900007
fz: -4.5508719626200005
Friction coeff (normalized): 0.06611808437188475
Friction coeff (mean): 0.06614884496348591
fy: 1.5318126623333364
fz: 23.157058345899994
Friction coeff (normalized): 0.11092912870607537
Friction coeff (mean): 0.01992285914206668
fy: -0.08068823002000299
fz: -4.050032650666669
Friction coeff (normalized): 0.6680379757241145
Friction coeff (mean): 0.37888510538238696
fy: -3.40315523002
fz: -8.982024317333329
Friction coeff (normalized): 0.778683741458988
Friction coeff (mean): 0.7094344414012654
fy: -3.2285453086900007
fz: -4.5508719626200005
Friction coeff (normalized): 0.6680379757241145
Friction coeff (mean): 0.37888510538238696
fy: -3.40315523002
fz: -8.982024317333329
Friction coeff (normalized): 0.7081032198580388
Friction coeff (mean): 0.37825123393925514
fy: -3.40315523002
fz: -8.982024317333329
Friction coeff (normalized): 0.73682841781438
Friction coeff (mean): 0.6124624830976697
fy: -3.5214361294867484
fz: -5.5447262952499985
Friction coeff (normalized): 0.8131097459049784
Friction coeff (mean): -2.7046901418830673
fy: -2.2304928700000004
fz: 1.318211858333334
Friction coeff (normalized): 0.8131097459049784
Friction coeff (mean): -2.7046901418830673
fy: -2.2304928700000004
fz: 1.318211858333334
Friction coeff (normalized): 0.8131097459049784
Friction coeff (mean): -2.7046901418830673
fy: -2.2304928700000004
fz: 1.318211858333334
Friction coeff (normalized): 0.8131097459049784
Friction coeff (mean): -2.7046901418830673
fy: -2.2304928700000004
fz: 1.318211858333334
Friction coeff (normalized): 0.8131097459049784
Friction coeff (mean): -2.7046901418830673
fy: -2.2304928700000004
fz: 1.318211858333334
Friction coeff (normalized): 0.16476237170341734
Friction coeff (mean): -0.12754109211423542
fy: -0.2982469706900004
fz: 2.9033567173799986
Friction coeff (normalized): 0.16476237170341734
Friction coeff (mean): -0.12754109211423542
fy: -0.2982469706900004
fz: 2.9033567173799986
Friction coeff (normalized): 0.15720597979375422
Friction coeff (mean): -0.13585916545973706
fy: -0.2941004681666645
fz: 2.809692531533336
Friction coeff (normalized): 0.17426502531750562
Friction coeff (mean): -0.1481732375931861
fy: -0.4089217339867478
fz: 2.43874292975
Friction coeff (normalized): 0.22654023023131012
Friction coeff (mean): 0.2346782113349288
fy: 0.41192809130999974
fz: 0.8300228373799998
Friction coeff (normalized): 0.22654023023131012
Friction coeff (mean): 0.2346782113349288
fy: 0.41192809130999974
fz: 0.8300228373799998
Friction coeff (normalized): 0.450722626194511
Friction coeff (mean): 0.44635698555941783
fy: -8.619828342689997
fz: -19.453039082620002
Friction coeff (normalized): 0.450722626194511
Friction coeff (mean): 0.44635698555941783
fy: -8.619828342689997
fz: -19.453039082620002
Friction coeff (normalized): 2.008923846566734
Friction coeff (mean): 1.9367004636139633
fy: -7.487234622689998
fz: -3.881573522620003
Friction coeff (normalized): 2.008923846566734
Friction coeff (mean): 1.9367004636139633
fy: -7.487234622689998
fz: -3.881573522620003
Friction coeff (normalized): 0.22654023023131012
Friction coeff (mean): 0.2346782113349288
fy: 0.41192809130999974
fz: 0.8300228373799998
Friction coeff (normalized): 0.22654023023131012
Friction coeff (mean): 0.2346782113349288
fy: 0.41192809130999974
fz: 0.8300228373799998
Friction coeff (normalized): 0.7774749574751172
Friction coeff (mean): 0.7559497658974178
fy: -3.2285453086900007
fz: -4.5508719626200005
Friction coeff (normalized): 0.7774749574751172
Friction coeff (mean): 0.7559497658974178
fy: -3.2285453086900007
fz: -4.5508719626200005
Friction coeff (normalized): 0.7774749574751172
Friction coeff (mean): 0.7559497658974178
fy: -3.2285453086900007
fz: -4.5508719626200005
Friction coeff (normalized): 0.7774749574751172
Friction coeff (mean): 0.7559497658974178
fy: -3.2285453086900007
fz: -4.5508719626200005
Friction coeff (normalized): 0.7774749574751172
Friction coeff (mean): 0.7559497658974178
fy: -3.2285453086900007
fz: -4.5508719626200005
Friction coeff (normalized): 0.7774749574751172
Friction coeff (mean): 0.7559497658974178
fy: -3.2285453086900007
fz: -4.5508719626200005
Friction coeff (normalized): 0.7774749574751172
Friction coeff (mean): 0.7559497658974178
fy: -3.2285453086900007
fz: -4.5508719626200005
Friction coeff (normalized): 0.7774749574751172
Friction coeff (mean): 0.7559497658974178
fy: -3.2285453086900007
fz: -4.5508719626200005
Friction coeff (normalized): 0.7774749574751172
Friction coeff (mean): 0.7559497658974178
fy: -3.2285453086900007
fz: -4.5508719626200005
Friction coeff (normalized): 0.7774749574751172
Friction coeff (mean): 0.7559497658974178
fy: -3.2285453086900007
fz: -4.5508719626200005
Friction coeff (normalized): 0.7774749574751172
Friction coeff (mean): 0.7559497658974178
fy: -3.2285453086900007
fz: -4.5508719626200005
Friction coeff (normalized): 0.7774749574751172
Friction coeff (mean): 0.7559497658974178
fy: -3.2285453086900007
fz: -4.5508719626200005
Friction coeff (normalized): 0.04530998706802024
Friction coeff (mean): -0.006849414806013454
fy: 1.5318126623333364
fz: 23.157058345899994
Friction coeff (normalized): 0.04530998706802024
Friction coeff (mean): -0.006849414806013454
fy: 1.5318126623333364
fz: 23.157058345899994
Friction coeff (normalized): 0.04530998706802024
Friction coeff (mean): -0.006849414806013454
fy: 1.5318126623333364
fz: 23.157058345899994
Friction coeff (normalized): 0.04530998706802024
Friction coeff (mean): -0.006849414806013454
fy: 1.5318126623333364
fz: 23.157058345899994
Friction coeff (normalized): 0.04530998706802024
Friction coeff (mean): -0.006849414806013454
fy: 1.5318126623333364
fz: 23.157058345899994
Friction coeff (normalized): 0.04530998706802024
Friction coeff (mean): -0.006849414806013454
fy: 1.5318126623333364
fz: 23.157058345899994
Friction coeff (normalized): 0.04530998706802024
Friction coeff (mean): -0.006849414806013454
fy: 1.5318126623333364
fz: 23.157058345899994
