LAMMPS (29 Sep 2021 - Update 2)
Reading data file ...
  orthogonal box = (-0.97736597 -1.0898103 -0.071106613) to (50.177366 49.747704 1.9451451)
  1 by 1 by 1 MPI processor grid
  reading atoms ...
  1116 atoms
  reading velocities ...
  1116 velocities
  read_data CPU = 0.005 seconds
Reading data file ...
  orthogonal box = (-0.97748144 -3.5898103 -0.070708238) to (50.177481 49.747788 4.9451451)
  1 by 1 by 1 MPI processor grid
  reading atoms ...
  1116 atoms
  reading velocities ...
  1116 velocities
  read_data CPU = 0.004 seconds
Displacing atoms ...
1017 atoms in group g1
1017 atoms in group g2
1086 atoms in group g3
0 atoms in group g4
69 atoms in group g5
69 atoms in group g6
198 atoms in group g7
93 atoms in group g8
65 atoms in group g9
93 atoms in group g10
65 atoms in group g11
60 atoms in group g12
60 atoms in group g13
84 atoms in group g14
36 atoms in group g15
WARNING: One or more atoms are time integrated more than once (../modify.cpp:281)
Neighbor list info ...
  update every 1 steps, delay 5 steps, check yes
  max neighbors/atom: 2000, page size: 100000
  master list distance cutoff = 6.3
  ghost atom cutoff = 6.3
  binsize = 3.15, bins = 17 17 3
  1 neighbor lists, perpetual/occasional/extra = 1 0 0
  (1) pair mlip, perpetual
      attributes: full, newton on
      pair build: full/bin/atomonly
      stencil: full/bin/3d
      bin: standard
Setting up Verlet run ...
  Unit style    : metal
  Current step  : 0
  Time step     : 0.001
66.427726785778460794 -310247.3411226113094 247.58638408594967473 0 1931.5558932695898875 1931.5558932695898875
Per MPI rank memory allocation (min/avg/max) = 8.846 | 8.846 | 8.846 Mbytes
Step Temp E_pair E_mol TotEng Press Volume 
       0    230.34839   -310247.34            0   -310180.91   -15621.982    19093.711 
26.821074158641042828 -310239.50832566514146 63.443748418320502935 0 1012.3009857923198069 1800.0584813317875614
      10    93.006212   -310239.51            0   -310212.69   -17299.186    19090.131 
29.605454277769936766 -310242.18242367816856 102.85697411894329889 0 1641.1737782213747323 1753.076900438489929
      20    102.66148   -310242.18            0   -310212.58   -13491.328    19086.552 
23.219275909986624384 -310235.63687580527039 54.342383437891399467 0 867.08067691341420868 1477.5248908663984366
      30    80.516421   -310235.64            0   -310212.42   -12802.977    19082.972 
22.371309155437185012 -310234.38483758433722 51.487183316767605845 0 821.52343968665968532 660.43507533405102095
      40    77.575966   -310234.38            0   -310212.01   -20262.731    19079.392 
27.910046053016337453 -310239.52466579258908 55.112904495020387685 0 879.37502025142828188 1285.518581566290095
      50     96.78239   -310239.52            0   -310211.61   -18792.479    19075.812 
22.518390365273045717 -310235.00151692068903 63.426945944450636716 0 1012.0328874960138137 998.90940369655072573
      60    78.085992      -310235            0   -310212.48   -16375.366    19072.233 
31.060158314273905944 -310244.37722735741409 77.57524452001611337 0 1237.7814750620218547 1238.3629730591617317
      70    107.70589   -310244.38            0   -310213.32   -25604.352    19068.653 
28.6175336783203349 -310241.81344763631932 54.973030373909864466 0 877.14320523076764857 1223.568702059722682
      80    99.235713   -310241.81            0    -310213.2   -25861.345    19065.073 
28.277784096715564033 -310243.17815833626082 78.683626717537791251 0 1255.4666910077719422 1112.7275583589982944
      90    98.057579   -310243.18            0    -310214.9   -25043.548    19061.493 
33.553242476694236984 -310249.23520189383999 66.541521796470320282 0 1061.7286933701514045 1475.1325266421281412
     100    116.35104   -310249.24            0   -310215.68   -26130.522    19057.914 
31.027318303933753896 -310246.70604825834744 73.116287356947012199 0 1166.6348791512868956 1456.3077514372637324
     110    107.59201   -310246.71            0   -310215.68   -29508.781    19054.334 
36.581409342042022104 -310252.68873825040646 89.398882111047456078 0 1426.4380454483307403 1124.7094079222138134
     120    126.85168   -310252.69            0   -310216.11   -30305.379    19050.754 
37.110112713548424779 -310251.98935502918903 63.682617483026355387 0 1016.1123524865234913 1605.8237469518628586
     130    128.68504   -310251.99            0   -310214.88   -24494.686    19047.174 
5563555.8254961529747 -310237.12313624459784 26629442.658056616783 0 424896254.1763445735 423329309.24967008829
     140     19292488   -310237.12            0    5253318.7    654.93727 9.0728556e+09 
ERROR on proc 0: Too many neighbor bins (../nbin_standard.cpp:213)
Last command: run 10000
