LAMMPS (3 Mar 2020)
  using 1 OpenMP thread(s) per MPI task
Created orthogonal box = (0 0 0) to (59.7 79.6 29.9)
  1 by 1 by 1 MPI processor grid
Lattice spacing in x,y,z = 4.36 4.36 4.36
Created 14245 atoms
  create_atoms CPU = 0.00247772 secs
14245 atoms in group g1
Neighbor list info ...
  update every 1 steps, delay 5 steps, check yes
  max neighbors/atom: 2000, page size: 100000
  master list distance cutoff = 3.26
  ghost atom cutoff = 3.26
  binsize = 1.63, bins = 37 49 19
  1 neighbor lists, perpetual/occasional/extra = 1 0 0
  (1) pair tersoff, perpetual
      attributes: full, newton on
      pair build: full/bin/atomonly
      stencil: full/bin/3d
      bin: standard
Setting up Verlet run ...
  Unit style    : metal
  Current step  : 0
  Time step     : 0.001
Per MPI rank memory allocation (min/avg/max) = 7.916 | 7.916 | 7.916 Mbytes
Step Temp E_pair E_mol TotEng Press Volume 
       0            0   -85565.076            0   -85565.076   -16876.311    137918.68 
      10    141.39101   -85830.838            0   -85570.512     1356.056    137918.68 
      20    37.078688   -85646.714            0   -85578.445    30852.904    137907.64 
      30    126.79045   -85822.721            0   -85589.277    19916.309    138652.59 
      40    56.393368    -85702.13            0   -85598.299    1170.2155    140137.52 
      50    87.911461   -85768.154            0   -85606.293    10247.343    140613.66 
      60    69.311764    -85744.65            0   -85617.034     23417.34    140955.36 
      70    70.799302    -85753.37            0   -85623.016    16542.402     141632.4 
      80    79.332151   -85780.432            0   -85634.367    612.14848    142636.26 
      90      58.6092    -85747.11            0     -85639.2    4379.6806    142910.15 
     100     76.84786   -85791.742            0   -85650.252    15303.698    143031.25 
     110    61.248319   -85768.079            0    -85655.31    15792.267    143702.72 
     120    66.813775   -85787.492            0   -85664.476    4267.6552    144020.56 
     130    53.655287   -85768.098            0   -85669.309   -3364.5023    143645.65 
     140    71.290426   -85808.108            0   -85676.849    5635.0271    143645.65 
     150    44.344615   -85763.855            0   -85682.209    14887.314    143732.76 
     160    78.253355     -85832.9            0   -85688.822    4986.6526    143674.68 
     170    33.628076   -85756.214            0   -85694.299   -5199.4118    143168.32 
     180    75.406647   -85838.298            0   -85699.461   -51.322821    143193.89 
     190    33.276197   -85765.912            0   -85704.645    12072.123    143645.97 
     200    72.133199   -85842.446            0   -85709.635    4177.0136     143774.1 
     210     33.97925   -85776.969            0   -85714.407   -6357.0088    143538.61 
     220    61.046474    -85830.68            0   -85718.282   -2713.5839    143702.63 
     230    43.604035   -85803.596            0   -85723.313    7825.6322    144454.89 
     240    52.212405   -85822.904            0   -85726.772    2881.5858    144660.17 
     250    44.296336   -85812.925            0   -85731.367   -7092.9552    144587.46 
     260    45.976479   -85818.743            0   -85734.092   -4764.9774    144260.42 
     270    46.900854   -85824.972            0   -85738.619    4918.6642    144414.25 
     280    44.211968   -85822.578            0   -85741.176     5209.351    144583.92 
     290    44.182172   -85826.432            0   -85745.084   -3094.2343    144198.66 
     300    39.527348   -85820.286            0   -85747.509   -4542.2814    144198.66 
     310    45.577866   -85834.665            0   -85750.748    1492.5699    144360.86 
     320     36.29114   -85819.975            0   -85753.156     5306.995    144426.31 
     330    48.770205    -85845.86            0   -85756.065   -3665.7287    144177.81 
     340    28.074157    -85809.97            0    -85758.28   -9516.1589     144088.4 
     350    51.308426   -85855.183            0   -85760.715   -3403.7647    144577.91 
     360    26.842989   -85812.167            0   -85762.744    5061.3271     144690.7 
     370    50.867863   -85858.764            0   -85765.107    -363.5293    144503.15 
     380    25.704725   -85814.201            0   -85766.874   -6203.9775    144751.05 
     390    46.089135   -85853.637            0   -85768.779   -507.89398    145400.93 
     400    30.793721   -85827.215            0   -85770.518    6968.3975    145191.83 
     410    42.317104   -85850.069            0   -85772.156    1566.9289    145191.83 
     420    31.852214   -85832.494            0   -85773.848   -7105.7832    145348.28 
     430    37.563894    -85844.16            0   -85774.998   -3882.7996    145347.49 
     440    34.125938   -85839.378            0   -85776.546    4637.9165    144970.17 
     450    37.307524   -85846.217            0   -85777.527    4780.1811    144970.17 
     460    30.963549    -85835.71            0     -85778.7   -2761.5204    144989.72 
     470    36.144987   -85845.993            0   -85779.444    -4482.885    145189.01 
     480     35.17528   -85845.069            0   -85780.305    2285.6683    144907.11 
     490    32.146523   -85840.047            0   -85780.859    4783.7874    144868.17 
     500    38.281637   -85851.867            0   -85781.383    -2283.699     145242.4 
     510     27.32817   -85831.931            0   -85781.614   -5774.0383    145363.15 
     520    41.090929   -85857.498            0   -85781.842    1444.2553    145309.06 
     530    26.123369   -85829.718            0    -85781.62    6752.7806     145291.2 
     540    44.148012   -85862.748            0   -85781.463   -552.83561    145079.64 
     550    23.982227   -85825.027            0   -85780.871   -7393.9824    144971.03 
     560    42.272041   -85858.101            0   -85780.271   -2948.5987    145151.44 
     570    29.484042   -85833.511            0   -85779.226    3986.5355     144955.2 
     580    40.869865   -85853.409            0    -85778.16   -246.48784    144806.06 
     590    30.563949   -85833.089            0   -85776.815   -7255.5651    144899.19 
     600    40.226329   -85849.583            0   -85775.519   -4685.5796    145143.96 
     610     32.83656   -85834.246            0   -85773.787    2599.6707    145101.66 
     620    41.365181   -85848.585            0   -85772.424    588.09719    144814.94 
     630    33.141658   -85831.465            0   -85770.445   -5861.5709    144809.94 
     640     41.75309   -85845.937            0   -85769.062   -5410.9562    144892.68 
     650    35.300311   -85831.953            0   -85766.958    2005.7427       144678 
     660    43.969404   -85846.371            0   -85765.415     2448.486    144476.17 
     670    39.178041   -85835.419            0   -85763.285    -5688.271    144553.53 
     680    36.068548   -85828.099            0    -85761.69   -10266.079    144626.36 
     690    47.362745   -85846.916            0   -85759.712   -4003.3983    144912.59 
     700    34.831826   -85821.932            0   -85757.801    825.67862    145082.48 
     710    51.665425   -85850.968            0   -85755.842   -5774.0311    144945.66 
     720    31.409851   -85811.737            0   -85753.906   -10199.149    144750.42 
     730     54.80189   -85852.886            0   -85751.986   -4377.5537    144747.83 
     740    34.066131   -85812.663            0   -85749.942    2055.1323    144964.12 
     750    53.658863   -85846.761            0   -85747.965   -4820.4339    145259.26 
     760    37.534741   -85814.991            0   -85745.883   -11069.019    145501.05 
     770    51.174997   -85838.207            0   -85743.985   -7315.0471    145677.72 
     780    42.715641   -85820.359            0   -85741.712    172.95806    146043.19 
     790    53.608711    -85838.51            0   -85739.807   -3109.5442    146578.01 
     800    40.643015   -85812.285            0   -85737.454   -10007.444    146628.64 
     810    52.942503   -85833.232            0   -85735.755   -8018.5262    146616.58 
     820    45.104252   -85816.222            0   -85733.177    122.83792    146787.79 
     830    55.190305   -85832.998            0   -85731.383   -121.45858    146864.79 
     840    47.688564   -85816.662            0   -85728.859   -7962.8648    146806.74 
     850    51.214147    -85821.27            0   -85726.975   -10339.859    146842.87 
     860    55.343753   -85826.475            0   -85724.577   -1558.2452    146822.89 
     870    47.503787   -85809.961            0   -85722.498    3457.8944     146803.3 
     880    62.594771   -85835.418            0    -85720.17    -3617.561    146662.48 
     890    41.543828   -85794.492            0   -85718.002   -9385.2851    146630.95 
     900    67.196088   -85839.543            0   -85715.822    -3490.489    146565.69 
     910    42.934467   -85792.534            0   -85713.484    2746.2499    146607.68 
     920    68.202302    -85836.82            0   -85711.247   -5025.6454    146804.19 
     930    44.965411    -85791.69            0     -85708.9   -11612.198    146772.75 
     940    66.145366   -85828.545            0    -85706.76   -4728.0466    146501.38 
     950    50.179773   -85796.619            0   -85704.229    5104.9791     146387.1 
     960    67.259051    -85825.98            0   -85702.144    1432.8406     146487.4 
     970    51.535607   -85794.373            0   -85699.487    -6466.152     146366.3 
     980    62.941094   -85813.475            0   -85697.589   -4775.2754    146062.35 
     990    58.007174   -85801.595            0   -85694.793    4261.7586    145974.86 
    1000    65.712474   -85813.751            0   -85692.762    5628.6936    145974.06 
    1010     59.19423   -85799.021            0   -85690.034   -2457.1034    145915.64 
    1020    59.937969   -85798.305            0   -85687.948   -5045.7939    145928.92 
    1030    69.503625   -85813.351            0   -85685.382    2745.8989    146056.33 
    1040    55.579864   -85785.329            0   -85682.997    7542.1635    146105.85 
    1050    75.273599   -85819.195            0   -85680.603     986.9787     146014.6 
    1060    51.748888   -85773.381            0   -85678.102   -2890.2051     145973.1 
    1070    79.516901   -85822.219            0   -85675.814    4734.7915       146299 
    1080    54.309168   -85773.203            0    -85673.21    12021.357    146476.72 
    1090    78.773417   -85815.878            0   -85670.842    4597.6125    146325.41 
    1100    57.533978   -85774.301            0   -85668.371   -2647.9199    146412.16 
    1110    73.503128   -85801.295            0   -85665.962    2144.2257    146725.12 
    1120    66.883793   -85786.533            0   -85663.388    10509.097     146899.8 
    1130    72.802319   -85795.014            0   -85660.972     8215.547    146822.21 
    1140    69.144996   -85785.627            0   -85658.318    512.22624       146872 
    1150    71.565235   -85787.864            0     -85656.1    2241.5743    147100.47 
    1160     71.00996    -85784.06            0   -85653.318    9460.5488    147302.36 
    1170    77.622527   -85794.068            0   -85651.151    8350.9702    147224.73 
    1180    69.419246   -85776.089            0   -85648.276    1023.6482    147244.44 
    1190     74.15455   -85782.764            0   -85646.232    495.35504    147319.39 
    1200    75.652889   -85782.751            0    -85643.46     8790.451    147307.19 
    1210    75.915771   -85780.808            0   -85641.033    11219.725    147347.59 
    1220        81.03   -85787.696            0   -85638.505    3739.0059    147695.86 
    1230    68.590735    -85762.31            0   -85636.022   -83.492865    147743.19 
    1240    90.198024   -85799.783            0   -85633.712    6164.5856     147432.1 
    1250    69.712871   -85759.381            0   -85631.027    11195.614    147466.55 
    1260    89.114573   -85792.939            0   -85628.863    2668.8076    147822.62 
    1270     71.15222   -85757.315            0   -85626.311   -3730.0057    147811.38 
    1280    87.992888   -85786.042            0   -85624.031    2207.2736    147462.73 
    1290    79.277364   -85767.554            0    -85621.59    9785.6661       147333 
    1300    84.671475   -85775.143            0   -85619.248    4711.3338    148022.93 
    1310    84.964504   -85773.306            0   -85616.871   -2579.2083    147976.34 
    1320    82.643567   -85766.799            0   -85614.637    472.18924    147693.63 
    1330    87.396202   -85773.252            0    -85612.34    6982.8653    147456.96 
    1340    88.195175   -85772.552            0   -85610.168    3177.6362    147523.66 
    1350    84.394446   -85763.237            0   -85607.851   -4947.4006    147631.67 
    1360    87.424177   -85766.863            0     -85605.9   -5027.1071     147686.5 
    1370    87.513572   -85764.712            0   -85603.584    3142.2927    147602.42 
    1380    90.978053   -85769.031            0   -85601.524    4887.7976    147645.21 
    1390    90.350101   -85765.711            0    -85599.36   -2830.6908    147896.45 
    1400    85.884783   -85755.422            0   -85597.292   -6684.3437    148204.09 
    1410    95.975462   -85772.004            0   -85595.296    671.22543    148383.57 
    1420    85.123652   -85749.843            0   -85593.114    6354.6624    148778.49 
    1430    100.07527   -85775.488            0   -85591.231     -393.594    148898.28 
    1440    84.141239   -85743.988            0   -85589.069   -6606.1375    148795.74 
    1450      99.1513    -85769.74            0   -85587.184   -1352.6126    148613.02 
    1460    91.509527   -85753.615            0   -85585.129    6245.3547    148687.42 
    1470     95.09571   -85758.266            0   -85583.177    1441.7601     148887.5 
    1480     96.49859   -85758.911            0   -85581.239   -6303.7688    148893.62 
    1490     91.81591    -85748.33            0    -85579.28   -1575.7955    149022.56 
    1500    102.56044   -85766.254            0   -85577.422    6689.0003    149225.39 
    1510    94.817149   -85750.052            0   -85575.476    3965.6691     149288.1 
    1520    99.857707   -85757.518            0   -85573.662   -5001.9057     148974.2 
    1530    94.999442   -85746.842            0    -85571.93   -5553.7564    148790.32 
    1540    98.680387   -85751.758            0   -85570.069     2797.252    148278.16 
    1550    101.44751   -85755.082            0   -85568.299    6202.9417    148249.71 
    1560    99.847703   -85750.259            0   -85566.421    1232.3441    148332.69 
    1570    103.12053   -85754.573            0   -85564.709   -3253.7311    148406.53 
    1580    101.85866   -85750.535            0   -85562.995    1322.6448    148194.31 
    1590    101.03234    -85747.34            0   -85561.321    6141.8497    148005.65 
    1600    107.22811   -85757.194            0   -85559.768   -892.05067    147956.23 
    1610    97.353403   -85737.328            0   -85558.082   -6595.4474    147976.27 
    1620     108.2121   -85755.861            0   -85556.623   -845.33323    148134.74 
    1630       102.84    -85744.31            0   -85554.963    8195.9751     147740.8 
    1640     108.6506   -85753.507            0   -85553.461    3806.5931    147434.27 
    1650     103.1922   -85741.971            0   -85551.976   -4868.1933    148064.83 
    1660    105.25686   -85744.263            0   -85550.466   -2160.8006    148349.03 
    1670    109.74415   -85751.086            0   -85549.027    4826.5018    148568.59 
    1680    104.11901   -85739.177            0   -85547.475    2790.5661    148939.51 
    1690    109.90604   -85748.415            0   -85546.058   -5332.9703    149074.84 
    1700    103.96249   -85735.996            0   -85544.582   -4588.9362    149150.91 
    1710    108.79305   -85743.328            0    -85543.02    1634.3034    149392.27 
    1720    110.02492   -85744.051            0   -85541.475    2570.2164    149586.89 
    1730    107.07677   -85736.953            0   -85539.805   -4100.9608    149532.87 
    1740     107.9367   -85736.973            0   -85538.242    -6394.425    149631.44 
    1750    109.01531   -85737.176            0   -85536.459   -84.800536    149713.68 
    1760    110.58602   -85738.271            0   -85534.662    4442.4658    149763.33 
    1770     110.7139   -85736.702            0   -85532.858   -1655.4291    149877.81 
    1780    106.53009   -85727.013            0   -85530.872   -8016.5124    150070.85 
    1790    114.16146   -85739.146            0   -85528.954   -3569.1673     149971.1 
    1800    108.84168   -85727.155            0   -85526.758    3991.7093    150133.04 
    1810    116.08825   -85738.422            0   -85524.683   -381.15307    150429.78 
    1820    109.54817   -85724.149            0    -85522.45   -9126.9639    150799.69 
    1830    113.17504   -85728.597            0   -85520.221   -5887.7976    150785.02 
    1840    116.48373   -85732.405            0   -85517.937    3261.2787    150896.92 
    1850    114.42818   -85726.181            0   -85515.498     1545.263     151012.6 
    1860    117.27862   -85729.147            0   -85513.216   -8419.5502     151147.7 
    1870    111.05593   -85715.287            0   -85510.812   -8906.0619    151407.18 
    1880    119.86406    -85729.07            0   -85508.379    427.24369    151694.15 
    1890    118.17331   -85723.474            0   -85505.895    2533.0107    151858.28 
    1900      118.608   -85721.764            0   -85503.386   -4540.1135    151769.94 
    1910    116.91817   -85716.274            0   -85501.006    -8122.224    151652.67 
    1920    121.03805     -85721.3            0   -85498.447   -2909.0908    151473.76 
    1930    121.61726   -85719.908            0   -85495.988     1498.387    150947.57 
    1940     121.6434   -85717.499            0   -85493.531   -4833.2019    150782.18 
    1950    117.05714   -85706.561            0   -85491.038    -12113.08    150274.38 
    1960    126.73604   -85721.989            0   -85488.645   -7993.1797     150069.7 
    1970    120.83041   -85708.507            0   -85486.036      2676.98    149909.72 
    1980     130.4311   -85723.876            0   -85483.729     1094.171    149908.27 
    1990    118.97151   -85700.234            0   -85481.186   -8001.9834    150270.28 
    2000     130.1651   -85718.652            0   -85478.994   -7836.1607    150443.42 
    2010    126.01871   -85708.616            0   -85476.593    984.10254    150512.36 
    2020    129.75623    -85713.29            0   -85474.386    1921.0003    150483.91 
    2030    129.26802   -85710.241            0   -85472.235   -7457.4103    150758.47 
    2040    125.96181   -85702.058            0    -85470.14   -9935.4888    151169.43 
    2050    134.68215   -85716.118            0   -85468.144   -1357.3838    151337.28 
    2060    130.05073   -85705.569            0   -85466.122    2870.0992    151137.39 
    2070    134.16286   -85711.344            0   -85464.326   -3955.3978    151042.84 
    2080     126.6806   -85695.804            0   -85462.562   -9274.8623     151020.1 
    2090     137.9738    -85714.91            0   -85460.876   -2920.9726    150713.43 
    2100    134.10389   -85706.159            0   -85459.249    4503.4639    150286.31 
    2110     136.1989    -85708.54            0   -85457.773    280.37642    149991.49 
    2120    128.92123   -85693.755            0   -85456.388   -6058.6565     149802.1 
    2130    139.90715   -85712.668            0   -85455.074   -3695.8875    149753.11 
    2140    135.79948   -85703.767            0   -85453.735    4720.2482    149837.62 
    2150    139.91072    -85710.22            0   -85452.619    4060.4511    149934.66 
    2160    131.68859   -85693.952            0   -85451.489   -3304.1521    149950.46 
    2170    142.03885   -85712.102            0   -85450.583   -2214.9155    149987.76 
    2180    140.23299   -85707.787            0   -85449.593    7272.9241    149917.85 
    2190    138.99655   -85704.747            0   -85448.829     8296.385    149450.93 
    2200    143.91331   -85713.196            0   -85448.226     1303.804    149197.33 
    2210    136.32268   -85698.679            0   -85447.684   -534.02207    148442.83 
    2220    144.95942   -85714.209            0   -85447.312    6399.7769    148176.69 
    2230     136.4433   -85698.113            0   -85446.896    11975.804    148003.21 
    2240    147.38974   -85718.062            0   -85446.691    5926.8068    147900.89 
    2250     138.3298   -85701.125            0   -85446.434     2144.475    147174.11 
    2260    145.09292    -85713.48            0   -85446.338    7160.7788    147002.88 
    2270    143.22649   -85710.007            0   -85446.301    12784.913    146957.31 
    2280    142.29991   -85708.311            0   -85446.311    7886.8325    146849.54 
    2290    140.50252    -85705.03            0   -85446.339    375.65891     146630.9 
    2300    142.71355    -85709.06            0   -85446.299    3516.4067    146288.35 
    2310    142.39627   -85708.406            0   -85446.229    12677.774    146213.16 
    2320    145.40836   -85713.859            0   -85446.136    12298.649    146209.89 
    2330    139.64784   -85703.053            0   -85445.936    4238.4816    146135.81 
    2340    145.16496   -85712.991            0   -85445.716    3882.0824    145924.68 
    2350    142.55029   -85707.757            0   -85445.296    12179.524    145867.34 
    2360    143.70236   -85709.448            0   -85444.866     11537.18    145823.95 
    2370    142.18745   -85706.033            0    -85444.24    2793.3874    145708.94 
    2380    141.54023    -85704.05            0   -85443.449    382.31537    145814.02 
    2390    149.91056   -85718.547            0   -85442.535    8682.0292    146477.75 
    2400    140.55618    -85700.19            0   -85441.401    12559.126    146781.93 
    2410    151.06669    -85718.45            0   -85440.309    5816.6653    146904.42 
    2420    139.94103   -85696.526            0   -85438.869    1266.4988    146995.76 
    2430    151.68139   -85716.699            0   -85437.426     3738.862    147130.84 
    2440    144.84913   -85702.427            0   -85435.734    8383.5218    146889.85 
    2450    148.55706   -85707.526            0   -85434.005    4983.3062     146505.6 
    2460    147.88336   -85704.349            0   -85432.069   -1349.9349    146093.66 
    2470    149.17162   -85704.621            0   -85429.969   -343.26751    145886.87 
    2480    153.04615   -85709.599            0   -85427.814     5760.748    145606.79 
    2490     148.1751   -85698.347            0    -85425.53    5670.6636    145248.86 
    2500    152.61112   -85704.156            0   -85423.171   -2092.3652    145086.36 
    2510    150.04102   -85696.946            0   -85420.694   -4819.6962    145237.87 
    2520    154.44218   -85702.435            0   -85418.079    3329.6942    145161.53 
    2530     156.8445   -85704.205            0   -85415.426    6409.8852    144960.43 
    2540    154.97513   -85698.054            0   -85412.717   -17.708675    145113.13 
    2550    156.12211   -85697.508            0   -85410.059   -3693.5141    145356.21 
    2560    158.50551   -85699.188            0   -85407.351    2212.4202    145554.38 
    2570    159.49577   -85698.336            0   -85404.676    6280.3887    145672.31 
    2580    159.26958   -85695.329            0   -85402.085    1281.7249    145747.16 
    2590      158.394   -85691.068            0   -85399.436   -2793.4477    146074.19 
    2600    164.67075    -85700.08            0   -85396.891    689.21083    146331.33 
    2610    163.84092   -85696.006            0   -85394.345    4632.3935    146351.36 
    2620    164.07102    -85694.08            0   -85391.996    1365.6388    146912.38 
    2630     162.3579   -85688.626            0   -85389.696   -3242.8359    146784.22 
    2640    165.52755   -85692.263            0   -85387.497   -1419.4652    146324.82 
    2650     169.0031   -85696.552            0   -85385.387    3722.1645    146141.53 
    2660    165.49513   -85688.084            0   -85383.377    4484.9832    146305.06 
    2670     169.6791   -85693.958            0   -85381.548   -882.02161    146472.61 
    2680    166.03706   -85685.481            0   -85379.776   -2924.4101    146565.05 
    2690    170.98622   -85692.968            0   -85378.152    1122.5538    146644.61 
    2700    169.11464   -85688.003            0   -85376.633    3002.3769    146980.48 
    2710    169.57165    -85687.46            0   -85375.248   -2310.6735     147271.2 
    2720    169.94104   -85686.861            0   -85373.968   -4492.5325    147862.62 
    2730    171.22222   -85687.971            0    -85372.72    244.78084    148298.36 
    2740     174.5606   -85693.063            0   -85371.665    4186.2805    148831.92 
    2750    170.36789   -85684.388            0    -85370.71   -884.80461    149218.85 
    2760    171.36337   -85685.353            0   -85369.842   -4968.7319    149613.53 
    2770    172.18217   -85686.036            0   -85369.017    -1638.104    149852.06 
    2780    175.27026   -85690.974            0    -85368.27    3362.8973    150073.14 
    2790    172.84954   -85685.855            0   -85367.608    157.78824    150533.85 
    2800    172.92563   -85685.351            0   -85366.964   -5014.9537    150630.87 
    2810    173.50113   -85685.851            0   -85366.404    -3680.824    150694.63 
    2820    176.44588   -85690.757            0   -85365.889    254.48281    150618.38 
    2830      171.905   -85681.835            0   -85365.327   -783.50357    150634.73 
    2840    174.80764   -85686.707            0   -85364.855   -6272.4747     150828.5 
    2850    170.91327   -85678.907            0   -85364.225   -7729.8319    150980.47 
    2860    177.57617   -85690.576            0   -85363.626   -3661.0845     150637.7 
    2870    173.72361   -85682.785            0   -85362.928   -977.07692    150371.99 
    2880     175.2499   -85684.878            0   -85362.211   -5353.0402    150232.93 
    2890    173.16955   -85680.243            0   -85361.406   -9354.2096    150030.58 
    2900    175.94163   -85684.409            0   -85360.468   -5734.9693    149448.13 
    2910    177.85407   -85686.912            0    -85359.45   -1673.1657    149294.42 
    2920    174.55842   -85679.692            0   -85358.298    -6265.617    149253.14 
    2930    175.72821   -85680.613            0   -85357.066   -10772.213    148935.43 
    2940    175.52076   -85678.823            0   -85355.658   -8777.6296    148637.99 
    2950    178.68617   -85683.084            0    -85354.09   -4359.0337    148314.65 
    2960    174.10804   -85672.965            0   -85352.401   -5819.2275    148279.73 
    2970     178.8574   -85679.822            0   -85350.513    -9740.068    148142.21 
    2980    175.87439   -85672.241            0   -85348.424    -10100.09    148151.14 
    2990    182.46577    -85682.16            0   -85346.207   -4671.9148    148177.07 
    3000    176.69645    -85669.13            0     -85343.8   -3403.7439    148040.15 
    3010    181.97499   -85676.391            0   -85341.342    -7190.449    148095.47 
    3020    178.41796    -85667.14            0    -85338.64   -9444.5285    148311.92 
    3030    184.87702   -85676.309            0   -85335.917   -7374.7261    148624.27 
    3040    182.21606   -85668.497            0   -85333.004   -4949.8177    148753.31 
    3050    184.88661   -85670.529            0   -85330.119   -7981.8134    148871.29 
    3060    184.98788   -85667.695            0   -85327.099   -10684.623    149040.06 
    3070     183.6485   -85662.175            0   -85324.045   -9932.2131    149577.85 
    3080     189.3247   -85669.549            0   -85320.968   -5230.6076    149769.92 
    3090    186.63998   -85661.474            0   -85317.836   -6430.4968    149820.04 
    3100    191.44552   -85667.207            0   -85314.721   -10369.738    149672.03 
    3110    187.47625   -85656.827            0   -85311.649   -9207.0404    149504.72 
    3120     194.4996   -85666.733            0   -85308.624   -5079.5242     149974.8 
    3130    190.55513   -85656.465            0   -85305.618   -5447.9999    149893.71 
    3140    194.87245    -85661.48            0   -85302.684   -8694.6028    149285.69 
    3150    192.93235   -85655.075            0   -85299.851   -8461.8275     149128.3 
    3160    197.86611   -85661.409            0   -85297.102   -5140.4682    149180.46 
    3170    196.34666   -85655.955            0   -85294.445   -4628.7898    148780.48 
    3180     199.7962   -85659.877            0   -85292.016   -7362.6448    148990.91 
    3190    196.12039    -85650.73            0   -85289.636   -7962.2891    149156.41 
    3200    199.97078   -85655.686            0   -85287.503   -5019.3211    149261.04 
    3210    202.03243   -85657.389            0   -85285.411   -3709.3681    149260.23 
    3220    200.68059   -85653.076            0   -85283.586   -5662.4932    149062.18 
    3230    203.13956   -85655.913            0   -85281.896   -7061.5452    148889.91 
    3240    201.46769   -85651.348            0    -85280.41   -4349.8698     148747.4 
    3250    209.12816   -85664.212            0   -85279.169   -1993.3137    148924.32 
    3260    198.74336    -85644.03            0   -85278.108   -2149.1619    149267.04 
    3270    209.62679    -85663.29            0   -85277.329   -6131.1307    149260.61 
    3280    200.59828   -85645.931            0   -85276.593   -4098.9589    149117.37 
    3290    210.92334   -85664.529            0   -85276.181   -434.83134     149113.3 
    3300     203.9556   -85651.392            0   -85275.873   -913.74514    149112.02 
    3310    208.93207   -85660.571            0   -85275.889   -4145.4808    149075.57 
    3320    204.52541   -85652.595            0   -85276.026   -3440.1537    148928.34 
    3330    207.66383   -85658.647            0   -85276.301    1807.8215    148708.53 
    3340    210.66529   -85664.619            0   -85276.746    3785.3785    148901.39 
    3350    206.46915   -85657.508            0   -85277.361     1009.612    149064.02 
    3360    207.05776   -85659.377            0   -85278.146    114.08913    149040.57 
    3370    206.30134    -85658.78            0   -85278.942    3359.7732    148986.48 
    3380    209.21627   -85665.061            0   -85279.856    4897.8031    149135.33 
    3390    205.76918   -85659.672            0   -85280.814    3534.1888    148905.85 
    3400    206.26809   -85661.541            0   -85281.764     749.2907    148787.27 
    3410    204.01089   -85658.244            0   -85282.623    2695.0804    148491.42 
    3420    210.25192   -85670.596            0   -85283.484     7200.029    148330.58 
    3430    204.58936     -85660.9            0   -85284.214    5856.6572    148030.95 
    3440    209.61617   -85670.874            0   -85284.932     3059.565     147737.6 
    3450    200.90031   -85655.339            0   -85285.445    3170.3696    147775.43 
    3460    210.57777   -85673.629            0   -85285.917    6410.7505     147797.4 
    3470    203.94061   -85661.618            0   -85286.127    6331.8733    147782.46 
    3480    207.24627   -85667.841            0   -85286.263     4234.536    147593.06 
    3490    205.03288   -85663.572            0   -85286.069    3100.7156    147663.93 
    3500    208.46547   -85669.528            0   -85285.706    6304.6245     147751.8 
    3510    209.82929     -85671.5            0   -85285.167    7534.6167    147915.43 
    3520    205.75094    -85663.22            0   -85284.395    5530.4214     147867.1 
    3530    211.13335   -85672.195            0    -85283.46    4512.4794    147632.87 
    3540    206.60705   -85662.678            0   -85282.277    6658.0779    147303.76 
    3550    213.15289   -85673.336            0   -85280.883    8099.5245    147249.67 
    3560    208.15651   -85662.499            0   -85279.245    7418.4072    147100.73 
    3570    213.23805   -85670.047            0   -85277.437    6335.7046    147013.95 
    3580    207.99805   -85658.353            0   -85275.391     7267.975     147347.3 
    3590    214.28729   -85667.678            0   -85273.136     8657.097    147703.56 
    3600    211.19112   -85659.442            0     -85270.6    9536.0704    147828.16 
    3610    217.04765   -85667.545            0   -85267.921    7537.1917     147384.3 
    3620    212.90559   -85656.979            0   -85264.981    6965.6951    147052.73 
    3630    219.07407   -85665.406            0   -85262.051    9004.3044    146998.32 
    3640    213.77792   -85652.464            0    -85258.86     8776.187    147023.58 
    3650    220.58207   -85661.824            0   -85255.692    7624.2986    146999.57 
    3660    216.36441   -85650.606            0    -85252.24    7774.5314    146975.23 
    3670    223.48886   -85660.331            0   -85248.847    9589.6149    147278.27 
    3680    222.43039   -85654.898            0   -85245.363    10678.713    147521.75 
    3690    219.67427   -85646.392            0   -85241.932    8563.0146    147381.26 
    3700    226.40702   -85655.306            0    -85238.45    6991.2123     147412.8 
    3710    222.21898    -85644.04            0   -85234.895    8552.8651    147626.19 
    3720    230.96059   -85656.743            0   -85231.502    9837.5842    148040.59 
    3730    221.87337    -85636.58            0   -85228.071      9365.77    148948.32 
    3740    234.94822   -85657.399            0   -85224.817    7341.1018    149333.55 
    3750    223.61985   -85633.229            0   -85221.504    8640.8418    149399.05 
    3760     233.0744   -85647.603            0   -85218.471    10065.307    149266.93 
    3770    227.32135    -85633.94            0   -85215.401    9790.5587     149814.4 
    3780    232.58463   -85640.642            0   -85212.412    6461.9391    150228.87 
    3790    233.94889   -85640.287            0   -85209.545    7051.7532    150359.78 
    3800    233.50513   -85636.718            0   -85206.792    7935.5189    150354.13 
    3810     233.7797    -85634.66            0   -85204.229     8098.005    150607.56 
    3820    232.66558   -85630.152            0   -85201.772    5552.3223    150632.32 
    3830    237.97113    -85637.54            0   -85199.392    3744.2868    150613.04 
    3840    237.48445   -85634.459            0   -85197.207    6148.3821    150997.06 
    3850    239.65716   -85636.434            0   -85195.182    6457.2509    151891.07 
    3860    235.29616   -85626.644            0   -85193.421     4027.953    152016.82 
    3870     237.2816   -85628.594            0   -85191.716    2017.6024    152143.54 
    3880    238.82474   -85629.846            0   -85190.126    3155.5712     152515.3 
    3890    245.45348   -85640.642            0   -85188.717    4582.2559    153097.06 
    3900    234.32949   -85618.908            0   -85187.465    2453.2246     153201.5 
    3910    243.38563   -85634.568            0   -85186.451    624.21276    153257.78 
    3920    237.33709   -85622.391            0    -85185.41    2105.4128    153122.95 
    3930    247.21148   -85639.835            0   -85184.674    2218.7404    152746.73 
    3940    233.93802   -85614.648            0   -85183.926    2295.0234    152748.11 
    3950    243.67554   -85632.012            0   -85183.361    221.80442    152591.89 
    3960    241.31514   -85627.028            0   -85182.723   -703.73823    152456.24 
    3970    243.19786   -85630.044            0   -85182.272   -110.58623    152930.26 
    3980    239.21882   -85622.314            0   -85181.869   -1101.5567    153071.36 
    3990    238.81507   -85621.102            0     -85181.4   -1036.1962    153055.02 
    4000    246.54495   -85634.857            0   -85180.923    -2883.922    153848.84 
    4010    242.28235   -85626.569            0   -85180.483   -1584.1575    154140.72 
    4020      243.559   -85628.577            0    -85180.14   -2144.1874    154277.48 
    4030    239.47292   -85620.651            0   -85179.738   -1735.8993    154330.07 
    4040    245.28519   -85630.892            0   -85179.278   -3628.1662    154640.44 
    4050    240.70855   -85621.917            0   -85178.729   -3626.7926    154947.68 
    4060    245.98401   -85631.034            0   -85178.133   -3339.2276    154850.25 
    4070    240.14117   -85619.561            0   -85177.417   -2557.6748    154497.14 
    4080    247.14243   -85631.713            0   -85176.678   -3771.0217     154166.4 
    4090    241.01864   -85619.494            0   -85175.735   -2903.8632    154429.67 
    4100    246.82383   -85629.236            0   -85174.788    -3573.804     154680.1 
    4110    240.27448   -85615.978            0   -85173.589   -1570.5827    154898.33 
    4120    244.20285   -85621.904            0   -85172.282   -3032.3799    154738.04 
    4130    244.68295   -85621.214            0   -85170.709   -2311.0202    154342.64 
    4140    245.12669    -85620.27            0   -85168.947   -3098.9259    154130.16 
    4150     245.5657   -85619.201            0    -85167.07   -2438.9204    154022.86 
    4160    242.27663   -85610.997            0   -85164.922    -2793.039    154051.76 
    4170    248.99608   -85621.065            0   -85162.619   -3613.0249    154304.99 
    4180    241.56317   -85604.803            0   -85160.041   -4069.6694    154499.57 
    4190    251.14543   -85619.681            0   -85157.277   -4318.6873    154688.64 
    4200    247.21418   -85609.428            0   -85154.262   -4304.7066    154929.69 
    4210    250.52046   -85612.407            0   -85151.154   -4371.9843    154939.73 
    4220    244.94442   -85598.848            0   -85147.861   -5500.1428    154927.71 
    4230    251.17443   -85606.827            0   -85144.369   -4987.8184    155088.97 
    4240    249.63052   -85600.247            0   -85140.632    -5473.503    155791.35 
    4250    252.41569   -85601.561            0   -85136.818   -4962.8307    155816.98 
    4260    251.52669   -85595.921            0   -85132.815   -6624.1503    155439.77 
    4270    254.16114   -85596.747            0    -85128.79   -6192.3507    155078.45 
    4280    253.40999   -85591.169            0   -85124.596   -5992.6964    154778.84 
    4290    256.94357   -85593.451            0   -85120.371   -6516.7246    154803.38 
    4300    258.38348   -85591.752            0   -85116.021   -7897.7205    154663.59 
    4310    257.51181   -85585.916            0    -85111.79   -7609.8533    154514.59 
    4320    259.51832   -85585.332            0   -85107.512    -7339.792    154727.94 
    4330    260.49707   -85582.877            0   -85103.255   -6963.6874    154843.16 
    4340    265.91526   -85588.642            0   -85099.044   -9129.1704     154660.5 
    4350    262.49069   -85578.222            0   -85094.929   -8053.5137    153993.26 
    4360    266.36854   -85581.443            0    -85091.01   -7327.9903     153987.6 
    4370    263.80859     -85572.9            0    -85087.18   -8569.5621    154009.62 
    4380    268.29976   -85577.511            0   -85083.523   -8343.0378    154207.76 
    4390    267.67015   -85572.757            0   -85079.928   -10580.923    154384.82 
    4400    269.06326   -85571.911            0   -85076.517   -9706.0874    154534.88 
    4410    268.69563   -85567.998            0   -85073.281   -8827.4049     155188.9 
    4420    270.78595   -85568.772            0   -85070.206   -7587.7359     155494.6 
    4430    273.08118   -85570.083            0   -85067.291   -10550.907    155752.06 
    4440    271.50154   -85564.472            0   -85064.589   -9344.8325    156040.67 
    4450    272.68245   -85564.153            0   -85062.096    -8750.204    156030.55 
    4460    273.56875   -85563.465            0   -85059.775    -8669.502    155897.47 
    4470     273.8849   -85561.907            0   -85057.635   -9253.9766    155730.28 
    4480    275.65259   -85563.184            0   -85055.657   -7971.4145    155409.24 
    4490    274.54021   -85559.304            0   -85053.826    -6244.841    155283.94 
    4500    278.52237    -85565.11            0   -85052.299   -4291.8014     155239.5 
    4510    277.84634   -85562.494            0   -85050.928   -5240.0577    154548.22 
    4520    277.26073   -85560.326            0   -85049.839   -6163.9175    154337.49 
    4530    277.50371    -85559.86            0   -85048.926   -4777.5074    154001.15 
    4540    278.49082   -85560.948            0   -85048.196   -2889.4423    153612.52 
    4550    280.80887   -85564.724            0   -85047.703   -3400.7315    153671.63 
    4560    275.97398   -85555.482            0   -85047.364   -3566.4864    153865.11 
    4570    283.89714   -85569.956            0   -85047.249   -3587.8922    153788.38 
    4580    279.12574     -85561.2            0   -85047.279   -2252.5855    153760.76 
    4590    281.83793   -85566.506            0   -85047.591   -1707.9681    153946.04 
    4600     279.4008    -85562.44            0   -85048.013   -2231.3206    153912.66 
    4610    280.53439   -85565.134            0   -85048.619   -1572.8043    153631.02 
    4620    281.51679   -85567.644            0    -85049.32   -1146.4165    153084.67 
    4630    279.65076   -85564.966            0   -85050.079    1451.5902    152413.57 
    4640    283.21615   -85572.464            0   -85051.012    747.53937    151833.58 
    4650    277.42461   -85562.738            0   -85051.949   -107.47493    151682.42 
    4660    282.46858   -85573.042            0   -85052.966    997.16926    151499.37 
    4670    277.53159   -85564.855            0   -85053.869    1704.7701    151291.28 
    4680    280.50093   -85571.216            0   -85054.762    3005.5426    151017.53 
    4690     277.4528   -85566.384            0   -85055.543    3716.3165    151052.37 
    4700    281.94488   -85575.336            0   -85056.225    3082.9807    150952.95 
    4710    277.74571    -85568.21            0    -85056.83    4797.9941     150755.8 
    4720    279.43515   -85571.774            0   -85057.283    5500.3046     150233.9 
    4730    275.35286    -85564.49            0   -85057.515    4202.6728    150447.69 
    4740    278.28448   -85569.866            0   -85057.494    3708.3461    150537.41 
    4750    276.69028   -85566.587            0    -85057.15    4859.5148    150248.59 
    4760    281.64951   -85575.171            0   -85056.603    5421.2084    150474.32 
    4770    276.53346   -85564.886            0   -85055.737    5570.4171    150419.55 
    4780    279.50957   -85569.293            0   -85054.666    5034.7333    150082.56 
    4790    278.77727   -85566.508            0   -85053.228    5522.7838    149119.42 
    4800    277.98035   -85563.267            0   -85051.455    5497.9043    149017.67 
    4810    283.67387   -85571.695            0     -85049.4     5719.723    148924.98 
    4820    278.92156   -85560.547            0   -85047.002    5988.6762     148919.4 
    4830    283.54914   -85566.444            0   -85044.378    5859.7442    148783.25 
    4840     281.0501   -85558.866            0   -85041.402    7453.8747    148768.29 
    4850    289.21941   -85570.747            0   -85038.241    7197.3041    149191.01 
    4860    281.18915   -85552.548            0   -85034.828    6009.3387    149329.84 
    4870    287.40623   -85560.429            0   -85031.262    5899.8868    149062.46 
    4880    287.97585   -85557.651            0   -85027.435    6637.8634    147876.23 
    4890    287.70134   -85553.175            0   -85023.465    6872.0509     148005.9 
    4900    288.84462    -85551.18            0   -85019.364    5795.4006     148169.2 
    4910    290.60389   -85550.108            0   -85015.053    4518.6745    148180.87 
    4920    291.74429   -85547.844            0    -85010.69    7348.3532    148747.67 
    4930    293.55479   -85546.769            0   -85006.281    7000.0565    148733.37 
    4940    294.94469   -85544.841            0   -85001.795    5721.3767    148671.32 
    4950      293.804   -85538.292            0   -84997.345    3640.2151    149268.79 
    4960    294.77484   -85535.552            0   -84992.818    3674.0893    149492.64 
    4970    299.22646   -85539.204            0   -84988.273     4743.517    149624.96 
    4980    298.75408   -85533.805            0   -84983.744     4528.891    149757.45 
    4990    300.64872   -85532.906            0   -84979.357    2762.4843     150206.4 
    5000    304.47899   -85535.649            0   -84975.048    2245.7346    150405.83 
Loop time of 256.068 on 1 procs for 5000 steps with 14245 atoms

Performance: 1.687 ns/day, 14.226 hours/ns, 19.526 timesteps/s
100.0% CPU use with 1 MPI tasks x 1 OpenMP threads

MPI task timing breakdown:
Section |  min time  |  avg time  |  max time  |%varavg| %total
---------------------------------------------------------------
Pair    | 241.12     | 241.12     | 241.12     |   0.0 | 94.16
Neigh   | 9.3246     | 9.3246     | 9.3246     |   0.0 |  3.64
Comm    | 0.054789   | 0.054789   | 0.054789   |   0.0 |  0.02
Output  | 3.0654     | 3.0654     | 3.0654     |   0.0 |  1.20
Modify  | 2.2283     | 2.2283     | 2.2283     |   0.0 |  0.87
Other   |            | 0.2734     |            |       |  0.11

Nlocal:    14245 ave 14245 max 14245 min
Histogram: 1 0 0 0 0 0 0 0 0 0
Nghost:    0 ave 0 max 0 min
Histogram: 1 0 0 0 0 0 0 0 0 0
Neighs:    0 ave 0 max 0 min
Histogram: 1 0 0 0 0 0 0 0 0 0
FullNghs:  208268 ave 208268 max 208268 min
Histogram: 1 0 0 0 0 0 0 0 0 0

Total # of neighbors = 208268
Ave neighs/atom = 14.6204
Neighbor list builds = 615
Dangerous builds = 7
System init for write_data ...
Total wall time: 0:04:16
