0.000000000000000000e+00	4.638728501976163016e-02	4.638728501976163016e-02	-3.739821534999960839e+00	8.062169478999999228e+01	9.074518957065376981e+02	4.784546115527234245e-02
1.000000000000000056e-01	6.545580668363468746e-01	3.504726759280542558e-01	2.247375541999991810e+01	3.433424253500006529e+01	6.436090976460612865e+02	6.751339843956559728e-01
2.000000000000000111e-01	2.687826363261741069e-01	3.232426627274275766e-01	1.810975946299997474e+01	6.737696940000004986e+01	6.881192671170258564e+02	2.772317711648160654e-01
2.999999999999999889e-01	9.431419227792554594e-01	4.782174777403845334e-01	4.236858221600004981e+01	4.492280662400001745e+01	7.301845858825528239e+02	9.727894230287422728e-01
4.000000000000000222e-01	2.823422291748643453e-01	4.390424280272805513e-01	1.551788653999997614e+01	-5.496126663499993015e+01	7.803186828389829088e+02	2.912176074267773807e-01
5.000000000000000000e-01	3.015252669346916381e+00	8.684108015805532821e-01	-6.666751144999961909e+00	-2.211009118000029972e+00	7.727037511009637001e+02	3.110036606003342197e+00
5.999999999999999778e-01	2.673940654400974726e-02	7.481720308610471104e-01	-2.903083717000004782e+00	1.085694894620001776e+02	7.766612201434152212e+02	2.757995507974714613e-02
7.000000000000000666e-01	1.489994109445252457e+00	8.408997906840726122e-01	3.951800494100000805e+01	2.652225581999996251e+01	7.709745292793149929e+02	1.536831811878559551e+00
8.000000000000000444e-01	1.842078381634926210e-01	7.679340181817858602e-01	1.539870731999998910e+01	8.359420246999997062e+01	7.893180853180394934e+02	1.899983791160315405e-01
9.000000000000000222e-01	4.480097393793225358e-01	7.359415903015396054e-01	2.908965603999992311e+01	6.493085637000000077e+01	8.032467175544228439e+02	4.620928466394477185e-01
1.000000000000000000e+00	8.169009394880140107e-01	7.433015311366737432e-01	2.482852687999989172e+01	3.039355897370000292e+01	8.252641929900859168e+02	8.425800766595523683e-01
1.100000000000000089e+00	7.252767873374037499e-01	7.417994691534012253e-01	1.545879232599994957e+01	2.131433487999997567e+01	8.210297096018917955e+02	7.480757354216629462e-01
1.199999999999999956e+00	4.512600251594535372e+00	1.031861067802719134e+00	5.014038063049996907e+01	1.111119484000001378e+01	8.023610231034750768e+02	4.654453045806818956e+00
1.300000000000000044e+00	4.235474482954215691e-01	9.884100949807692604e-01	3.475252829999998738e+01	8.205108645999993655e+01	8.040528502642696367e+02	4.368615877432838746e-01
1.400000000000000133e+00	4.338168978786846597e-01	9.514372151739637351e-01	3.107132637999999858e+01	7.162313531799995303e+01	8.074756863482839435e+02	4.474538556656837973e-01
1.500000000000000000e+00	1.262161821712003862e+00	9.708575030825912222e-01	3.689256416999995736e+01	2.922966257999997453e+01	8.090813010011348752e+02	1.301837656303080015e+00
1.600000000000000089e+00	8.827027858051859077e-01	9.656719314780379815e-01	5.480668728160006964e+01	6.208962763339007296e+01	8.273056928253894284e+02	9.104503924275956228e-01
1.699999999999999956e+00	2.879881164881160638e-01	9.280228306452644738e-01	1.705710513600002187e+01	5.922850339800006481e+01	8.212801051694091257e+02	2.970409722134457753e-01
1.800000000000000044e+00	1.327964052154972707e+00	9.490723686194596498e-01	7.112430285000002073e+01	5.355890676000004191e+01	8.395861798399020017e+02	1.369708368271847165e+00
1.900000000000000133e+00	2.349258445775632698e+00	1.019081672477268219e+00	5.822759200500004795e+01	2.478551991999994186e+01	8.474663617265886160e+02	2.423106971299763934e+00
2.000000000000000000e+00	1.708290690461098826e+00	1.051901149524117285e+00	6.989476230700010717e+01	4.091502851200004898e+01	8.530643774962644557e+02	1.761990507475271972e+00
2.100000000000000089e+00	9.220878697531580404e-01	1.046000545898164713e+00	6.495639980000002822e+01	7.044491303999996035e+01	8.719448637528188328e+02	9.510735395535173664e-01
2.200000000000000178e+00	5.207519995242660960e-01	1.023163652577560256e+00	5.235450780000000748e+01	1.005363548250003021e+02	9.021180558698561072e+02	5.371217469216892360e-01
2.300000000000000266e+00	9.744254196918109567e-01	1.021132892873987563e+00	4.725856792500007941e+01	4.849890711999992021e+01	9.404596259802524401e+02	1.005056311157528137e+00
2.399999999999999911e+00	2.426117968555052684e+00	1.077332295901230141e+00	5.403811050000005878e+01	2.227348842900004300e+01	9.794098562690418248e+02	2.502382559642321258e+00
2.500000000000000000e+00	2.027626525758647880e+00	1.113882073972669362e+00	7.463975888400015890e+01	3.681139397999997698e+01	9.665648963089961399e+02	2.091364608518399670e+00
2.600000000000000089e+00	1.177815346517123496e+00	1.116249972955797309e+00	8.621008808000001977e+01	7.319490982600018469e+01	9.831485109537428571e+02	1.214839764514380471e+00
2.700000000000000178e+00	1.156393551786110363e+00	1.117683672199736966e+00	1.013384537500001414e+02	8.763318819399987092e+01	9.837968909486771736e+02	1.192744579438507424e+00
2.800000000000000266e+00	9.400418866757939140e-01	1.111558093388566704e+00	6.209926122599997456e+01	6.606010019999997951e+01	1.003427661405514300e+03	9.695919378363038188e-01
2.899999999999999911e+00	1.592824848616974487e+00	1.127600318562847148e+00	8.455772344700017129e+01	5.308664258999999674e+01	1.002755338595794228e+03	1.642895017227020693e+00
3.000000000000000000e+00	6.271278047797903543e-01	1.111456043924683890e+00	4.194783453000005125e+01	6.688881311000014307e+01	1.020325387922944060e+03	6.468414568819890187e-01
3.100000000000000089e+00	1.197558146246158861e+00	1.114146734622229573e+00	5.520560601900008635e+01	4.609847646400005061e+01	1.007562430061072632e+03	1.235203175676069964e+00
3.200000000000000178e+00	6.403259875130752121e+00	1.274422890395215058e+00	1.242021038500001282e+02	1.939669891149997483e+01	1.004774359607084648e+03	6.604545221652137421e+00
3.300000000000000266e+00	1.317472104930063503e+00	1.275689043763887032e+00	1.145547460580000916e+02	8.695041483559995754e+01	1.021016453522539223e+03	1.358886608533619311e+00
3.399999999999999911e+00	1.335940261873581836e+00	1.277410507138449614e+00	1.113612817399998249e+02	8.335798008199994058e+01	1.012193374947212874e+03	1.377935308738301279e+00
3.500000000000000000e+00	1.367303549841726085e+00	1.279907536102429688e+00	1.211224727617999406e+02	8.858491793999995423e+01	1.019964810707436300e+03	1.410284496140456811e+00
3.600000000000000089e+00	2.645391417212837659e+00	1.316812505862170468e+00	9.068943998000003148e+01	3.428204967700003891e+01	1.025716957507831467e+03	2.728548830543264359e+00
3.700000000000000178e+00	2.246474025805645258e+00	1.341277282702788121e+00	8.941070796200010307e+01	3.980046372000008148e+01	1.032831562724900095e+03	2.317091541188986970e+00
3.800000000000000266e+00	2.580391916953370224e+00	1.373049452811777371e+00	1.104790385379999549e+02	4.281482894600014077e+01	1.045202326868396767e+03	2.661506082439951015e+00
3.899999999999999911e+00	3.885872531295846422e+00	1.435870029773879342e+00	1.489634663199998386e+02	3.833462500899998560e+01	1.038192683138782968e+03	4.008024249991137822e+00
4.000000000000000000e+00	1.806526209847632236e+00	1.444910424409824534e+00	1.578899913899995795e+02	8.739977894000026026e+01	1.048951833300005774e+03	1.863314043113843299e+00
4.099999999999999645e+00	1.914725111195283880e+00	1.456096488380906884e+00	1.767420499309999400e+02	9.230674883699998645e+01	1.056823476193670786e+03	1.974914157870867992e+00
4.200000000000000178e+00	1.128401712367550047e+00	1.448475679636410218e+00	1.010383490110001503e+02	8.954111634500010553e+01	1.067162457785484094e+03	1.163872821477359265e+00
4.299999999999999822e+00	5.134207652393161680e+00	1.532242315380881958e+00	1.031720223300000328e+02	-2.009502328600001064e+01	1.074552825604113650e+03	5.295600565780673286e+00
4.400000000000000355e+00	4.919348326088536894e+00	1.607511337841052157e+00	1.103242953440002054e+02	2.242660776000000311e+01	1.086931706232930310e+03	5.073987174391707988e+00
4.500000000000000000e+00	3.530158079177461161e+00	1.649308006130974169e+00	1.526773908329997482e+02	4.324944872399994722e+01	1.093484609573776424e+03	3.641127976713907977e+00
4.600000000000000533e+00	4.073099156670144438e+00	1.700878030610530889e+00	1.824811737699995433e+02	4.480155448000000717e+01	1.113747741891414762e+03	4.201136311362319020e+00
4.700000000000000178e+00	1.824525112435700036e+00	1.703454011481888797e+00	1.816145954309999979e+02	9.954074854500007064e+01	1.130810062694506087e+03	1.881878738035049903e+00
4.799999999999999822e+00	1.818458336448698809e+00	1.705801038522027691e+00	1.425358175719700853e+02	7.838277881600022567e+01	1.147928523985059201e+03	1.875621254013293715e+00
4.900000000000000355e+00	3.574204963143534641e+00	1.743169117014457647e+00	1.038162212180002513e+02	2.904596191000005234e+01	1.164156247515975792e+03	3.686559466720528810e+00
5.000000000000000000e+00	3.248299667866539231e+00	1.772681480756655326e+00	8.682421715000005236e+01	2.672912785999993446e+01	1.182657351145618350e+03	3.350409395880423080e+00
5.100000000000000533e+00	1.332088261985706446e+01	1.994762271893201433e+00	9.029869949100007886e+01	6.778732465999989465e+00	1.187467976823166282e+03	2.357316195408171833e+00
5.200000000000000178e+00	9.724882642476585204e+01	3.792008765343628962e+00	1.841449862429994653e+02	-1.893544559999998267e+00	1.219551616289188132e+03	0.000000000000000000e+00
5.299999999999999822e+00	1.957052069937491368e+00	3.758028085799071327e+00	1.428199798299999657e+02	7.297709755599996129e+01	1.241886909888821265e+03	2.018571657107099515e+00
5.400000000000000355e+00	1.652582147308198524e+00	3.719747250553782969e+00	1.417501605899998651e+02	8.577495576900005858e+01	1.294679535692968102e+03	1.704530776078976517e+00
5.500000000000000000e+00	1.078094852121877389e+00	3.672574886296069430e+00	8.928352815499999906e+01	8.281602307930006646e+01	1.313414114668016055e+03	1.111984573939210685e+00
5.600000000000000533e+00	1.785156791468592852e+00	3.639462288141201540e+00	5.769158274900011918e+01	-3.231737571999995140e+01	1.332031373683954371e+03	1.841272880831344549e+00
5.700000000000000178e+00	1.406017452234653353e+00	3.600954618556605702e+00	1.114169434319998828e+02	-7.924293062999993253e+01	1.366457531833386838e+03	1.450215363237350008e+00
5.799999999999999822e+00	2.610452051247385885e+00	3.584166439449670172e+00	1.604685712899999714e+02	6.147156436500000609e+01	1.384129860412129574e+03	2.692511151761725063e+00
5.900000000000000355e+00	2.419513912545077972e+00	3.564755564001260257e+00	1.403092112130000544e+02	5.799066105200002852e+01	1.394388737019246946e+03	2.495570906294688029e+00
6.000000000000000000e+00	2.082315604314332269e+00	3.540453269580163376e+00	1.561983696059999716e+02	7.501186145000012573e+01	1.432463520743901199e+03	2.147772828627399821e+00
6.100000000000000533e+00	4.750326272257920479e+00	3.559967350268514075e+00	1.249021634900001345e+02	2.629338624999999396e+01	1.428824625442966635e+03	4.899651942064746635e+00
6.200000000000000178e+00	3.744145496207700319e+01	4.097768740932141718e+00	1.340034369000001391e+02	3.579012541999957442e+00	1.457369779471080165e+03	2.526587192313154844e-41
6.299999999999999822e+00	6.690204685167949528e+00	4.138275552560825687e+00	1.357854673989998275e+02	2.029616039999994470e+01	1.448551940406429367e+03	6.900510091260112056e+00
6.400000000000000355e+00	4.035118386158052317e+01	4.695397218853436527e+00	1.126766772890000112e+02	-2.792400779999978599e+00	1.462100972568671068e+03	1.475318000464413248e-50
6.500000000000000000e+00	9.265355024087142510e+00	4.764639003781219628e+00	1.388314410199999998e+02	1.498393107000000768e+01	1.494635638964012287e+03	9.556609827583455896e+00
6.600000000000000533e+00	3.126093638769108729e+00	4.740183102810889615e+00	1.606890534100000423e+02	5.140250804299993348e+01	1.509039428578381148e+03	3.224361841779546101e+00
6.700000000000000178e+00	3.522680270741896269e+00	4.722278649398110595e+00	1.495068475500000886e+02	4.244121977000004620e+01	1.520325608737204902e+03	3.633415104687059305e+00
6.799999999999999822e+00	3.757783855129682049e+00	4.708300463973929872e+00	1.437763267862997623e+02	3.826093578799997630e+01	1.549731314162104809e+03	3.875909128846891427e+00
6.900000000000000355e+00	1.917170635650566339e+02	7.379854222560826571e+00	1.352054040294998174e+02	7.052340647999736367e-01	1.565262638840440559e+03	0.000000000000000000e+00
7.000000000000000000e+00	6.997114301977906337e+01	8.261421670408971352e+00	2.211306311140003231e+02	-3.160311830999992910e+00	1.586325960129200894e+03	5.957965674482521458e-197
7.100000000000000533e+00	2.987654848625712845e+00	8.188174908995314638e+00	1.376086049439998362e+02	4.605907037999995879e+01	1.630618790904078878e+03	3.081571252647913095e+00
7.200000000000000178e+00	4.309863395838014810e+00	8.135047354020557009e+00	1.437941321399998742e+02	3.336396514999992746e+01	1.672560923653561531e+03	4.445343192692796208e+00
7.299999999999999822e+00	3.455353213831763082e+00	8.071808244018006562e+00	1.138564381700001320e+02	3.295073791999999457e+01	1.733712942127832321e+03	3.563971633599663846e+00
7.400000000000000355e+00	5.453253116344320972e+00	8.036894175649024419e+00	1.542112882240000431e+02	2.827876955900006806e+01	1.753995023817184801e+03	5.624675167705273537e+00
7.500000000000000000e+00	1.001155227852098584e+01	8.062876519107865292e+00	1.612614074059999041e+02	1.610753286999997158e+01	1.798211814662229017e+03	1.007273572218378277e+01
7.600000000000000533e+00	4.116112831605410527e+00	8.011619847841599196e+00	1.362841789220000237e+02	3.310992300200016558e+01	1.804844879028556534e+03	4.245502113594203486e+00
7.700000000000000178e+00	7.459012718278674292e+00	8.004535141052331326e+00	1.808629501879997576e+02	-2.424757230200000535e+01	1.841878797649498892e+03	7.693485469499861118e+00
7.799999999999999822e+00	1.043267290031511507e+01	8.035271062055658220e+00	1.148689331800001554e+02	1.101049887000009164e+01	1.844374115586407925e+03	9.795453892889611325e+00
7.900000000000000355e+00	4.516846752605876425e+00	7.991290758187534315e+00	1.189839954410499132e+02	2.634226971999995470e+01	1.860630825735060853e+03	4.658833034829616970e+00
8.000000000000000000e+00	2.595780503993838195e+00	7.924679520481439532e+00	1.539003273850001676e+02	5.928865215999999805e+01	1.863716199022013370e+03	2.677378407004011862e+00
8.099999999999999645e+00	5.337998404170157585e+00	7.893134628819107768e+00	2.093494934599997919e+02	-3.921872537400002301e+01	1.864835553048726069e+03	5.505797443950976700e+00
8.199999999999999289e+00	6.965632680487617634e+00	7.881959906550053852e+00	1.782586623599998461e+02	2.559116601990002593e+01	1.882197006206066362e+03	7.184596117108093871e+00
8.300000000000000711e+00	8.940068716352531197e+00	7.894556440000083164e+00	2.187374421979999397e+02	2.446708735000002122e+01	1.878260642859533391e+03	9.221098202050121984e+00
8.400000000000000355e+00	9.001624115323449971e+00	7.907580765592123306e+00	1.435002087399996924e+02	1.594159086200006037e+01	1.884426331469900106e+03	9.284588584147407175e+00
8.500000000000000000e+00	7.412656231335428281e+00	7.901825829147277602e+00	1.512375213800001177e+02	2.040260827700003787e+01	1.903354260432995034e+03	7.645671774553215450e+00
8.599999999999999645e+00	8.861967493750343650e+00	7.912861940234670044e+00	1.943824023010000985e+02	2.193445218999989521e+01	1.939231298726953128e+03	9.140541881269538038e+00
8.700000000000001066e+00	5.486431141481063811e+00	7.885288862976104873e+00	1.384257495119997827e+02	-2.523056353799998774e+01	1.930907032982993314e+03	5.658896138219335903e+00
8.800000000000000711e+00	6.505330500031853980e+00	7.869783712830663802e+00	1.873751610369999412e+02	2.880332690799989948e+01	1.956209410641925842e+03	6.709824418671741952e+00
8.900000000000000355e+00	5.449687949022764322e+00	7.842893759899464357e+00	2.056437603819998401e+02	3.773496066300012330e+01	1.971026285384758694e+03	5.620997929976811136e+00
9.000000000000000000e+00	1.069800171159918456e+01	7.874268572555505941e+00	2.220175183600001958e+02	-2.075317656000001065e+01	2.011386829593084030e+03	9.400084402421276408e+00
9.099999999999999645e+00	6.171664939169049013e+00	7.855762011323044192e+00	1.853215105239998195e+02	-3.002779839000000095e+01	2.050814634667487553e+03	6.365670139663767380e+00
9.200000000000001066e+00	2.292553300376503955e+00	7.795942562818243715e+00	1.076137402200001958e+02	-4.694056194999998155e+01	2.107976615812308410e+03	2.364619309641137423e+00
9.300000000000000711e+00	9.865991402911494390e+01	8.762580557140548621e+00	1.366963417198998911e+02	-1.385530720000021976e+00	2.152844703065568865e+03	0.000000000000000000e+00
9.400000000000000355e+00	3.984487226094814982e+00	8.712284837866382858e+00	1.574971130440000877e+02	3.952757384000013019e+01	2.194209366434331969e+03	4.109738880354458779e+00
9.500000000000000000e+00	3.653317275161362510e+00	8.659587259088205258e+00	1.783311168119998058e+02	4.881347645999980500e+01	2.216197723742318431e+03	3.768158660334473442e+00
9.599999999999999645e+00	1.544029473974894984e+02	1.016209612649440430e+01	1.831250685939996856e+02	-1.186020550000052687e+00	2.249805868423597985e+03	0.000000000000000000e+00
9.700000000000001066e+00	2.718275343297061752e+01	1.033577630309109985e+01	2.195394543899998041e+02	-8.076424447999999146e+00	2.282328041658640814e+03	3.972607477096153150e-16
9.800000000000000711e+00	5.490892616207183607e+00	1.028683808403166466e+01	1.496911584279999659e+02	2.726171660800000396e+01	2.339527586765430897e+03	5.663497858617778213e+00
9.900000000000000355e+00	6.456207712088357198e+00	1.024853178031223244e+01	1.656675532299995837e+02	2.566019567799994761e+01	2.406058393345773766e+03	6.659157464540065519e+00
1.000000000000000000e+01	3.623681992881780722e+00	1.018293920815945519e+01	1.802190796827999861e+02	-4.973369077000004523e+01	2.449635810066442900e+03	3.737591798175388114e+00
1.009999999999999964e+01	2.263340390841873528e+01	1.030500258757376209e+01	1.636654114500001924e+02	7.231144379000062905e+00	2.486325684800349336e+03	1.252511078269910248e-08
1.020000000000000107e+01	7.052163317309032564e+00	1.027342162378478641e+01	1.526241810619999626e+02	2.164217902999988397e+01	2.487533559366782811e+03	7.273846829259414726e+00
1.030000000000000071e+01	8.193730603265171339e+02	1.805322584208028758e+01	2.370985656809999966e+02	2.893658299999722905e-01	2.534974830509993808e+03	0.000000000000000000e+00
1.040000000000000036e+01	2.533467414854369437e+01	1.812257296880851243e+01	1.760686078549996694e+02	-6.949708799200030818e+00	2.552616447235507167e+03	8.279677092064870377e-13
1.050000000000000000e+01	4.014773131729983646e+01	1.833035748153012534e+01	2.716947251199995321e+02	6.767374299999986853e+00	2.580147641983735866e+03	6.990104647685457740e-50
1.059999999999999964e+01	1.698486006429715189e+01	1.831778273931299594e+01	1.631439837330000273e+02	9.605259220000000653e+00	2.609571614927169776e+03	1.799992613344294362e-02
1.070000000000000107e+01	8.420777894942981234e+00	1.822614380556883162e+01	2.074629090500000927e+02	-2.463702423199998748e+01	2.611184862675003842e+03	8.685483565119861638e+00
1.080000000000000071e+01	1.483219827919879030e+01	1.819500669064800391e+01	2.202329605599998388e+02	-1.484830208000000162e+01	2.645749158733715831e+03	4.774150080627662107e-01
1.090000000000000036e+01	2.970407120035671866e+00	1.805660124000607425e+01	1.965889752695095467e+02	-6.618250203599993142e+01	2.676741487031938959e+03	3.063781344747074975e+00
1.100000000000000000e+01	8.553653943325835485e+01	1.866452861111645589e+01	2.000408927199997038e+02	2.338660109999957548e+00	2.720943321372222272e+03	4.215039912533352473e-312
1.109999999999999964e+01	2.420029918030670615e+03	4.010529101664818796e+01	2.387744782899999336e+02	-9.866591999999141382e-02	2.739575965398340941e+03	0.000000000000000000e+00
1.120000000000000107e+01	2.774401608919964346e+00	3.977492916348244734e+01	2.117295451100000037e+02	-7.631539155299991251e+01	2.754431802883959335e+03	2.861614434907218119e+00
1.130000000000000071e+01	2.429956320717686857e+00	3.944734168240556471e+01	2.194900952670000436e+02	-9.032676570999997523e+01	2.764170536959209130e+03	2.506341569729230834e+00
1.140000000000000036e+01	4.729086057211098648e+00	3.914544380740387197e+01	1.957193066919995772e+02	-4.138628570599999534e+01	2.830725790547791803e+03	4.877744044598459894e+00
1.150000000000000000e+01	5.915944670964240260e+00	3.885898260795180903e+01	2.090350379600000394e+02	-3.533417730999999407e+01	2.819172663302675119e+03	6.101911349861848244e+00
1.159999999999999964e+01	1.868709311093688541e+01	3.868657329601151673e+01	2.217735458769998900e+02	1.186773911600000453e+01	2.903784784039254646e+03	5.864634694954854160e-04
1.170000000000000107e+01	2.667850239156986447e+01	3.858480998326201217e+01	2.825657818950007254e+02	1.059151588599998206e+01	2.982661542718331020e+03	3.480566900490721418e-15
1.180000000000000071e+01	2.797421160740901858e+00	3.828407562340888859e+01	1.810396115714997620e+02	-6.471660903700002621e+01	3.016563933175461898e+03	2.885357602285762546e+00
1.190000000000000036e+01	4.480399984933193913e+00	3.800237832642158509e+01	2.134587523808000356e+02	-4.764278928189998652e+01	3.090985574383265430e+03	4.621240569433642698e+00
1.200000000000000000e+01	2.921223559536520575e+00	3.771245142752171375e+01	2.269440275138999539e+02	-7.768800397799979862e+01	3.098273556078484035e+03	3.013051707685159730e+00
1.209999999999999964e+01	9.464909246619749084e+00	3.748091419653071199e+01	2.310499687903698032e+02	-2.441121861500001700e+01	3.167227884819277733e+03	9.762437001958652161e+00
1.220000000000000107e+01	5.814849147386422779e+00	3.722346651320434319e+01	2.452225531649998516e+02	-4.217178244000002252e+01	3.211983810920770793e+03	5.997637906303904032e+00
1.230000000000000071e+01	4.895708236214295184e+00	3.696275878516409819e+01	2.155171313690002250e+02	-4.402164528000001553e+01	3.251040847596903859e+03	5.049603962455433859e+00
1.240000000000000036e+01	4.265852222418036632e+00	3.670118353266212807e+01	2.673725371765999057e+02	-6.267740259999997221e+01	3.251666324586005885e+03	4.399948535786998960e+00
1.250000000000000000e+01	2.540143645451733434e+00	3.643006416847791940e+01	2.464534097259999044e+02	-9.702341446999986374e+01	3.218192584938108212e+03	2.619992613611628052e+00
1.259999999999999964e+01	2.896905206451412251e+00	3.616602354672967579e+01	2.664317981229994530e+02	-9.197118273999971905e+01	3.301478208362121222e+03	2.987968911453431797e+00
1.270000000000000107e+01	3.157913915670545801e+00	3.590814769023702979e+01	2.436830752759995278e+02	-7.716583851978001007e+01	3.333931427786014865e+03	3.257182383481633803e+00
1.280000000000000071e+01	3.142859486453352336e+00	3.565415320803715815e+01	2.743732341399996812e+02	-8.730050939999988202e+01	3.408549663138609048e+03	3.241654720933175415e+00
1.290000000000000036e+01	3.444769822215782096e+00	3.540638872045391849e+01	2.315759686679998595e+02	-6.722538242599996750e+01	3.444825348572364874e+03	3.553055554932034621e+00
1.300000000000000000e+01	2.229010763391300554e+00	3.515312629330077243e+01	2.381078170700001237e+02	-1.068221925979998161e+02	3.479640379719553039e+03	2.299079324196034779e+00
1.309999999999999964e+01	2.280495614876624089e+01	3.505957954978156721e+01	2.002346380229999738e+02	-8.780312345999961465e+00	3.500779026734974195e+03	7.178966053950759421e-09
1.320000000000000107e+01	2.610030666533979637e+00	3.481559797923083011e+01	2.525870942839996189e+02	-9.677552740000007248e+01	3.516073151688917733e+03	2.692076520894061353e+00
1.330000000000000071e+01	3.660575641342050712e+00	3.458309781253016979e+01	2.794131407699997567e+02	-7.633038301800000625e+01	3.541366195756988418e+03	3.775645191977808679e+00
1.340000000000000036e+01	2.576293671118890849e+00	3.434601037444564042e+01	2.647758916000000795e+02	-1.027739556899999087e+02	3.610427977007829213e+03	2.657279008969391398e+00
1.350000000000000000e+01	1.071370974966519451e+00	3.410134390827300166e+01	2.002009130099999936e+02	-1.868642306799997925e+02	3.653645701300754808e+03	1.105049332889590064e+00
1.359999999999999964e+01	2.245435168267764681e+00	3.386881902695909474e+01	2.445588926599993442e+02	-1.089138070499998889e+02	3.650519047341303576e+03	2.316020027347352350e+00
1.370000000000000107e+01	2.377850467182504701e+00	3.364062360261289086e+01	2.844199738450000723e+02	-1.196122202679998452e+02	3.682294539395115407e+03	2.452597777864330642e+00
1.380000000000000071e+01	2.164587321983696633e+00	3.341417729843570328e+01	2.271202552069996159e+02	-1.049254298499999436e+02	3.684786314891342954e+03	2.232630743253146033e+00
1.390000000000000036e+01	2.645810442546487007e+00	3.319440324946506848e+01	2.931434179750004319e+02	-1.107953212599998665e+02	3.728851622809831042e+03	2.728981027864483710e+00
1.400000000000000000e+01	1.319034357163694438e+00	3.296833680342037809e+01	1.606560488179997321e+02	-1.217982290950000248e+02	3.736006094587013195e+03	1.360497969891092174e+00
1.409999999999999964e+01	1.234758616647352758e+00	3.274486090069662225e+01	2.199112940299998229e+02	-1.781006352699999127e+02	3.779964650495462138e+03	1.273573036313094153e+00
1.420000000000000107e+01	1.807497531040838323e+00	3.252851570230742340e+01	2.503539917939999384e+02	-1.385086217240002782e+02	3.808438120632018581e+03	1.864315897617702333e+00
1.430000000000000071e+01	1.430544216611054464e+00	3.231255756699007975e+01	2.794509914299999309e+02	-1.953459307200001547e+02	3.826767120707664617e+03	1.475513122132609434e+00
1.440000000000000036e+01	4.225978735987706791e+00	3.211885702332799042e+01	2.977175042629996824e+02	-7.044936164199992845e+01	3.874602301743741464e+03	4.358821633332697232e+00
1.450000000000000000e+01	1.558872844679388470e+00	3.190954206320026287e+01	2.092234365299998160e+02	-1.342145622999998693e+02	3.943075819548637810e+03	1.607875738024812762e+00
1.459999999999999964e+01	1.466577675465812414e+00	3.170244706736533047e+01	2.419157766474996549e+02	-1.649525836200000128e+02	4.000188570725580576e+03	1.512679286420753666e+00
1.470000000000000107e+01	1.753606501355721381e+00	3.150009003651391382e+01	2.353996247300001130e+02	-1.342374270100000047e+02	4.053446165902195844e+03	1.808730812904974616e+00
1.480000000000000071e+01	1.206137203625509136e+00	3.129677491683010260e+01	1.955512639199998546e+02	-1.621301982329998168e+02	4.044311058313927333e+03	1.244051914213315291e+00
1.490000000000000036e+01	1.833433350157405162e+00	3.110035263971894892e+01	3.078158078130001627e+02	-1.678903723370000591e+02	4.081195141776449418e+03	1.891067004640741400e+00
1.500000000000000000e+01	1.466772042713878399e+00	3.090410376159308825e+01	2.783402298559996098e+02	-1.897637954299999876e+02	4.124851614967542446e+03	1.512879763569033198e+00
1.509999999999999964e+01	1.839700244544792751e+00	3.071289058055988264e+01	2.370152335729999322e+02	-1.288336153000001048e+02	4.141438963103481001e+03	1.897530897749557965e+00
1.520000000000000107e+01	1.316944225653347011e+00	3.052076021222715596e+01	2.139125784371997554e+02	-1.624310082919995750e+02	4.165655029939120141e+03	1.358342135464801981e+00
1.530000000000000071e+01	1.196511067218749114e+00	3.033034300998684429e+01	2.139629095459997359e+02	-1.788223405599996170e+02	4.194488009184595285e+03	1.234123181903830524e+00
1.540000000000000036e+01	9.749166268180823325e-01	3.014095316235349387e+01	1.865909006199997009e+02	-1.913916487700001312e+02	4.258430842936910267e+03	1.005562959293309300e+00
1.550000000000000000e+01	1.495063891163425751e+00	2.995732566702535138e+01	2.242118129579997117e+02	-1.499680477089999329e+02	4.301523179366621662e+03	1.542060961292224031e+00
1.559999999999999964e+01	7.366466107923650419e-01	2.977120669214488657e+01	2.396048656799999890e+02	-3.252643291500003215e+02	4.320018000841012508e+03	7.598029672746352547e-01
1.570000000000000107e+01	1.037645486055166266e+00	2.958934870982786336e+01	2.312630779979999147e+02	-2.228729186470000627e+02	4.334069184346691145e+03	1.070263689173573951e+00
1.580000000000000071e+01	9.359915921522016236e-01	2.940913891663493374e+01	2.107072059259996877e+02	-2.251165584099996693e+02	4.371253230053492189e+03	9.654143230176440715e-01
1.590000000000000036e+01	1.834114373890232796e+00	2.923679501324278363e+01	2.470349362645999065e+02	-1.346889484000000152e+02	4.428076946970756580e+03	1.891769436234678192e+00
1.600000000000000000e+01	5.142233464456974490e-01	2.905839394698938705e+01	1.616706964119999554e+02	-3.143978147423000564e+02	4.441203572146474471e+03	5.303878667833317184e-01
1.610000000000000142e+01	8.799797907842175082e-01	2.888445311886466271e+01	2.531073917319995132e+02	-2.876286414559999116e+02	4.477501482156169004e+03	9.076418005376792886e-01
1.619999999999999929e+01	8.020699992020233760e-01	2.871216855984832605e+01	1.433414539419998448e+02	-1.787143941109999901e+02	4.526025581466871699e+03	8.272829283774911779e-01
1.630000000000000071e+01	1.140431388034161220e+00	2.854404821123970848e+01	2.346250987260000329e+02	-2.057336383300000193e+02	4.540263524386309655e+03	1.176280647880050712e+00
1.639999999999999858e+01	1.172007396113235345e+00	2.837815705478439554e+01	2.226657944160000966e+02	-1.899866802499998073e+02	4.620129833745294491e+03	1.208849242212361785e+00
1.650000000000000000e+01	1.003883051309852004e+00	2.821325178970322156e+01	1.777848867099997960e+02	-1.770972091599999203e+02	4.620082752037456885e+03	1.035439938237812774e+00
1.660000000000000142e+01	1.018515737614098526e+00	2.805040905885239155e+01	2.103956709359998740e+02	-2.065708591100002138e+02	4.663536773678862119e+03	1.050532600459127330e+00
1.669999999999999929e+01	4.807883983403039019e-01	2.788630417396838723e+01	1.422939195200000597e+02	-2.959595531240000241e+02	4.723811683967917816e+03	4.959018969723446024e-01
1.680000000000000071e+01	1.043938099324368096e+00	2.772747360547937134e+01	2.034679959299997734e+02	-1.949042726399997321e+02	4.708468104265637521e+03	1.076754109632725331e+00
1.689999999999999858e+01	8.652013362675509134e-01	2.756946023918988686e+01	2.535923500899998260e+02	-2.931021248579996268e+02	4.747643867726375902e+03	8.923987879058576933e-01
1.700000000000000000e+01	1.230837365906479519e+00	2.741543320484319679e+01	1.600541907358000628e+02	-1.300368311600000482e+02	4.772912752210059807e+03	1.269528521745737937e+00
1.710000000000000142e+01	6.532926836680664762e-01	2.725983936460380619e+01	2.220256915399994284e+02	-3.398563876352993702e+02	4.822448036777203924e+03	6.738288241303224124e-01
1.719999999999999929e+01	5.239828179020631360e-01	2.710529684121246774e+01	1.522294249759998763e+02	-2.905236961500002053e+02	4.825199679465067675e+03	5.404541255062254024e-01
1.730000000000000071e+01	9.918310981662142867e-01	2.695521945188461643e+01	2.312080678499999067e+02	-2.331123396690000789e+02	4.882216618759684025e+03	1.023009134069527537e+00
1.740000000000000213e+01	6.114023647604213130e-01	2.680468335424390958e+01	1.575925263099999825e+02	-2.577558337899997696e+02	4.884591468724638617e+03	6.306216904249575261e-01
1.750000000000000000e+01	7.631591941799077405e-01	2.665672014878899887e+01	2.034800049269998965e+02	-2.666285179800000833e+02	4.950277401015288888e+03	7.871489690519367644e-01
1.760000000000000142e+01	4.229210760929681956e-01	2.650850659470597392e+01	1.455024720200002548e+02	-3.440416669800001159e+02	4.953499377516274762e+03	4.362155256409543935e-01
1.769999999999999929e+01	5.452578246514465654e-01	2.636264564655959930e+01	1.544604455399998528e+02	-2.832796496570002205e+02	4.994172587676666808e+03	5.623979083461164707e-01
1.780000000000000071e+01	6.342762853964570846e-01	2.621891173951399523e+01	1.647962273459998244e+02	-2.598177342275901651e+02	5.045681881739162236e+03	6.542146487279493217e-01
1.790000000000000213e+01	6.202391161142145615e-01	2.607669689160621829e+01	1.667937674800000991e+02	-2.689184915085002103e+02	5.010850964319313789e+03	6.397362235013511755e-01
1.800000000000000000e+01	6.910184589305639058e-01	2.593644452457485983e+01	1.750067327760000637e+02	-2.532591286300000206e+02	5.080106911553811187e+03	7.127405024944559742e-01
1.810000000000000142e+01	6.048863094429588472e-01	2.579726013877743185e+01	1.787002785099999187e+02	-2.954278774710001585e+02	5.149576014201826183e+03	6.239008040561079271e-01
1.819999999999999929e+01	7.691452040229550535e-01	2.566049448339626338e+01	2.443354478360001565e+02	-3.176714182940000342e+02	5.133546651266286062e+03	7.933231480602271901e-01
1.830000000000000071e+01	3.558037557699489928e-01	2.552296899031133393e+01	1.028419996000001220e+02	-2.890413547699996002e+02	5.120621356066121734e+03	3.669883841733529439e-01
1.840000000000000213e+01	1.007774016102464865e+00	2.539045442288317744e+01	2.435014951928999380e+02	-2.416231132199999934e+02	5.188701187289890186e+03	1.039453214823458538e+00
1.850000000000000000e+01	3.458552229569402114e-01	2.525580604008787589e+01	1.018964064249997676e+02	-2.946215631900001881e+02	5.211631962981671677e+03	3.567271209833648982e-01
1.860000000000000142e+01	5.041913920341929423e-01	2.512344446442983426e+01	1.773050512799997875e+02	-3.516621943200002534e+02	5.239807065965676884e+03	5.200405596515902396e-01
1.869999999999999929e+01	5.688906593567197856e-01	2.499283513567944581e+01	1.667048254399998370e+02	-2.930349140000002990e+02	5.246060517850805809e+03	5.867736370484628594e-01
1.880000000000000071e+01	1.217715565448275195e-01	2.486124220668931528e+01	4.631866456000002330e+01	-3.803734293480006841e+02	5.304757120306900106e+03	1.255994239800959644e-01
1.890000000000000213e+01	8.005226108941709828e-01	2.473460684039565294e+01	1.544067888399999333e+02	-1.928824829414000135e+02	5.307107914005144266e+03	8.256868981906859695e-01
1.900000000000000000e+01	7.124991986342382733e-01	2.460883664331837295e+01	1.907771105921997616e+02	-2.677576493529998629e+02	5.348155886852212461e+03	7.348964854678252667e-01
1.910000000000000142e+01	4.634615913055932790e-01	2.448307948158914016e+01	1.558432939800000554e+02	-3.362593511600003353e+02	5.360575294422214938e+03	4.780304248098548592e-01
1.919999999999999929e+01	5.673559835244864624e-01	2.435916381579605527e+01	1.536639199050000002e+02	-2.708421597150002071e+02	5.422761443994061665e+03	5.851907189517090435e-01
1.930000000000000071e+01	3.008884512882524231e-01	2.423515208711302549e+01	9.949562594700009299e+01	-3.306727975800003492e+02	5.450525771099562917e+03	3.103468267661962932e-01
1.940000000000000213e+01	6.716117378914514546e-01	2.411431341865548106e+01	1.981182629799997414e+02	-2.949892799700001547e+02	5.431897650690970295e+03	6.927237345971216653e-01
1.950000000000000000e+01	6.427721330590102644e-01	2.399456065699427754e+01	2.535828294349996668e+02	-3.945143486980000489e+02	5.416812003631245716e+03	6.629775618656039704e-01
1.960000000000000142e+01	4.789098877338343052e-01	2.387519187136351206e+01	1.188701497160002560e+02	-2.482098464879998403e+02	5.486215959180927712e+03	4.939643357157778580e-01
1.969999999999999929e+01	3.101957738509233953e-01	2.375617673955789044e+01	1.139421261310000943e+02	-3.673232704510003828e+02	5.506523090179368410e+03	3.199467233745482142e-01
1.980000000000000071e+01	5.998512271054390332e-01	2.363981329477169879e+01	1.574213012499994875e+02	-2.624339071700001682e+02	5.530697185436618383e+03	6.187074447920171139e-01
1.990000000000000213e+01	4.281718675622164239e-01	2.352375508763564937e+01	1.564047501179998392e+02	-3.652849754200002508e+02	5.522082025948887349e+03	4.416313748153418151e-01
2.000000000000000000e+01	7.524025839555249506e-01	2.341046477667206815e+01	2.172057833049999545e+02	-2.886829311020005093e+02	5.607604668796096121e+03	7.760542266794555610e-01
2.010000000000000142e+01	6.076267535137341858e-01	2.329757943992375857e+01	1.698640213099997425e+02	-2.795532295570002361e+02	5.614758872338795300e+03	6.267273935036391519e-01
2.019999999999999929e+01	6.792994780877097405e-01	2.318615934158959391e+01	1.952776289359998430e+02	-2.874691284700001006e+02	5.604700733935877906e+03	7.006531375525910654e-01
2.030000000000000071e+01	2.246590647379702876e-01	2.307360296768345620e+01	6.294462934999994985e+01	-2.801784536199998570e+02	5.697025569345515578e+03	2.317211828741687074e-01
2.040000000000000213e+01	5.754870048160979357e-01	2.296385606054752060e+01	2.221899108979999653e+02	-3.860902314710003793e+02	5.659869298630421326e+03	5.935773374656996282e-01
2.050000000000000000e+01	5.652143412458083827e-01	2.285512479006547082e+01	1.522321425399998702e+02	-2.693352440500001421e+02	5.713805981014770623e+03	5.829817545251571032e-01
2.060000000000000142e+01	5.899088008614340461e-01	2.274756336016593394e+01	1.988387932149998960e+02	-3.370670058229999313e+02	5.733630649582906699e+03	6.084524801299541208e-01
2.069999999999999929e+01	3.050404712379503058e-01	2.263966661550762893e+01	9.154697692600009873e+01	-3.001141997797001864e+02	5.782041607180204664e+03	3.146293647318167408e-01
2.080000000000000071e+01	4.384887601026751791e-01	2.253344088414205615e+01	1.302226288819997819e+02	-2.969805402800000138e+02	5.824004020256426884e+03	4.522725770559418157e-01
2.090000000000000213e+01	5.756217865418796764e-01	2.242887984082015151e+01	1.677019925599998658e+02	-2.913405928700000800e+02	5.841766255953658401e+03	5.937163560312954669e-01
2.100000000000000000e+01	3.481388173692647192e-01	2.232423177909763368e+01	1.257145489199995723e+02	-3.611046589690007522e+02	5.797038954131126957e+03	3.590824997838858446e-01
2.110000000000000142e+01	5.885755798833623986e-01	2.222170509891266121e+01	1.870396958290001521e+02	-3.177836495800007128e+02	5.896683021601216751e+03	6.070773495852251900e-01
2.119999999999999929e+01	5.346345074945874076e-01	2.211988786608909763e+01	1.717168532299997423e+02	-3.211855030359000693e+02	5.860230857692731661e+03	5.514406490852628018e-01
2.130000000000000071e+01	2.877613941007966525e-01	2.201786858350972054e+01	1.173169444799998047e+02	-4.076882684231999292e+02	5.864778101394493206e+03	2.968071228478081913e-01
2.140000000000000213e+01	9.453178923703006165e-01	2.191985671983000117e+01	2.181261060099999440e+02	-2.307436554099998318e+02	5.898618746123307574e+03	9.750337938406803406e-01
2.150000000000000000e+01	2.316034377948707756e-01	2.181944813982057951e+01	8.218319839800003024e+01	-3.548444668200003207e+02	5.944453658052340870e+03	2.388838510751661870e-01
2.160000000000000142e+01	5.795779747329586895e-01	2.172156855380634966e+01	1.912979139999995937e+02	-3.300641541599995321e+02	5.918900728935392181e+03	5.977969063014519913e-01
2.169999999999999929e+01	2.886744082371300313e-01	2.162325252561566558e+01	8.791540902000008373e+01	-3.045486766800001419e+02	5.992154745507786174e+03	2.977488374227297840e-01
2.180000000000000071e+01	5.702163257109410521e-01	2.152711994022796915e+01	1.838531014189997279e+02	-3.224269336550004823e+02	6.010751188328169519e+03	5.881409754910710275e-01
2.190000000000000213e+01	2.564975095541843775e-01	2.143043529281581883e+01	1.187595839390000663e+02	-4.630048227189996624e+02	5.947495545726425007e+03	2.645604635962350293e-01
2.200000000000000000e+01	2.681421965590474188e-01	2.133467831047981278e+01	9.884339263999980574e+01	-3.686230437000003235e+02	6.004159268781880201e+03	2.765711992863951196e-01
2.210000000000000142e+01	6.084593597460258296e-01	2.124131696385488866e+01	2.180639944099994239e+02	-3.583871147959996506e+02	6.108078928252360129e+03	6.275861725662157387e-01
2.219999999999999929e+01	3.292533873956418611e-01	2.114754089400529224e+01	1.121413539889997537e+02	-3.405928633749998653e+02	6.068829297204864815e+03	3.396034096448822814e-01
2.230000000000000071e+01	3.688943512282100712e-01	2.105477907908217716e+01	1.723364324258001261e+02	-4.671701582093003822e+02	6.124691228400432919e+03	3.804904801945103165e-01
2.240000000000000213e+01	3.787816410012206925e-01	2.096288575713515101e+01	1.612254513590001181e+02	-4.256422009599999114e+02	6.155889094591056164e+03	3.906885751803231277e-01
2.250000000000000000e+01	4.512502701683072659e-01	2.087212630807777458e+01	1.441594891199999040e+02	-3.194668206319994397e+02	6.188743157665775470e+03	4.654352429431068416e-01
2.260000000000000142e+01	6.000068147101778049e-01	2.078282181691756492e+01	1.717996020759993598e+02	-2.863294180400000641e+02	6.229244849410417373e+03	6.188679232657109397e-01
2.269999999999999929e+01	3.179223897952500044e-01	2.069306348609685386e+01	1.377740907099999959e+02	-4.333576216469999736e+02	6.246934706967238526e+03	3.279162241303802960e-01
2.280000000000000071e+01	5.234604289501234575e-01	2.060498661685166866e+01	2.293441096899998968e+02	-4.381307487749992333e+02	6.228378529223519763e+03	5.399153153495774848e-01
2.290000000000000213e+01	7.286402801045356314e-01	2.051856771973537974e+01	2.529262406699999701e+02	-3.471208600130004811e+02	6.236351208205520379e+03	7.515449589915979001e-01
2.300000000000000000e+01	4.783177416614425859e-01	2.043181339082596537e+01	2.085257042570000863e+02	-4.359564492270001779e+02	6.320635698255410716e+03	4.933535756358810587e-01
2.310000000000000142e+01	3.535095390368699353e-01	2.034526897767170439e+01	1.303457059209995919e+02	-3.687190627899999527e+02	6.311154179666345954e+03	3.646220491412952014e-01
2.319999999999999929e+01	5.288319309886144737e-01	2.026021989163443493e+01	1.859024531629999615e+02	-3.515340929120302462e+02	6.344063163124115817e+03	5.454556696086939604e-01
2.330000000000000071e+01	4.757736022410294918e-01	2.017567097586779923e+01	1.911128608570002427e+02	-4.016886602300003801e+02	6.384026917461345874e+03	4.907294616408258703e-01
2.340000000000000213e+01	3.801975648206229463e-01	2.009143491879951426e+01	1.401302213829999630e+02	-3.685721171021001510e+02	6.366777795535709629e+03	3.921490083156354278e-01
2.350000000000000000e+01	5.687257832854353268e-01	2.000871157500496267e+01	2.106903588209997338e+02	-3.704603607100001454e+02	6.422951868711601492e+03	5.866035781269132166e-01
2.360000000000000142e+01	2.089738325567014054e-01	1.992516837777944261e+01	9.122406475799992620e+01	-4.365334340760002192e+02	6.399557035117631131e+03	2.155428881815472653e-01
2.369999999999999929e+01	5.539298912567961475e-01	1.984377661943270965e+01	1.911677486199999692e+02	-3.451118122300003961e+02	6.449508968864916824e+03	5.713425798380011855e-01
2.380000000000000071e+01	2.464466142702354257e-01	1.976177942275839072e+01	9.506828886000003820e+01	-3.857561165590007590e+02	6.506358409705109807e+03	2.541936201890594438e-01
2.390000000000000213e+01	3.831577645069741411e-01	1.968103516584900703e+01	1.688720361019998677e+02	-4.407376066600004947e+02	6.481254980760159015e+03	3.952022613578177190e-01
2.400000000000000000e+01	1.719835794686324637e-01	1.960008474432875758e+01	8.593083280999998408e+01	-4.996455654399997002e+02	6.534093014560750817e+03	1.773898530018654107e-01
2.410000000000000142e+01	4.171957163420620951e-01	1.952081660784947559e+01	1.718320436949998111e+02	-4.118739406090002717e+02	6.539888914317223680e+03	4.303101902145495261e-01
2.419999999999999929e+01	2.281973395831569107e-01	1.944142311291833636e+01	9.431690215599988392e+01	-4.133128910630005635e+02	6.530666733246641343e+03	2.353706827660018708e-01
2.430000000000000071e+01	2.179969927723192924e-01	1.936263857963905011e+01	8.638787848600017583e+01	-3.962801384889997962e+02	6.565178739556531582e+03	2.248496898495092322e-01
2.440000000000000213e+01	3.960137749591221556e-01	1.928522378451790686e+01	1.483198475540001766e+02	-3.745320413900002450e+02	6.609580547654946713e+03	4.084623982345066961e-01
2.450000000000000000e+01	3.253192272911502592e-01	1.920815100176495349e+01	1.650633538200000601e+02	-5.073888659900008520e+02	6.591838043610924615e+03	3.355455799103356784e-01
2.460000000000000142e+01	3.587780962647957872e-01	1.913183775113539653e+01	1.774955099699999153e+02	-4.947222581809998019e+02	6.622067913755077825e+03	3.700562225378556391e-01
2.469999999999999929e+01	1.423109458434643204e-01	1.905526707853341506e+01	6.317058601999982415e+01	-4.438912667300000976e+02	6.678693157442196025e+03	1.467844653642229324e-01
2.480000000000000071e+01	3.004947560637828974e-01	1.897994670776044401e+01	1.437684203137998509e+02	-4.784390323380006862e+02	6.689525076957927013e+03	3.099407558016777364e-01
2.490000000000000213e+01	1.134224747664697303e-01	1.890448061082846820e+01	4.846757252000008265e+01	-4.273189473232001774e+02	6.723011283892124993e+03	1.169878902863600162e-01
2.500000000000000000e+01	3.272107093442544468e-01	1.883046758333251702e+01	1.331022232599998745e+02	-4.067783219160000954e+02	6.730564102539398846e+03	3.374965203686776105e-01
2.510000000000000142e+01	2.133717609318599440e-01	1.875659021895790701e+01	1.058568974720000000e+02	-4.961148420470002520e+02	6.717294059144871426e+03	2.200790646606767542e-01
2.519999999999999929e+01	2.075226517898855760e-01	1.868327374636040616e+01	8.890724408699968251e+01	-4.284218774199999302e+02	6.746635671735221877e+03	2.140460898028884174e-01
2.530000000000000071e+01	2.891721884993986857e-01	1.861085602369166381e+01	1.452875568199999350e+02	-5.024257608379999738e+02	6.786032140133488610e+03	2.982622653198807039e-01
2.540000000000000213e+01	5.938733457213619671e-01	1.854020118966040798e+01	1.837716877099996395e+02	-3.094459265330002609e+02	6.797224524353218840e+03	6.125416497593731968e-01
2.550000000000000000e+01	1.812984186015344501e-01	1.846848672571096017e+01	9.335651569699996344e+01	-5.149328737510004430e+02	6.785176318949964298e+03	1.869975024625098459e-01
2.560000000000000142e+01	4.758540213621307441e-02	1.839681006686436504e+01	2.181590962900000008e+01	-4.584580280850001373e+02	6.816056219535954369e+03	4.908124087228366017e-02
2.569999999999999929e+01	1.383488618463842301e-01	1.832604083738755207e+01	6.161083622000001014e+01	-4.453295487779989799e+02	6.827522216544444746e+03	1.426978339544419383e-01
2.580000000000000071e+01	2.264350815349926438e-01	1.825615818968155679e+01	1.075038634100001644e+02	-4.747668191749996822e+02	6.870943525095783116e+03	2.335530284464380213e-01
2.590000000000000213e+01	9.230316296677949783e-02	1.818629720880957734e+01	4.757145392109998028e+01	-5.153827062050003178e+02	6.878032899885566621e+03	9.520469663948689931e-02
2.600000000000000000e+01	2.781734574555843054e-01	1.811768370784653470e+01	1.257118049999999698e+02	-4.519187637449998647e+02	6.918106987072041193e+03	2.869177911026480343e-01
2.610000000000000142e+01	2.530821822500948781e-01	1.804949820584043962e+01	8.307671638399995118e+01	-3.282598389400002930e+02	6.912135821199201018e+03	2.610377760798015534e-01
2.619999999999999929e+01	2.063056439991021174e-01	1.798165336720226293e+01	1.028633927170002096e+02	-4.985970850000007317e+02	6.938296595972366049e+03	2.127908255865242348e-01
2.630000000000000071e+01	5.933284427159931651e-01	1.791578850006405688e+01	2.332886551199999587e+02	-3.931863674900000660e+02	6.941726182155841343e+03	6.119796178239913509e-01
2.640000000000000213e+01	1.060480804384340281e-01	1.784858193244282631e+01	4.903393906300000538e+01	-4.623746027299998786e+02	6.958542055696646457e+03	1.093816831712985937e-01
2.650000000000000000e+01	1.261298736443077217e-01	1.778195617282328556e+01	6.260006307109998147e+01	-4.963143247699998142e+02	6.951009692276118585e+03	1.300947440100719277e-01
2.660000000000000142e+01	3.223834091796040635e-01	1.771656451453248593e+01	1.633049024869998505e+02	-5.065549213670004178e+02	7.038244004077389036e+03	3.325174748734686103e-01
2.669999999999999929e+01	1.732558785161137094e-01	1.765110440768167521e+01	8.234855166200003396e+01	-4.753001881799998500e+02	6.959405390470981729e+03	1.787021465458445424e-01
2.680000000000000071e+01	2.287782270462259127e-01	1.758633739585775402e+01	1.290211552640001287e+02	-5.639573176600003990e+02	7.011708318281678658e+03	2.359698303241745954e-01
2.690000000000000213e+01	1.852280214179965190e-01	1.752188884261908797e+01	8.559174733999986984e+01	-4.620885473200000888e+02	7.073599270382173017e+03	1.910506316514802294e-01
2.700000000000000000e+01	1.203061268752580459e-01	1.745767636027316883e+01	6.180789512079995518e+01	-5.137551737899997306e+02	7.032159741775125440e+03	1.240879287869347258e-01
2.710000000000000142e+01	3.512272955545828190e-01	1.739478500341758505e+01	1.789769492699997215e+02	-5.095758545400001367e+02	7.095329884525236594e+03	3.622680637370594980e-01
2.719999999999999929e+01	2.086738351704917060e-01	1.733183221525550621e+01	9.758570440000011104e+01	-4.676470546500004275e+02	7.039946451474611422e+03	2.152334604303334509e-01
2.730000000000000071e+01	1.549975091019439588e-01	1.726914303749582302e+01	8.098330537000012441e+01	-5.224813343080004415e+02	7.056707997681538473e+03	1.598698285045512535e-01
2.740000000000000213e+01	4.764952349200540227e-01	1.720807886366827688e+01	1.921543744829998559e+02	-4.032660988000002931e+02	7.160992710809230630e+03	4.914737787160315952e-01
2.750000000000000000e+01	2.602667878604127405e-01	1.714667374745157957e+01	1.250451683399999467e+02	-4.804499620099996946e+02	7.112892848724556643e+03	2.684482285022266601e-01
2.760000000000000142e+01	3.073843975408796503e-01	1.708588208914865447e+01	1.238366560200000634e+02	-4.028722895850001464e+02	7.184762806686490876e+03	3.170469719452989055e-01
2.769999999999999929e+01	1.660081821235239175e-01	1.702501923336798839e+01	7.313842685999998139e+01	-4.405712171799996213e+02	7.176090630903308920e+03	1.712266200935174953e-01
2.780000000000000071e+01	6.042893980432727935e-02	1.696421425023693530e+01	2.778828047000004631e+01	-4.598505378380003208e+02	7.165718082737022996e+03	6.232851288516925298e-02
2.790000000000000213e+01	3.726513223518989060e-01	1.690495866835163241e+01	1.595402465739996103e+02	-4.281220460109998953e+02	7.185632970340614520e+03	3.843655510438466205e-01
2.800000000000000000e+01	2.819826669342084258e-01	1.684580217012594616e+01	1.327052016209999863e+02	-4.706147475793697481e+02	7.304105581193442958e+03	2.908467424104075327e-01
2.810000000000000142e+01	1.353923871521226507e-01	1.678654539784589872e+01	6.898748048300001301e+01	-5.095373671600002012e+02	7.256553939924883707e+03	1.396484229988195769e-01
2.819999999999999929e+01	1.746618113813018791e-01	1.672784616255803769e+01	6.181046612000003648e+01	-3.538865515659999232e+02	7.250626533821665362e+03	1.801522746630564997e-01
2.830000000000000071e+01	6.379755430107854342e-02	1.666916993506417199e+01	2.964436328999996206e+01	-4.646630049500001860e+02	7.262474396483378769e+03	6.580301918539221973e-02
2.840000000000000213e+01	3.673735315254202938e-01	1.661197064943772261e+01	1.710329787389997875e+02	-4.655560732120006264e+02	7.331377509854605705e+03	3.789218537921890118e-01
2.850000000000000000e+01	1.301081730002413665e-02	1.655393232834633110e+01	7.322513019999992601e+00	-5.628019248249999009e+02	7.278930705683239466e+03	1.341981005056564272e-02
2.860000000000000142e+01	2.148586750968136949e-01	1.649700175812595049e+01	1.168770674700001138e+02	-5.439718336592003425e+02	7.353292537873053334e+03	2.216127197105511037e-01
2.869999999999999929e+01	1.371896824382171920e-01	1.644019685508536810e+01	6.413897516000004373e+01	-4.675203996400003916e+02	7.426806549585228822e+03	1.415022159457177686e-01
2.880000000000000071e+01	2.144497780967078437e-01	1.638405240153177189e+01	1.146388521000000651e+02	-5.345720248229996514e+02	7.379938148853238090e+03	2.211909691052562077e-01
2.890000000000000213e+01	2.361717373430925748e-01	1.632837005441388101e+01	1.096649297700000005e+02	-4.643440023930002098e+02	7.395476702250184644e+03	2.435957543151807403e-01
2.900000000000000000e+01	3.376989220812106063e-01	1.627341929450895819e+01	1.667310941599999978e+02	-4.937270546570003944e+02	7.350186090814607269e+03	3.483144282259814095e-01
2.910000000000000142e+01	2.252652435625732974e-01	1.621845986282763619e+01	1.090467353999999602e+02	-4.840814928900000496e+02	7.406394059862366703e+03	2.323464168233713156e-01
2.919999999999999929e+01	1.217364642735041802e-01	1.616352224030697471e+01	6.294173880000002441e+01	-5.170327491899995493e+02	7.420775611244411266e+03	1.255632285894035249e-01
2.930000000000000071e+01	2.376046974199342576e-01	1.610935245274613337e+01	9.868331890000000328e+01	-4.153256226478997064e+02	7.427000074967847468e+03	2.450737592396848852e-01
2.940000000000000213e+01	2.844431601901415974e-01	1.605570869243238263e+01	1.637318866800001160e+02	-5.756225130200014064e+02	7.448860719865186184e+03	2.933845808385330267e-01
2.950000000000000000e+01	1.509402374458526375e-01	1.600197636657094336e+01	6.205379953800011350e+01	-4.111150253110004087e+02	7.491296774408404417e+03	1.556850172284611200e-01
2.960000000000000142e+01	9.152773925952621681e-02	1.594840583247224863e+01	4.935547512700004802e+01	-5.392406228570004032e+02	7.496335673778234195e+03	9.440489762455298028e-02
2.969999999999999929e+01	1.766986174327206949e-01	1.589548064047547449e+01	7.659803262200004781e+01	-4.334953704499997684e+02	7.544370228629926714e+03	1.822531073540076263e-01
2.980000000000000071e+01	1.644150796672785297e-01	1.584286838107477813e+01	6.350061545000008323e+01	-3.862213586399995506e+02	7.565299625770914645e+03	1.695834387421151501e-01
2.990000000000000213e+01	2.555987104138900401e-01	1.579091081550590658e+01	1.115527526310001178e+02	-4.364370714170003112e+02	7.492722717978437686e+03	2.636334108632495954e-01
3.000000000000000000e+01	2.055220856130008933e-01	1.573913211540659418e+01	9.207652871000004779e+01	-4.480128178700006174e+02	7.644087694451416610e+03	2.119826361805453585e-01
3.010000000000000142e+01	2.344411966362456856e-01	1.568779207925172692e+01	1.125024962200001681e+02	-4.798751151000001300e+02	7.592682124377352920e+03	2.418108143659729592e-01
3.019999999999999929e+01	3.597157290391649054e-02	1.563613590596344949e+01	-1.539249163799999920e+01	-4.279071054000006029e+02	7.522927914230321221e+03	3.710233296333641934e-02
3.030000000000000071e+01	3.236367895871748446e-01	1.558576584308063673e+01	1.867908533599994882e+02	-5.771619895200001338e+02	7.600637623120628632e+03	3.338102550734234342e-01
3.040000000000000213e+01	3.460073773738151504e-01	1.553579942188159713e+01	1.344077982700000291e+02	-3.884535621470006959e+02	7.590519664402360831e+03	3.568840583475390016e-01
3.050000000000000000e+01	1.345460208366825450e-01	1.548546852841413113e+01	7.720422281539995879e+01	-5.738127544412004681e+02	7.627600049069040324e+03	1.387754513073038987e-01
3.060000000000000142e+01	1.079284033181100583e-01	1.543537882116626037e+01	5.145195260000001269e+01	-4.767230035670001485e+02	7.659237568181652023e+03	1.113211136695608505e-01
3.069999999999999929e+01	5.051054093045184018e-02	1.538542795012653208e+01	2.419500602999995209e+01	-4.790090461180004127e+02	7.713312719682552597e+03	5.209833088938443935e-02
3.080000000000000071e+01	1.947161732919387156e-01	1.533626707058985161e+01	1.021665357860001109e+02	-5.246946571449996100e+02	7.714708937727152261e+03	2.008370419086580316e-01
3.090000000000000213e+01	1.115976598093717381e-01	1.528715523378088292e+01	5.464775575999983204e+01	-4.896854992599999719e+02	7.650819887558223854e+03	1.151057125924467572e-01
3.100000000000000000e+01	9.877114911598076918e-02	1.523831798592022402e+01	5.510185514400006213e+01	-5.578739909089991897e+02	7.706412255362964970e+03	1.018760027942362673e-01
3.110000000000000142e+01	1.815847084639274633e-01	1.519005922541555620e+01	9.215695446199990215e+01	-5.075149512400007552e+02	7.694877316397637514e+03	1.872927917963097821e-01
3.119999999999999929e+01	1.298502714077757192e-01	1.514194354185642588e+01	6.995008198200002880e+01	-5.386980036593998875e+02	7.767326684864456183e+03	1.339320918220496814e-01
3.130000000000000071e+01	1.345730182016498522e-01	1.509414936821421449e+01	-6.259067215900005010e+01	-4.651056578459997013e+02	7.753487598975697438e+03	1.388032973296845496e-01
3.140000000000000213e+01	6.089130076323863439e-02	1.504642473942865344e+01	3.564194008600005503e+01	-5.853371440459989117e+02	7.789048254507180900e+03	6.280540807939938297e-02
3.150000000000000000e+01	2.225740226753767925e-01	1.499951381943892947e+01	9.644490004000006422e+01	-4.333160666313000888e+02	7.804028681908809631e+03	2.295705978815263115e-01
3.160000000000000142e+01	1.413001438502387574e-01	1.495264248292287590e+01	7.599511426999994512e+01	-5.378275789340007123e+02	7.806344835956729185e+03	1.457418889883487501e-01
3.169999999999999929e+01	1.631750964161980122e-01	1.490613472384580973e+01	8.092182941299995491e+01	-4.959202181599999903e+02	7.760069452810659641e+03	1.683044768359055754e-01
3.180000000000000071e+01	2.255741266764854924e-01	1.486011415771048583e+01	1.009312496499999128e+02	-4.474416066110000543e+02	7.829611073625330391e+03	2.326650096235731435e-01
3.190000000000000213e+01	2.809081962448791159e-01	1.481455413908090257e+01	1.565622628099997087e+02	-5.573431637200005753e+02	7.794306498022009691e+03	2.897384959241800506e-01
3.200000000000000000e+01	1.749324943486301465e-01	1.476894784112223746e+01	9.002487924200002567e+01	-5.146263967550005418e+02	7.920842465172639095e+03	1.804314665017938135e-01
3.210000000000000142e+01	1.497791025853577040e-01	1.472354669597150156e+01	7.534457873700016250e+01	-5.030379901899999595e+02	7.838781925071429214e+03	1.544873822981095157e-01
3.220000000000000284e+01	1.958242423390706144e-01	1.467856922707480472e+01	1.060155744920001268e+02	-5.413812571195023793e+02	7.856451518256470990e+03	2.019799429111487632e-01
3.229999999999999716e+01	2.384106076730720669e-01	1.463400083627418269e+01	1.160456795900000770e+02	-4.867471322800003577e+02	7.861261267444710938e+03	2.459050031397043423e-01
3.239999999999999858e+01	2.350663269735558114e-01	1.458969642239941322e+01	1.201082609000002179e+02	-5.109547694319995230e+02	7.904499108499091562e+03	2.424555955653471540e-01
3.250000000000000000e+01	2.599639077356223366e-03	1.454495072674505174e+01	-1.121807049999979045e+00	-4.315241526299998895e+02	7.933402758197077674e+03	2.681358273940525217e-03
3.260000000000000142e+01	1.665501282311459275e-01	1.450098008271289629e+01	9.380114099850003129e+01	-5.632006531289996474e+02	7.951860844654474022e+03	1.717856021815925838e-01
3.270000000000000284e+01	1.393045057529488373e-01	1.445719448644167748e+01	7.387804522999998369e+01	-5.303349294459997054e+02	7.912126789664153875e+03	1.436835183589146303e-01
3.279999999999999716e+01	1.746907803560951711e-01	1.441378262107363639e+01	8.066410238600023774e+01	-4.617536324560002186e+02	7.967899721185372982e+03	1.801821542724708070e-01
3.289999999999999858e+01	1.809042649245192202e-01	1.437065268666106377e+01	8.204678553300000488e+01	-4.535370438459996194e+02	8.006318824302625217e+03	1.865909586340705195e-01
3.300000000000000000e+01	1.273114218775043271e-01	1.432762144416927086e+01	7.142304867399987245e+01	-5.610105332318197497e+02	8.045635361391253355e+03	1.313134340039011916e-01
3.310000000000000142e+01	2.206095484550359420e-01	1.428513044448338576e+01	7.611513550499998360e+01	-3.450219450520002056e+02	8.026295220724510727e+03	2.275443707600249832e-01
3.320000000000000284e+01	2.162163277548044549e-01	1.424288145314185705e+01	9.445188158999999928e+01	-4.368397270030002346e+02	8.039730300685361726e+03	2.230130499407548539e-01
3.329999999999999716e+01	3.873976471063172999e-01	1.420139796869264792e+01	1.959012457279997648e+02	-5.056851717899997425e+02	8.017862706754128340e+03	3.995754239200018931e-01
3.339999999999999858e+01	2.377980763874341652e-01	1.415971558095442440e+01	1.146343616800000405e+02	-4.820659755600008225e+02	8.098590277367738054e+03	2.452732170409729351e-01
3.350000000000000000e+01	4.873212439854868877e-02	1.411771860638133980e+01	2.386228726400006295e+01	-4.896623645800000304e+02	7.994254665260239562e+03	5.026401014699097280e-02
3.360000000000000142e+01	1.867542462445489493e-01	1.407638043320586085e+01	1.012515053659998472e+02	-5.421644080500001337e+02	8.085888892286148803e+03	1.926248330866777714e-01
3.370000000000000284e+01	5.246209661719955508e-02	1.403488955055323117e+01	3.009958033999999216e+01	-5.737395621000005121e+02	8.045752689975056455e+03	5.411123338546413447e-02
3.379999999999999716e+01	1.312805200330275646e-01	1.399387595459299583e+01	5.606348516000018378e+01	-4.270510594100002209e+02	8.111205360236785054e+03	1.354073000609607447e-01
3.389999999999999858e+01	1.330530098500851965e-01	1.395310882828492538e+01	7.839937983300001179e+01	-5.892341700600004515e+02	8.084299584824900194e+03	1.372355077832712600e-01
3.400000000000000000e+01	6.797586878656715348e-02	1.391238996330106303e+01	3.221782439600015380e+01	-4.739597296970006823e+02	8.139270819963989197e+03	7.011267825090534977e-02
3.410000000000000142e+01	1.456469525212094607e-01	1.387213632876661862e+01	7.314393573500008472e+01	-5.022002484010002377e+02	8.164823903114540371e+03	1.502253388243917354e-01
3.420000000000000284e+01	2.077034303113829139e-01	1.383229833197811764e+01	1.298087401200000954e+02	-6.249715756999999030e+02	8.165619334667945623e+03	2.142325510653728116e-01
3.430000000000000426e+01	2.788808306731547018e-02	1.379216923241733106e+01	1.563172913499998273e+01	-5.605164434310007664e+02	8.224944420977604750e+03	2.876474004727400113e-02
3.439999999999999858e+01	9.307234907500769316e-02	1.375246170521923617e+01	4.156908549000002040e+01	-4.466319578599997158e+02	8.223204358800321643e+03	9.599806197756885484e-02
3.450000000000000000e+01	1.683976775585175889e-01	1.371320140456125714e+01	8.362836194000016121e+01	-4.966123235929997008e+02	8.243137383400604449e+03	1.736912288967053797e-01
3.460000000000000142e+01	2.223736413314409410e-01	1.367432293838480284e+01	1.119531343100002090e+02	-5.034460633000004464e+02	8.252840704059917698e+03	2.293639175853321999e-01
3.470000000000000284e+01	9.373265081365832196e-02	1.363529825365040260e+01	4.319471999999993272e+01	-4.608289600800000585e+02	8.273955200504189634e+03	9.667912018509078331e-02
3.480000000000000426e+01	2.007712351990122435e-01	1.359680390689266183e+01	1.056807862080002565e+02	-5.263741397179996966e+02	8.221863002795309512e+03	2.070824436204468655e-01
3.489999999999999858e+01	2.827333520916997522e-01	1.355876370530751629e+01	1.588424231899998347e+02	-5.618099952300002542e+02	8.225318517469037033e+03	2.916210252236243750e-01
3.500000000000000000e+01	1.807783625068043742e-01	1.352064978695196018e+01	9.167736638399996707e+01	-5.071257705443000532e+02	8.273399332381512068e+03	1.864610984960269890e-01
3.510000000000000142e+01	3.479552521354474515e-02	1.348233770098111250e+01	1.680453850499998225e+01	-4.829511381670000674e+02	8.277954821486455330e+03	3.588931642092705460e-02
3.520000000000000284e+01	6.476820863503215953e-02	1.344432758910477688e+01	-3.061299964099999471e+01	-4.726547219100001485e+02	8.312377593093440737e+03	6.680418586739547693e-02
3.530000000000000426e+01	1.033174747805191626e-02	1.340637844830922276e+01	-6.384879330000018172e+00	-6.179863903530002744e+02	8.370433760091520526e+03	1.065652414054035768e-02
3.539999999999999858e+01	6.790313157351579587e-02	1.336880527840292388e+01	3.537500030099997161e+01	-5.209627226500000461e+02	8.396599142316059442e+03	7.003765455637118997e-02
3.550000000000000000e+01	2.142398530617178887e-01	1.333185425192724516e+01	1.090620772309999467e+02	-5.090653100830007816e+02	8.337858720901500419e+03	2.209744451137604371e-01
3.560000000000000142e+01	1.122342505178087757e-01	1.329482450402413818e+01	4.974483799900010439e+01	-4.432233277230005797e+02	8.375745015645588865e+03	1.157623144176959801e-01
3.570000000000000284e+01	1.803388088532918432e-01	1.325819186241751702e+01	7.654377929000004599e+01	-4.244442989100004979e+02	8.371969538045059380e+03	1.860077275508243977e-01
3.580000000000000426e+01	1.415301169296558914e-01	1.322165520017381901e+01	6.563686964600029228e+01	-4.637660949479996475e+02	8.471036257388712329e+03	1.459790912310176825e-01
3.589999999999999858e+01	1.984194672108358926e-01	1.318547954536003175e+01	9.337216786000004731e+01	-4.705796723100005465e+02	8.451794994224084803e+03	2.046567482197229615e-01
3.600000000000000000e+01	1.722859404858500532e-01	1.314943191764569974e+01	1.021869407999997463e+02	-5.931240849475608456e+02	8.446319580745648636e+03	1.777017186844115915e-01
3.610000000000000142e+01	2.087844216565317157e-01	1.311368427262915404e+01	1.238646753899999311e+02	-5.932658883610001794e+02	8.431924803854062702e+03	2.153475231830871695e-01
3.620000000000000284e+01	5.627864746469357637e-02	1.307771345823476139e+01	3.029629804099999291e+01	-5.383266905979995727e+02	8.458115054026036887e+03	5.804775683673111392e-02
3.630000000000000426e+01	2.609070654116872334e-01	1.304250245166107192e+01	1.255641498299998347e+02	-4.812600595229998817e+02	8.423455358294104371e+03	2.691086330655686476e-01
3.639999999999999858e+01	1.066730550644105213e-01	1.300706182317724569e+01	6.506936922700018044e+01	-6.099888035240996942e+02	8.464624708223085690e+03	1.100263037645807934e-01
3.650000000000000000e+01	2.194931488149195753e-01	1.297212311095221082e+01	1.443776518389997250e+02	-6.577774869899992609e+02	8.547219652423193111e+03	2.263928772938264000e-01
3.660000000000000142e+01	1.240283596477741307e-01	1.293711467838734919e+01	5.058557008000001787e+01	-4.078548666099999309e+02	8.557829167809719365e+03	1.279271692911468083e-01
3.670000000000000284e+01	5.078459533926453495e-02	1.290209747707472054e+01	2.730179717999997990e+01	-5.375999749060000568e+02	8.574124249925602271e+03	5.238100015027549738e-02
3.680000000000000426e+01	2.009560616377537579e-01	1.286767703963450948e+01	1.175982827859999560e+02	-5.851940062300001273e+02	8.540836366154566349e+03	2.072730800457411593e-01
3.689999999999999858e+01	8.731840010655493589e-02	1.283313552979794814e+01	3.986462211699999614e+01	-4.565432035900000756e+02	8.612827650037968851e+03	9.006323863659849993e-02
3.700000000000000000e+01	3.911879023702243274e-01	1.279959928282375081e+01	1.826373949499998162e+02	-4.668789444750003668e+02	8.604568250050955612e+03	4.034848251906426597e-01
3.710000000000000142e+01	1.382828175989365693e-01	1.276556348587422107e+01	8.249345683000005636e+01	-5.965560889080007883e+02	8.592094811890032361e+03	1.426297136177065439e-01
3.720000000000000284e+01	2.425381188079891726e-01	1.273198969132444702e+01	1.320419942369999262e+02	-5.444174915100004455e+02	8.614530714838425411e+03	2.501622618602675208e-01
3.730000000000000426e+01	1.790944852185075431e-01	1.269842580039902913e+01	1.075246875600001033e+02	-6.003796679100007623e+02	8.592028392125002938e+03	1.847242888217136836e-01
3.739999999999999858e+01	1.167112216134217201e-01	1.266487456152226798e+01	5.457673449400001431e+01	-4.676219967499999370e+02	8.652537835109927983e+03	1.203800183112774397e-01
3.750000000000000000e+01	5.952624835827890343e-02	1.263134969898725757e+01	3.907880752000002644e+01	-6.564970680629993467e+02	8.643358729800509536e+03	6.139744549248384725e-02
3.760000000000000142e+01	1.940999786710195241e-01	1.259835964667872688e+01	9.911328910999985453e+01	-5.106300875900001301e+02	8.688331001889240724e+03	2.002014773183458940e-01
3.770000000000000284e+01	5.526009713321642508e-02	1.256517684363760168e+01	3.115597832700006720e+01	-5.638060724339994749e+02	8.619884389209259098e+03	5.699718855495693876e-02
3.780000000000000426e+01	1.850283838126680902e-01	1.253251154427130665e+01	8.620052642000007381e+01	-4.658773137599999927e+02	8.701789530216903586e+03	1.908447184731857094e-01
3.789999999999999858e+01	8.599088129131754465e-02	1.249975754252662341e+01	5.887959731450011702e+01	-6.847190821899990851e+02	8.681013050782052233e+03	8.869398950118832781e-02
3.800000000000000000e+01	3.428500820342822875e-03	1.246695877863762902e+01	-1.874602143999965831e+00	-5.467702188890012849e+02	8.765344009447208009e+03	3.536275139850270002e-03
3.810000000000000142e+01	1.824283392321031927e-01	1.243480032198997165e+01	9.713725367800005017e+01	-5.324680040770010692e+02	8.737573897581543861e+03	1.881629419491145649e-01
3.820000000000000284e+01	2.545202967002320182e-01	1.240299802427380982e+01	1.269609678299999160e+02	-4.988245317799999725e+02	8.725237732658086315e+03	2.625210974044179801e-01
3.830000000000000426e+01	1.331154933015336328e-01	1.237104520518273709e+01	7.213998806499999716e+01	-5.419353245500001321e+02	8.692836176484699536e+03	1.372999553910122517e-01
3.839999999999999858e+01	2.131458898680442526e-01	1.233946624592218022e+01	9.235870643900017285e+01	-4.333121623700001805e+02	8.707282017401616031e+03	2.198460933797472816e-01
3.850000000000000000e+01	1.820587240208289964e-02	1.230754588226020907e+01	9.508927590000029184e+00	-5.223000238600008061e+02	8.751334160377848093e+03	1.877817079487654681e-02
3.860000000000000142e+01	2.686718305226247772e-01	1.227643768057613372e+01	1.244872120799999493e+02	-4.633430004099998882e+02	8.854332627840709392e+03	2.771174822003457106e-01
3.870000000000000284e+01	5.282275312825060465e-02	1.224493351839199029e+01	2.434769382300003926e+01	-4.609319352190000245e+02	8.795468273115840930e+03	5.448322707042625029e-02
3.880000000000000426e+01	1.574508662737739983e-01	1.221386029820659580e+01	8.448268909899994128e+01	-5.365654130610007542e+02	8.816178941737205605e+03	1.624003065270265278e-01
3.889999999999999858e+01	8.235215564967227064e-02	1.218275386707183294e+01	-4.721685472099984082e+01	-5.733529905624000094e+02	8.808883961872605141e+03	8.494088115979984976e-02
3.900000000000000000e+01	1.775254694390322463e-01	1.215204995812648114e+01	9.023150590999991039e+01	-5.082735800959997050e+02	8.781103345149347660e+03	1.831059513075238843e-01
3.910000000000000142e+01	1.637566766039378341e-01	1.212146757730627122e+01	6.682662769499998490e+01	-4.080849042669996152e+02	8.874992052653356950e+03	1.689043388944271584e-01
3.920000000000000284e+01	1.519742372527787266e-01	1.209101085125015551e+01	8.115073623700000383e+01	-5.339769273000001704e+02	8.834552287001883087e+03	1.567515206372242231e-01
3.930000000000000426e+01	6.745790507682561388e-02	1.206049421940707589e+01	3.463263717900003513e+01	-5.133962748999995256e+02	8.813072714667054242e+03	6.957843244316466724e-02
3.939999999999999858e+01	1.544872222727307343e-01	1.203035242954091366e+01	5.978661276100002908e+01	-3.870003737620004358e+02	8.943645613780152416e+03	1.593435008987263424e-01
3.950000000000000000e+01	2.165817644497789740e-01	1.200051967533613784e+01	-1.013008063860000050e+02	-4.677254645300004654e+02	8.880902955018831562e+03	2.233899740738802542e-01
3.960000000000000142e+01	2.901968469454612731e-01	1.197102264050391973e+01	1.422952098869999702e+02	-4.903403030900005319e+02	8.825944850307492743e+03	2.993191337237466332e-01
3.970000000000000284e+01	2.681590195511430325e-02	1.194101207080907301e+01	1.228061035800002898e+01	-4.579599962199997094e+02	8.841825390710855572e+03	2.765885511062846080e-02
3.980000000000000426e+01	9.480091038248134039e-02	1.191132231852730072e+01	4.009077234700006187e+01	-4.228943813435002994e+02	8.964565183410517420e+03	9.778096030533268979e-02
3.989999999999999858e+01	9.766263643143430206e-02	1.188178816932206239e+01	5.158730035600005692e+01	-5.282194116499997563e+02	8.984236922083475292e+03	1.007326442086669688e-01
4.000000000000000000e+01	2.239752083024788010e-01	1.185271631655144020e+01	1.080547170110000792e+02	-4.824405246900007000e+02	8.880844991458321601e+03	2.310158295320588751e-01
4.010000000000000142e+01	5.521054888644765651e-02	1.182336928727863956e+01	-2.828919012099999364e+01	-5.123874094999994213e+02	8.937475693738548216e+03	5.694608276777674699e-02
4.020000000000000284e+01	1.043507810949020065e-01	1.179428983689108890e+01	5.247025733200010222e+01	-5.028257266640000580e+02	8.956161967482255932e+03	1.076310295218074753e-01
4.030000000000000426e+01	1.250836919195797703e-01	1.176540566326491977e+01	7.551400771699982784e+01	-6.037078579800007674e+02	8.959205011485679279e+03	1.290156757470661830e-01
4.039999999999999858e+01	4.015823654525919190e-02	1.173645443505079911e+01	2.059503603899993962e+01	-5.128471220539998967e+02	8.945854452625335398e+03	4.142060363894757569e-02
4.050000000000000000e+01	2.212723170194518252e-01	1.170809191751870237e+01	1.051921896600001674e+02	-4.753969727299996180e+02	9.054435852198594148e+03	2.282279733375456865e-01
4.060000000000000142e+01	1.241210496733266382e-02	1.167935560348294821e+01	-6.935365708000013285e+00	-5.587582224169998426e+02	9.063418137864713572e+03	1.280227730113292842e-02
4.070000000000000284e+01	1.728798893740599724e-02	1.165077210442768951e+01	8.589418728000124403e+00	-4.968431411599999024e+02	8.942260381998708908e+03	1.783143382513243530e-02
4.080000000000000426e+01	1.551092432043859326e-01	1.162266534926577499e+01	8.840110318999994377e+01	-5.699280156599995735e+02	8.992366132147957615e+03	1.599850749488264390e-01
4.089999999999999858e+01	2.648003602343225460e-02	1.159438197045298757e+01	-1.074552337999990570e+01	-4.057971586780004145e+02	9.123667316456296248e+03	2.731243129253203838e-02
4.100000000000000000e+01	9.066699189013692484e-02	1.156639239629590143e+01	4.716388794600008083e+01	-5.201880746539991378e+02	9.066200632388714439e+03	9.351709281318983102e-02
4.110000000000000142e+01	2.709522346163824591e-01	1.153897627939862147e+01	1.868964320841000983e+02	-6.897763081700004477e+02	8.980289360545129966e+03	2.794695703951975418e-01
4.120000000000000284e+01	2.389923709194247126e-01	1.151161554354273875e+01	1.027860309619998134e+02	-4.300808036950003839e+02	9.010533426837551815e+03	2.465050540112539990e-01
4.130000000000000426e+01	2.371447384416375537e-01	1.148438252227437850e+01	1.223784968219999740e+02	-5.160498083414905750e+02	9.024383416162612775e+03	2.445993415319070163e-01
4.139999999999999858e+01	1.784629161926934993e-01	1.145713934250068711e+01	7.618340169600000422e+01	-4.268864553000005913e+02	9.149871516097931817e+03	1.840728665347963477e-01
4.150000000000000000e+01	1.808366606028131429e-01	1.143003284566920463e+01	1.076546603740001160e+02	-5.953143572500000573e+02	9.037599653132005187e+03	1.865212291824171476e-01
4.160000000000000142e+01	3.514928766391438308e-02	1.140270698581787379e+01	-1.568238481000000561e+01	-4.461650819199999773e+02	9.091054773719630248e+03	3.625419933162431912e-02
4.170000000000000284e+01	1.717158579687733944e-01	1.137583858599048270e+01	9.466035154999991619e+01	-5.512615588900004013e+02	9.123841772616513481e+03	1.771137157238056592e-01
4.180000000000000426e+01	3.389317271140818849e-02	1.134876950385855388e+01	1.928299289000010930e+01	-5.689344297800009826e+02	9.101538993047806798e+03	3.495859862679564362e-02
4.189999999999999858e+01	3.691710046904463777e-02	1.132183652194571977e+01	1.872770072000000496e+01	-5.072906723999998349e+02	9.192111380795206060e+03	3.807758302096116154e-02
4.200000000000000000e+01	5.866374156270569989e-02	1.129508314241986966e+01	3.088764221599997484e+01	-5.265201535600002671e+02	9.160770198303771394e+03	6.050782594768454314e-02
4.210000000000000142e+01	7.840076228980447093e-02	1.126850332635321017e+01	3.842874952999999039e+01	-4.901578557099999784e+02	9.043277465700275570e+03	8.086527644552922445e-02
4.220000000000000284e+01	1.335172010424286737e-01	1.124217948208533713e+01	7.522941851500030452e+01	-5.634436456699997962e+02	9.187551292626985742e+03	1.377142907439991293e-01
4.230000000000000426e+01	2.595805307676564699e-01	1.121627712606807847e+01	1.333650323099996911e+02	-5.137713214300001709e+02	9.217251607877398783e+03	2.677403990386136856e-01
4.239999999999999858e+01	6.772322286326507013e-02	1.119004523453112476e+01	4.135707160700012253e+01	-6.106778422300001239e+02	9.206654997475156051e+03	6.985209044749675356e-02
4.250000000000000000e+01	5.672641227481590998e-02	1.116391068330517200e+01	2.495880648799996493e+01	-4.399856343299998116e+02	9.240005848341694218e+03	5.850959705480551082e-02
4.260000000000000142e+01	5.881805871964225496e-02	1.113790344062464399e+01	-3.138566316499996489e+01	-5.336059000960999583e+02	9.094585365018840093e+03	6.066699403727320028e-02
4.270000000000000284e+01	2.549047797682829075e-01	1.111247587366002598e+01	1.523222324559999379e+02	-5.975652264915001979e+02	9.185593929621074494e+03	2.629176666300032106e-01
4.280000000000000426e+01	1.064976400300453041e-01	1.108682091274247306e+01	6.928643489800008126e+01	-6.505912701769998421e+02	9.283996776788906573e+03	1.098453745895019706e-01
4.289999999999999858e+01	2.621103314244730420e-01	1.106164716720452468e+01	1.372287276599998052e+02	-5.235532949587002349e+02	9.182739663864342219e+03	2.703497235335638460e-01
4.300000000000000000e+01	2.511236429771100953e-01	1.103656474603462279e+01	1.164594205619999201e+02	-4.637533096500005740e+02	9.269310028959742340e+03	2.590176704696812715e-01
4.310000000000000142e+01	6.092524437910905311e-02	1.101115817311412393e+01	-2.745155855999995609e+01	-4.505777340699999058e+02	9.268755957900426438e+03	6.284041870685701248e-02
4.320000000000000284e+01	1.450601996249326342e-01	1.098606325862569655e+01	8.177288171300017439e+01	-5.637168701300009843e+02	9.178965838681971945e+03	1.496201414541512287e-01
4.330000000000000426e+01	1.840456666535158214e-01	1.096117381716953965e+01	1.024704718010002580e+02	-5.567665550849999363e+02	9.228973375897716323e+03	1.898311097731980035e-01
4.339999999999999858e+01	1.319438598081501546e-02	1.093600604836220924e+01	7.201193928000048317e+00	-5.457771159999998645e+02	9.314238460824919457e+03	1.360914918050961167e-02
4.350000000000000000e+01	6.610987439312825120e-02	1.091107509383475715e+01	3.855070895700001188e+01	-5.831308758469996292e+02	9.223129865496532148e+03	6.818802665232175098e-02
4.360000000000000142e+01	6.303993604067895107e-02	1.088625121475513780e+01	3.728809773000000405e+01	-5.914996123400001125e+02	9.288087784824612754e+03	6.502158532839819038e-02
4.370000000000000284e+01	1.662467587404017622e-01	1.086177631873683858e+01	9.764680776699991327e+01	-5.873606710099996917e+02	9.301354541640417665e+03	1.714726963243320967e-01
4.380000000000000426e+01	2.046792536666288964e-01	1.083750047120820525e+01	1.098953581660001220e+02	-5.369149837970001045e+02	9.271733274343034282e+03	2.111133099603670349e-01
4.389999999999999858e+01	1.809153103133565380e-02	1.081291090543507494e+01	1.000173875599999995e+01	-5.528409253299993225e+02	9.308503409377979551e+03	1.866023512327607756e-02
4.400000000000000000e+01	2.375099926415412399e-02	1.078844569022833788e+01	-1.474078671000006580e+01	-6.206385906570002362e+02	9.359017261936471186e+03	2.449760774332611704e-02
4.410000000000000142e+01	1.117246321367186546e-01	1.076429021272134356e+01	6.598553974000002142e+01	-5.906086999619993776e+02	9.358603985018342428e+03	1.152366762725432203e-01
4.420000000000000284e+01	1.911876868401252705e-01	1.074042316413019016e+01	9.453242794600012644e+01	-4.944483063129997618e+02	9.346869840037759786e+03	1.971976381066199435e-01
4.430000000000000426e+01	1.482505752848091718e-01	1.071656691956071761e+01	9.282957692199981636e+01	-6.261667230880001398e+02	9.331462177367866389e+03	1.529108060110512812e-01
4.439999999999999858e+01	1.579229944905466421e-01	1.069283962984145830e+01	8.329754095799989955e+01	-5.274566963899999337e+02	9.337669370534556947e+03	1.628872760111487461e-01
4.450000000000000000e+01	1.613244931883407174e-01	1.066922636720322437e+01	9.715961842120020719e+01	-6.022620403200011197e+02	9.386558473440376474e+03	1.663957002214831726e-01
4.460000000000000142e+01	2.097721068433337777e-01	1.064582714066997937e+01	9.036181573399997546e+01	-4.307618257440003617e+02	9.385774385357542997e+03	2.163662560797989243e-01
4.470000000000000284e+01	4.456298721082498082e-02	1.062216360461314935e+01	-2.756981438700001164e+01	-6.186706976480004414e+02	9.362765808433196071e+03	4.596381686598180472e-02
4.480000000000000426e+01	2.374384429411368069e-01	1.059903504077868952e+01	1.269290364698999554e+02	-5.345766039299998056e+02	9.496333442189143170e+03	2.449022785806248825e-01
4.489999999999999858e+01	1.510868383666040815e-01	1.057581737810666134e+01	7.951732638139996823e+01	-5.263021401537006341e+02	9.468636537114574821e+03	1.558362265233390609e-01
4.500000000000000000e+01	1.087990407149137112e-02	1.055239179612432388e+01	6.091620454000016949e+00	-5.598965224300000045e+02	9.409508467539040794e+03	1.122191193996084288e-02
4.510000000000000142e+01	3.178196763698244720e-02	1.052911611066306818e+01	1.542762373599989800e+01	-4.854206609300002810e+02	9.472376819066023018e+03	3.278102819265149570e-02
4.520000000000000284e+01	1.759530041993816463e-01	1.050626144596888878e+01	1.035207242389999891e+02	-5.883430334710010357e+02	9.548772883150853886e+03	1.814840558999856468e-01
4.530000000000000426e+01	3.615501888002836672e-02	1.048319953753917666e+01	-2.337786000799998831e+01	-6.466006859399998348e+02	9.480581282730967359e+03	3.729154553140141132e-02
4.539999999999999858e+01	1.338081269395561546e-01	1.046045362235104648e+01	6.119590031000006292e+01	-4.573406840799998463e+02	9.532246154849390223e+03	1.380143618454689747e-01
4.550000000000000000e+01	5.047996711061231156e-02	1.043762473275621971e+01	2.635366220900005985e+01	-5.220617943600002491e+02	9.433731042609413635e+03	5.206679598690248933e-02
4.560000000000000142e+01	3.533903355385249745e-02	1.041486261962886317e+01	-2.068212010400005596e+01	-5.852486054120001882e+02	9.469707285749338553e+03	3.644990985019722768e-02
4.570000000000000284e+01	9.525729509623552527e-02	1.039233073027398646e+01	5.596063992300009460e+01	-5.874682864600005132e+02	9.471230107582267010e+03	9.825169139219158687e-02
4.580000000000000426e+01	2.046920685976030135e-02	1.036973408207482805e+01	1.338931037000007684e+01	-6.541196472209998092e+02	9.512218242056340387e+03	2.111265277264395140e-02
4.589999999999999858e+01	5.168349412674773727e-03	1.034720241743860747e+01	-2.587448439999973537e+00	-5.006334195700000578e+02	9.473977682535307395e+03	5.330815566284163691e-03
4.600000000000000000e+01	6.830311311949170683e-02	1.032490545582403207e+01	-3.602669872199993506e+01	-5.274532459300010032e+02	9.500542890624752545e+03	7.045020945180564820e-02
4.610000000000000142e+01	2.007645359125506124e-01	1.030299173088915765e+01	1.028301351499999043e+02	-5.121927270800000542e+02	9.524496377678304270e+03	2.070755337430951193e-01
4.620000000000000284e+01	1.952344373653826931e-02	1.028078121623008023e+01	1.125176463399985316e+01	-5.763206935127992665e+02	9.581470154812743203e+03	2.013715975219812493e-02
4.630000000000000426e+01	1.416048495434039933e-01	1.025892954302601545e+01	8.733418692200011435e+01	-6.167457343700003776e+02	9.542161255386110497e+03	1.460561730513181000e-01
4.639999999999999858e+01	5.775182728212892302e-02	1.023699152643301780e+01	-3.238597322999979156e+01	-5.607783295199994882e+02	9.579509255587394364e+03	5.956724580229153659e-02
4.650000000000000000e+01	9.562655234269526461e-02	1.021522894065170739e+01	5.334438955400002413e+01	-5.578407696099994837e+02	9.513188866100819723e+03	9.863255617516532292e-02
4.660000000000000142e+01	1.229862602260088644e-01	1.019361814262081722e+01	-7.226614541999998664e+01	-5.875952751730010277e+02	9.526022719927539583e+03	1.268523116575784593e-01
4.670000000000000284e+01	1.496443391959950409e-01	1.017215666013486697e+01	7.769619375460004562e+01	-5.192056991400008883e+02	9.609853375565262468e+03	1.543483826453349028e-01
4.680000000000000426e+01	3.475588792330548404e-01	1.015120869045277274e+01	1.570825899199998332e+02	-4.519596514600003729e+02	9.580885863447132579e+03	3.584843313944948706e-01
4.689999999999999858e+01	1.662501257324372483e-01	1.012996409776187789e+01	1.046829235250001062e+02	-6.296712442399993961e+02	9.589927543168740158e+03	1.714761691571692614e-01
4.700000000000000000e+01	2.419947817059458009e-02	1.010850812192410508e+01	1.353420829000000225e+01	-5.592768651700007467e+02	9.587922140075936113e+03	2.496018450521064400e-02
4.710000000000000142e+01	1.064045283504837514e-01	1.008731722448009371e+01	-6.206914017399997618e+01	-5.833317541670000992e+02	9.665643921872277133e+03	1.097493359606909330e-01
4.720000000000000284e+01	1.647189126720398356e-01	1.006633921536421994e+01	9.768315304999997295e+01	-5.930293702490009764e+02	9.634466661247048251e+03	1.698968226838742657e-01
4.730000000000000426e+01	3.011760976942781491e-03	1.004510856672627206e+01	-1.812195290000010894e+00	-6.017062123699996619e+02	9.689447638584597371e+03	3.106435152863391488e-03
4.739999999999999858e+01	1.215661731294982173e-01	1.002421689852922704e+01	5.281237490099996990e+01	-4.344331448579997073e+02	9.656031250581840141e+03	1.253875843732750461e-01
4.750000000000000000e+01	5.275140569557781184e-02	1.000326844161150852e+01	3.470016631999995127e+01	-6.578055288280003197e+02	9.661173192554713751e+03	5.440963684377211201e-02
4.760000000000000142e+01	1.274026580804447917e-02	9.982323938098295102e+00	-7.977631959999971656e+00	-6.261746874200005095e+02	9.636920333684282014e+03	1.314075382008138282e-02
4.770000000000000284e+01	2.572043953610596567e-01	9.961978499724365221e+00	1.463195810440000741e+02	-5.688844502000008561e+02	9.553435303264972390e+03	2.652895702339624906e-01
4.780000000000000426e+01	9.654390160165804424e-02	9.941382602859809126e+00	-5.099260984899986937e+01	-5.281805375900006538e+02	9.691607664823424784e+03	9.957874214653275602e-02
4.789999999999999858e+01	6.336052325401086982e-02	9.920803390193963622e+00	-3.403442891800003878e+01	-5.371551112600002398e+02	9.620468607274526221e+03	6.535225014432381740e-02
4.800000000000000000e+01	9.881022439231669507e-02	9.900383445982319230e+00	3.892442100999996057e+01	-3.939311063140005444e+02	9.730245004765896738e+03	1.019163063950024178e-01
4.810000000000000142e+01	9.075452320346226454e-02	9.880031518756636544e+00	4.459419667999997472e+01	-4.913716154953995101e+02	9.657923006314251325e+03	9.360737565793475490e-02
4.820000000000000284e+01	1.593509648064159179e-01	9.859905886139761932e+00	9.926906917999995983e+01	-6.229586956100005182e+02	9.734741408670794044e+03	1.643601343224230238e-01
4.830000000000000426e+01	1.871004878271771421e-01	9.839920751019281653e+00	9.921107612000007236e+01	-5.302555716030005897e+02	9.742973972991239862e+03	1.929819587124806113e-01
4.839999999999999858e+01	8.889376659037095951e-02	9.819815540742109050e+00	5.557176255300008449e+01	-6.251480242600009660e+02	9.660705543237598249e+03	9.168812648840157786e-02
4.850000000000000000e+01	1.563329759952755971e-01	9.799931831761147905e+00	7.379491482799996049e+01	-4.720367814799997745e+02	9.761039811003809518e+03	1.612472755644908662e-01
4.860000000000000142e+01	3.982364458710827004e-02	9.779890541849086461e+00	2.164529857999987783e+01	-5.435288207400009242e+02	9.714244120426777954e+03	4.107549384151587546e-02
4.870000000000000284e+01	2.114016925025697657e-01	9.760282982731574464e+00	1.240807293900000587e+02	-5.869429327700001977e+02	9.645459197556307117e+03	2.180470674772529704e-01
4.880000000000000426e+01	3.836273054746123373e-02	9.740401755221995472e+00	-2.054272197999996763e+01	-5.354864392300000873e+02	9.681005335959136573e+03	3.956865622630845875e-02
4.889999999999999858e+01	1.145638859291529810e-01	9.720757188141805116e+00	4.553300845300001498e+01	-3.974464385849997257e+02	9.765646924402413788e+03	1.181651815079327039e-01
4.900000000000000000e+01	4.623924057283568950e-02	9.701053485600930060e+00	-2.621687040999997009e+01	-5.669831529500005445e+02	9.761133204830868635e+03	4.769276295722882364e-02
4.910000000000000142e+01	1.302059653750949758e-02	9.681362361842673181e+00	-6.707442090999989226e+00	-5.151409208999996281e+02	9.746059429518320030e+03	1.342989669665917325e-02
4.920000000000000284e+01	2.600839826741370431e-02	9.661777465364831841e+00	-1.410230320000003523e+01	-5.422211339200005114e+02	9.728161006425179949e+03	2.682596768671135015e-02
4.930000000000000426e+01	1.310833627589712835e-01	9.642484562323119235e+00	7.686389210000000105e+01	-5.863741246959997397e+02	9.779121715465238594e+03	1.352039451827151129e-01
4.939999999999999858e+01	8.385654815408964680e-02	9.623174202698535851e+00	-4.599094644999994586e+01	-5.484478846600005681e+02	9.803576350191930032e+03	8.649256397766083571e-02
4.950000000000000000e+01	3.751870410858478694e-02	9.603848284354604914e+00	2.004586104500004851e+01	-5.342898034800003870e+02	9.812249096863675732e+03	3.869809796496416487e-02
4.960000000000000142e+01	7.345524398377267783e-02	9.584672443227097105e+00	-2.964309232000000449e+01	-4.035531122400000754e+02	9.915217722249231883e+03	7.576429664248343632e-02
4.970000000000000284e+01	9.106187977887851559e-02	9.565608968200091766e+00	4.036129004300009626e+01	-4.432292649900003312e+02	9.789876839656682932e+03	9.392439393317184027e-02
