0.000000000000000000e+00	2.175618569183463968e+00	2.175618569183463968e+00	-9.043873449999985326e+00	4.156920509000004316e+00	1.123958632840832706e+03	2.263399465364902330e+00
1.000000000000000056e-01	5.871877155002556276e-02	1.117168670366744720e+00	4.204969989999980839e+00	7.161202251000004537e+01	8.960746577227192802e+02	6.108793058476798959e-02
2.000000000000000111e-01	8.416483371490817156e-01	1.025328559294190311e+00	3.072408490000000469e+01	3.650465823300002199e+01	9.086273495164449514e+02	8.756067921609325122e-01
2.999999999999999889e-01	1.304463494946305202e+00	1.095112293207219034e+00	2.535380213600003074e+01	-1.943619137999998614e+01	9.211758736998855284e+02	1.357095411332886581e+00
4.000000000000000222e-01	3.175018426067451216e+00	1.511093519779265426e+00	2.329040490999998880e+01	-7.335518029999993139e+00	9.163809286442395887e+02	3.303122665836549565e+00
5.000000000000000000e-01	5.647182155506538237e-01	1.353364302407830122e+00	-9.522174970000019556e+00	1.686181657999998507e+01	9.057896113643852232e+02	5.875032164479498942e-01
5.999999999999999778e-01	1.991230760091791119e+00	1.444488082076967439e+00	-2.977003983899991724e+01	-1.495057249799997479e+01	9.080420958775448526e+02	2.071572058470442901e+00
7.000000000000000666e-01	1.229848777216012573e-01	1.279300181532546876e+00	5.851135560000009228e+00	4.757605705999987578e+01	8.988064479240748597e+02	1.279470171959019298e-01
8.000000000000000444e-01	2.045996907495431782e-01	1.159889015889990826e+00	9.323429739999976817e+00	4.556912918999997686e+01	8.934380800355638712e+02	2.128547886177235560e-01
9.000000000000000222e-01	4.265250803633564125e+00	1.470425194664348068e+00	1.283276839000000180e+01	3.008678499999994482e+00	8.976360433852890992e+02	4.056638605331629677e+00
1.000000000000000000e+00	2.128499718429580856e+00	1.530250151370278422e+00	1.996929239199999984e+01	-9.381862830000022413e+00	9.083841399231366722e+02	2.214379484052197533e+00
1.100000000000000089e+00	2.621527756084192640e-01	1.424575370056790247e+00	7.206882419000021578e+00	2.749115435559998843e+01	9.166512009951627533e+02	2.727299999000813990e-01
1.199999999999999956e+00	1.610613389676471607e+00	1.438885986950611873e+00	3.441628928299997625e+01	-2.136843609000001720e+01	9.198210520164105901e+02	1.675597706665771458e+00
1.300000000000000044e+00	7.351544106677872392e+00	1.861218709788273307e+00	2.283839845000001034e+01	3.106612450200012976e+00	9.147234201853377726e+02	1.105723176550370335e+00
1.400000000000000133e+00	2.432791836530567409e+00	1.899323584904426321e+00	-8.045864424999969344e+00	-3.307255599999986195e+00	9.067931698553383058e+02	2.530949046005797065e+00
1.500000000000000000e+00	7.685363276819751066e-01	1.828649381328022905e+00	3.765327977999995568e+01	4.899349376700005365e+01	9.004830568076214377e+02	7.995448916589019683e-01
1.600000000000000089e+00	2.032852972331932462e-01	1.733039729322444655e+00	1.349483004119999663e+01	6.638369928799998831e+01	8.935629794344291668e+02	2.114873625328735629e-01
1.699999999999999956e+00	9.804899699358561593e-02	1.642206910859730362e+00	-1.489904689999999032e+00	-1.519551179190001200e+01	8.928029948756610565e+02	1.020050345765054767e-01
1.800000000000000044e+00	1.742040374323970076e+00	1.647461303673637856e+00	4.205629864999991696e+00	2.414197699999956370e+00	9.016895099532076756e+02	1.812327449185534123e+00
1.900000000000000133e+00	2.971459683317040912e-01	1.579945536906541159e+00	1.589342450850000432e+01	5.348692630000004300e+01	9.143751585289702462e+02	3.091350824927621699e-01
2.000000000000000000e+00	8.705113309731846272e+00	1.919239240374412736e+00	1.430603596620000317e+01	-1.643406060000003555e+00	9.146106901663594044e+02	2.751180413893926091e-01
2.100000000000000089e+00	1.835199036615994705e+00	1.915419231112666543e+00	2.871113051899998680e+01	1.564469572300000699e+01	9.195250680079794847e+02	1.909244835997972567e+00
2.200000000000000178e+00	2.123561800129493804e+00	1.924468908026441660e+00	2.498213910999999499e+01	1.176426280999996976e+01	9.128674518479099333e+02	2.209242332807607845e+00
2.300000000000000266e+00	4.566424220982050031e+00	2.034550379399592046e+00	3.331045928799998990e+01	7.294648433000006982e+00	9.049495085044871985e+02	4.028780113219099235e+00
2.399999999999999911e+00	5.706346312400819576e-01	1.975993749473211603e+00	2.355430936310000689e+01	4.127739200109999729e+01	9.083195215991069063e+02	5.936583450619485891e-01
2.500000000000000000e+00	1.155003232061466267e+00	1.944417191111221577e+00	-1.415753128899997648e+01	1.225756854700000531e+01	9.022128380669208809e+02	1.201604791838033703e+00
2.600000000000000089e+00	5.448260624380502071e-01	1.892580482641844641e+00	2.360458579900002007e+01	4.332499384000006870e+01	9.138925429504981821e+02	5.668084635359438295e-01
2.700000000000000178e+00	8.724828284981404058e-01	1.856148423565283867e+00	3.625017978999997581e+01	4.154830170399993960e+01	9.142744076608889827e+02	9.076853799349151597e-01
2.800000000000000266e+00	3.366115588067042808e+00	1.908216256823965340e+00	3.135003795000001858e+01	9.313416943000003556e+00	9.243766595101640178e+02	3.501930131643829824e+00
2.899999999999999911e+00	1.987864302335427880e+00	1.910871191674347269e+00	2.563865304000001188e+01	1.289758712900001569e+01	9.277510422690478435e+02	2.068069772364848014e+00
3.000000000000000000e+00	1.181729425227610875e-01	1.853042215895263967e+00	2.843206408999997770e+00	2.405970730949999492e+01	9.179314152907275002e+02	1.229409321630309943e-01
3.100000000000000089e+00	6.422465407159749784e-01	1.815204851045911116e+00	3.243111271500001891e+01	5.049636028999998416e+01	9.129056166026459778e+02	6.681596202015191999e-01
3.200000000000000178e+00	3.114674359129074421e+00	1.854582714927219156e+00	1.503844335599998772e+01	-4.828255420000002296e+00	9.082375850255291425e+02	3.240343863163649640e+00
3.300000000000000266e+00	6.092231781577296390e-01	1.817954493257528226e+00	1.487968676399999168e+01	2.442403259999999321e+01	9.146221870716190097e+02	6.338038456105087315e-01
3.399999999999999911e+00	2.803873477404887626e-02	1.766814043015143110e+00	-1.973649866700021072e+00	7.039011862000006658e+01	9.169576359880207974e+02	2.917002924869726080e-02
3.500000000000000000e+00	5.123673986335123276e-01	1.731968302893431177e+00	4.562136542199999667e+01	8.904033617999998285e+01	9.345346720283706645e+02	5.330401719143003092e-01
3.600000000000000089e+00	3.727994718062495605e-01	1.695234010161345228e+00	5.376123909999992456e+00	1.442095366699998493e+01	9.350097011322865228e+02	3.878410200788410811e-01
3.700000000000000178e+00	1.208523979255292369e-01	1.653802915102507987e+00	5.573573868999995184e+00	4.611885212600002859e+01	9.236895789601009028e+02	1.257284970477941799e-01
3.800000000000000266e+00	5.181137833580610419e+00	1.744247400191690112e+00	3.670987778499996779e+01	7.085292645000007106e+00	9.321642283218398006e+02	3.654854047025611674e+00
3.899999999999999911e+00	4.918628544817678361e-02	1.701870872323102191e+00	-9.647378250000013811e-01	1.961395978999999556e+01	9.276924570396616900e+02	5.117083194802462404e-02
4.000000000000000000e+00	6.816816492212772083e+00	1.826625643539923294e+00	7.462269283999991565e+00	-1.094685369999992774e+00	9.241632492362366520e+02	1.673748961649340616e+00
4.099999999999999645e+00	2.902811308147751346e-01	1.790046012284562504e+00	6.494454970399988980e+00	2.237298357000001303e+01	9.168185805326352238e+02	3.019932655466669447e-01
4.200000000000000178e+00	1.278326914963093586e+00	1.778145568160807377e+00	2.130847345999998765e+01	1.666903294499997301e+01	9.170990542201242306e+02	1.329904284175578599e+00
4.299999999999999822e+00	1.221781002861755283e+00	1.765500918949465481e+00	2.303353961000000538e+01	-1.885242899999997235e+01	9.303110043441324706e+02	1.271076882611905434e+00
4.400000000000000355e+00	1.141830856433081465e+01	1.980007755513495393e+00	2.127398590800000022e+01	1.863146873999966147e+00	9.367860386929161223e+02	3.983562485738555668e-03
4.500000000000000000e+00	2.727670508320615972e-01	1.942893827150855568e+00	1.398799223199999275e+01	5.128182524000004605e+01	9.317162077539820757e+02	2.837725352078420138e-01
4.600000000000000533e+00	1.102908238082403258e+01	2.136216987867306294e+00	6.525651440999996566e+01	-5.916767338999997072e+00	9.356873739164437893e+02	8.223750918749203609e-03
4.700000000000000178e+00	3.669009460030712155e-01	2.099356236995134406e+00	1.640787870549999994e+01	-4.472018642699998736e+01	9.286372982131770186e+02	3.817045031643133135e-01
4.799999999999999822e+00	3.781764204232107573e-01	2.064230118289585025e+00	-1.093840899000000455e+01	2.892409044900001547e+01	9.185984648037820079e+02	3.934349154414331085e-01
4.900000000000000355e+00	2.855538523084038882e+00	2.080056286385473907e+00	3.793093463199998183e+01	1.328328591100000722e+01	9.238525572506650860e+02	2.970752528970656670e+00
5.000000000000000000e+00	8.466953627023023898e-01	2.055872738862274396e+00	2.419158329200000423e+01	-2.857176778999999200e+01	9.271063359748033008e+02	8.808574528698682737e-01
5.100000000000000533e+00	3.099297181152546043e-01	2.022296911540216513e+00	1.001589696900000348e+01	3.231667175999998420e+01	9.285820241539346398e+02	3.224346253608423862e-01
5.200000000000000178e+00	1.683229519553766318e+00	2.015899413578207788e+00	4.692739308000010112e+01	-2.787937861999997580e+01	9.354312093740081764e+02	1.751143720047530383e+00
5.299999999999999822e+00	2.398301355618156716e+00	2.022980931023392159e+00	3.518129246999998117e+01	1.466925429849998253e+01	9.376932768815686359e+02	2.495066958417885061e+00
5.400000000000000355e+00	1.129377156060373810e+00	2.006733589660428141e+00	1.556410083799998745e+01	-1.378113658000000186e+01	9.282520078034863218e+02	1.174944766251819983e+00
5.500000000000000000e+00	4.418484411051515348e-01	1.978789212007655562e+00	1.361873892000001263e+01	3.082219524399999244e+01	9.280938744455423830e+02	4.596759466642434400e-01
5.600000000000000533e+00	2.371675484950289403e-01	1.948234445981118279e+00	5.385370088000024147e+00	-2.270702767799997801e+01	9.222089005646778332e+02	2.467366798891693913e-01
5.700000000000000178e+00	1.059207358883149652e+00	1.932906392755290970e+00	3.196336066999998948e+01	-3.017667919499995222e+01	9.285244926774702208e+02	1.101943789120382489e+00
5.799999999999999822e+00	2.455125336132774616e-01	1.904306496837629759e+00	7.641088697999996349e+00	-3.112300861200009194e+01	9.202077047162155168e+02	2.554183647776241961e-01
5.900000000000000355e+00	1.035683169475315690e+00	1.889829441381591257e+00	3.569310994099999590e+01	3.446334843799998282e+01	9.295207532129345509e+02	1.077470456118441167e+00
6.000000000000000000e+00	1.110094102675942551e+00	1.877046894845433300e+00	1.884479815300001349e+01	-1.697585646799996084e+01	9.399136472870289936e+02	1.154883688754533733e+00
6.100000000000000533e+00	1.508786292581226540e+00	1.871107207712139564e+00	2.982668723200001182e+01	1.976866265199998196e+01	9.391411551665252091e+02	1.569662134875015047e+00
6.200000000000000178e+00	5.269332535575557003e-02	1.842243495293784283e+00	3.208220159999993548e+00	6.088475415700002458e+01	9.384485694355087162e+02	5.481937235132076230e-02
6.299999999999999822e+00	8.835762547243396270e+00	1.951517230480496856e+00	1.272801873573000542e+01	1.440511633000020497e+00	9.279133245891464412e+02	2.344584579250985346e-01
6.400000000000000355e+00	1.889665931602902305e+00	1.950565672036226328e+00	-3.644298335000018874e+00	-1.928541058000001085e+00	9.203314528310889955e+02	1.965909337183822325e+00
6.500000000000000000e+00	3.032442249673132362e-01	1.925606256171545683e+00	2.347057372999973524e+00	-7.739825459999983615e+00	9.281273817364585739e+02	3.154793888910459310e-01
6.600000000000000533e+00	1.461200818721404282e+00	1.918674831731991270e+00	4.503587695000000224e+01	3.082114133320003191e+01	9.350211002009159529e+02	1.520156703353587879e+00
6.700000000000000178e+00	4.823703735809862003e+00	1.961395845027253948e+00	2.822108189000000422e+01	-5.850500659999987363e+00	9.342877980880252835e+02	3.920201891839279806e+00
6.799999999999999822e+00	1.840064254379268238e+00	1.959637416177282931e+00	2.865678662000002674e+01	1.557379670399997984e+01	9.360699854342859680e+02	1.914306353416630246e+00
6.900000000000000355e+00	1.300881163960161957e-01	1.933500997608979421e+00	-6.734831073000001389e+00	5.177130132699998200e+01	9.502234756805632969e+02	1.353368542039874722e-01
7.000000000000000000e+00	2.074028604563970396e-02	1.906560705896819696e+00	-5.060488330000425528e-01	2.439931792099997665e+01	9.442516778658219891e+02	2.157710593766192300e-02
7.100000000000000533e+00	1.660373735907745996e+01	2.110688159413217857e+00	1.093986092400001020e+01	-6.588794250000020725e-01	9.319216507803606646e+02	6.296080423783240653e-09
7.200000000000000178e+00	5.035958040909844780e-01	2.088673195641680636e+00	2.745710860099999451e+01	5.452211551000001322e+01	9.315735138817734651e+02	5.239146649531207789e-01
7.299999999999999822e+00	3.688893674609965423e-01	2.065432873639239109e+00	2.122142762299999319e+01	-5.752789181500001092e+01	9.303950359509221926e+02	3.837731525721355119e-01
7.400000000000000355e+00	4.686192699565723263e-01	2.044142025590137024e+00	1.236908679099999198e+01	-2.639474640500006331e+01	9.295293110252289353e+02	4.875269130826916930e-01
7.500000000000000000e+00	1.302967423847864126e+00	2.034389728198791047e+00	2.442027572000002422e+01	1.874204625000000135e+01	9.364795667493974634e+02	1.355538977419183500e+00
7.600000000000000533e+00	2.401043606262916352e+00	2.039151466874948415e+00	3.633086177799998495e+01	1.513127945000001162e+01	9.441413875157380744e+02	2.497919852179301792e+00
7.700000000000000178e+00	1.916763173745710258e+00	2.037582386193804496e+00	-9.292070919999995127e+00	-4.847792907999983747e+00	9.510399571159338166e+02	1.994099886872830352e+00
7.799999999999999822e+00	6.420124407866317773e-02	2.012602878065764767e+00	-4.606828570000010004e+00	7.175606386000012549e+01	9.534648713565098888e+02	6.679160749117231399e-02
7.900000000000000355e+00	1.451069435905307436e+01	2.168829021578105642e+00	9.944315535000002981e+00	-6.853094200000047209e-01	9.446719241905935860e+02	3.156096126831327554e-06
8.000000000000000000e+00	5.602362803353605480e-01	2.148969851933133501e+00	1.419276554500000564e+01	2.533353522999998830e+01	9.433990409777117065e+02	5.828404460920679764e-01
8.099999999999999645e+00	1.133943717560904174e+00	2.136591484440789390e+00	2.188393483300001918e+01	-1.929896033999997229e+01	9.364829463673097507e+02	1.179695577356882241e+00
8.199999999999999289e+00	5.371599363216614798e-01	2.117321224824896042e+00	1.830473053000001826e+01	-3.407687225399997288e+01	9.524831658954917657e+02	5.588330279522301103e-01
8.300000000000000711e+00	1.052382577554708876e+00	2.104643383785965494e+00	3.120908118800001674e+01	2.965564220999999634e+01	9.576344390144948875e+02	1.094843644532159654e+00
8.400000000000000355e+00	1.899451537331419715e+01	2.303347760133356292e+00	2.229422169000001119e+01	1.173718900000030763e+00	9.530307523151673195e+02	1.332110020424364290e-12
8.500000000000000000e+00	1.376320792359617684e-01	2.278165019657805157e+00	9.904716271999999933e+00	7.196517212400003416e+01	9.595523925111740482e+02	1.431851975213888906e-01
8.599999999999999645e+00	6.684947779145785640e-01	2.259663062856159144e+00	2.435058456999996324e+01	3.642599071000001487e+01	9.613927841573256501e+02	6.954669096701818765e-01
8.700000000000001066e+00	5.155681209782132512e-01	2.239843802153000052e+00	4.376308814999994468e+01	8.488323146700001587e+01	9.509684375063063726e+02	5.363700355891155569e-01
8.800000000000000711e+00	2.301966312920845859e+00	2.240541807891964776e+00	3.135634013700000722e+01	1.362154604999999741e+01	9.469307216284519200e+02	2.394845032007856034e+00
8.900000000000000355e+00	5.141830837680211319e-01	2.221360044290587421e+00	2.329397769699999898e+01	4.530288613599997660e+01	9.503652426538549207e+02	5.349291155098960804e-01
9.000000000000000000e+00	2.687253780841083017e+00	2.226479755681252115e+00	1.961064715800000968e+01	7.297653574000024790e+00	9.483233688799950869e+02	2.795677908346908325e+00
9.099999999999999645e+00	1.719819874563026652e-01	2.204148258200546273e+00	-5.741072212000009500e+00	3.338182269499999677e+01	9.537452879976491431e+02	1.789210406523990549e-01
9.200000000000001066e+00	2.265069769358526219e+00	2.204803328212997737e+00	3.726218871700000079e+01	1.645079070899999252e+01	9.608503925265515591e+02	2.356459803017964649e+00
9.300000000000000711e+00	3.653935152320750279e-01	2.185235138713200520e+00	2.973474643999993283e+00	-8.137732389999939642e+00	9.753942081467158687e+02	3.801362512430089824e-01
9.400000000000000355e+00	1.336700490199738967e-01	2.163639716716429628e+00	1.426332530000003596e+00	1.067054692100001567e+01	9.714254106404647473e+02	1.390633090618726697e-01
9.500000000000000000e+00	1.674407970932401790e+00	2.158543552697846479e+00	3.941619786800000469e+01	2.354037878000002237e+01	9.663663750909726105e+02	1.741966243482426124e+00
9.599999999999999645e+00	4.386771741008322345e-01	2.140812971475196669e+00	1.096575087699999429e+01	2.499731357000001708e+01	9.590554770814236463e+02	4.563767267808612194e-01
9.700000000000001066e+00	2.635933813993671215e+00	2.145865224970282981e+00	3.244605549100000275e+01	-1.230913132900001727e+01	9.599796078174679224e+02	2.742287306165859917e+00
9.800000000000000711e+00	6.772144061132044923e-01	2.131030368214151149e+00	2.006392259999999794e+01	-2.962713494999997721e+01	9.622109297242147932e+02	7.045383535723902524e-01
9.900000000000000355e+00	6.220918281299494534e-01	2.115940982813309112e+00	9.688528009999938462e+00	-1.557411232859996986e+01	9.692299285246972431e+02	6.471917141825360709e-01
1.000000000000000000e+01	6.616166446550847229e-03	2.095056578690865923e+00	3.694942800000107219e-01	5.584718627999998120e+01	9.742233427171651101e+02	6.883112605307787658e-03
1.009999999999999964e+01	1.995168975112851517e-01	2.076472856326359917e+00	6.067008409999989915e+00	-3.040849414599996692e+01	9.824474673069275923e+02	2.075669170850075740e-01
1.020000000000000107e+01	4.550605679157124772e-01	2.060730989448587014e+00	1.718482171900001632e+01	3.776381196399999851e+01	9.813132453985648453e+02	4.734211505262330699e-01
1.030000000000000071e+01	7.561315264850809736e-01	2.048186763843168556e+00	1.844845886999999962e+01	-2.439847860300003290e+01	9.773728473333183047e+02	7.866395870275181279e-01
1.040000000000000036e+01	9.205278980213933426e-01	2.037447155597246873e+00	-1.039401486000001462e+01	-1.129136323010001242e+01	9.767775891760201148e+02	9.576689506824123121e-01
1.050000000000000000e+01	6.656578236056539533e-01	2.024505746804873496e+00	1.380363441100000266e+01	2.073683192999995484e+01	9.798405374213890582e+02	6.925154911830273541e-01
1.059999999999999964e+01	9.970629501988692578e-01	2.014903477677714605e+00	2.550293051999999960e+01	2.557805454000001788e+01	9.802543199613586467e+02	1.037292005308751985e+00
1.070000000000000107e+01	4.430485071088960947e-01	2.000349264987262288e+00	-5.507138405900018796e+00	-1.243010261299995634e+01	9.729768357214238677e+02	4.609244324005540294e-01
1.080000000000000071e+01	2.418161423698415913e+00	2.004182404058007183e+00	4.093587654100004158e+01	-1.692851277000001176e+01	9.827891218926689589e+02	2.515728331744846891e+00
1.090000000000000036e+01	1.380300320148949433e+00	1.998510748749743104e+00	3.466021264199998342e+01	2.511063145900000038e+01	9.903110221617381512e+02	1.435992067231102620e+00
1.100000000000000000e+01	1.828205774314502208e-01	1.982153179638767249e+00	4.348690790000000028e+00	2.378665930880001866e+01	9.908008932560437643e+02	1.901969412640883428e-01
1.109999999999999964e+01	1.206431758236540253e+00	1.975227095519104692e+00	3.353803030300000643e+01	2.779935961899996499e+01	9.913002867642450155e+02	1.255108333450502656e+00
1.120000000000000107e+01	1.855505488183705420e+00	1.974167612268348915e+00	4.300270645400000546e+01	-2.317573660000001823e+01	9.775004371101771312e+02	1.930370603295989751e+00
1.130000000000000071e+01	1.952864806786384355e-01	1.958563391815807631e+00	1.434859052099998067e+01	7.347457167100002096e+01	9.763737313092112799e+02	2.031658132642781278e-01
1.140000000000000036e+01	1.269057491034823570e+00	1.952567688330755669e+00	1.940591604000001169e+01	-1.529159725000000414e+01	9.874091670794186939e+02	1.320260861628693050e+00
1.150000000000000000e+01	1.305182882789310739e+01	2.048250974016637915e+00	-2.830093329999995078e+00	-2.168350020000103795e-01	9.846303688618776278e+02	1.243351923167526868e-04
1.159999999999999964e+01	2.390172278248744231e+00	2.051173378326314189e+00	2.058756376399998800e+01	-8.613422534999985558e+00	9.864922389982955337e+02	2.486609892628663054e+00
1.170000000000000107e+01	3.311251550858560488e+00	2.061852006907095802e+00	3.260214846599998140e+01	9.845868840000001398e+00	9.971881522384065875e+02	3.444852464517627499e+00
1.180000000000000071e+01	4.630018788314161360e-01	2.048416291545115619e+00	1.409171321000000354e+01	3.043554217439999832e+01	1.001776627515019868e+03	4.816828739438844265e-01
1.190000000000000036e+01	6.158751725741123950e-01	2.036478448887023340e+00	4.139708843500002899e+01	6.721668656000001363e+01	9.981484076168915180e+02	6.407242317567355405e-01
1.200000000000000000e+01	4.014350953702105484e-01	2.022965693899281270e+00	1.870961116100001576e+01	4.660681484200000568e+01	1.000165720106704839e+03	4.176320211224593404e-01
1.209999999999999964e+01	3.266091112813969688e-01	2.009061131746675333e+00	9.499030775199981846e+00	-2.908378991000006764e+01	9.926143731728732291e+02	3.397869913084388682e-01
1.220000000000000107e+01	1.759422554191445220e+00	2.007031549815332383e+00	1.896750439080001271e+01	1.078052816000000647e+01	1.002725834081876542e+03	1.830410957561584340e+00
1.230000000000000071e+01	2.858528937249708857e-02	1.991076338037567339e+00	-1.599821702599990569e+00	5.596660862000002368e+01	1.004235281866674541e+03	2.973863599045011366e-02
1.240000000000000036e+01	3.553464787976329475e+00	2.003575445637077568e+00	5.404504695000000680e+01	-1.520911284470001412e+01	1.004521090203724157e+03	3.688384752105443365e+00
1.250000000000000000e+01	2.118104364530742911e-01	1.989355088421331574e+00	-3.820518629000011934e+00	1.803744278599997841e+01	1.018100387104589572e+03	2.203564703010068571e-01
1.259999999999999964e+01	1.969606494002475172e-01	1.975241746381795283e+00	6.606534600000515400e-01	3.354240870000001706e+00	1.020332151452647167e+03	2.049075306053113055e-01
1.270000000000000107e+01	6.491002876284442946e-01	1.964881266235284807e+00	1.568561821339999796e+01	2.416516910000000706e+01	1.014708625310989873e+03	6.752898990643492194e-01
1.280000000000000071e+01	1.129180774585210489e+00	1.958402967850400911e+00	2.117526422300001698e+01	1.875276722700000676e+01	1.010161308168584810e+03	1.174740461263717783e+00
1.290000000000000036e+01	4.410290411147170797e-01	1.946730860721664680e+00	3.638101586399996989e+01	8.249120232999989355e+01	1.009723659408162916e+03	4.588234858852542897e-01
1.300000000000000000e+01	3.579308394184811171e+00	1.959193284641230548e+00	3.646378505000001979e+01	1.018738287799999931e+01	1.019261574968047853e+03	3.711652679638497876e+00
1.309999999999999964e+01	5.029459494201742320e-01	1.948161107859252894e+00	1.887939279050001318e+01	3.753761773460009010e+01	1.012844916991723153e+03	5.232385902333555050e-01
1.320000000000000107e+01	2.066383823916002171e+00	1.949050000461183263e+00	3.665330650999998596e+01	1.773789848999995300e+01	1.019822948507096498e+03	2.149757364888421840e+00
1.330000000000000071e+01	2.836073866233092211e+00	1.955669581549033031e+00	5.014303589500002545e+01	1.768044072899998653e+01	1.035098460124190979e+03	2.950502520750475366e+00
1.340000000000000036e+01	2.189510816989706843e+00	1.957401738848593364e+00	3.048464225600001498e+01	1.392303797700001233e+01	1.042835311056727733e+03	2.277852231443824316e+00
1.350000000000000000e+01	2.225991247611131651e+00	1.959376661707141976e+00	5.073571648000000778e+01	2.279241508000001559e+01	1.038207263911142491e+03	2.315804558351846509e+00
1.359999999999999964e+01	7.138997545042712334e-01	1.950285589391792529e+00	2.139211211500001752e+01	2.996514843999996103e+01	1.035042676617909592e+03	7.427038661816290910e-01
1.370000000000000107e+01	3.916441845992244680e-02	1.936436885254605000e+00	-1.938390756000007098e+00	4.949366879999998758e+01	1.035073148989675929e+03	4.074460710122786850e-02
1.380000000000000071e+01	3.516345400240253882e-01	1.925035429533521913e+00	-3.519967299999982480e+00	1.001030018199998572e+01	1.039074431612454646e+03	3.658221349861521809e-01
1.390000000000000036e+01	6.487981736041349423e-01	1.915919449134026564e+00	2.228551455000011394e+00	-3.434891689999985953e+00	1.030694991788186826e+03	6.749755954769526278e-01
1.400000000000000000e+01	1.156472341422262740e-02	1.902413387249488608e+00	-6.705905389999953226e-01	5.798586917999992352e+01	1.037782899919330930e+03	1.203133176173821692e-02
1.409999999999999964e+01	1.531621768944289586e-01	1.890094716754030513e+00	-1.789227498000009131e+00	1.168191478000003336e+01	1.044941085883359847e+03	1.593418966942737325e-01
1.420000000000000107e+01	1.345943033222904539e+00	1.886289460225840875e+00	-6.544327472000007972e+00	4.862261856899992019e+00	1.048998625186784921e+03	1.400248547681632871e+00
1.430000000000000071e+01	1.245352941646972633e+00	1.881838512180154188e+00	3.974608328400002932e+01	3.191551724399996104e+01	1.056633602504862665e+03	1.295599891561998618e+00
1.440000000000000036e+01	7.308971938887253161e-01	1.873900985847109846e+00	3.440858511699999411e+01	4.707718869999997935e+01	1.045269468014047334e+03	7.603871107357443870e-01
1.450000000000000000e+01	6.512610294297574987e-01	1.865526739570279036e+00	1.102426284000000045e+01	1.692756412839997182e+01	1.036347537955503412e+03	6.775378215205909438e-01
1.459999999999999964e+01	1.803225315810641494e-01	1.854062765366270682e+00	9.411019720000002309e+00	5.218992678000014962e+01	1.048492665379885011e+03	1.875981053641249952e-01
1.470000000000000107e+01	8.690093582191302790e-01	1.847406999101762759e+00	2.281689923200002212e+01	2.625621809040000088e+01	1.036838135729414262e+03	9.040717636127199031e-01
1.480000000000000071e+01	8.244236050461013487e-01	1.840541338738973520e+00	3.299399577999997746e+01	4.002068303000005756e+01	1.046681935769278425e+03	8.576870841821706559e-01
1.490000000000000036e+01	2.460526744942152788e-01	1.829911414310674944e+00	1.166697347999999579e+01	4.741656843999997761e+01	1.055117575281867403e+03	2.559802990240280796e-01
1.500000000000000000e+01	2.269698946077662316e-01	1.819295907557675340e+00	7.787561822999994554e+00	3.431099017100009263e+01	1.055828693265277707e+03	2.361275755712790303e-01
1.509999999999999964e+01	1.809849804900153680e+00	1.819233762145454625e+00	2.992415089500002878e+01	1.653405206000002536e+01	1.048860846294017847e+03	1.882872824687837898e+00
1.520000000000000107e+01	1.211950485075762529e+00	1.815264590399901401e+00	5.587744946000000112e+01	4.610538973999992862e+01	1.044949853032590227e+03	1.260849727440386925e+00
1.530000000000000071e+01	2.347898562286576674e+00	1.818723252555009662e+00	2.814130645199998071e+01	-1.198574201799998740e+01	1.045878468233767762e+03	2.442630535464199948e+00
1.540000000000000036e+01	9.793107782663060812e-01	1.813307688204759627e+00	2.843057177599999719e+01	2.903120480950002502e+01	1.045691438494538943e+03	1.018823576591346036e+00
1.550000000000000000e+01	5.049898126075226257e-01	1.804921035156059617e+00	-1.825682902000002628e+01	3.615286598700003395e+01	1.049174316738262860e+03	5.253649183089884600e-01
1.559999999999999964e+01	6.824107335220414017e-01	1.797771288011893898e+00	3.095747828000003210e+01	4.536487596000001332e+01	1.052846949915503956e+03	7.099443401022057509e-01
1.570000000000000107e+01	2.886087850193798765e+00	1.804659367519374280e+00	1.658425930999999309e+01	5.746276680000011794e+00	1.065949572318641458e+03	3.002534446824685066e+00
1.580000000000000071e+01	4.546022694142580756e-01	1.796168442374059149e+00	2.814884854300000327e+01	6.191972728000012438e+01	1.080273197096804779e+03	4.729443607994572307e-01
1.590000000000000036e+01	7.575385829436662721e-01	1.789677005752619010e+00	4.871293215799999388e+01	-6.430422588999996947e+01	1.069489668242318203e+03	7.881034147780302535e-01
1.600000000000000000e+01	2.108506706824629973e+01	1.909524148997921333e+00	6.519280055999999490e+01	-3.091894389000027665e+00	1.065710536174224217e+03	2.495303202645634624e-16
1.610000000000000142e+01	1.777110844109700949e+01	2.007435163146681134e+00	1.635344250499999674e+01	9.202263639999768152e-01	1.067600931291657162e+03	1.211659356316652748e-10
1.619999999999999929e+01	2.820716443851770450e+00	2.012424618856528458e+00	8.954410780000005232e+00	-3.174516459999962237e+00	1.067511743157088176e+03	2.934525463880477858e+00
1.630000000000000071e+01	3.653401855470580717e+00	2.022430577616370240e+00	3.495920056300000311e+01	-9.568944766000027968e+00	1.057357664099499971e+03	3.774600882376173860e+00
1.639999999999999858e+01	7.308818847759922521e-01	2.014603009780973952e+00	3.079879793999999293e+01	4.213922739300004139e+01	1.068381174193227025e+03	7.603711839376989801e-01
1.650000000000000000e+01	2.621669605769050837e-01	2.004046166111070004e+00	1.115641938300000469e+01	4.255463525400003988e+01	1.078674481396188867e+03	2.727447571974044860e-01
1.660000000000000142e+01	3.392275065226721398e-02	1.992249019910717456e+00	-1.201317778999988262e+00	3.541333635690001813e+01	1.092288723279957821e+03	3.529145079822758324e-02
1.669999999999999929e+01	1.536815481409590012e+00	1.989538105991067951e+00	3.368407354199997883e+01	-2.191809878899999475e+01	1.087040508034461254e+03	1.598822233022430650e+00
1.680000000000000071e+01	1.919467777363694783e-01	1.978901470912638016e+00	-2.114578981999959417e+00	-1.101648596000002378e+01	1.088777251871418002e+03	1.996913614641879220e-01
1.689999999999999858e+01	1.837492026739289575e+00	1.978069650652794831e+00	1.485216211999997649e+00	-8.082844390000315515e-01	1.077427748318590375e+03	1.911630342673023897e+00
1.700000000000000000e+01	1.154515724961585166e+00	1.973253545824191324e+00	-1.681228285999996075e+01	-1.456219477699999665e+01	1.082886333989844843e+03	1.201097615017215237e+00
1.710000000000000142e+01	3.347099581058313178e-02	1.961975740300856197e+00	-4.129479400000018452e-01	1.233748593370002489e+01	1.083056900173425447e+03	3.482146875191349800e-02
1.719999999999999929e+01	8.255416834450709932e-04	1.950639611985148569e+00	-5.166191999998948070e-02	6.257942031999999699e+01	1.077966158809852232e+03	8.588502743140758811e-04
1.730000000000000071e+01	7.207685778391523246e-02	1.939843274317325283e+00	-2.572991406999999953e+00	3.569788537000002293e+01	1.091509327409648677e+03	7.498498297636969900e-02
1.740000000000000213e+01	7.644562612528296164e+00	1.972441670535673763e+00	1.810647894100000599e+01	-2.368543480999971251e+00	1.102173080397404419e+03	8.527496813945878440e-01
1.750000000000000000e+01	1.653281308664322102e+00	1.970628259388677472e+00	5.977396915400003508e+01	-3.615474804000000120e+01	1.103741120232178901e+03	1.719987171985319252e+00
1.760000000000000142e+01	2.356133851401647494e-01	1.960825915466369196e+00	3.458031542000006731e+00	1.467671940599999481e+01	1.112045112883753973e+03	2.451198098383637614e-01
1.769999999999999929e+01	7.377201100093777164e+00	1.991254989537309728e+00	4.905266279199997825e+01	6.649224025000000537e+00	1.104828704232637165e+03	1.081848719350489763e+00
1.780000000000000071e+01	1.076304316905162040e+00	1.986143533265621874e+00	2.028437678999998539e+01	1.884632113000001397e+01	1.107677197731132765e+03	1.119730567646046948e+00
1.790000000000000213e+01	9.972208778925465422e-01	1.980649518513549312e+00	4.325343170099999668e+01	4.337397326899996841e+01	1.116818293337643354e+03	1.037456304999193391e+00
1.800000000000000000e+01	3.903597225949032024e-01	1.971863387044385574e+00	2.360439150999999569e+01	6.046830690700002009e+01	1.121049227682772425e+03	4.061097841028718514e-01
1.810000000000000142e+01	2.965698971746929535e-01	1.962658477759387177e+00	5.713607560000006913e+00	1.926563557000000060e+01	1.133035266861186301e+03	3.085357682713908423e-01
1.819999999999999929e+01	4.910086983409703842e-01	1.954616675686062344e+00	2.946266643000001295e+01	6.000436759990003566e+01	1.140133029276853449e+03	5.108197002251050334e-01
1.830000000000000071e+01	4.700727282086240022e-01	1.946548502058467855e+00	2.571676119500000368e+01	5.470804761000002259e+01	1.141137453989465484e+03	4.890390148257185987e-01
1.840000000000000213e+01	1.596477609256013563e+00	1.944656226962238277e+00	3.998696195000001552e+01	2.504699202679994841e+01	1.136350991560487273e+03	1.660891582026382762e+00
1.850000000000000000e+01	8.788112840876423082e-01	1.938925877806998654e+00	-2.015728770900002331e+01	2.293699235999998010e+01	1.135441826093243208e+03	9.142691732527116200e-01
1.860000000000000142e+01	9.027677150878492263e-02	1.929040053709147218e+00	-1.495938239999987651e+00	1.657057751400000356e+01	1.131551092115373649e+03	9.391921877396995633e-02
1.869999999999999929e+01	4.559413781889772310e-01	1.921204422456380456e+00	3.078481359999998723e+00	6.751923618399993110e+00	1.133338584040634032e+03	4.743374993429944619e-01
1.880000000000000071e+01	2.520896756949622119e+00	1.924377397771159570e+00	3.420213768000000698e+01	1.356744879999998687e+01	1.141208701369291475e+03	2.622608784802451076e+00
1.890000000000000213e+01	6.889885934541983836e-02	1.914611721253129506e+00	-3.742052573000006710e+00	5.431225724999996629e+01	1.136563271351396679e+03	7.167876006188124427e-02
1.900000000000000000e+01	5.276511963144682182e-01	1.907350147824131037e+00	2.576519139000001246e+01	4.882996868000000035e+01	1.150468867704274317e+03	5.489406335070712295e-01
1.910000000000000142e+01	1.071598565460241126e+00	1.902997274999319144e+00	3.243729274499997217e+01	3.027000389000005143e+01	1.152644375884178316e+03	1.114834950622254128e+00
1.919999999999999929e+01	1.824684238549366455e+00	1.902591507971080897e+00	2.701744971000002948e+01	-1.480664387799997783e+01	1.148638709631289430e+03	1.898305791507578277e+00
1.930000000000000071e+01	1.127507042084732181e+00	1.898596227219089494e+00	1.842988474999999227e+01	-1.634569369599998012e+01	1.147009780649322238e+03	1.172999197744272637e+00
1.940000000000000213e+01	1.570331750839087936e-02	1.888940366143650129e+00	4.827953610000048634e-01	3.074480031000003422e+01	1.162579594589438329e+03	1.633690802073219442e-02
1.950000000000000000e+01	6.954365088528773775e+00	1.914784369829288568e+00	3.482653631599998079e+01	5.007867127000041663e+00	1.150756235590563165e+03	1.515593270354039124e+00
1.960000000000000142e+01	2.907271849784172080e+00	1.919822377341749542e+00	9.235941274000014189e+00	-3.176841297000025932e+00	1.150750202175426693e+03	3.024573169065016387e+00
1.969999999999999929e+01	6.022285139171256185e-01	1.913167862880009062e+00	2.608450173900000379e+01	4.331329576100006307e+01	1.159969854608956439e+03	6.265269637494883526e-01
1.980000000000000071e+01	1.827903317017255702e+01	1.995408392062383740e+00	2.904773419000000700e+01	-1.589128588999972225e+00	1.176206656403973284e+03	1.950235767807025087e-11
1.990000000000000213e+01	8.870394580474341151e-01	1.989866547392309171e+00	3.293924042999999102e+01	-3.713390664999997881e+01	1.174268588025181316e+03	9.228293339377309223e-01
2.000000000000000000e+01	8.250066723574823735e-01	1.984071224630941987e+00	4.420276462600003953e+01	5.357867530899993369e+01	1.173745872142945927e+03	8.582936768356553836e-01
2.010000000000000142e+01	5.035793673224554512e-01	1.976742057020504095e+00	-1.816060541000047213e+00	-3.606304505000052618e+00	1.171505250616918374e+03	5.238975650011218343e-01
2.019999999999999929e+01	4.212861517411726098e+00	1.987757423820460723e+00	3.797925373919999714e+01	9.015072910000013096e+00	1.178079877874353997e+03	4.050124928179747563e+00
2.030000000000000071e+01	8.289377928445956778e-01	1.982076935433324083e+00	3.158504358000001488e+01	3.810303240200002506e+01	1.179755379984731235e+03	8.623834084342216766e-01
2.040000000000000213e+01	1.426636829774088122e+00	1.979367471503278741e+00	8.765078109999993927e+00	-6.143874829999985465e+00	1.184958757982232100e+03	1.484198141861076126e+00
2.050000000000000000e+01	2.981198501590489602e+00	1.984230728930886700e+00	5.309478432000003778e+01	-1.780987890999999124e+01	1.186653680417078704e+03	3.101482580735204220e+00
2.060000000000000142e+01	5.172063618696896015e-01	1.977143654693876318e+00	3.568184301710001449e+01	6.898956712000010327e+01	1.195520355103722522e+03	5.380743754998096318e-01
2.069999999999999929e+01	1.053095642583114833e+00	1.972701116174113034e+00	3.596482607100003293e+01	3.415152870899998305e+01	1.194978209886164677e+03	1.095585479993083311e+00
2.080000000000000071e+01	8.074799494723100324e+00	2.001897759133677290e+00	4.770674396999998379e+01	5.908102609999970056e+00	1.190502112274890123e+03	5.586314669878394978e-01
2.090000000000000213e+01	7.047140469994726431e+00	2.025922724423492305e+00	2.250820934999998713e+01	-3.193949297000011622e+00	1.191689122485028520e+03	1.413352609072145327e+00
2.100000000000000000e+01	3.957358650462990290e+00	2.035076449191451697e+00	5.425983098999998333e+01	-1.371112294399999953e+01	1.189237649024324810e+03	3.970079292311705199e+00
2.110000000000000142e+01	1.059340435374543921e+00	2.030473920824390710e+00	-2.097372627999998329e+01	-1.979885368255998301e+01	1.193055161326562711e+03	1.102082234923217996e+00
2.119999999999999929e+01	1.013604769769497427e+00	2.025699887251363407e+00	2.014648401479999151e+01	-1.987607459600005555e+01	1.192725529145889141e+03	1.054501246902224132e+00
2.130000000000000071e+01	6.125601774332629923e-02	2.016520243001325596e+00	-2.122883089999989537e+00	3.465591085099998736e+01	1.202591477702379962e+03	6.372754846575130749e-02
2.140000000000000213e+01	2.046976824684953122e+00	2.016661901520784284e+00	1.401690874899998462e+01	6.847614775100008266e+00	1.219462885586075117e+03	2.129567340632295469e+00
2.150000000000000000e+01	2.333268842109469610e+00	2.018127674393880078e+00	4.685919075420002855e+01	-2.008306540100000248e+01	1.215213165841527371e+03	2.427410541805233191e+00
2.160000000000000142e+01	2.623290886466942951e+01	2.129716527805288084e+00	4.027386840299996607e+01	-1.535242188000010444e+00	1.223750551638976958e+03	1.510009177795314416e-27
2.169999999999999929e+01	4.085330437132739689e+01	2.307347664702178669e+00	3.237960684000000811e+01	7.925823220000144387e-01	1.214471935492778812e+03	3.558769934450223953e-75
2.180000000000000071e+01	1.645185625492999515e+00	2.304324093746885627e+00	3.923675849799998616e+01	-2.384944160100002364e+01	1.229024027752954225e+03	1.711564847768527908e+00
2.190000000000000213e+01	2.518594935893615272e+00	2.305298052120279717e+00	2.884259761000008027e+00	1.145186039999978034e+00	1.217686838269015198e+03	2.620214090888118630e+00
2.200000000000000000e+01	2.445946750460600185e+02	3.401630074717292285e+00	2.452368314600000687e+01	1.002625390000085326e-01	1.223948864415589014e+03	0.000000000000000000e+00
2.210000000000000142e+01	3.988481009371855457e+00	3.404273547395916477e+00	5.114091954300003096e+01	-1.282215445499994999e+01	1.224767334681861939e+03	3.984067013504055232e+00
2.219999999999999929e+01	7.240471772544140316e-01	3.392254595063443290e+00	1.069319752699999349e+01	-1.476864749000000998e+01	1.236952793899095923e+03	7.532607126586863266e-01
2.230000000000000071e+01	8.439153617621090175e-01	3.380878080629062143e+00	4.966959132099999863e+01	5.885612891000003088e+01	1.237590214694787619e+03	8.779652856807873551e-01
2.240000000000000213e+01	1.153663534523006629e+00	3.370979349313035112e+00	1.856965101000000828e+01	-1.609624509600003250e+01	1.221859824631628726e+03	1.200211040775577054e+00
2.250000000000000000e+01	6.562539156118535111e+00	3.385101295360847473e+00	3.116071652699998396e+01	-4.748271329999992574e+00	1.219547745715284918e+03	1.983813421407607303e+00
2.260000000000000142e+01	4.305924932743614847e-02	3.370378643175678146e+00	-1.127613317599991172e+00	2.618748202100001521e+01	1.231332144109621822e+03	4.479658488266674565e-02
2.269999999999999929e+01	5.254990504932548490e-01	3.357901101102510388e+00	1.513862796999997329e+01	-2.880809766600004096e+01	1.240490221855222444e+03	5.467016538577341711e-01
2.280000000000000071e+01	1.030255362872096958e+00	3.347736709232508545e+00	-1.318317138100000996e+01	1.279602305999999068e+01	1.236911981537577503e+03	1.071823650774046621e+00
2.290000000000000213e+01	3.365435370806984849e+00	3.347813659935005681e+00	3.941645264800001058e+01	-1.171214072030998210e+01	1.246850677498713139e+03	3.501222469278489680e+00
2.300000000000000000e+01	1.839668084807550619e+00	3.341284891211510288e+00	4.621749255000003131e+01	2.512273433000001432e+01	1.240445564015232776e+03	1.913894199370180793e+00
2.310000000000000142e+01	9.340138732820698619e-01	3.330908723030778784e+00	3.947686474879996865e+01	-4.226582268000001363e+01	1.254233538449817615e+03	9.716990521107135015e-01
2.319999999999999929e+01	3.922341289332639258e-01	3.318296385717055763e+00	1.605078957000000983e+01	4.092145070000001539e+01	1.249099202012549313e+03	4.080598181594917162e-01
2.330000000000000071e+01	8.032478442382895434e-01	3.307548315026975327e+00	2.192987946000000576e+01	2.730151050799999624e+01	1.248620233766844649e+03	8.356569331391573430e-01
2.340000000000000213e+01	4.640568230363088631e+00	3.313220740198619119e+00	3.125042939000003273e+01	6.734181642999983453e+00	1.255012088204151269e+03	4.005218347262735179e+00
2.350000000000000000e+01	4.002509847003242749e-01	3.300877648014303833e+00	1.177725635999999554e+01	2.942467803999996789e+01	1.254263055847116220e+03	4.164001344787636172e-01
2.360000000000000142e+01	3.981926399069906974e+00	3.303751271436479175e+00	2.363883431000001778e+01	-5.936532205999976775e+00	1.260758794528277122e+03	3.981217414722030057e+00
2.369999999999999929e+01	2.619441645085082371e+00	3.300876020905591179e+00	4.420270831999997085e+01	-1.687485896199997981e+01	1.260578373039292956e+03	2.725129718517388167e+00
2.380000000000000071e+01	4.177529200544792820e-01	3.288812744332992200e+00	1.063129792999999701e+01	2.544876988200002543e+01	1.275473102725743274e+03	4.346082301829261030e-01
2.390000000000000213e+01	8.742016192748790215e-02	3.275473608572970097e+00	-2.740318689999988067e+00	-3.134652956000002177e+01	1.271381833759250185e+03	9.094735197220306377e-02
2.400000000000000000e+01	4.968256497450556086e-01	3.263943948992770849e+00	1.578305254999999718e+01	3.176778927999997038e+01	1.276947160567596484e+03	5.168713514127494246e-01
2.410000000000000142e+01	1.262122649772569716e+00	3.255671960153017963e+00	-1.163210854099999914e+01	9.216305993000020180e+00	1.266308930476701335e+03	1.313046216457105286e+00
2.419999999999999929e+01	2.066867496201792775e+00	3.250779760712889210e+00	1.930299209999999732e+01	-9.339249920699998597e+00	1.256801694605098874e+03	2.150260552169766637e+00
2.430000000000000071e+01	6.844397709614458147e-01	3.240261973869646095e+00	2.350411971400000510e+01	3.434066913000001620e+01	1.281947656978077703e+03	7.120552442471712595e-01
2.440000000000000213e+01	2.405926486422441002e+00	3.236856522900473543e+00	1.605311056700000805e+01	6.672319647999978898e+00	1.277029277621292294e+03	2.502999744628765733e+00
2.450000000000000000e+01	3.027813767118256449e-01	3.224929388159869070e+00	5.631639568999976753e+00	-1.859968941999999714e+01	1.292382905718511438e+03	3.149978658387726504e-01
2.460000000000000142e+01	3.458357440832073859e+00	3.225874441004696003e+00	-3.470810768100002974e+01	-1.003600937000003412e+01	1.282530449175015292e+03	3.597166104819986554e+00
2.469999999999999929e+01	1.020863880495971543e+00	3.216983269389741551e+00	2.029893222400001207e+01	1.988407329499999321e+01	1.296869585956375204e+03	1.062053245019013881e+00
2.480000000000000071e+01	1.235199572369996446e+00	3.209024298718979651e+00	4.948641036000000781e+01	4.006349375999998585e+01	1.290329745494910640e+03	1.285036858630272283e+00
2.490000000000000213e+01	2.794837570769918678e+00	3.207367551807183137e+00	5.223695670000007851e+01	1.869051613100002029e+01	1.282595536448158555e+03	2.907602441468652543e+00
2.500000000000000000e+01	7.569480251028593010e-01	3.197604924210752042e+00	2.136577545300001191e+01	2.822621203099999221e+01	1.283341645124354500e+03	7.874890293705498756e-01
2.510000000000000142e+01	1.073283733023685516e+00	3.189175078213977166e+00	2.555770723889982499e+00	2.381262890000011900e+00	1.278549102464166936e+03	1.116588110581530291e+00
2.519999999999999929e+01	4.311086207689596717e-01	3.178273629765578256e+00	1.417225535400000780e+01	3.287397809099999790e+01	1.286618821959150864e+03	4.485028008052360793e-01
2.530000000000000071e+01	7.835753646952546558e-02	3.166069235697483553e+00	2.071551590000005660e+00	2.643717098999999848e+01	1.292836085568455701e+03	8.151907170887866261e-02
2.540000000000000213e+01	2.126519991239947394e-01	3.154487207318763975e+00	1.620169190999971365e+00	-7.618875898999993623e+00	1.301675519284998245e+03	2.212319879705160475e-01
2.550000000000000000e+01	2.610360056392045380e-01	3.143184663562203163e+00	1.777263046099999855e+01	6.808497708000003001e+01	1.301784893418945103e+03	2.715681709898764007e-01
2.560000000000000142e+01	8.428128412258637070e+00	3.163748647020165894e+00	3.253331009000000762e+01	-3.860087138999994227e+00	1.308473646406577473e+03	3.804587473205216508e-01
2.569999999999999929e+01	1.883084311767514762e+01	3.224473819387045470e+00	1.105777127999999720e+01	-5.872159420000089280e-01	1.302051710616196488e+03	2.489587055529867196e-12
2.580000000000000071e+01	1.300802317579453637e+00	3.217046516291263369e+00	2.021185611600000698e+01	-1.553799208599999915e+01	1.302751591740591493e+03	1.353286514400255713e+00
2.590000000000000213e+01	4.974270972687284131e-01	3.206586441602714999e+00	1.593619761999999795e+01	-3.203725270999998997e+01	1.291983082853595533e+03	5.174970658752053865e-01
2.600000000000000000e+01	1.111144827410473646e+01	3.236873268547167282e+00	3.908892265999998017e+01	3.517896290000002146e+00	1.311567071920222816e+03	7.077339447302283953e-03
2.610000000000000142e+01	3.133361433497134363e-01	3.225714729901375755e+00	1.580110764299999104e+01	5.042861469500001448e+01	1.316006566457385816e+03	3.259784915346696232e-01
2.619999999999999929e+01	4.035853174765446028e+00	3.228795104216447776e+00	4.386230525999995677e+01	1.086816178899995045e+01	1.327138474052043648e+03	4.003124777532233836e+00
2.630000000000000071e+01	7.046527472307656526e-01	3.219233958924835992e+00	2.468173906999997058e+00	-3.502681166999975559e+00	1.326093378294771583e+03	7.330837647467837170e-01
2.640000000000000213e+01	2.365527532083584739e-01	3.207978558148547155e+00	5.887747889999988438e+00	-2.488978804999995020e+01	1.324643208631565358e+03	2.460970791140753289e-01
2.650000000000000000e+01	1.350952659530229916e+01	3.246706182348373382e+00	5.880780685999999946e+01	-4.353062000000013754e+00	1.328849668502885606e+03	4.163460709958876911e-05
2.660000000000000142e+01	4.407817999707139278e-01	3.236197102264561476e+00	-3.661235522999996661e+00	8.306231163000045825e+00	1.324904861383185334e+03	4.585662691648790257e-01
2.669999999999999929e+01	2.277262357747406707e+00	3.232618987546214129e+00	3.889939607099998398e+01	1.708164890999998420e+01	1.318625325544924181e+03	2.369144332572776790e+00
2.680000000000000071e+01	2.994633314596277240e-01	3.221715063174144689e+00	3.538513702999987132e+00	-1.181618359000001028e+01	1.322572776237213475e+03	3.115459455636575559e-01
2.690000000000000213e+01	4.234463326360551338e-01	3.211351104912893106e+00	3.022298497599999223e+01	7.137382626000005814e+01	1.326148403460369764e+03	4.405313580582673749e-01
2.700000000000000000e+01	8.208989549051642909e-01	3.202530248270798019e+00	3.384796773000000059e+01	4.123280645899998831e+01	1.345390058637486163e+03	8.540202230156062058e-01
2.710000000000000142e+01	8.492444828889129660e-01	3.193878462368658688e+00	8.383909446000002319e+00	9.872197717999982913e+00	1.349164663423365255e+03	8.835094238307940051e-01
2.719999999999999929e+01	2.319846646198292228e-01	3.183029034538077173e+00	-7.952241394000034269e+00	3.427916843999999941e+01	1.346039521760220396e+03	2.413446793067427765e-01
2.730000000000000071e+01	1.607818102392976067e+00	3.177280089530247764e+00	2.493721452899998781e+01	1.550997248500000936e+01	1.340895774140031335e+03	1.672689636366766930e+00
2.740000000000000213e+01	6.054319045958591605e-01	3.167927914312304694e+00	3.385823997000001384e+01	-5.592410923999988626e+01	1.350105111558060798e+03	6.298596034190980797e-01
2.750000000000000000e+01	1.578533860665306543e+00	3.162169240204887544e+00	2.428725040000000845e+01	-1.538595465400002915e+01	1.347904790836510983e+03	1.642223847000527037e+00
2.760000000000000142e+01	2.133746726971423868e-01	3.151523772452152539e+00	8.575343149999975267e+00	4.018913323500001411e+01	1.352454614780985366e+03	2.219838196574967226e-01
2.769999999999999929e+01	1.798762426296824923e+00	3.146657724444399840e+00	1.614890286899997918e+01	-8.977785300000006075e+00	1.353712902579326283e+03	1.871338097434387837e+00
2.780000000000000071e+01	2.045811107311877652e+00	3.142712037644641132e+00	1.744075449999999705e+01	8.525104999999985722e+00	1.362218994294801860e+03	2.128354589410018427e+00
2.790000000000000213e+01	3.467798589779532703e-01	3.132726565577975464e+00	1.069428453100000453e+01	-3.083882830600003189e+01	1.350152823123759163e+03	3.607715794155033073e-01
2.800000000000000000e+01	9.955639056174943047e-01	3.125121004510500455e+00	4.637077606000000429e+01	-4.657739779269993363e+01	1.372906696889608611e+03	1.035732477939340201e+00
2.810000000000000142e+01	1.942991380711788230e-01	3.114728019168516937e+00	5.763078314000006586e+00	-2.966085372899998163e+01	1.366452102153923533e+03	2.021386337938000655e-01
2.819999999999999929e+01	6.296148104384358568e+00	3.125969786254085392e+00	7.063911246199999994e+01	-1.121941721999996311e+01	1.365420501279735618e+03	2.325933149186771853e+00
2.830000000000000071e+01	1.336192926554499838e+00	3.119667755057960346e+00	2.935540015899998068e+01	2.196943238929999609e+01	1.356229397078901911e+03	1.390105048019924849e+00
2.840000000000000213e+01	3.465098018328401697e+00	3.120879791069434805e+00	-2.198927120000000102e+01	6.345930500000068974e+00	1.355294806983360104e+03	3.603912462853183563e+00
2.850000000000000000e+01	3.144089090733318548e-01	3.111066955817700208e+00	-2.253223289400003537e+01	-7.166537666000004947e+01	1.368461992155541338e+03	3.270945407354314272e-01
2.860000000000000142e+01	9.527442790262717898e-01	3.103546667745256560e+00	-1.175211759300001368e+01	-1.233501774999999867e+01	1.373327688427804333e+03	9.911851839851097967e-01
2.869999999999999929e+01	2.429621067753923724e-01	3.093614082464110293e+00	1.518315823100001793e+01	-6.249187757099986840e+01	1.377315762263825036e+03	2.527650344452360698e-01
2.880000000000000071e+01	6.455893348683661159e+00	3.105248266776289068e+00	3.269266173599997671e+01	5.064002760000042791e+00	1.369614796128329772e+03	2.119223089205572119e+00
2.890000000000000213e+01	8.312837497367464579e-01	3.097407009820980051e+00	1.877412342350000785e+01	-2.258449468000000593e+01	1.371803633795198039e+03	8.648240189579018411e-01
2.900000000000000000e+01	1.713331163701956039e-01	3.087351773073726768e+00	7.579501298999999470e+00	4.423839044999999714e+01	1.370368252876907491e+03	1.782459892025777537e-01
2.910000000000000142e+01	8.651459624690935324e-02	3.077074933427059289e+00	2.032335830000000065e+00	-2.349124793000005695e+01	1.368709217083323438e+03	9.000524892789803222e-02
2.919999999999999929e+01	2.557203639238939896e+00	3.075300628668737879e+00	4.687406590599998424e+01	1.833020459800001234e+01	1.377984954119812983e+03	2.660380561126988397e+00
2.930000000000000071e+01	9.335705187766743407e+00	3.096594521726894644e+00	5.503481697399999462e+01	-5.895089430000011177e+00	1.376178923406579315e+03	1.219911442935676660e-01
2.940000000000000213e+01	6.039520999196651418e-01	3.088144886398734634e+00	9.612966140000001047e+00	-1.591676913000000049e+01	1.377448095388431284e+03	6.283200922380554054e-01
2.950000000000000000e+01	4.975805142624737165e+00	3.094522116994092631e+00	5.988671493999999029e+01	1.203558283000000095e+01	1.397931343264001953e+03	3.822287712037717444e+00
2.960000000000000142e+01	4.151676638377350237e+00	3.098081559827032816e+00	4.197662406500000287e+01	-1.011076432999999497e+01	1.406208924223461963e+03	4.038229181648725685e+00
2.969999999999999929e+01	9.366160183467316935e-01	3.090828319754951536e+00	3.367164756699999373e+01	3.595032212500008484e+01	1.389137341020786153e+03	9.744061873740276214e-01
2.980000000000000071e+01	8.840314592326038223e+00	3.110057370833784862e+00	5.828655104999999281e+01	6.593266613000002607e+00	1.392790632075750864e+03	2.331368355123453751e-01
2.990000000000000213e+01	4.064740457439504073e-01	3.101045426416818351e+00	2.363521203999998832e+01	5.814691562100002642e+01	1.384641361439917546e+03	4.228742808381426577e-01
3.000000000000000000e+01	2.641466082879991628e+00	3.099518584743938376e+00	5.288607321299995334e+01	2.002148487000001253e+01	1.389000743282472286e+03	2.748042788591371632e+00
3.010000000000000142e+01	3.931999470361539628e-01	3.090557264751528699e+00	1.864124131700001641e+01	-4.740906365199990802e+01	1.409287567500238765e+03	4.090646046642058553e-01
3.019999999999999929e+01	1.389960050440898431e+00	3.084944732691097702e+00	4.058391449700000919e+01	2.919789995699998997e+01	1.410217704588922743e+03	1.446041544050273187e+00
3.030000000000000071e+01	5.870203619406535456e-01	3.076727876208365853e+00	1.516544039400000088e+01	-2.583460707199999007e+01	1.404641252791891247e+03	6.107051999806425435e-01
3.040000000000000213e+01	2.974901672406240039e+00	3.076394019802457525e+00	3.821303276999998388e+01	-1.284514144599995866e+01	1.410041863935739457e+03	3.094931689870877189e+00
3.050000000000000000e+01	5.890192224476841210e-01	3.068265343994108552e+00	1.706726422100000562e+01	-2.897573384800000795e+01	1.402308878705972120e+03	6.127847096277081462e-01
3.060000000000000142e+01	5.058491724355276276e-01	3.059918711513461620e+00	-1.114620580000000949e+01	2.203464275000002104e+01	1.398799806762550588e+03	5.262589512074080655e-01
3.069999999999999929e+01	5.382000075827654939e+01	3.224724172704250602e+00	6.047222819999998933e+01	1.123601399999988759e+00	1.419341612497596998e+03	6.929724309240272528e-137
3.080000000000000071e+01	5.021765638212805083e-01	3.215913339018545258e+00	1.952697109079994675e+01	3.888467224000002176e+01	1.433110837750038172e+03	5.224381618044654507e-01
3.090000000000000213e+01	6.953111857119786521e+00	3.227968818109194338e+00	1.609300576199999000e+01	-2.314504079999980757e+00	1.434499071507657163e+03	1.516999648748691421e+00
3.100000000000000000e+01	7.653384131087352937e-01	3.220050392369643522e+00	2.380031226000005162e+01	3.109776257450000614e+01	1.442100817775848782e+03	7.962179490422693906e-01
3.110000000000000142e+01	2.316896070919348904e+00	3.217155666980379802e+00	-2.932345855999994200e+01	1.265635473600002214e+01	1.448016083183065348e+03	2.410377169281588294e+00
3.119999999999999929e+01	9.267730482684156668e-01	3.209838150626667552e+00	1.505478547999997119e+01	1.624430653019998516e+01	1.446388110411693106e+03	9.641660774906004594e-01
3.130000000000000071e+01	1.198618156712886185e+00	3.203432991410381625e+00	3.502921569899999810e+01	-2.922466634000005570e+01	1.441213114389978955e+03	1.246979472186990678e+00
3.140000000000000213e+01	6.490184401740776154e-01	3.195323738866774566e+00	2.990636219999980305e+00	4.607937209300002834e+00	1.430144488693723588e+03	6.752047492650787852e-01
3.150000000000000000e+01	1.386943718299906259e+00	3.189601017282701623e+00	7.119380713599998955e+01	-5.133143198000005469e+01	1.441223490706274333e+03	1.442903510273586543e+00
3.160000000000000142e+01	1.619699644003205208e-01	3.180050130680549536e+00	4.136811490000013691e+00	2.554060874999999342e+01	1.447939394177625218e+03	1.685050569165017775e-01
3.169999999999999929e+01	3.128105757165204892e-01	3.171033654092612064e+00	4.675157096299997761e+00	-1.494564909000002295e+01	1.464032815153660295e+03	3.254317185309677507e-01
3.180000000000000071e+01	1.098359177038586543e+00	3.164536241938837868e+00	4.540369876210002076e+01	-4.133775154000005614e+01	1.444119823142652876e+03	1.142675287525610095e+00
3.190000000000000213e+01	4.308724348573106155e+00	3.168111829772069843e+00	4.898171343000002054e+01	-1.136803133999996973e+01	1.465715906377324700e+03	4.059470522869439435e+00
3.200000000000000000e+01	4.740437808863874558e+00	3.173010041544941373e+00	6.330655620000004546e+01	1.335458005199999221e+01	1.465534195985743509e+03	3.963482271423167447e+00
3.210000000000000142e+01	3.222063823988465664e-02	3.163256037186851000e+00	-1.299013518000003975e+00	-4.031619449400000832e+01	1.463312820521847470e+03	3.352066230673959174e-02
3.220000000000000284e+01	6.987738839397076296e-01	3.155626061480203415e+00	1.429166731999998952e+01	-2.045249207000002656e+01	1.463774663643389886e+03	7.269677036787225433e-01
3.229999999999999716e+01	7.763359556982184217e-02	3.146126084733566586e+00	-6.006361849999994895e+00	-7.736807506999998907e+01	1.457108827799723485e+03	8.076592156181039428e-02
3.239999999999999858e+01	2.074974410929440183e-01	3.137084150445441644e+00	4.640702259999998525e+00	-2.236510597699995628e+01	1.462042896000835071e+03	2.158694561108751853e-01
3.250000000000000000e+01	3.350069029231468765e+00	3.137737478294478688e+00	3.815988526000000292e+01	-1.139077581000000094e+01	1.467154458320429740e+03	3.485236133346593768e+00
3.260000000000000142e+01	8.008309560874496968e-01	3.130590975168463075e+00	5.308573769000006770e+00	-6.628831875999955159e+00	1.467935733641604884e+03	8.331425294537213588e-01
3.270000000000000284e+01	2.766592971461671713e+00	3.129481225157161983e+00	-1.048005052099997592e+01	3.788070969999992155e+00	1.471815039426147223e+03	2.878218241554544754e+00
3.279999999999999716e+01	7.826854348009135709e-01	3.122348107253343219e+00	-1.790364612199997651e+01	-2.287463816999994037e+01	1.476890247088853357e+03	8.142648806965094854e-01
3.289999999999999858e+01	1.852937209933986695e+00	3.118501407564497008e+00	3.733086984999999203e+01	-2.014686177699996250e+01	1.480109755214898087e+03	1.927698701290895489e+00
3.300000000000000000e+01	4.428326154788712055e-01	3.110417816047621908e+00	-1.052597220799994560e+01	2.376964080799999124e+01	1.463103527873155372e+03	4.606998300704873150e-01
3.310000000000000142e+01	4.529534331661727720e+01	3.237480844663795931e+00	4.965949977499995072e+01	1.096348898999990995e+00	1.477585564983411587e+03	2.954005073983936485e-94
3.320000000000000284e+01	1.354307459832409799e-01	3.228165378901992622e+00	8.747096043099984897e+00	6.458722485500008759e+01	1.482504914737294484e+03	1.408950458478038514e-01
3.329999999999999716e+01	8.215617158420946975e-01	3.220959978713190619e+00	3.380575432999997076e+01	-4.114816170000000994e+01	1.475198178780188300e+03	8.547097247378111495e-01
3.339999999999999858e+01	5.175760877805191562e+00	3.226795205277643852e+00	-2.114609298999997478e+01	-4.085600839999989908e+00	1.485107428784566082e+03	3.659710745090473338e+00
3.350000000000000000e+01	8.321946408608714707e-01	3.219668417883545963e+00	3.034403087599998372e+01	3.646266075999999146e+01	1.499168478268077934e+03	8.657716623143951740e-01
3.360000000000000142e+01	6.592257318306017355e-01	3.212070665105940748e+00	2.874901601999999201e+01	-4.361027586130011002e+01	1.482951492753134517e+03	6.858238802126838118e-01
3.370000000000000284e+01	4.106707975234061614e+00	3.214717521053065408e+00	5.090099909700003877e+01	-1.239459912999997115e+01	1.492716192150932784e+03	4.026548633981104963e+00
3.379999999999999716e+01	1.235015061770278422e+00	3.208877690789694537e+00	-1.826927583399999833e+01	1.479275548900003123e+01	1.497233153782142381e+03	1.284844903478449485e+00
3.389999999999999858e+01	1.234292370340340783e+00	3.203070086906019576e+00	2.148611990000001271e+01	-1.740764215700003348e+01	1.505830332495457242e+03	1.284093053214200975e+00
3.400000000000000000e+01	1.277357180498407407e+00	3.197422834981070938e+00	3.368303273599998704e+01	-2.636931411999995589e+01	1.504735708429493343e+03	1.328895423293434019e+00
3.410000000000000142e+01	7.564878609218892436e+00	3.210193173502234654e+00	1.957132242940002698e+01	2.587129739999999067e+00	1.497298010657328405e+03	9.172579622254553033e-01
3.420000000000000284e+01	2.643031346019518057e+00	3.208539640477503951e+00	4.628211423799992730e+01	-1.751099710100000806e+01	1.512331238254209666e+03	2.749671206276044000e+00
3.430000000000000426e+01	2.251266432458416400e+00	3.205756869523959107e+00	1.840511483599999210e+01	-8.175449413999983150e+00	1.505597556954640140e+03	2.342099535183108650e+00
3.439999999999999858e+01	1.134571153506005015e+00	3.199753432665935815e+00	5.130751757000000168e+01	-4.522194787999996635e+01	1.511683601981697393e+03	1.180348328810104430e+00
3.450000000000000000e+01	1.050154760425570766e+00	3.193540719740386447e+00	3.321946721599999819e+01	-3.163292541999995322e+01	1.516452079679900180e+03	1.092525940422420128e+00
3.460000000000000142e+01	2.417052102904351796e-02	3.184407088043811562e+00	7.973790619999692186e-01	-3.298973410800004302e+01	1.520980260059031480e+03	2.514574252565817888e-02
3.470000000000000284e+01	2.209165463993495448e-01	3.175891310625293062e+00	-9.235013120000010289e+00	-4.180317531900001171e+01	1.528060589447120719e+03	2.298299895455538921e-01
3.480000000000000426e+01	2.799300287942561472e+00	3.174812253253709304e+00	3.231158998900003354e+01	1.154273806499998933e+01	1.521343353159111757e+03	2.912245218380795642e+00
3.489999999999999858e+01	4.762794853851758603e+00	3.179349346398274712e+00	5.362123890989998642e+01	1.125835576700002427e+01	1.532365049691138211e+03	3.952605437811352651e+00
3.500000000000000000e+01	4.186088620275294048e+00	3.182217549457753147e+00	-1.678354728000002538e+01	-4.009362630000000038e+00	1.534223397582786447e+03	4.045487688367132684e+00
3.510000000000000142e+01	2.165309575506677575e+00	3.179328606349938191e+00	1.553037502330000308e+01	7.172357799999997674e+00	1.534719893781119254e+03	2.252674528968884538e+00
3.520000000000000284e+01	5.821657014274769781e-02	3.170486929193543357e+00	2.395298976999997720e+00	-4.114462550999994050e+01	1.530661941240849501e+03	6.056546657713413745e-02
3.530000000000000426e+01	1.657190664630417698e-01	3.161998884383570907e+00	4.024965173000000007e+00	2.428788225099999210e+01	1.527300164478800980e+03	1.724054260917596004e-01
3.539999999999999858e+01	2.129570779720702245e-01	3.153691724365510485e+00	9.068293869999999757e+00	-4.258273054999996532e+01	1.539821232397545600e+03	2.215493760050773198e-01
3.550000000000000000e+01	1.753272796151015278e-01	3.145325532104974897e+00	1.334811604999997670e+01	-7.613256807100005119e+01	1.538479269726990879e+03	1.824013071802567110e-01
3.560000000000000142e+01	4.492855689880868031e-01	3.137773599435180305e+00	1.008852735999998274e+01	-2.245459915999992617e+01	1.550650744611536766e+03	4.674131444950211933e-01
3.570000000000000284e+01	6.380888609980785997e-01	3.130791239830606809e+00	2.350695804399999744e+01	3.683963078000006419e+01	1.548167964034298620e+03	6.638341882604886779e-01
3.580000000000000426e+01	1.309062359435422174e+01	3.158534505442093465e+00	1.401657349899998017e+01	-1.070733827000045046e+00	1.545861607025800595e+03	1.135594694174059079e-04
3.589999999999999858e+01	9.492682043129835989e+00	3.176129359713447897e+00	4.447436540100004265e+01	-4.685121148999991547e+00	1.551494279922978194e+03	9.803383090301708014e-02
3.600000000000000000e+01	1.001565512840211980e+01	3.195075414474358499e+00	1.322256904600000560e+01	1.320190129999964546e+00	1.551668702354610787e+03	4.517513240062973057e-02
3.610000000000000142e+01	3.336008679184088166e-01	3.187170788655143472e+00	-1.486645534400006774e+01	-4.456359912000008450e+01	1.557663915317069495e+03	3.470608482511627346e-01
3.620000000000000284e+01	8.057371944809490483e-01	3.180610365530696537e+00	2.958685014399996760e+01	3.672022384800001049e+01	1.550378269736486800e+03	8.382467225848578840e-01
3.630000000000000426e+01	9.473253192056892147e-03	3.171898450386909207e+00	-4.086481500000124778e-01	4.313704508000004267e+01	1.565147290522164212e+03	9.855475823694259327e-03
3.639999999999999858e+01	1.367485550920979620e-01	3.163582971221718498e+00	-1.068284737000002593e+01	-7.812036743499994884e+01	1.576036067310143380e+03	1.422660253359773475e-01
3.650000000000000000e+01	3.719361913839104861e-01	3.155955521003581232e+00	1.209192538799997685e+01	-3.251075229600003524e+01	1.564271677373154489e+03	3.869429083996804852e-01
3.660000000000000142e+01	9.033571623022113029e-01	3.149817650816383985e+00	2.604509579199998370e+01	2.883144882099998796e+01	1.567630382612284848e+03	9.398054177096702988e-01
3.670000000000000284e+01	1.740100598657971787e-01	3.141731217145323551e+00	1.153919482000001118e+01	-6.631337767999995947e+01	1.570110649112841884e+03	1.810309408308544976e-01
3.680000000000000426e+01	1.179737890544154677e-01	3.133536752570551531e+00	-7.384838099999973871e+00	-6.259727825300002735e+01	1.580415259551928102e+03	1.227337433385909532e-01
3.689999999999999858e+01	5.582755030716618494e-01	3.126576587031365317e+00	4.633630312000003926e+01	-8.299899040000001094e+01	1.558425735348359694e+03	5.808005562541994626e-01
3.700000000000000000e+01	5.216356104543787353e+01	3.258751747296612322e+00	6.854032198999993852e+01	1.313950209999981356e+00	1.574584853745626333e+03	5.530250486035047444e-128
3.710000000000000142e+01	5.323961258545926611e+00	3.264303385767712395e+00	-1.183331611000002148e+01	2.222652558000003609e+00	1.584412867347653219e+03	3.517497042195164791e+00
3.720000000000000284e+01	7.755097129948790302e-01	3.257631016671806989e+00	4.727507937999996557e+01	-6.096000938200001684e+01	1.586830718688315983e+03	8.067996360394548150e-01
3.730000000000000426e+01	1.088788872723645511e+02	3.540040792756546484e+00	9.697814844999982142e+01	-8.906974609999953607e-01	1.586779792123055131e+03	0.000000000000000000e+00
3.739999999999999858e+01	1.945306676457016215e-01	3.531119432422917370e+00	-1.461130076999989758e+00	-7.511052600000034829e+00	1.575874565108612842e+03	2.023795050212357505e-01
3.750000000000000000e+01	1.595146761851606199e+00	3.525970568937355498e+00	2.534834396800002310e+01	1.589091648130000500e+01	1.583339998904156118e+03	1.659507038179274252e+00
3.760000000000000142e+01	2.872651442675971278e+00	3.524237626957882341e+00	3.996397542199999720e+01	-1.391187765710002466e+01	1.590772730481718327e+03	2.988555913076607506e+00
3.770000000000000284e+01	1.341225916244194405e+00	3.518462463702026088e+00	3.214354579999998407e+01	-2.396579532999992423e+01	1.592150001970067706e+03	1.395341106552518307e+00
3.780000000000000426e+01	1.700835775004429506e-01	3.509627690915214426e+00	1.110581626999999116e+01	-6.529622926100003610e+01	1.584829603129488078e+03	1.769460344909334626e-01
3.789999999999999858e+01	1.262614663106903290e+00	3.503714498736771432e+00	1.001040161999998368e+01	7.928310919000012724e+00	1.601718104991524797e+03	1.313558081327931948e+00
3.800000000000000000e+01	1.929665174331596234e+00	3.499583135680589763e+00	2.190199747599995916e+01	1.135015429999996961e+01	1.604509454457690936e+03	2.007522451674339514e+00
3.810000000000000142e+01	4.510085044548908684e+00	3.502228428635742574e+00	-3.319813545000000943e+01	7.360866840000006128e+00	1.597098423262524193e+03	4.042348653686827831e+00
3.820000000000000284e+01	5.033452782038520645e+00	3.506226403448804874e+00	5.768199255999999764e+01	-1.145972656500000220e+01	1.598100438741946618e+03	3.779167212503858231e+00
3.830000000000000426e+01	2.038834697152160369e-01	3.497626552058873184e+00	1.365744529000000895e+01	6.698652573000006782e+01	1.604567239308413264e+03	2.121096698137470149e-01
3.839999999999999858e+01	2.226713444483044757e+00	3.494325479052183159e+00	-8.441135142400000291e+00	3.790849318000008683e+00	1.607063359691446294e+03	2.316555894103861757e+00
3.850000000000000000e+01	5.381304185986659494e-01	3.486666942626137189e+00	3.299048591799999741e+01	-6.130574443999992695e+01	1.603945456084371017e+03	5.598426668190938926e-01
3.860000000000000142e+01	8.556714873135614630e-01	3.479868504757112291e+00	-2.369277799999996859e+01	2.768910540000000253e+01	1.608579829393265300e+03	8.901957421885688948e-01
3.870000000000000284e+01	4.612349969392738891e-01	3.472088521489540724e+00	-1.366120929599999911e+01	-2.961876134000003447e+01	1.602913961744842254e+03	4.798447026823021710e-01
3.880000000000000426e+01	7.852188518380295301e-01	3.465181401516143733e+00	2.972483464900001593e+01	3.785547758999994983e+01	1.618030457296194754e+03	8.169005149242072328e-01
3.889999999999999858e+01	6.847589046111628441e+00	3.473854241630490947e+00	2.407647847600000190e+01	3.516051900000003450e+00	1.624450909385393516e+03	1.637720174783461768e+00
3.900000000000000000e+01	3.890860790453918860e-01	3.465964808989608681e+00	1.867730765900000023e+01	-4.800302211999996160e+01	1.643613381811774161e+03	4.047847521465067766e-01
3.910000000000000142e+01	1.254224690285624888e+00	3.460322614809241859e+00	2.326299278500001932e+01	1.854770757199998243e+01	1.638019430307872653e+03	1.304829593592494508e+00
3.920000000000000284e+01	1.067148311308691255e+00	3.454233112764711233e+00	2.651992277299999401e+01	-2.485120623999998202e+01	1.632319279082790445e+03	1.110205139583669176e+00
3.930000000000000426e+01	4.950068060604654319e-01	3.446722386097948565e+00	-6.830829589999980911e+00	1.379946599999998824e+01	1.633690810226044505e+03	5.149791218272899984e-01
3.939999999999999858e+01	1.303347504061421969e+00	3.441296120573805961e+00	2.759880642599999589e+01	2.117532456999999368e+01	1.633256278235643094e+03	1.355934392941163358e+00
3.950000000000000000e+01	2.068236890877609702e-01	3.433128260898335782e+00	-5.628228959999998615e+00	-2.721269011700002238e+01	1.638534431078325497e+03	2.151685198576549496e-01
3.960000000000000142e+01	2.667638931425762028e-01	3.425152532012301076e+00	-1.535136251999999679e+01	-5.754662799059997269e+01	1.638135083149952152e+03	2.775271647659166008e-01
3.970000000000000284e+01	6.312673982684618990e-01	3.418132720118472356e+00	4.355617289000006664e+00	6.899797615000029083e+00	1.645360179304321491e+03	6.567374961684481205e-01
