0.000000000000000000e+00	2.175618569183463968e+00	2.175618569183463968e+00	-9.043873449999985326e+00	4.156920509000004316e+00	1.123958632840832706e+03	2.298352224471504002e+00
1.000000000000000056e-01	5.871877155002556276e-02	1.117168670366744720e+00	4.204969989999980839e+00	7.161202251000004537e+01	9.025467787224827134e+02	6.203128669787282001e-02
2.000000000000000111e-01	8.416278360372299039e-01	1.025321725590239819e+00	3.072383145000000226e+01	3.650524630300002826e+01	9.120795515413630028e+02	8.891067747501775198e-01
2.999999999999999889e-01	1.302617899583596195e+00	1.094645769088578913e+00	2.534809500600004029e+01	-1.945934798999997284e+01	9.240953622840947901e+02	1.376102773505924803e+00
4.000000000000000222e-01	3.248697286394178985e+00	1.525456072549699060e+00	2.322172721999999467e+01	-7.148012009999997751e+00	9.219860661416503262e+02	3.431966770545134882e+00
5.000000000000000000e-01	5.505599118072342923e-01	1.362973379092621506e+00	-9.575264090000050743e+00	1.739186577999998917e+01	9.123487783277896597e+02	5.816187708316465921e-01
5.999999999999999778e-01	1.840390080904020120e+00	1.431175765065678451e+00	-2.940713468000001285e+01	-1.597875090999996139e+01	9.166421847871412183e+02	1.944212416760427553e+00
7.000000000000000666e-01	1.624094415585734252e-01	1.272579974627290333e+00	7.665597510000000447e+00	4.719921105840008124e+01	9.049011591367275287e+02	1.715714815862305620e-01
8.000000000000000444e-01	1.824559980859578046e-01	1.151455088344920163e+00	9.319176270000008699e+00	5.107629438199999328e+01	9.034023677189379669e+02	1.927489289753653856e-01
9.000000000000000222e-01	3.008932681356399019e+00	1.337202847646068005e+00	1.322686815000000315e+01	4.395867089999984323e+00	9.070458624169845052e+02	3.178676271399903719e+00
1.000000000000000000e+00	1.015452630604976569e+01	2.138777707500949532e+00	1.962269904000001475e+01	-1.932409100000006097e+00	9.145784327460603436e+02	2.461430414257592236e+00
1.100000000000000089e+00	5.259133001688760523e-01	2.004372340223276705e+00	7.458469199999993471e+00	1.418193682799998356e+01	9.262499055123322478e+02	5.555817643972116304e-01
1.199999999999999956e+00	4.899564803235112009e+01	5.619085855002341034e+00	3.920925019000004852e+01	-8.002598549999939692e-01	9.310728272231408482e+02	5.058266491117996286e-96
1.300000000000000044e+00	2.651319019589241321e+00	5.407102509615691055e+00	1.365203858999996633e+01	5.149149721000011226e+00	9.203682890991143495e+02	2.800888470419502951e+00
1.400000000000000133e+00	2.880456841750842045e+00	5.238659465091368261e+00	-1.406341029999994241e+01	-4.882354110000034275e+00	9.183150811058696945e+02	3.042952695617454406e+00
1.500000000000000000e+00	6.305047591687197084e+00	5.305308723003607341e+00	5.208606070099997254e+01	8.261009919999988682e+00	9.069278964429446432e+02	6.660735646870167059e+00
1.600000000000000089e+00	5.463538173111720520e-01	5.025370199139346461e+00	2.785988162139998536e+01	5.099238028299998149e+01	9.033306936981891795e+02	5.771753969892408076e-01
1.699999999999999956e+00	4.323620568268281006e-01	4.770203080121984129e+00	1.513370440900000702e+01	-3.500238786000002023e+01	9.001124934424308321e+02	4.567529939119661098e-01
1.800000000000000044e+00	1.849390036697165840e+01	5.492502937324599266e+00	3.469346690999996952e+01	1.875941051999998388e+00	9.127857262459033336e+02	5.874917420517080738e-07
1.900000000000000133e+00	2.516059410418573172e+00	5.343680760979298228e+00	3.428388179300001326e+01	1.362602236299997571e+01	9.217979384119864790e+02	2.657998430767365416e+00
2.000000000000000000e+00	2.531789257752435240e+00	5.209781165587542340e+00	-1.278753186999998270e+01	5.050788422000003663e+00	9.289027582936959107e+02	2.674615649485050817e+00
2.100000000000000089e+00	1.412858691782542309e+00	5.037193780414588318e+00	5.302417075699995763e+01	3.752970560000000688e+01	9.280573502212039330e+02	1.492562604087827927e+00
2.200000000000000178e+00	3.903654842092414867e+00	4.987909478748406400e+00	2.425306028039999973e+01	6.212911043999989502e+00	9.215929684471240080e+02	4.123872592822808159e+00
2.300000000000000266e+00	8.070587116545667072e+00	5.116354380323291373e+00	4.563370583200001818e+01	-5.654322935000041461e+00	9.181553931344122930e+02	6.794095084623910097e+00
2.399999999999999911e+00	6.053769293755708603e-01	4.935915282285382233e+00	2.538453631200000515e+01	4.193178675999998006e+01	9.203508166524201215e+02	6.395281930307616935e-01
2.500000000000000000e+00	1.384386599386084526e+01	5.278528771192130264e+00	-1.495324820999996440e+01	1.080135289999995862e+00	9.177639853498019420e+02	2.583824679818443049e-02
2.600000000000000089e+00	5.733361114710661816e-02	5.085151172671944053e+00	1.198816450000002254e+00	2.090948792539995793e+01	9.253297696709412321e+02	6.056798493239219650e-02
2.700000000000000178e+00	6.071409183028360079e-01	4.925222235015904282e+00	3.069056894900000643e+01	5.054933381000001447e+01	9.365276511036853435e+02	6.413916942585732306e-01
2.800000000000000266e+00	2.292093751145622971e+00	4.834424701089343301e+00	3.539163226699999854e+01	1.544074375199998883e+01	9.417189159975280290e+02	2.421398146835975762e+00
2.899999999999999911e+00	7.789411496131050106e-01	4.699241916040135081e+00	1.639287285000001049e+01	-2.104507235000005139e+01	9.309627204707589954e+02	8.228837303119658220e-01
3.000000000000000000e+00	7.886158597464092146e-02	4.550197389263828107e+00	2.868617998000011049e+00	3.637535262000001524e+01	9.304731647147375497e+02	8.331042220245099550e-02
3.100000000000000089e+00	1.035099805929441619e+00	4.440350589784630486e+00	4.209846532200005242e+01	4.067092378999994651e+01	9.288929013515697761e+02	1.093493122004759677e+00
3.200000000000000178e+00	2.071180705165370263e-03	4.305857274357980380e+00	3.729775699998483240e-02	-1.800796855000001173e+01	9.197384747648371786e+02	2.188022683951390719e-03
3.300000000000000266e+00	3.425863251017305711e+00	4.279975097200901857e+00	2.021224711400002150e+01	5.899898984000023994e+00	9.218933273781717617e+02	3.619127238220783749e+00
3.399999999999999911e+00	7.582546056981422089e-02	4.159856536154299178e+00	-4.422131862299987226e+00	5.831988133100003324e+01	9.294209855868755312e+02	8.010301917841040897e-02
3.500000000000000000e+00	2.741485995795807651e-01	4.051920204582779128e+00	1.676250960999999862e+01	6.114388195199997966e+01	9.426960131005768062e+02	2.896142056353001037e-01
3.600000000000000089e+00	2.721852044202543314e-02	3.943144483389785737e+00	7.611392099999814143e-01	-2.796401852999994020e+01	9.487320016430205669e+02	2.875400490272103995e-02
3.700000000000000178e+00	3.674091981404132667e+01	4.806243834196405551e+00	3.148682315400000320e+01	8.569960499999960124e-01	9.453980793337289015e+02	4.698474178068259646e-48
3.800000000000000266e+00	4.961305886093252404e-01	4.695728109950582763e+00	9.587514725999994880e+00	1.932457894377002461e+01	9.486182399921393653e+02	5.241189140918949274e-01
3.899999999999999911e+00	2.609154616910281388e-01	4.584857793744093968e+00	9.740206795000002415e+00	3.733089151510000647e+01	9.503841598996457378e+02	2.756345437893782946e-01
4.000000000000000000e+00	1.481337015834287341e+00	4.509162165014586776e+00	1.322614742000001975e+01	8.928520166999991403e+00	9.345866445529368320e+02	1.564904011098100733e+00
4.099999999999999645e+00	6.318624141634948677e-01	4.416845504280036749e+00	2.263408780900000039e+01	3.582122832700002135e+01	9.402979417414099998e+02	6.675078093756330322e-01
4.200000000000000178e+00	4.442026951886016151e-01	4.324458462208142784e+00	1.793867397999999369e+01	4.038398274999999416e+01	9.418745249998322606e+02	4.692616008449169152e-01
4.299999999999999822e+00	1.705417295935326649e+00	4.264934799338305993e+00	3.793799773599997138e+01	2.224558049600000587e+01	9.465714226641853202e+02	1.801625381987903785e+00
4.400000000000000355e+00	1.770883399025207083e-01	4.174093766906399772e+00	6.420680450000007866e+00	3.625693511799990887e+01	9.639097355299194305e+02	1.870784638943767397e-01
4.500000000000000000e+00	4.017602185822791161e-01	4.092086515855875462e+00	2.638613612999998637e+01	6.567632858999999712e+01	9.675377631817159454e+02	4.244248073453872894e-01
4.600000000000000533e+00	1.019959515824618412e+00	4.026722111599890574e+00	1.717335966500000666e+01	1.683729540099997379e+01	9.577101869032132981e+02	1.077498719339487154e+00
4.700000000000000178e+00	3.110987981325121776e-01	3.949313292569320399e+00	2.035175901600001680e+01	-6.541895737999993798e+01	9.572840651931278444e+02	3.286488839753856084e-01
4.799999999999999822e+00	4.582088515171753307e-01	3.878066263160093285e+00	-7.407752761000024222e+00	1.616676049899999512e+01	9.433331224730079612e+02	4.840578895924222969e-01
4.900000000000000355e+00	5.155591219514047419e-01	3.810816120335919877e+00	2.337062597000000252e+01	4.533064196699996984e+01	9.512352057143865522e+02	5.446434736160150614e-01
5.000000000000000000e+00	1.908640342375048204e+00	3.773518556062176899e+00	3.034722023999998441e+01	-1.589991554000001805e+01	9.520311498038299760e+02	2.016312895444782427e+00
5.100000000000000533e+00	1.870927160853621096e+00	3.736930260000474124e+00	3.902581928499999719e+01	2.085907997999999353e+01	9.587443726983823353e+02	1.976472191807930878e+00
5.200000000000000178e+00	2.533076707520949267e+00	3.714216042029162335e+00	2.543537554400002776e+01	1.004129700000001613e+01	9.598527977961092574e+02	2.675975728444328183e+00
5.299999999999999822e+00	7.833389919724833561e-01	3.659940541102186806e+00	3.539689675400000368e+01	-4.518720134800005184e+01	9.674893452903927482e+02	8.275296691326414766e-01
5.400000000000000355e+00	9.211012967114482475e-01	3.610143463931446028e+00	1.713373648499999646e+01	1.860135963999999831e+01	9.644187895169651483e+02	9.730635894760198967e-01
5.500000000000000000e+00	7.285231206245955079e-04	3.545689625702681536e+00	4.362705999999461071e-02	5.988424905799993780e+01	9.523592338788311054e+02	7.696214578159647811e-04
5.600000000000000533e+00	7.804442911185170972e-01	3.497176549657345479e+00	3.569589813799998979e+01	4.573791947000002267e+01	9.611382461353282451e+02	8.244716688741724475e-01
5.700000000000000178e+00	8.819852298479850106e+02	1.864352229618023671e+01	1.945518652200000886e+01	2.205840399997766044e-02	9.568656839318847460e+02	0.000000000000000000e+00
5.799999999999999822e+00	2.451787955385562867e+01	1.874308767342897042e+01	1.834066526299998756e+01	7.480526699999949791e-01	9.585488330530496341e+02	1.669839732646006500e-16
5.900000000000000355e+00	1.120566213218261442e+00	1.844937898242546126e+01	4.923680623000005596e+01	4.393922076999997728e+01	9.607056576706073656e+02	1.183780964778399003e+00
6.000000000000000000e+00	8.425106420635644633e-02	1.814831131163498767e+01	-2.834732915000018671e+00	3.364625648000002656e+01	9.735250191007565945e+02	8.900393827096528265e-02
6.100000000000000533e+00	2.399749428524640960e-01	1.785946717665462558e+01	-1.441263570999999644e+01	6.005891922999995813e+01	9.788996831004939168e+02	2.535127027939392819e-01
6.200000000000000178e+00	2.583162073888722876e-01	1.758008382793611801e+01	1.453039412000000041e+01	5.625041597999993570e+01	9.725987742323515022e+02	2.728886571749019607e-01
6.299999999999999822e+00	1.690553845334480942e-01	1.730803650850794995e+01	6.513939810000000996e+00	-3.853139506899999844e+01	9.695338386385760714e+02	1.785923436235254125e-01
6.400000000000000355e+00	7.352579513265012912e-01	1.705307068455131159e+01	3.458038396600000652e+01	-4.703163550099999668e+01	9.546361790603225472e+02	7.767362220234487191e-01
6.500000000000000000e+00	1.655765316810306476e-01	1.679719956102297473e+01	3.576105160000007110e+00	-2.159789871000000616e+01	9.720757479845429998e+02	1.749172374697093579e-01
6.600000000000000533e+00	2.464599356259825937e-03	1.654653187502794864e+01	-7.012970699999954149e-02	2.845481024000001469e+01	9.644800099038135386e+02	2.603635349102931002e-03
6.700000000000000178e+00	3.859430455955717987e-01	1.630887615694805959e+01	9.549546932000000155e+00	2.474340978799999746e+01	9.728452231886363961e+02	4.077153366533379786e-01
6.799999999999999822e+00	5.931782254275282940e-01	1.608111241881007913e+01	3.797504972699999826e+01	-6.401962867000014512e+01	9.756635553949470250e+02	6.266413208778108812e-01
6.900000000000000355e+00	6.313336857099187405e-02	1.585228414666380559e+01	-1.675244449000022673e+00	2.653500814099999872e+01	9.851297205843430902e+02	6.669492536459518950e-02
7.000000000000000000e+00	1.286163353415414323e-01	1.563082403664518338e+01	8.363604084000007433e+00	6.502754150000004074e+01	9.796623669322186743e+02	1.358719973357044031e-01
7.100000000000000533e+00	6.819959196835563286e-01	1.542320142390960669e+01	-1.116387905999995667e+01	1.636942207100000957e+01	9.722328578053419506e+02	7.204695075173402907e-01
7.200000000000000178e+00	1.118698907592831082e-01	1.521345715633220408e+01	3.351609569999989269e+00	2.995988954000000604e+01	9.755348360677961637e+02	1.181808318424499293e-01
7.299999999999999822e+00	7.948224005362093392e-01	1.501861074071334023e+01	3.178262332899997133e+01	3.998707548700002690e+01	9.809647537803710975e+02	8.396608937833209829e-01
7.400000000000000355e+00	1.048458286219588365e+00	1.483234204132008927e+01	1.665375172000002024e+01	1.588403843900001355e+01	9.737353658068592495e+02	1.107605197221115390e+00
7.500000000000000000e+00	8.756529854680426439e+00	1.475239714412746217e+01	6.640348873100003857e+01	7.583310950000005768e+00	9.889997830616466672e+02	5.516225365839424910e+00
7.600000000000000533e+00	3.762272629460723383e+00	1.460966825432659455e+01	4.067446944499999262e+01	1.081114354300001601e+01	9.981098626436613586e+02	3.974514553915874160e+00
7.700000000000000178e+00	4.613642983945601128e-01	1.442827974207105513e+01	3.153697717800001143e+01	6.835591156000002400e+01	1.004829593145384820e+03	4.873913453978491184e-01
7.799999999999999822e+00	1.155940744004686938e+00	1.426027545095629279e+01	1.807566454799999889e+01	1.563718957199998982e+01	1.002283546070883176e+03	1.221151086855050805e+00
7.900000000000000355e+00	1.851183740557081236e+00	1.410516180457630320e+01	3.561721927100000329e+01	1.924023990200001677e+01	9.926571624017439035e+02	1.955614981541400121e+00
8.000000000000000000e+00	8.448702325927459622e-01	1.394145450121848206e+01	2.762782484100001312e+01	3.270067257100001967e+01	9.950981639903668565e+02	8.925320853453090342e-01
8.099999999999999645e+00	7.891794602507286704e+00	1.386767816099029815e+01	2.797809968400001424e+01	3.545213870000005763e+00	9.949508424566320173e+02	7.027963592141823312e+00
8.199999999999999289e+00	2.448571839124049909e-01	1.370354778777249294e+01	9.346815990000004959e+00	-3.817252098000003002e+01	1.007393937947351333e+03	2.586703668070445827e-01
8.300000000000000711e+00	7.784298654012815621e-01	1.354967733631569082e+01	2.814384265060000700e+01	3.615462856900001043e+01	1.005449721919206240e+03	8.223436029099356892e-01
8.400000000000000355e+00	2.371908906567689879e-01	1.339305984871970523e+01	9.647132164419996769e+00	4.067243955999996530e+01	1.008193614493019822e+03	2.505715932411640701e-01
8.500000000000000000e+00	1.459440673337617067e+00	1.325429683505247169e+01	3.388636740999996455e+00	-2.321873579999981452e+00	1.015851242776865888e+03	1.541772425351477960e+00
8.599999999999999645e+00	1.516522694532158155e+00	1.311937989090855972e+01	3.498953898000003448e+01	2.307221587000000795e+01	1.021248350864584609e+03	1.602074627331231405e+00
8.700000000000001066e+00	4.187699463367517416e-01	1.297505477790205752e+01	-1.909355000500003285e+01	4.559436552700000078e+01	1.003462011874723885e+03	4.423941086631359432e-01
8.800000000000000711e+00	3.945094112417307120e+00	1.287359454570560047e+01	5.475550214000003990e+01	-1.387939059999998115e+01	1.006432117169654248e+03	4.167649585941338941e+00
8.900000000000000355e+00	1.200656381139019846e+00	1.274389523276597203e+01	2.702545364900000280e+01	2.250889936000000446e+01	1.002759934789245449e+03	1.268389277194144293e+00
9.000000000000000000e+00	2.918047282617026728e-01	1.260705907337581522e+01	1.173891723500001305e+01	4.022867382899999456e+01	1.011877315785690826e+03	3.082663734403120470e-01
9.099999999999999645e+00	6.619612944070318861e-02	1.247074534572434423e+01	1.217102982999971106e+00	-1.838631644000003007e+01	1.020675855856447015e+03	6.993046644593796379e-02
9.200000000000001066e+00	3.880154848685470004e+00	1.237837340489596905e+01	1.472493002399999185e+01	-3.794933603999991245e+00	1.023733348066194026e+03	4.099046889049655640e+00
9.300000000000000711e+00	3.755600694616504365e-01	1.225068390132751972e+01	1.930388039000012101e+00	-5.140024715000031996e+00	1.023621675290117082e+03	3.967466233724116220e-01
9.400000000000000355e+00	1.340452420081772456e+00	1.213583935941966985e+01	3.416931002600004064e+01	2.549087868700001280e+01	1.023756941366537262e+03	1.416071661242267243e+00
9.500000000000000000e+00	1.235300529289122373e+00	1.202229207993914351e+01	3.713997548900002243e+01	-3.006553839199999700e+01	1.014232016762962076e+03	1.304987813396008223e+00
9.599999999999999645e+00	5.731679132391629405e-01	1.190425987203501990e+01	1.984180801999998067e+01	3.461779273000002632e+01	1.018879947481581326e+03	6.055021624876709696e-01
9.700000000000001066e+00	2.903593002455983552e+01	1.207907283277506849e+01	4.530674692000001613e+01	1.560368373999993397e+00	1.027290512376215474e+03	2.875981830162288942e-26
9.800000000000000711e+00	1.326443560664513743e+00	1.197046041588506249e+01	2.618876158700001966e+01	-1.974359284000001580e+01	1.033361684821780273e+03	1.401272516916132416e+00
9.900000000000000355e+00	1.373040748301369796e+00	1.186448621920922442e+01	1.479469745999999830e+01	-1.077513356999999061e+01	1.032990897702027269e+03	1.450498402085644845e+00
1.000000000000000000e+01	8.610141138021777385e-01	1.175554095083885819e+01	5.761232539499997074e+01	6.691217306600003667e+01	1.046925269610371743e+03	9.095866949238745613e-01
1.009999999999999964e+01	1.912255711784724144e-01	1.164216530986179521e+01	2.567893386000004163e+00	-1.342860878999999308e+01	1.053958753886050772e+03	2.020132219494831238e-01
1.020000000000000107e+01	1.264872964473041961e+01	1.165193777913236417e+01	3.176123462800002173e+01	2.511021700999993556e+00	1.061669351067098432e+03	1.657821989604915669e-01
1.030000000000000071e+01	1.032703264773520502e+01	1.163919830671508748e+01	4.110038921390002997e+01	3.979883729999986741e+00	1.051328914601514043e+03	2.150868038218155753e+00
1.040000000000000036e+01	1.033703906506863834e+00	1.153819359814167633e+01	3.989503263999998239e+01	3.859425546219997472e+01	1.049881215157492534e+03	1.092018475396910437e+00
1.050000000000000000e+01	1.869217733486944644e+00	1.144697684470153654e+01	4.212623068100000268e+01	2.253682378799999242e+01	1.047567973102016367e+03	1.974666330134187131e+00
1.059999999999999964e+01	2.133454255905631314e+00	1.135993457751652791e+01	4.929795900300000255e+01	-2.310710851500000018e+01	1.045673529233097952e+03	2.253809286390316746e+00
1.070000000000000107e+01	2.217194151074310504e+00	1.127527957356799071e+01	1.560106162100001370e+01	7.036398510000008599e+00	1.057970550742759769e+03	2.342273218930742917e+00
1.080000000000000071e+01	4.963062513452822344e+00	1.121736932531005237e+01	-7.837111416000048791e+00	1.579087789999997105e+00	1.058099638977612358e+03	5.243044865289306244e+00
1.090000000000000036e+01	1.606839373267656412e-01	1.111685400360111231e+01	4.907981169999989568e+00	-3.054431732039995850e+01	1.062542537056462606e+03	1.697486360995794363e-01
1.100000000000000000e+01	1.109341099293249977e+00	1.102669622968842944e+01	1.932110196999999729e+01	-1.741673681999997569e+01	1.070263895401012633e+03	1.171922605999461409e+00
1.109999999999999964e+01	1.759890653272257310e+01	1.108537667882266575e+01	4.517710925700002633e+01	-2.567040694999990436e+00	1.057510432652448117e+03	7.043688145850604552e-06
1.120000000000000107e+01	5.540117628465277555e+00	1.103630358988144877e+01	3.652522915999996656e+01	-6.592861669999988905e+00	1.055869201939686718e+03	5.852653519130361914e+00
1.130000000000000071e+01	6.639708452971356811e-01	1.094531821492895496e+01	2.754785745400001673e+01	4.148955883999995109e+01	1.058427616267173562e+03	7.014275805917751239e-01
1.140000000000000036e+01	9.030753331487415991e+00	1.092866982463815795e+01	-1.195075602999999376e+01	1.323339879999981816e+00	1.060902566988265789e+03	4.902321789676951980e+00
1.150000000000000000e+01	6.168488353745711361e-01	1.083977481611002425e+01	2.374278944799999991e+01	3.849045031200000011e+01	1.065243817242554314e+03	6.516472662199677135e-01
1.159999999999999964e+01	1.264660569427428438e+00	1.075793623280504541e+01	1.531301765799998549e+01	-1.210840128029998652e+01	1.068297962076050680e+03	1.336004148022980287e+00
1.170000000000000107e+01	3.094482057072914793e-01	1.066938972410082620e+01	-5.106716450000037710e+00	-1.650265329000002268e+01	1.068578329086487429e+03	3.269051763117644116e-01
1.180000000000000071e+01	4.471753199945482371e-01	1.058348876272178174e+01	2.181242363000000495e+01	-4.877823675570004980e+01	1.075052435392748521e+03	4.724019209966385247e-01
1.190000000000000036e+01	7.909852120390319374e-01	1.050188456646609225e+01	3.757587146999997429e+01	4.750515041000002725e+01	1.071686910300712725e+03	8.356072371161442636e-01
1.200000000000000000e+01	2.474552176295036765e-01	1.041713721647570701e+01	1.152670382500001267e+01	4.658096901500007903e+01	1.068657267886301270e+03	2.614149639793268420e-01
1.209999999999999964e+01	1.174979381956007263e+00	1.034138182438948128e+01	6.809882280999986826e+00	5.795746193999987916e+00	1.066017824265681384e+03	1.241263755732825436e+00
1.220000000000000107e+01	3.270945904270895710e+00	1.028389860552672985e+01	5.273985324000003061e+01	1.612373141699997348e+01	1.072272002730172971e+03	3.455470504661340758e+00
1.230000000000000071e+01	4.977530304308516729e-01	1.020497807669531021e+01	2.807241967399999893e+01	5.639828983000003149e+01	1.082111444563273380e+03	5.258328830855408809e-01
1.240000000000000036e+01	8.078359575167730622e-01	1.012980093974188200e+01	3.038502355200000693e+01	-3.761286343999997683e+01	1.088197758824142511e+03	8.534085874545470629e-01
1.250000000000000000e+01	1.112250827884363691e+00	1.005823308171126662e+01	-1.734534122299999481e+01	1.559481079999997988e+01	1.093192649954474746e+03	1.174996481758163291e+00
1.259999999999999964e+01	1.559789883935068344e+00	9.991316206138225908e+00	3.660758306389998040e+01	2.346956051000001153e+01	1.102060506977626346e+03	1.647782658334170813e+00
1.270000000000000107e+01	4.166985894229884302e+00	9.945813625576441552e+00	2.246276820699999632e+01	-5.390651366999988703e+00	1.093460979134841637e+03	4.402058998300916848e+00
1.280000000000000071e+01	1.345619500809131619e+00	9.879145454066616594e+00	3.880466838999993939e+01	-2.883777201999999562e+01	1.086969491364145370e+03	1.421530233646439711e+00
1.290000000000000036e+01	5.177282657639193930e-01	9.807134552618135714e+00	5.314473562800000650e+01	1.026498631470000760e+02	1.088994583082016561e+03	5.469349858219265670e-01
1.300000000000000000e+01	2.385574218033296390e+00	9.750481420293059642e+00	3.503560928669997310e+01	1.468644698699999473e+01	1.094624473078071333e+03	2.520152148138949944e+00
1.309999999999999964e+01	1.974496307122727057e+00	9.691572442162982526e+00	3.644210160000004350e+01	1.845640403000001228e+01	1.088783986026002140e+03	2.085884007411046071e+00
1.320000000000000107e+01	7.313492797501774945e-01	9.624202343197470810e+00	1.965734176000000133e+01	-2.687818570999998258e+01	1.098066674965961511e+03	7.726070496862481596e-01
1.330000000000000071e+01	1.211467769927000671e+00	9.561420741904408160e+00	2.585512097700002343e+01	2.134198004999998943e+01	1.107645308509792130e+03	1.279810571267676611e+00
1.340000000000000036e+01	2.680636841952505067e-01	9.492581059995451653e+00	-4.545667780000012925e+00	1.695741739000001402e+01	1.112332037818395065e+03	2.831860205630678529e-01
1.350000000000000000e+01	6.036879012891365193e-01	9.427221551475552630e+00	2.526974890000001750e+01	-4.185896196699999905e+01	1.107525160452050841e+03	6.377438814264034805e-01
1.359999999999999964e+01	7.335761721220298570e-01	9.363764285932825615e+00	1.204247840999998687e+01	-1.641612537000006355e+01	1.099184162685435240e+03	7.749595682338474845e-01
1.370000000000000107e+01	3.892787142607696538e-01	9.298731781790275264e+00	-3.188780715000016919e+00	8.191510601999983265e+00	1.099937402341229244e+03	4.112391811384651374e-01
1.380000000000000071e+01	4.096746142280020819e-02	9.232129160780436550e+00	-1.050653557999987164e+00	2.564604985299996898e+01	1.121618031476751412e+03	4.327856795567887327e-02
1.390000000000000036e+01	9.589202956720416227e-01	9.173034811743947969e+00	2.947922662300000241e+01	-3.074210313000000738e+01	1.122865219726324540e+03	1.013016080054820023e+00
1.400000000000000000e+01	2.714907026854162519e-01	9.109903293239986155e+00	1.200970395800001000e+01	4.423615188000005105e+01	1.135603046369569256e+03	2.868063682112007018e-01
1.409999999999999964e+01	1.336195705847240234e+01	9.139847333840215526e+00	2.912013025800000321e+01	2.179331225999999067e+00	1.147827048515028764e+03	5.712928483663525653e-02
1.420000000000000107e+01	1.067917728265706634e+00	9.083400273661371926e+00	2.885755193000002095e+01	-2.702226132800000258e+01	1.144453216527411541e+03	1.128162409108884878e+00
1.430000000000000071e+01	3.774085196822449717e+01	9.282410354873615432e+00	3.924832715699995589e+01	-1.039942797000042773e+00	1.142880307144922426e+03	2.346329027927505487e-51
1.440000000000000036e+01	4.260179178452130899e-01	9.221331786342386039e+00	5.838534939000009416e+00	1.370490464000002362e+01	1.151015506253414515e+03	4.500509616038746996e-01
1.450000000000000000e+01	6.399815418271690426e-01	9.162555414804609555e+00	4.051927976999999714e+01	-6.331320065000011965e+01	1.137158189415728657e+03	6.760849631979490848e-01
1.459999999999999964e+01	7.542024358968528475e+01	9.613287987422845404e+00	4.615570706910001775e+01	6.119803499999888485e-01	1.142068252547835300e+03	5.055856876704422918e-255
1.470000000000000107e+01	6.548776950734883640e-01	9.552758188150214380e+00	-1.189631118599996285e+01	1.816569914580003342e+01	1.148146334497503858e+03	6.918214564577008785e-01
1.480000000000000071e+01	7.501289383732826499e-01	9.493680139493992698e+00	2.047067602400001007e+01	2.728954313959994948e+01	1.151261270663889945e+03	7.924461293772385728e-01
1.490000000000000036e+01	3.064625563167317601e+00	9.450819775651815746e+00	3.326742864999998517e+01	1.085529960000000926e+01	1.163824817863341423e+03	3.237510968166347425e+00
1.500000000000000000e+01	5.194357440247877600e-01	9.391671537031768935e+00	2.446387424999999283e+01	-4.709701735279996626e+01	1.173317643148716570e+03	5.487387884345217293e-01
1.509999999999999964e+01	1.484349412325218553e+00	9.339649680948172161e+00	2.089974713899999870e+01	-1.408007236400003137e+01	1.166465188309278574e+03	1.568086346583737134e+00
1.520000000000000107e+01	2.699886849319568238e+00	9.296252538257791187e+00	2.744166625999999809e+01	-1.016400604600000612e+01	1.144835785817424494e+03	2.852196167954160533e+00
1.530000000000000071e+01	7.730678802565139618e-01	9.240907183335703934e+00	3.751086140600001784e+01	4.852207983800003177e+01	1.163728819134251353e+03	8.166791309020114964e-01
1.540000000000000036e+01	1.317571035332096629e+00	9.189788885606649416e+00	2.742656380999997623e+01	-2.081600390000001255e+01	1.155596183157414998e+03	1.391899463834454620e+00
1.550000000000000000e+01	1.120798951849129033e+00	9.138064591159485772e+00	2.974493904199998795e+01	-2.653904966000000343e+01	1.162082573510302382e+03	1.184026832945527019e+00
1.559999999999999964e+01	1.731923028815331778e+00	9.090891714966209847e+00	-1.760335743999992175e+01	1.016405299030000897e+01	1.170962244641308644e+03	1.829626388684988170e+00
1.570000000000000107e+01	1.305865910790613205e+00	9.041619399749908581e+00	2.880844800499997405e+01	-2.206080101099998458e+01	1.173684433896873088e+03	1.379534015493143917e+00
1.580000000000000071e+01	4.251119761993666923e-01	8.987427529161539752e+00	2.268910405999999114e+01	5.337206507999995608e+01	1.193898316216508420e+03	4.490939128700270344e-01
1.590000000000000036e+01	4.100292892199622230e+00	8.956882937680529011e+00	2.591826504400001596e+01	-6.321076499999987774e+00	1.182503236722513975e+03	4.331603629081272722e+00
1.600000000000000000e+01	6.065990488268774961e+00	8.938927083957475261e+00	-1.705509833600000391e+01	2.811593319999996510e+00	1.191076144913751705e+03	6.408192561790849062e+00
1.610000000000000142e+01	7.651131717108257124e-01	8.888471442523853128e+00	4.054270469699998358e+01	-5.298916055299997652e+01	1.196674922038863542e+03	8.082756716100333305e-01
1.619999999999999929e+01	9.932182173781129109e+01	9.443277272556292345e+00	4.444502838000001788e+01	-4.474850300000088321e-01	1.208220993127965357e+03	0.000000000000000000e+00
1.630000000000000071e+01	3.007498295321632265e-01	9.387530154001266780e+00	8.460802339000002448e+00	-2.813235954999992572e+01	1.207345492053917042e+03	3.177160967026033678e-01
1.639999999999999858e+01	6.746267379850325041e-02	9.331044896545492406e+00	3.454150951999984898e+00	5.120091982000007391e+01	1.202827947905389919e+03	7.126846065290694254e-02
1.650000000000000000e+01	1.147288009752631011e+00	9.281745156263607299e+00	4.978463335300000381e+01	4.339331792000002253e+01	1.210640057620622656e+03	1.212010223976941914e+00
1.660000000000000142e+01	5.987195720671544485e+00	9.262017315331918965e+00	2.401823156900001166e+01	-4.011599535000009098e+00	1.219016436396250128e+03	6.324952727405826813e+00
1.669999999999999929e+01	1.455319655893184683e-01	9.207752521583451255e+00	5.289720959999981709e+00	-3.634748516300001597e+01	1.232697836024438629e+03	1.537418928031379362e-01
1.680000000000000071e+01	2.230914779873328424e+00	9.166469458023035699e+00	6.709156800400006659e+01	3.007356830000002645e+01	1.218435859494443548e+03	2.356767872620523452e+00
1.689999999999999858e+01	1.504266256269791713e-01	9.113433911950117761e+00	-3.783035699999974355e+00	-2.514871077000003297e+01	1.219618145085851665e+03	1.589126763885213844e-01
1.700000000000000000e+01	6.766423337103917302e-01	9.064095949504270777e+00	3.823074531799999676e+01	-5.650067016700000977e+01	1.230197305989757979e+03	7.148139085053589747e-01
1.710000000000000142e+01	1.552190158885437832e+01	9.101641331128400125e+00	2.497630069410998033e+01	-1.609100570000031816e+00	1.221389037666631111e+03	1.027324299978232824e-03
1.719999999999999929e+01	5.191427844315906093e+00	9.079038941031218002e+00	2.565977402700000454e+01	4.942719960000000690e+00	1.231669181935616962e+03	5.484293020464929391e+00
1.730000000000000071e+01	2.269006631977590338e+00	9.039900824312519845e+00	2.170369107200000514e+01	-9.565283224000008744e+00	1.229953703480297918e+03	2.397008608868205215e+00
1.740000000000000213e+01	3.192272231900943891e-01	8.990068403734676750e+00	-2.237117444999998739e+01	7.007915624000003163e+01	1.257910480749136923e+03	3.372358596875645875e-01
1.750000000000000000e+01	1.853824845282739986e+01	9.044319426740884182e+00	6.794612683999997671e+01	-3.665185900000009767e+00	1.243608145187063656e+03	5.167222487142863533e-07
1.760000000000000142e+01	6.193160482492826802e+00	9.028211184118013932e+00	-4.285798608999997583e+01	6.920212419999987929e+00	1.247656229323859407e+03	6.542536625245213955e+00
1.769999999999999929e+01	5.351068517906181654e+00	9.007553079251655603e+00	4.857430547500000273e+01	-9.077496449999976846e+00	1.243529761545536530e+03	5.652939538958309029e+00
1.780000000000000071e+01	7.684539850708004272e-01	8.961524592691985092e+00	3.953462106000000631e+01	-5.144695951619996777e+01	1.245447627581863344e+03	8.118049510187504980e-01
1.790000000000000213e+01	2.062678246206832156e-01	8.912884277313811054e+00	-1.126458195400003248e+01	5.461143527700001954e+01	1.242872174181088667e+03	2.179040573880428877e-01
1.800000000000000000e+01	8.406267431213096941e-01	8.868286169390096063e+00	1.312343496000002219e+01	-1.561148877000002599e+01	1.239776743920083618e+03	8.880492069564481783e-01
1.810000000000000142e+01	2.066272779984535291e+00	8.830912469448307434e+00	3.183588248999995685e+01	-1.540739577000004168e+01	1.255037439283510821e+03	2.182837886893354007e+00
1.819999999999999929e+01	2.680781865645428308e+00	8.797305198389276271e+00	-2.959773429399996303e+01	1.104070968000000796e+01	1.259151000164447169e+03	2.832013410577516765e+00
1.830000000000000071e+01	1.720286941922867907e+00	8.758843142647609881e+00	2.871155732999999444e+01	1.668998155499998504e+01	1.252459573846697594e+03	1.817333872628979607e+00
1.840000000000000213e+01	7.151730146201858318e+00	8.750156045369525515e+00	8.304707599999998635e+00	-1.161216576999967387e+00	1.263281159120898337e+03	7.383447702517762501e+00
1.850000000000000000e+01	8.334640001818383048e-02	8.703560294588065460e+00	-5.275587493999997157e+00	-6.329712492499991328e+01	1.263320411514967645e+03	8.804823906029592140e-02
1.860000000000000142e+01	9.815752247025008037e-01	8.662266256781192553e+00	2.276794979200001379e+01	2.319531831999998062e+01	1.272257199664187738e+03	1.036949046646451045e+00
1.869999999999999929e+01	5.846139110180398113e+00	8.647286857065230592e+00	3.974519942000006267e+01	-6.798538089999985878e+00	1.268959019988668388e+03	6.175938658905569589e+00
1.880000000000000071e+01	1.011584256037004748e+00	8.606886314202645494e+00	2.268914536000001547e+01	2.242931839300000263e+01	1.286178891539896540e+03	1.068650984154632111e+00
1.890000000000000213e+01	1.302294451449492962e+00	8.568441093872367631e+00	1.077524519699999672e+01	-8.274046767999989171e+00	1.287659689645591470e+03	1.375761078620135969e+00
1.900000000000000000e+01	6.001332760561991497e-01	8.526722204773852454e+00	2.960416720700000326e+01	4.932932131600004055e+01	1.298470489147441185e+03	6.339887283278755614e-01
1.910000000000000142e+01	1.057056943069837907e+01	8.537367242408876677e+00	3.974464147799992730e+01	-3.759933818000007921e+00	1.297038559517980275e+03	1.754753205871211641e+00
1.919999999999999929e+01	6.561039788756293234e+00	8.527127203788914755e+00	3.128019425000000453e+01	-4.767566613999982827e+00	1.299218027101399684e+03	6.931169188813102622e+00
1.930000000000000071e+01	6.039449295594615741e+00	8.514304121787914070e+00	5.142315444999999841e+01	-8.514543616999953102e+00	1.299290460140871346e+03	6.380154094898339068e+00
1.940000000000000213e+01	5.800734720346444329e-01	8.473615759481486265e+00	9.536766608300021986e+00	-1.644061841830002990e+01	1.306894039467442781e+03	6.127972861107289226e-01
1.950000000000000000e+01	1.503404037484176170e+00	8.438053454777419304e+00	3.440915950200000140e+01	2.288749973000000537e+01	1.309048432774006187e+03	1.588215904559056924e+00
1.960000000000000142e+01	6.048919057889736717e-01	8.398291213411996026e+00	1.371255156399999109e+01	-2.266942478940003625e+01	1.319472942207752340e+03	6.390158077004621795e-01
1.969999999999999929e+01	1.010524691191494684e+00	8.360979261279569030e+00	2.743009914200001020e+01	2.714441258199994067e+01	1.316779996949071119e+03	1.067531645841315546e+00
1.980000000000000071e+01	2.005322280662265921e+00	8.329041286502597785e+00	3.891146947000001433e+01	1.940409770800000544e+01	1.320515124794426129e+03	2.118448973466970475e+00
1.990000000000000213e+01	5.895608020725540827e-02	8.287690860471121468e+00	-2.137306523999993768e+00	-3.625252079999997790e+01	1.327844639040723678e+03	6.228198270127899977e-02
2.000000000000000000e+01	7.433734651706782603e-01	8.250156943081565331e+00	6.677147239999988493e+00	-8.982224350000061364e+00	1.313422416261481885e+03	7.853095581590627816e-01
2.010000000000000142e+01	3.256144876442953248e-03	8.209330701506292627e+00	1.482646900000168522e-01	-4.553381241500002119e+01	1.320351032032696594e+03	3.439834503151396102e-03
2.019999999999999929e+01	7.946468573249705347e-01	8.172805165328059118e+00	2.960166749200001846e+01	3.725134909820001639e+01	1.334632669435387697e+03	8.394754476137781252e-01
2.030000000000000071e+01	4.155744463093789531e-01	8.134779524548555685e+00	9.596627861999994735e+00	2.309243974749997008e+01	1.325982184708712794e+03	4.390183401804430008e-01
2.040000000000000213e+01	1.708396629038199777e+00	8.103431315302163540e+00	-1.481310977000000229e+01	8.670767384000019007e+00	1.327855847479532031e+03	1.804772788873201694e+00
2.050000000000000000e+01	1.664568311994687022e+00	8.072174698781253710e+00	3.831453403499997989e+01	-2.301769999999992322e+01	1.331628859417257445e+03	1.758471975210995408e+00
2.060000000000000142e+01	1.773347514716441031e+00	8.041745581950022981e+00	5.931863047149999346e+01	-3.345008802800001035e+01	1.344915390263926383e+03	1.873387763342741597e+00
2.069999999999999929e+01	2.199746285929529677e+01	8.108840376552645779e+00	4.592853671200003163e+01	2.087901545999991004e+00	1.349229456225226841e+03	5.015715370027998399e-12
2.080000000000000071e+01	6.792415612728782692e-01	8.073292056862312549e+00	1.533421449400001535e+01	2.257549503488001719e+01	1.351021235822161088e+03	7.175597668716949817e-01
2.090000000000000213e+01	6.097245450700856662e-01	8.037751259187110975e+00	3.502230679200003038e+01	-5.743955541100012852e+01	1.352544152301378290e+03	6.441210717385332796e-01
2.100000000000000000e+01	3.490391978344500323e+00	8.016199793401126428e+00	5.071371377099993083e+01	1.452951819899997155e+01	1.354445304895675008e+03	3.687296239026120137e+00
2.110000000000000142e+01	3.057317925492416677e+01	8.122600639917745724e+00	3.590974988999998629e+01	-1.174550726000021861e+00	1.351772424359423667e+03	4.253481052898421518e-30
2.119999999999999929e+01	1.411883626302474104e+00	8.091094926238799445e+00	2.266936181799998806e+01	-1.605611212970000778e+01	1.358848245093248579e+03	1.491532532021490720e+00
2.130000000000000071e+01	2.735026951908772830e+01	8.181091069196037679e+00	4.381918800600004715e+01	-1.602148306999997773e+00	1.368154521861215926e+03	2.302826053578470865e-22
2.140000000000000213e+01	2.340086152164543076e+00	8.153923604465658670e+00	5.394950866000001355e+01	2.305449677999998670e+01	1.362828013159652301e+03	2.472097953871067233e+00
2.150000000000000000e+01	1.462255181595021603e-01	8.116850928140166843e+00	5.342759160000004393e+00	3.653780288999999470e+01	1.367771172137699978e+03	1.544745709090560581e-01
2.160000000000000142e+01	5.800230680706334851e+00	8.106175258797154726e+00	1.359293526000001329e+01	2.343516320000001318e+00	1.387675133443606455e+03	6.127440386966611641e+00
2.169999999999999929e+01	2.443013825985476117e+00	8.080197454059485196e+00	5.931835323399999993e+01	2.428080946699998321e+01	1.392687132284572499e+03	2.580832109497806393e+00
2.180000000000000071e+01	9.384184947926184073e-01	8.047586591231782549e+00	2.054075851400001085e+01	2.188869744999998446e+01	1.389938043010092770e+03	9.913577065125410703e-01
2.190000000000000213e+01	6.646170012848511277e-01	8.014027638550206945e+00	2.841207144000000540e+01	-4.274954054000004788e+01	1.399983200567806762e+03	7.021101883212534922e-01
2.200000000000000000e+01	2.435547062787587758e-01	7.978867127544453375e+00	8.372619723999978447e+00	-3.437675194999992101e+01	1.420006190795933435e+03	2.572944122123296262e-01
2.210000000000000142e+01	4.928820942346743839e-01	7.945146474241255419e+00	3.531929283600000247e+01	-7.165870549799997491e+01	1.429007315845907669e+03	5.206871616799985114e-01
2.219999999999999929e+01	9.302520068489564808e-01	7.913689548378510352e+00	1.778499552260001337e+01	1.911847047000000188e+01	1.462049421198105620e+03	9.827305206642057422e-01
2.230000000000000071e+01	3.009965845016358554e-01	7.879704311932631988e+00	-1.058089276129995682e+01	-3.515286653108999815e+01	1.442734475465322475e+03	3.179767719151704308e-01
2.240000000000000213e+01	3.568868511825507572e-01	7.846269567662631950e+00	1.466017260899999997e+01	4.107792865000003246e+01	1.432727666662625097e+03	3.770199886682786272e-01
2.250000000000000000e+01	1.024780952559549041e+00	7.816085989719698368e+00	2.507116363899999811e+01	2.446490010999998432e+01	1.443650718742077288e+03	1.082592148859642167e+00
2.260000000000000142e+01	5.315643952490299862e-01	7.783995586219827345e+00	3.050650274260002703e+01	-5.739004157400005823e+01	1.430202678945376192e+03	5.615516559637496741e-01
2.269999999999999929e+01	9.020073269183061238e-02	7.750250871949967646e+00	1.150522620000001606e+00	-1.275513607999997134e+01	1.449209717852148515e+03	9.528924673088973174e-02
2.280000000000000071e+01	7.434150677180438649e+00	7.748870521754467333e+00	4.937147570000000485e+01	-6.641172320000002571e+00	1.449008587798468398e+03	7.372220329239714154e+00
2.290000000000000213e+01	1.731419423850443451e+00	7.722707690894015542e+00	3.225398321099999777e+01	-1.862863657799996631e+01	1.457720010415589741e+03	1.829094373740962176e+00
2.300000000000000000e+01	4.206282390730540222e+00	7.707485070546987060e+00	5.508509991399999706e+01	1.309591101999999196e+01	1.461817448245144533e+03	4.443572336817840807e+00
2.310000000000000142e+01	7.424989685964914488e-01	7.677463578728234594e+00	2.519067657000000793e+01	-3.392688425899995508e+01	1.462374221615012630e+03	7.843857284147113251e-01
2.319999999999999929e+01	2.716716646804011148e+00	7.656172819363753490e+00	5.969786487699997934e+01	2.197426991409998465e+01	1.449405165848319939e+03	2.869975388555449758e+00
2.330000000000000071e+01	1.243002303932707697e+01	7.676573888679835811e+00	3.976818247600002820e+01	-3.199365145999999438e+00	1.450268884484976297e+03	2.239138572334981037e-01
2.340000000000000213e+01	1.078551528681165106e+00	7.648497197786224611e+00	2.532325199999998233e+01	2.347894498000001562e+01	1.454825200999200206e+03	1.139396096477451437e+00
2.350000000000000000e+01	1.496853815578013114e+00	7.622430912268393755e+00	4.136552593300000780e+01	-2.763498045200000064e+01	1.461243718056166699e+03	1.581296163524459120e+00
2.360000000000000142e+01	2.312218681086396777e-01	7.591244376217086476e+00	-1.309647265819998729e+01	-5.664028565000004534e+01	1.471341280550632746e+03	2.442658388935338709e-01
2.369999999999999929e+01	9.195947636903636369e-01	7.563212234987982896e+00	5.288937646399997305e+01	-5.751378601999992668e+01	1.474081979024297880e+03	9.714720680718110790e-01
2.380000000000000071e+01	6.683654655587979221e+00	7.559532077751998536e+00	4.529952163600001569e+01	-6.777657430000008532e+00	1.484284471698358630e+03	7.060701155458179556e+00
2.390000000000000213e+01	1.208489728901397386e+00	7.533069401298454260e+00	4.062303049400004795e+01	-3.361470894000005671e+01	1.468721610621560785e+03	1.276664529349891497e+00
2.400000000000000000e+01	5.656062904560400506e-01	7.504158765983754975e+00	-1.332208542000001650e+01	2.355363729999999478e+01	1.469389653490540468e+03	5.975139641930005130e-01
2.410000000000000142e+01	5.325028934242776302e+01	7.693192363407078460e+00	7.778702539999999033e+01	-1.460781272000005959e+00	1.473510697035473186e+03	1.697820194964231770e-116
2.419999999999999929e+01	3.816322378653916303e+01	7.818583439222436482e+00	6.097120546999995838e+01	1.597642951000003420e+00	1.467827904555239684e+03	8.772031547516118570e-53
2.430000000000000071e+01	4.010168884905954911e+01	7.950891248279146062e+00	2.739904624900001551e+01	6.832392110000267138e-01	1.477867172246729751e+03	1.391523679199896858e-59
2.440000000000000213e+01	8.552781681854214924e+01	8.267531760810831187e+00	6.695115362360000688e+01	-7.827997499999932440e-01	1.480209059351128872e+03	0.000000000000000000e+00
2.450000000000000000e+01	4.325805432173892573e-01	8.235682365617362777e+00	2.397728741699999944e+01	-5.542849254999996589e+01	1.495780651819348805e+03	4.569838058239785727e-01
2.460000000000000142e+01	2.595183007060632985e+00	8.212846335825634725e+00	7.305786733399993693e+01	-2.815133542999999960e+01	1.501052562804171885e+03	2.741585644503418795e+00
2.469999999999999929e+01	4.002187083632352760e+00	8.195867871099048685e+00	3.737974823000001834e+01	-9.339830310000015956e+00	1.510064701638213592e+03	4.227963355667544221e+00
2.480000000000000071e+01	8.536617632204442918e-01	8.166381099581464298e+00	1.576255158399997569e+01	-1.846463349199998305e+01	1.506922803622946958e+03	9.018195745499371085e-01
2.490000000000000213e+01	1.336394876104105289e-01	8.134250133133580363e+00	-2.399606689999960185e+00	-1.795582079000002551e+01	1.499796499431421125e+03	1.411785218131762776e-01
2.500000000000000000e+01	1.396500905542688464e+00	8.107406510712898751e+00	2.492087924700001267e+01	1.784522956490000567e+01	1.515073822883381808e+03	1.475282022406679827e+00
2.510000000000000142e+01	4.561746969541249364e+00	8.093336433168566657e+00	8.694660619999988072e+00	-1.905993620000007160e+00	1.519037421417366431e+03	4.819089818145941173e+00
2.519999999999999929e+01	2.424864421467463504e+00	8.070931405454333074e+00	5.415168524699996055e+01	-2.233184039799998288e+01	1.514650565076262183e+03	2.561658838577222763e+00
2.530000000000000071e+01	4.290916106879273606e+00	8.056049455459943331e+00	6.214471205999999626e+01	-1.448285412999999799e+01	1.533239523171171186e+03	4.532980513660501920e+00
2.540000000000000213e+01	7.398041229332236179e-01	8.027358297293170963e+00	1.635654815100000548e+01	-2.210929575000000824e+01	1.551667819614684504e+03	7.815388578223613214e-01
2.550000000000000000e+01	6.145147781396707864e-02	7.996241473779582165e+00	1.058747833999999610e+00	-1.722900525199998967e+01	1.550821705409166725e+03	6.491815372940143436e-02
2.560000000000000142e+01	8.897996458779312334e+00	7.999750248040281342e+00	4.932037312099999582e+01	5.542862750000026040e+00	1.544113107322288215e+03	5.203304813155957831e+00
2.569999999999999929e+01	8.357831459400892893e-01	7.971982933691054818e+00	2.838865320850000629e+01	3.396652989043998616e+01	1.552114517516478827e+03	8.829323668478072928e-01
2.580000000000000071e+01	2.169749366927874179e-01	7.942040817872529246e+00	-1.516562314299999592e+01	-6.989573714900005541e+01	1.540007391845881102e+03	2.292151921600826259e-01
2.590000000000000213e+01	5.947500503988781828e-01	7.913782007228400417e+00	-1.866438508999992152e+01	3.138189744999999320e+01	1.551128481941910195e+03	6.283018175616288392e-01
2.600000000000000000e+01	1.546774144028295606e-01	7.884053637140945092e+00	-3.540821600000003677e+00	-2.289165236999998854e+01	1.560907472025376137e+03	1.634032658590832965e-01
2.610000000000000142e+01	9.273737745543094713e-01	7.857501423924966311e+00	3.600145089999999470e+01	-3.882086369899999312e+01	1.589365760890937054e+03	9.796899180095637316e-01
2.619999999999999929e+01	3.637715868557386129e-02	7.827763308848009416e+00	1.347686199999991841e+00	3.704759383900000813e+01	1.593210192784503988e+03	3.842931144696034446e-02
2.630000000000000071e+01	3.846028019992743907e+00	7.812680978208406124e+00	3.645332458999995850e+01	9.478174470000022112e+00	1.611094950043525614e+03	4.062994855963028229e+00
2.640000000000000213e+01	9.180935719994246513e-01	7.786663667241579212e+00	3.627876933000000470e+00	3.951532876000000805e+00	1.604668635329051767e+03	9.698861893193959638e-01
2.650000000000000000e+01	4.302660902811449306e-01	7.759008037253006584e+00	1.464185404300000215e+01	3.402976523999998903e+01	1.607517196645985905e+03	4.545387871383510525e-01
2.660000000000000142e+01	6.008440855966783456e-01	7.732198434437814960e+00	2.141078640200000294e+01	-3.563451303799996595e+01	1.615041426807629705e+03	6.347396369254010295e-01
2.669999999999999929e+01	2.661758504721345897e+00	7.713278882461261254e+00	3.579439098000003838e+01	1.344764782999999575e+01	1.615548435897648687e+03	2.811916880553322784e+00
2.680000000000000071e+01	4.098174556841464033e-01	7.686128468235323474e+00	2.183582130000000987e+01	-5.328182339999998618e+01	1.620923337663695975e+03	4.329365791598378532e-01
2.690000000000000213e+01	6.479372879179127187e-01	7.660061093493407469e+00	5.373866080499996656e+01	-8.293805867799990494e+01	1.637206740323493932e+03	6.844895185662431825e-01
2.700000000000000000e+01	7.218716050754883540e+00	7.658432513999907876e+00	3.785843591999998381e+01	5.244483319999961424e+00	1.654868705943461009e+03	7.395119524725081384e+00
2.710000000000000142e+01	4.173825980500272870e+00	7.645621460567923577e+00	7.406638351599995929e+01	-1.774544120000000547e+01	1.645212735135434286e+03	4.409284955882729840e+00
2.719999999999999929e+01	1.078792053327583460e+02	8.012777445447742508e+00	4.319040256899999974e+01	-4.003589240000167693e-01	1.651822568084045997e+03	0.000000000000000000e+00
2.730000000000000071e+01	1.610236036542427751e+00	7.989410505999183343e+00	2.194085160600001672e+01	1.362586049999999638e+01	1.656386147717341373e+03	1.701074640993000653e+00
2.740000000000000213e+01	5.529514944734278403e-01	7.962368836866361654e+00	2.625566028920000150e+01	4.748275491000001125e+01	1.663672855756099580e+03	5.841452703838710958e-01
2.750000000000000000e+01	9.294433995128722481e-01	7.936887222962906385e+00	1.900937073900000840e+01	2.045242426699996230e+01	1.680857349722646859e+03	9.818762971822326824e-01
2.760000000000000142e+01	4.092900866668713888e-01	7.909711782037649463e+00	2.703857275000002502e+01	-6.606212471500002437e+01	1.679072172834468802e+03	4.323794595566409216e-01
2.769999999999999929e+01	5.124017750889948708e-01	7.883102753235676552e+00	2.174624214099996777e+01	4.243982593000002623e+01	1.685584434568295364e+03	5.413080106412844206e-01
2.780000000000000071e+01	1.591602349209656264e+00	7.860552572576084529e+00	4.974856399999994494e+01	-3.125690536000002950e+01	1.686555308005661573e+03	1.681389767303282490e+00
2.790000000000000213e+01	4.888631468225587695e-01	7.834225110341250797e+00	6.322076089999965731e+00	1.293220021000002085e+01	1.685255953155173529e+03	5.164414924917011263e-01
2.800000000000000000e+01	6.939025550836437617e+01	8.053285716739910782e+00	5.012767184999999870e+01	-7.224021800000081095e-01	1.697583336587660142e+03	4.674355457004954340e-212
2.810000000000000142e+01	1.174753215455499822e+00	8.028893757515497498e+00	3.453357167000000061e+01	2.939644787999999309e+01	1.695286705761210442e+03	1.241024830451112226e+00
2.819999999999999929e+01	2.587198423247595080e+00	8.009665152094056495e+00	5.177862253900001122e+01	2.001339443999993151e+01	1.682656808476676360e+03	2.733150624583974508e+00
2.830000000000000071e+01	1.293089301070482477e+00	7.986015237125664079e+00	1.939103079999999935e+01	-1.499589454800001498e+01	1.709162531642766453e+03	1.366036636040969254e+00
2.840000000000000213e+01	1.575472768448701988e+00	7.963522105656620553e+00	5.180322636499999334e+01	3.288106744999999620e+01	1.711205781099976775e+03	1.664350264907582089e+00
2.850000000000000000e+01	2.278850576664473770e+00	7.943645631779027383e+00	3.276906245999996514e+01	-1.437964507000000225e+01	1.731815410798066978e+03	2.407407882200921723e+00
2.860000000000000142e+01	2.978521130102494308e+00	7.926345546407331355e+00	7.213520157999995774e+01	-2.421846226000004876e+01	1.725602146241388709e+03	3.146549106526387085e+00
2.869999999999999929e+01	6.886726839608595663e-01	7.901214737857169546e+00	3.739541482000001338e+01	-5.430070872700007811e+01	1.729364101397486820e+03	7.275229295860676793e-01
2.880000000000000071e+01	8.254859684101835127e-01	7.876731247305448491e+00	3.198190586999999496e+01	-3.874312476999997301e+01	1.728404401146897726e+03	8.720542923466693130e-01
2.890000000000000213e+01	2.419108439186028026e+00	7.857911858311934061e+00	4.137162823299998138e+01	-1.710201475999998522e+01	1.733554166757611938e+03	2.555578142784337814e+00
2.900000000000000000e+01	4.735445650083806690e+00	7.847181733885033594e+00	4.859188822000000130e+01	-1.026131262200000904e+01	1.741006487785145282e+03	5.002587401071327378e+00
2.910000000000000142e+01	7.718009850910516612e-01	7.822950977896012681e+00	2.590580706000000433e+01	3.356539776500002858e+01	1.737295080084769324e+03	8.153407660971894177e-01
2.919999999999999929e+01	3.563489808125686942e+00	7.808413567760278617e+00	4.589376118000001270e+01	-1.287888099899998551e+01	1.734667837301222335e+03	3.764517752972236231e+00
2.930000000000000071e+01	1.294666064773557723e+00	7.786257964008622245e+00	3.695742147000001410e+01	-2.854591039000007768e+01	1.759605937082359333e+03	1.367702350066286154e+00
2.940000000000000213e+01	1.415847708533664928e+00	7.764663352973113497e+00	7.663951909500001136e+01	-5.412977584599998693e+01	1.763910502466310845e+03	1.495720240907182363e+00
2.950000000000000000e+01	1.720865944466957842e+01	7.796568745174790926e+00	7.269000887999995086e+01	-4.224036690000036565e+00	1.771863349542500828e+03	1.952624180268826355e-05
2.960000000000000142e+01	1.070489065720054755e+00	7.773922012247334479e+00	2.188793385000002090e+01	2.044666736999999301e+01	1.770741182891120843e+03	1.130878803996195447e+00
2.969999999999999929e+01	7.361851537233722320e-01	7.750305445607992283e+00	2.933721353550003030e+01	-3.985031942999999188e+01	1.748491692582268570e+03	7.777157308958074777e-01
2.980000000000000071e+01	8.898824473746362873e-01	7.727360887085472640e+00	3.875367804499997249e+01	-4.354921052699992856e+01	1.779783117635849749e+03	9.400835842328986169e-01
2.990000000000000213e+01	1.611344166697475100e-01	7.702140132184085886e+00	-2.022654189999987473e+00	1.255258952000001038e+01	1.817800244581172592e+03	1.702245284341486475e-01
3.000000000000000000e+01	3.860519935820028725e-01	7.677834191524278040e+00	6.545991629999992512e+00	-1.695624355999998656e+01	1.843449231972765801e+03	4.078304307468120782e-01
3.010000000000000142e+01	1.681457348049898881e+00	7.657978639062442916e+00	3.553457395700007737e+01	2.113319972000000746e+01	1.894240556526165619e+03	1.776313776221750684e+00
3.019999999999999929e+01	1.824465803596154290e+00	7.638726121453642826e+00	4.344439473399999940e+01	2.381211785300001083e+01	1.981761919043677153e+03	1.927389799647276636e+00
3.030000000000000071e+01	4.908480853578184311e-02	7.613760196082203890e+00	4.275006774999979164e+00	8.709429460000001200e+01	2.079406033016403399e+03	5.185384078069925351e-02
3.040000000000000213e+01	3.459353452219741776e+00	7.600139190364621378e+00	4.333769180600000226e+01	1.252768542000002228e+01	2.159026279679903837e+03	3.654506729608608229e+00
3.050000000000000000e+01	1.235019107244740511e+01	7.615662235730905394e+00	5.708879775300004411e+01	4.622503200000038781e+00	2.204777552009407373e+03	2.491176804455301486e-01
3.060000000000000142e+01	1.307208455806728864e+02	8.016656318287719074e+00	5.127052455180006518e+01	3.922138379999924873e-01	2.256892502900630006e+03	0.000000000000000000e+00
3.069999999999999929e+01	3.146420628069703351e+00	8.000843864748050649e+00	5.343430648900005764e+01	-1.698256933999999063e+01	2.298838904695581732e+03	3.323920356297165757e+00
3.080000000000000071e+01	2.507933321872974464e+00	7.983067455224182041e+00	7.954609827400001620e+01	-3.171778833999996650e+01	2.289306466222354175e+03	2.649413923377341273e+00
3.090000000000000213e+01	1.977772389837051614e+00	7.963695535658418478e+00	5.752693983700005731e+01	2.908673421299995709e+01	2.320567672146298719e+03	2.089344904509771617e+00
3.100000000000000000e+01	1.632209545778360749e+01	7.990571419652388485e+00	7.220473136999999042e+01	-4.423741519999953020e+00	2.329566329824391687e+03	1.715206509104059897e-04
3.110000000000000142e+01	4.892879265378551779e+00	7.980642919157921789e+00	3.827296931699999760e+01	7.822177340000008527e+00	2.332520768749933268e+03	5.168902353997597565e+00
3.119999999999999929e+01	1.210489171633768679e+00	7.959013034980529255e+00	8.093032367999997234e+01	-6.685753625599990357e+01	2.341449130662727384e+03	1.278776767090799238e+00
3.130000000000000071e+01	1.784645465464862690e+00	7.939349443994808908e+00	4.723203937999992519e+01	-2.646578286500000843e+01	2.374850066781364603e+03	1.885323067905043670e+00
3.140000000000000213e+01	1.821962926450403364e+00	7.919929169335937935e+00	9.188908855999999048e+01	5.043411544000006330e+01	2.383704191310514034e+03	1.924745727135211970e+00
3.150000000000000000e+01	8.691282916167750727e+00	7.922370162205659483e+00	6.488930510599998058e+01	-7.466021499000015993e+00	2.382420124239150937e+03	5.656783813131017524e+00
3.160000000000000142e+01	1.608737841025605908e+00	7.902453341003199405e+00	2.624122248200000840e+01	-1.631168349050001254e+01	2.385272271176534559e+03	1.699491927438540939e+00
3.169999999999999929e+01	3.019581454756293137e+00	7.887098397964686924e+00	5.886319580400000007e+01	1.949382610999999699e+01	2.401179804889343359e+03	3.189925776427214199e+00
3.180000000000000071e+01	1.907336412938335668e+00	7.868353062588428593e+00	9.956917007000002684e+01	-5.220325548999997523e+01	2.412504958919600540e+03	2.014935407146110968e+00
3.190000000000000213e+01	2.445791264354751249e+00	7.851407556968948320e+00	9.560321111259996485e+01	-3.908886768299992553e+01	2.415306929514393687e+03	2.583766232116897488e+00
3.200000000000000000e+01	4.934273324475425326e+00	7.842319911384857178e+00	2.131358800000002063e+01	-4.319498860000002161e+00	2.420500277568552974e+03	5.212631585377025978e+00
3.210000000000000142e+01	4.577361024848312532e+00	7.832180287513624606e+00	9.132035082999995268e+01	1.995043657999997677e+01	2.421688362348857936e+03	4.835584712635410121e+00
3.220000000000000284e+01	1.690901449120593147e+00	7.813167040335937230e+00	8.406375559999996483e+01	-4.971534895999999293e+01	2.407020905697742364e+03	1.786290649471233172e+00
3.229999999999999716e+01	6.163207111365292867e+00	7.808074571419362009e+00	8.435547461700001293e+01	1.368694465279998163e+01	2.438115424845640518e+03	6.510893487915665467e+00
3.239999999999999858e+01	3.625244308427502116e+00	7.795204324456308953e+00	7.229149789000000226e+01	1.994113823500005722e+01	2.434239254628175786e+03	3.829756023664636189e+00
3.250000000000000000e+01	2.678593139455474947e+00	7.779509198121950853e+00	1.137600318770001024e+02	-4.247006766399996280e+01	2.441437909260821925e+03	2.829701211289143092e+00
3.260000000000000142e+01	2.653356377673055988e+00	7.763832889802536386e+00	5.970803604000006715e+01	-2.250283321999998520e+01	2.439441613872937978e+03	2.803040762439026334e+00
3.270000000000000284e+01	1.229526014952793345e+00	7.743911222501164815e+00	1.094318778199998548e+02	-8.900330410999998776e+01	2.461845761670970205e+03	1.298887540095286397e+00
3.279999999999999716e+01	1.271526647635344620e+00	7.724238321057803169e+00	2.526245337999999663e+01	-1.986781277999995154e+01	2.466224408640734509e+03	1.343257563831286250e+00
3.289999999999999858e+01	1.801648565937723045e+00	7.706291079375621855e+00	1.069004656339998718e+02	-5.933480460900000963e+01	2.453775388112953351e+03	1.903285368074865147e+00
3.300000000000000000e+01	3.347561810399971360e+00	7.693122713004094670e+00	1.072205898729998808e+02	-3.202945783999997786e+01	2.455725676550150638e+03	3.536408560980537352e+00
3.310000000000000142e+01	1.507292410541928973e+00	7.674490694020773773e+00	1.022896810260000251e+02	-6.786319649100003915e+01	2.496504105488832465e+03	1.592323633272833883e+00
3.320000000000000284e+01	2.530383933903793459e+00	7.659042925972375571e+00	1.138310392430000775e+02	4.498567893900008841e+01	2.483802184840784321e+03	2.673131046788889353e+00
3.329999999999999716e+01	3.841716855610755044e+00	7.647613806001232639e+00	1.057816359319999862e+02	2.753499019000005177e+01	2.527167185593766135e+03	4.058440484903800716e+00
3.339999999999999858e+01	5.908423806826202274e+00	7.642422194063396290e+00	6.432780720999993207e+01	-1.088747343000003376e+01	2.526628430991988807e+03	6.241737036026492547e+00
3.350000000000000000e+01	4.845414145093579705e+00	7.634097765346224307e+00	1.200439876000000083e+02	-2.477476310699992723e+01	2.559801988624780734e+03	5.118759573302029686e+00
3.360000000000000142e+01	1.784787001305436105e+00	7.616740760111682107e+00	6.768371539999988329e+01	3.792257302999987445e+01	2.539909820296142243e+03	1.885472588238539693e+00
3.370000000000000284e+01	8.015394122388912024e+00	7.617920207929070209e+00	8.827688870999999438e+01	-1.101341834999997538e+01	2.554277695648877852e+03	6.871671052559569226e+00
3.379999999999999716e+01	3.573627217590059413e+00	7.605990140110961306e+00	1.372819179500000928e+02	-3.841528777099998138e+01	2.566061092425577499e+03	3.775227046376347761e+00
3.389999999999999858e+01	1.401247837995186263e+00	7.587740898045914228e+00	8.549068073999993089e+01	-6.101039260999995406e+01	2.572907174091290017e+03	1.480296744617709992e+00
3.400000000000000000e+01	4.946624859992699186e+00	7.579995689723178387e+00	1.539173175059999608e+02	-3.111562365500001448e+01	2.594362023431711350e+03	5.225679910820589136e+00
3.410000000000000142e+01	6.878707943622661247e+00	7.577945140757971210e+00	1.273658012739999634e+02	1.851594838999996284e+01	2.613084117312337185e+03	7.244724272588872083e+00
3.420000000000000284e+01	4.077142307985464065e+00	7.567738718504991802e+00	1.349659583298001451e+02	-3.310307762999998715e+01	2.630796649065611291e+03	4.307147045799583296e+00
3.430000000000000426e+01	2.164669164379368738e+00	7.552032120963928286e+00	1.415754147479999858e+02	-6.540279553000007695e+01	2.651728959670371296e+03	2.286785128453576288e+00
3.439999999999999858e+01	1.160435974479746779e+00	7.533505755321944442e+00	1.044352887500000122e+02	-8.999659700900002690e+01	2.640998142508461569e+03	1.225899907768885688e+00
3.450000000000000000e+01	2.416106093531280585e+00	7.518715582889023530e+00	1.125201989330001169e+02	-4.657088495999993683e+01	2.676153342080997845e+03	2.552406425134947199e+00
3.460000000000000142e+01	1.535944470282021745e+00	7.501474167578916941e+00	8.501224421629991923e+01	-5.534851413000004783e+01	2.713075760414410979e+03	1.622592048045579771e+00
3.470000000000000284e+01	1.508772005475239020e+01	7.523273724725967782e+00	1.339252464799999132e+02	-8.876440310000026201e+00	2.750520146367320194e+03	2.534812795561485615e-03
3.480000000000000426e+01	9.595740603562128435e-01	7.504466562363877102e+00	6.747757852630002162e+01	7.032034453000012775e+01	2.781391882013054328e+03	1.013706725711843504e+00
3.489999999999999858e+01	1.778679603727548963e+00	7.488107171053487221e+00	1.463882107399999768e+02	-8.230161881499999765e+01	2.838322318703285418e+03	1.879020652679754155e+00
3.500000000000000000e+01	4.647932798571014601e+00	7.480015506174619411e+00	1.713286326482798927e+02	-3.686125425500000574e+01	2.870398906018249818e+03	4.910137667559556718e+00
3.510000000000000142e+01	3.089012658776500331e+00	7.467541066267236793e+00	1.297571375949999606e+02	-4.200602325999994946e+01	2.894224059128102908e+03	3.263273818436006835e+00
3.520000000000000284e+01	1.827579314088103590e+00	7.451563837507523047e+00	7.896945222199997261e+01	-4.320986324000000423e+01	2.954786262539327709e+03	1.930678953300608791e+00
3.530000000000000426e+01	1.433600840677606847e+00	7.434563942036252371e+00	8.360480097650003017e+01	-5.831804683999998673e+01	2.972169488776231447e+03	1.514474884451928238e+00
3.539999999999999858e+01	1.571201521997208861e+00	7.418047428176988589e+00	7.424619998450003777e+01	-4.725440940900000442e+01	3.046260688634964936e+03	1.659838063677961273e+00
3.550000000000000000e+01	8.436104876200904101e+00	7.420907140109639144e+00	7.277667879999994227e+01	8.626810580000046969e+00	3.109229314323055405e+03	6.174894624451892966e+00
3.560000000000000142e+01	2.373452511309828150e+00	7.406768611737651220e+00	1.112143504359999469e+02	-4.685762613999995807e+01	3.160221409739936462e+03	2.507346616872165868e+00
3.570000000000000284e+01	1.265813770194932665e-02	7.386114671866042869e+00	-9.034455240000034415e-01	-7.137270468000002666e+01	3.234815593002008427e+03	1.337222404562429801e-02
3.580000000000000426e+01	1.218815744032285320e+00	7.368935566217480471e+00	1.196861377649999696e+02	-9.819871326000001943e+01	3.283724691500223798e+03	1.287573068274023846e+00
3.589999999999999858e+01	1.612539227121623009e+00	7.352945576386658466e+00	1.118144842100000602e+02	-6.934062894679996703e+01	3.376759992416391924e+03	1.703507761975720403e+00
3.600000000000000000e+01	3.729261734897459046e+00	7.342907671008572557e+00	4.437640412600004680e+01	-1.189951450999998883e+01	3.389219091567336818e+03	3.939641408399494615e+00
3.610000000000000142e+01	5.469270542388940948e-01	7.324134243890424223e+00	7.730042071800008330e+01	-1.413358876999998870e+02	3.425217695834905498e+03	5.777809720595408205e-01
3.620000000000000284e+01	3.899963875257189128e-01	7.305031935746168159e+00	3.516455936800001325e+01	-9.016637202999997669e+01	3.463459361061775780e+03	4.119973406652791548e-01
3.630000000000000426e+01	7.499661003188526909e-01	7.287023513121368090e+00	8.955448240999983511e+01	-1.194113738900000925e+02	3.441554995008158130e+03	7.922741051033475035e-01
3.639999999999999858e+01	8.004388912479957208e-01	7.269252048403907374e+00	6.838635864000006848e+01	-8.543607686700006809e+01	3.495421348351192137e+03	8.455942288375454252e-01
3.650000000000000000e+01	5.608091237659323935e-01	7.250922969374840932e+00	1.119299400299999832e+02	-1.995865175630001431e+02	3.486959525324522019e+03	5.924461738691167989e-01
3.660000000000000142e+01	2.773612868407843712e-01	7.231921438904722166e+00	2.076260077000002724e+01	-7.485760181779993161e+01	3.504073618160835849e+03	2.930081309390769606e-01
3.670000000000000284e+01	1.104628149118557001e+00	7.215271185399867448e+00	1.148217947120001412e+02	-1.039461060299999673e+02	3.524056457466546817e+03	1.166943783116048294e+00
3.680000000000000426e+01	2.786349659478135621e+00	7.203268688039646150e+00	6.217850448000000085e+01	-2.231539902699994116e+01	3.551086250891509280e+03	2.943536623894736248e+00
3.689999999999999858e+01	3.206176007254494253e-01	7.184666928344202397e+00	3.652195435099996956e+01	-1.139112583599999340e+02	3.558960452052167057e+03	3.387046729007363588e-01
3.700000000000000000e+01	5.160869901631983669e-01	7.166692319346410933e+00	6.277990013330001062e+01	-1.216459653700000985e+02	3.573353350728262285e+03	5.452011205749023315e-01
3.710000000000000142e+01	5.737468767987423668e-01	7.148969347726658263e+00	7.374432393000003572e+01	-1.285311117359997581e+02	3.586974510124086919e+03	6.061137872475877986e-01
3.720000000000000284e+01	5.919379486247484667e-01	7.131390175074910687e+00	6.877018323100003272e+01	-1.161780274279999077e+02	3.606040600296698358e+03	6.253310760632985188e-01
3.730000000000000426e+01	4.127131911079091608e-01	7.113425798112432474e+00	5.313035940399996804e+01	-1.287343379099999652e+02	3.607008174183646133e+03	4.359956723515198140e-01
3.739999999999999858e+01	4.343739340957633588e-01	7.095614993141721172e+00	6.445776751699997931e+01	-1.483923469099999579e+02	3.625895396516892561e+03	4.588783676617206320e-01
3.750000000000000000e+01	1.806251507290573266e-01	7.077224062709771779e+00	9.965000169999985502e+00	-5.516950507599995746e+01	3.643389634057960848e+03	1.908147976184247918e-01
3.760000000000000142e+01	3.602656083097963147e-01	7.059407196782982119e+00	6.691345257400007540e+01	-1.857336671350002177e+02	3.643961628875185397e+03	3.805893523744673934e-01
3.770000000000000284e+01	7.375639966220475241e-01	7.042682743872502371e+00	7.855939673000000312e+01	-1.065119733199998819e+02	3.674136382201791548e+03	7.791723587662694461e-01
3.780000000000000426e+01	7.805530407532573767e-01	7.026159974207280889e+00	9.688837857300009659e+01	-1.241278600099999210e+02	3.676597862066999824e+03	8.245865534262976082e-01
3.789999999999999858e+01	6.673581111143609412e-01	7.009426285093877773e+00	6.740997407099999350e+01	-1.010101966970000262e+02	3.702833692442258780e+03	7.050059329905680183e-01
3.800000000000000000e+01	7.069660538354211043e-01	6.992884394723120955e+00	6.049799956700001502e+01	-8.557412231999997232e+01	3.718967788361321254e+03	7.468482874129492854e-01
3.810000000000000142e+01	9.825623723729325354e-01	6.977150567439482032e+00	6.810448197999997433e+01	-6.931313868199997330e+01	3.729308404803711255e+03	1.037991882498449758e+00
3.820000000000000284e+01	9.057347483613633621e-01	6.961298306815256964e+00	1.361858434900001384e+02	-1.503595216329999005e+02	3.738026311353451092e+03	9.568301646086628809e-01
3.830000000000000426e+01	6.936534554889113302e-01	6.944976315014929291e+00	7.576667748400002722e+01	-1.092284293899999454e+02	3.770198742855987803e+03	7.327846824885438926e-01
3.839999999999999858e+01	9.910195957137126754e-01	6.929511492367392833e+00	9.384270442300000070e+01	-9.469308662399994603e+01	3.794380047060157722e+03	1.046926205064665716e+00
3.850000000000000000e+01	5.404004227486052248e-01	6.912959391150764077e+00	8.766884315399994421e+01	-1.622294126050000784e+02	3.831049750677223074e+03	5.708861522522061804e-01
3.860000000000000142e+01	7.380951816427000489e-01	6.897003669679167892e+00	9.457927203000002692e+01	-1.281396686800000282e+02	3.799590048600468435e+03	7.797335096458929415e-01
3.870000000000000284e+01	7.837696041050793427e-01	6.881247911778202386e+00	7.508413741200004665e+01	-9.579873602999992954e+01	3.872062436595131658e+03	8.279845734834568871e-01
3.880000000000000426e+01	8.411172756391257499e-01	6.865720583664734811e+00	1.357138213500003019e+02	-1.613494637199999318e+02	3.862835588599464700e+03	8.885674119945313754e-01
3.889999999999999858e+01	1.080939217695501942e+00	6.850887810931480359e+00	1.119240560400000248e+02	-1.035433391700001806e+02	3.868929150186730567e+03	1.141918482724369133e+00
3.900000000000000000e+01	5.286175555346244170e-01	6.834718321787241813e+00	1.178090978839999821e+02	-2.228626284741001200e+02	3.907758763937605636e+03	5.584385755236856985e-01
3.910000000000000142e+01	3.037619433826284632e-01	6.818057718781108001e+00	5.743379719099999647e+01	-1.890750254999998958e+02	3.950090774022222831e+03	3.208981336031140885e-01
3.920000000000000284e+01	2.533087367072991425e-01	6.801353522897968240e+00	3.405971872900000363e+01	-1.344593130570003154e+02	3.969571475498147265e+03	2.675986989336055499e-01
3.930000000000000426e+01	6.077614466597377474e-01	6.785633746054724469e+00	4.921256525999996967e+01	-8.097348973099998659e+01	4.023531741369944939e+03	6.420472286199884193e-01
3.939999999999999858e+01	6.600646975669851590e-01	6.770125976311717864e+00	1.099549661800002127e+02	-1.665821041259999902e+02	4.012589218177507064e+03	6.973010744790445470e-01
3.950000000000000000e+01	5.790825532562445810e-01	6.754492028273699766e+00	1.153836200399998830e+02	-1.992524544059999130e+02	4.051729405396855327e+03	6.117504664104076451e-01
3.960000000000000142e+01	8.749336058711710828e-01	6.739682057436414020e+00	8.061007643100002440e+01	-9.213279257999994343e+01	4.079535986883931855e+03	9.242914304016064397e-01
3.970000000000000284e+01	3.772486687008547168e-02	6.722842969017904124e+00	-6.100595990000084790e+00	-1.617128566949999993e+02	4.140930132498396233e+03	3.985304819368853946e-02
