0.000000000000000000e+00	2.175618569183463968e+00	2.175618569183463968e+00	-9.043873449999985326e+00	4.156920509000004316e+00	1.123958632840832252e+03	2.272621611375277517e+00
1.000000000000000056e-01	5.871877155002556276e-02	1.117168670366744720e+00	4.204969989999980839e+00	7.161202251000004537e+01	8.960746577227383796e+02	6.133683133072339450e-02
2.000000000000000111e-01	8.416483371490817156e-01	1.025328559294190311e+00	3.072408490000000469e+01	3.650465823300002199e+01	9.104164454816116177e+02	8.791744229784481668e-01
2.999999999999999889e-01	1.304463493379827588e+00	1.095112292815599631e+00	2.535380223600002481e+01	-1.943619147999998731e+01	9.216622667834424192e+02	1.362624849914624514e+00
4.000000000000000222e-01	3.175521058137681152e+00	1.511194045880015935e+00	2.328991206999998198e+01	-7.334201739999987701e+00	9.173281706646829434e+02	3.287364871942399347e+00
5.000000000000000000e-01	5.646299591564334364e-01	1.353433364759418778e+00	-9.518284600000018969e+00	1.685756209999996358e+01	9.045027679535005518e+02	5.898047873761473880e-01
5.999999999999999778e-01	1.991884887442160856e+00	1.444640725142667614e+00	-2.977818895999991966e+01	-1.494975394799996948e+01	9.087769906062133032e+02	2.080695902624066118e+00
7.000000000000000666e-01	1.233790663905771079e-01	1.279483017798656252e+00	5.871800880000026090e+00	4.759154896999995543e+01	9.001594166932242160e+02	1.288800972018573632e-01
8.000000000000000444e-01	2.052506758409515519e-01	1.160123868692244598e+00	9.329441559999990474e+00	4.545388959999996104e+01	8.915494563385028641e+02	2.144020685761084954e-01
9.000000000000000222e-01	3.685546197837757276e+00	1.412666101606795843e+00	1.291775155999999214e+01	3.504976160000002672e+00	8.967517684460918872e+02	3.569022544344824244e+00
1.000000000000000000e+00	2.039884683085130934e+00	1.469685972650280892e+00	2.031471704999999162e+01	-9.958757580000021647e+00	9.055754955796469403e+02	2.130835837291360502e+00
1.100000000000000089e+00	3.119796879372961906e-01	1.373210448924198746e+00	7.976188082999994045e+00	2.556636983560001042e+01	9.151677967561475953e+02	3.258897451783172583e-01
1.199999999999999956e+00	1.887810287800212983e+00	1.412795051914661482e+00	3.330072983600000214e+01	-1.763987093999999445e+01	9.173972497592111495e+02	1.971980989223464986e+00
1.300000000000000044e+00	1.041217152119076417e+01	2.055607656862954435e+00	2.539923067900000220e+01	2.439378820000006609e+00	9.145791201318577350e+02	9.521788484538738773e-03
1.400000000000000133e+00	5.752482845796492938e+00	2.302066002791856913e+00	-9.630029620000016166e+00	1.674064899999998968e+00	9.057214597413081947e+02	2.184145314007264638e+00
1.500000000000000000e+00	1.225124430571444378e+00	2.234757154528081102e+00	3.989912607000001543e+01	3.256740709299997860e+01	8.994908997767439587e+02	1.279748342369340985e+00
1.600000000000000089e+00	2.848846431976921889e-01	2.120058771508646522e+00	1.598978469399999014e+01	5.612722579399998324e+01	8.922596668849575963e+02	2.975866294076541241e-01
1.699999999999999956e+00	1.679839414540515996e-01	2.011610169838947026e+00	-1.858685710000008040e+00	-1.106466305000000006e+01	8.916062715899869318e+02	1.754737439365383345e-01
1.800000000000000044e+00	4.197700658162001552e+00	2.126667563961212704e+00	1.714476689000000675e+01	4.084323367999991738e+00	8.991351986322279117e+02	3.560676408695846007e+00
1.900000000000000133e+00	7.597532018820289945e-01	2.058321845857253418e+00	3.763390147200004066e+01	4.953437692499999656e+01	9.145239856301337795e+02	7.936278768555873331e-01
2.000000000000000000e+00	1.205841528987021460e+00	2.017727545053909388e+00	1.794582716000001810e+01	1.488240927900001864e+01	9.131914985312173485e+02	1.259605685245749118e+00
2.100000000000000089e+00	1.401731722943293068e+00	1.989727734957972283e+00	2.648853620299999534e+01	1.889700844279999714e+01	9.176224788513967496e+02	1.464229921565169956e+00
2.200000000000000178e+00	5.809531937342008234e+00	2.155806178539886986e+00	1.089332027999999575e+01	1.875077096999992587e+00	9.099080036536788612e+02	2.117221326031242690e+00
2.300000000000000266e+00	1.646623663224161316e+00	2.134590240401732064e+00	4.272365242000000762e+01	-2.594621550399999776e+01	9.091742320254459173e+02	1.720040716626918265e+00
2.399999999999999911e+00	2.520709365410094716e+00	2.150035005402066268e+00	2.676521923000001024e+01	1.061812979999999840e+01	9.094938883688337228e+02	2.633098770607139372e+00
2.500000000000000000e+00	9.945407206959759605e-02	2.071166507966202275e+00	-2.869729499999996492e+00	2.885482153000000238e+01	9.021222467287797144e+02	1.038883730476112266e-01
2.600000000000000089e+00	3.555377200165626972e-01	2.007624701005104484e+00	-1.824515755000000894e+01	5.131707980000000902e+01	9.140150135150616961e+02	3.713898739483484923e-01
2.700000000000000178e+00	1.537767091028438449e+00	1.990844072077366134e+00	3.023404886599999131e+01	1.966100656099998645e+01	9.129095591683480961e+02	1.606330619638234536e+00
2.800000000000000266e+00	7.068066595021160747e-01	1.946566919919598959e+00	3.714769186499998455e+01	5.255707677000003031e+01	9.236558199483313274e+02	7.383206377261900544e-01
2.899999999999999911e+00	2.185850129735228364e+01	2.610298065834021575e+00	9.495785828000007811e+00	-4.344207180000135837e-01	9.155396167382796193e+02	7.263481502842138617e-19
3.000000000000000000e+00	1.794909679729054020e+00	2.583995214669345231e+00	1.950357544100000240e+01	1.086604839299998382e+01	9.154505215431220222e+02	1.874938275669287391e+00
3.100000000000000089e+00	8.030879684473316571e-01	2.528341863224907726e+00	4.021085926500004604e+01	5.007030467999990719e+01	9.114992841993165484e+02	8.388947855017898636e-01
3.200000000000000178e+00	6.838388927812071749e+00	2.658949350030579417e+00	1.094180981599998859e+01	1.600056670000019610e+00	9.022399357464979630e+02	1.034885282495025649e+00
3.300000000000000266e+00	5.829010136515524465e-01	2.597889104842960872e+00	1.953515189999999890e+01	3.351366946100003474e+01	9.113805675757135987e+02	6.088904827716444812e-01
3.399999999999999911e+00	2.194193284509852460e-01	2.529932825517475781e+00	1.746426936999999313e+01	7.959312196100003689e+01	9.192209802874851903e+02	2.292024506751252078e-01
3.500000000000000000e+00	6.695825426003203518e-01	2.478256428769777031e+00	5.211215174999998823e+01	7.782782320999994852e+01	9.253052692505635832e+02	6.994368307327928358e-01
3.600000000000000089e+00	5.224153094809360631e+00	2.552469852176252552e+00	-2.921509120000018278e+00	5.592311455999988690e-01	9.280193780928966589e+02	2.789381163238275452e+00
3.700000000000000178e+00	5.686319943805098198e-01	2.500263592760575193e+00	1.700933641699999654e+01	2.991273193400002128e+01	9.262125077868819290e+02	5.939852590215675132e-01
3.800000000000000266e+00	2.480910410983600212e+00	2.499767357330396234e+00	4.244198327999998810e+01	-1.710742277999999317e+01	9.310414648900966768e+02	2.591525323303029982e+00
3.899999999999999911e+00	5.389526000720539223e-01	2.450746988398937454e+00	1.738603885500000601e+01	3.225893863890001256e+01	9.309963310172686306e+02	5.629825667880479223e-01
4.000000000000000000e+00	1.132387166431864545e+00	2.418591870789984277e+00	5.954358011000015161e+00	-5.258235157999989084e+00	9.256548901944715908e+02	1.182876255667798304e+00
4.099999999999999645e+00	2.447967666736848916e-02	2.361589199501350489e+00	1.061430020000005303e+00	4.335964213999999117e+01	9.223363466736815326e+02	2.557113780041899223e-02
4.200000000000000178e+00	6.097364635186818260e-01	2.320848438199428099e+00	2.546200250999999071e+01	4.175902875000004855e+01	9.234080301849721764e+02	6.369224292639494855e-01
4.299999999999999822e+00	5.663834024439622361e-01	2.280974232841349369e+00	2.674245762600001797e+01	4.721617460999999594e+01	9.349052583712650630e+02	5.916364104216587094e-01
4.400000000000000355e+00	1.756751687840265586e+00	2.269324842952436416e+00	3.508995856700002491e+01	-1.997434174100000348e+01	9.377305197445547265e+02	1.835078955546969315e+00
4.500000000000000000e+00	6.147652792876103778e-01	2.233356156785809787e+00	2.465950105999999664e+01	4.011205884720003922e+01	9.407272038990373630e+02	6.421754619223263294e-01
4.600000000000000533e+00	2.308695244146191927e-01	2.190750058224720576e+00	4.391290608200018042e+00	1.902065947999999906e+01	9.415064449450501343e+02	2.411631698793204603e-01
4.700000000000000178e+00	7.794656085397582146e-01	2.161348298856283989e+00	3.850562857700000308e+01	-4.940003529999995635e+01	9.314798969060346963e+02	8.142191891458602226e-01
4.799999999999999822e+00	1.331032545855620031e+00	2.144403079407291024e+00	3.376799603300000285e+01	2.536977486999997922e+01	9.217290881852856046e+02	1.390378521309749260e+00
4.900000000000000355e+00	1.356356916863017958e-01	2.104227731652871025e+00	-5.346570589999972256e+00	3.941861115999997622e+01	9.306055824608533840e+02	1.416832015346389251e-01
5.000000000000000000e+00	2.617042030191543134e+00	2.114282913977158618e+00	3.046841887999999798e+01	-1.164231163599997387e+01	9.262707115780204958e+02	2.733726563991830005e+00
5.100000000000000533e+00	5.417519823164075321e-01	2.084041934522144590e+00	3.725493880000024127e+00	-6.876751726999990488e+00	9.286658915911175427e+02	5.659067634634816768e-01
5.200000000000000178e+00	5.722340578548543166e-02	2.045800075489377257e+00	-2.326391452999998499e+00	4.065454373199998628e+01	9.334400521366470684e+02	5.977479256090351828e-02
5.299999999999999822e+00	1.039441907414837551e+00	2.027163813117626390e+00	3.262402152800000721e+01	3.138609411000000549e+01	9.438320396155372691e+02	1.085786900341949357e+00
5.400000000000000355e+00	1.622847010630063813e-01	1.993256920171178725e+00	5.641035674999995031e+00	3.476011995000000354e+01	9.379463329962377429e+02	1.695203948226017832e-01
5.500000000000000000e+00	1.208435230531385907e+00	1.979242247141896893e+00	3.898978406200001956e+01	3.226468665999998819e+01	9.310012293544544946e+02	1.262315030655221326e+00
5.600000000000000533e+00	8.015825304338772828e-01	1.958581550357545664e+00	1.193574817000000010e+01	1.489022990999999507e+01	9.246932534552270226e+02	8.373222253975404206e-01
5.700000000000000178e+00	7.713573310430836827e+00	2.057805546220877968e+00	3.902086728000002580e+01	-5.058727739999989481e+00	9.395220201827384017e+02	4.488013307258341134e-01
5.799999999999999822e+00	3.213994022772682091e-01	2.028374933611664321e+00	1.449302179000000734e+01	4.509349329000001205e+01	9.301517946874965901e+02	3.357294508533963939e-01
5.900000000000000355e+00	5.776233593767777563e+00	2.090839244614266068e+00	7.981660599999996997e+00	1.381810563999999575e+00	9.295169845278097682e+02	2.156268857034818076e+00
6.000000000000000000e+00	1.156109231101775991e+00	2.075515801769799218e+00	4.437842879199998691e+01	3.838601716700004118e+01	9.405190300347555876e+02	1.207656002264425377e+00
6.100000000000000533e+00	1.376952448123010264e-01	2.044260631496291225e+00	9.229094399999993925e+00	6.702551284599996961e+01	9.409005014896383727e+02	1.438345827602910132e-01
6.200000000000000178e+00	9.277129487811777153e-01	2.026537652405575152e+00	1.269436319610000297e+01	1.368350330000002835e+01	9.359511581183526232e+02	9.690763474886483486e-01
6.299999999999999822e+00	6.639920069192977614e+00	2.098621752667878315e+00	3.623109198799998865e+01	5.456555442000004419e+00	9.298804441077229512e+02	1.215279863315585240e+00
6.400000000000000355e+00	3.728541133802870000e+00	2.123697435454570570e+00	5.064470583899998246e+01	1.358298165999999796e+01	9.273528171870717642e+02	3.579745270561891513e+00
6.500000000000000000e+00	4.581536069743605277e-01	2.098461922901840193e+00	1.437437309999998547e+01	-3.137457150000002670e+01	9.341828873057246483e+02	4.785810358891381955e-01
6.600000000000000533e+00	2.463138241303198805e-01	2.070817921427638097e+00	7.871781489999931658e+00	3.195834223999999324e+01	9.271228000154636675e+02	2.572960756209879962e-01
6.700000000000000178e+00	4.098739931274255355e+01	2.643120588946974880e+00	3.656776333499998799e+01	-8.921708609999916550e-01	9.325437676335460537e+02	8.124134512366235441e-78
6.799999999999999822e+00	1.714611871909366980e-01	2.607299438196887476e+00	4.882793010599987937e+00	2.847754113099998818e+01	9.402671002722363482e+02	1.791060276105435056e-01
6.900000000000000355e+00	5.807787859293789268e-02	2.570881987345402742e+00	-1.132819899999991442e+00	1.950518730099999232e+01	9.441398403827014363e+02	6.066736325139812647e-02
7.000000000000000000e+00	3.373056786321614320e-01	2.539423166095920337e+00	2.340162941999998836e+01	6.937810687000005316e+01	9.392263602327037688e+02	3.523449311184894683e-01
7.100000000000000533e+00	6.823729749436857617e-01	2.513630802329917202e+00	-1.478772542000000811e+01	-2.167103030600002356e+01	9.364862165097268871e+02	7.127975426581718565e-01
7.200000000000000178e+00	2.408083135039424061e+00	2.512184943873883025e+00	4.377154374600002029e+01	1.817692383999998995e+01	9.295404197000835893e+02	2.515450939882758252e+00
7.299999999999999822e+00	6.316418939504743202e-01	2.486772199955999074e+00	-7.808700011400005359e+00	1.236254290000002598e+01	9.349977534469963985e+02	6.598045444062436982e-01
7.400000000000000355e+00	4.694611658213504457e-01	2.459874719500870111e+00	8.064364951999996478e+00	-1.717791702299998846e+01	9.356572381327434869e+02	4.903927582983708677e-01
7.500000000000000000e+00	2.182800147854898398e+01	2.714718492646240211e+00	7.611276339999998974e+00	-3.486932299999990215e-01	9.291856105131417962e+02	8.380019819196883999e-19
7.600000000000000533e+00	4.485966492934055361e-01	2.685288338836462785e+00	2.691250410000003868e+01	5.999265518899999705e+01	9.454386290910649677e+02	4.685979676839018282e-01
7.700000000000000178e+00	4.460983638992508937e-01	2.656580775055216392e+00	1.302529054999998337e+01	2.919824775000000017e+01	9.520809529287115538e+02	4.659882926891393273e-01
7.799999999999999822e+00	2.928641339541548372e-01	2.626660311243810497e+00	1.046300035740000389e+01	3.572646543000000463e+01	9.476446202214619916e+02	3.059218970863595843e-01
7.900000000000000355e+00	1.070162928134154257e+00	2.607204093954940127e+00	2.362182516500001128e+01	2.207311106000002354e+01	9.462708005122420900e+02	1.117877661378444021e+00
8.000000000000000000e+00	6.044871267546351845e+00	2.649644429431377457e+00	7.562814850000004974e+00	-1.251112639999990561e+00	9.419749619988891709e+02	1.844350774287814465e+00
8.099999999999999645e+00	2.567797690571767544e-01	2.620463153085350605e+00	1.221475400199999051e+01	4.756898897000000659e+01	9.453040134672709200e+02	2.682286595587897726e-01
8.199999999999999289e+00	7.206782500065332719e+00	2.675720012687519134e+00	2.938383291899997474e+01	-4.077247081999990641e+00	9.432293203533639598e+02	7.465677263590988488e-01
8.300000000000000711e+00	4.343601354464126652e-01	2.649037157006077337e+00	1.941618072300001074e+01	4.470065077000004550e+01	9.561809523482478426e+02	4.537266986583472494e-01
8.400000000000000355e+00	6.539429541013707103e-01	2.625565460501316117e+00	-1.529419040839998800e+01	2.338765225999998520e+01	9.543267645466770546e+02	6.830999289802632823e-01
8.500000000000000000e+00	1.578490401503591212e+00	2.613390169117621564e+00	3.842521024899999560e+01	2.434301165999999483e+01	9.558339592413767605e+02	1.648869636717552822e+00
8.599999999999999645e+00	8.552633767853087265e-01	2.593181815182767469e+00	3.618435456999998223e+01	4.230784989999999368e+01	9.592610831152974242e+02	8.933965084833689341e-01
8.700000000000001066e+00	1.256820079272736645e+00	2.577995886365608058e+00	3.874434801999998967e+01	3.082728280599999593e+01	9.498264799111968841e+02	1.312857186559869271e+00
8.800000000000000711e+00	2.352174870238599613e+00	2.575458571577664113e+00	4.700960133000003083e+01	1.998558947499999405e+01	9.408189277377665576e+02	2.457049925734156037e+00
8.900000000000000355e+00	4.396219089576374750e-01	2.551727053104108300e+00	2.120471322999999586e+01	-4.823397742000003063e+01	9.479199074487511325e+02	4.592230758106435329e-01
9.000000000000000000e+00	9.335755575010387108e-01	2.533945168537041326e+00	2.307861540000002165e+01	2.472067227400000178e+01	9.568633885147409046e+02	9.752003489402418790e-01
9.099999999999999645e+00	6.559846294430430325e-01	2.513532553981671747e+00	2.287132797000001716e+01	3.486564615000001055e+01	9.476277401076058595e+02	6.852326353151968474e-01
9.200000000000001066e+00	1.976354988876666552e-01	2.488630435109693284e+00	9.566356307600022646e+00	4.840403855300008473e+01	9.584953613380142770e+02	2.064473581486379605e-01
9.300000000000000711e+00	4.016893551008672070e+00	2.504888553363938009e+00	2.704078212999999309e+01	6.731764680000009271e+00	9.606199448872932862e+02	3.597264430302391514e+00
9.400000000000000355e+00	2.411705999272468481e-01	2.481059943327762252e+00	3.325508037000013850e+00	-1.378902751000001281e+01	9.617371924359954392e+02	2.519235334660279158e-01
9.500000000000000000e+00	5.137385300966331947e+00	2.508729999136497302e+00	4.667039440999994326e+01	9.084464503999988949e+00	9.548016469322956254e+02	2.881732613871657023e+00
9.599999999999999645e+00	3.591458920053738346e-01	2.486569338238238558e+00	2.630564969600000325e+01	7.324502460300004714e+01	9.488842619622677148e+02	3.751589214070712996e-01
9.700000000000001066e+00	5.527969087193649322e-01	2.466836966508453965e+00	1.634544773999998313e+01	2.956863086999999624e+01	9.477948884538894845e+02	5.774441435883586049e-01
9.800000000000000711e+00	6.163503789592104098e-01	2.448145182795835151e+00	1.808080680300000154e+01	-2.933527328000000267e+01	9.531953721428967583e+02	6.438312355128293918e-01
9.900000000000000355e+00	1.609522561875168289e+00	2.439758956586628447e+00	4.333831583099993878e+01	-2.692619343000000853e+01	9.546313385366738657e+02	1.681285410009365711e+00
1.000000000000000000e+01	7.047652306125301580e-01	2.422580800883914698e+00	2.488512408999999437e+01	3.530980674000003461e+01	9.536484243249947212e+02	7.361881888317590716e-01
1.009999999999999964e+01	1.267744718238374757e+00	2.411258878505036840e+00	7.715339129999976286e+00	6.085877558000014176e+00	9.656585779288720914e+02	1.324268916061286383e+00
1.020000000000000107e+01	1.657222573548676192e-01	2.389457552086103220e+00	-9.326226390000014632e+00	5.627624519999988451e+01	9.684892910250546265e+02	1.731112194413376715e-01
1.030000000000000071e+01	2.144170212819790922e-01	2.368543700828371179e+00	6.052880529999987935e+00	2.822947774300000745e+01	9.572047362211402515e+02	2.239771085402272044e-01
1.040000000000000036e+01	3.313092196737597028e-01	2.349141467674517703e+00	1.633945777000002053e+01	4.931784810000002750e+01	9.438124418869919054e+02	3.460811115254698866e-01
1.050000000000000000e+01	2.085614742575206293e+00	2.346655366494335482e+00	1.594010359999999338e+01	-7.642880189999999629e+00	9.430779568501631047e+02	2.178604836397498357e+00
1.059999999999999964e+01	3.935152137597305866e-01	2.328401720207096570e+00	2.017985398100000083e+01	5.128100077299998816e+01	9.568006573194784323e+02	4.110606481590068362e-01
1.070000000000000107e+01	1.012720815922172196e-01	2.307780149479180754e+00	3.907505310000009224e+00	-3.858423020999996567e+01	9.558979196709574353e+02	1.057874411054565283e-01
1.080000000000000071e+01	2.557130973982919553e+00	2.310067771722334573e+00	2.298321988800001492e+01	8.987893120000013170e+00	9.660626342390529544e+02	2.671144288298560099e+00
1.090000000000000036e+01	5.546755841981004798e-01	2.294109660926659355e+00	1.419770690000002134e+01	2.559641582299998674e+01	9.674110749992921683e+02	5.794065824800883613e-01
1.100000000000000000e+01	2.307908597737428347e-01	2.275521203258615177e+00	-1.121713753000002711e+01	-4.860304060999995102e+01	9.677098669726453863e+02	2.410809978637663831e-01
1.109999999999999964e+01	6.863154176106041060e-01	2.261331865886757608e+00	3.149090191999998112e+01	4.588400771999999961e+01	9.606529336060585820e+02	7.169157647276817036e-01
1.120000000000000107e+01	2.928620724329921376e+00	2.267237077023422920e+00	3.548399305000005199e+01	1.211628148199999977e+01	9.589495990642762990e+02	3.059020277117547426e+00
1.130000000000000071e+01	4.992656613242156260e-01	2.251728555833079071e+00	2.261675280600001159e+01	4.530003674999998253e+01	9.567593898189593347e+02	5.215261295406332653e-01
1.140000000000000036e+01	5.909327406057100163e+00	2.283533763226331281e+00	-1.326799607660000824e+01	2.245263320999987933e+00	9.571815831179509360e+02	2.000664100617790986e+00
1.150000000000000000e+01	1.014124480528499683e+00	2.272590579754798501e+00	4.451900298799997557e+01	4.389895307999999829e+01	9.641040981970397752e+02	1.059340660039864046e+00
1.159999999999999964e+01	4.997826350746180091e-01	2.257438375099412031e+00	1.419894139670000044e+01	-2.841023357000005589e+01	9.710189916254960281e+02	5.220661532995402032e-01
1.170000000000000107e+01	1.947398861072303644e+00	2.254810921590707729e+00	4.082196600030002998e+01	-2.096230352000004515e+01	9.793436865410702694e+02	2.034226403620712720e+00
1.180000000000000071e+01	9.210822810495465918e-01	2.243603117888681275e+00	2.826131997000001661e+01	-3.068273112125993762e+01	9.839693543585419775e+02	9.621500420239872398e-01
1.190000000000000036e+01	4.363331156543203138e-01	2.228542534536728681e+00	1.584950615000000695e+01	3.632432557000002760e+01	9.821270970452903839e+02	4.557876469894646121e-01
1.200000000000000000e+01	1.502056458963301200e+00	2.222538517383229273e+00	1.165881215499997836e+01	-7.761900083999991651e+00	9.760398852074990828e+02	1.569027778351326008e+00
1.209999999999999964e+01	6.845389117204881968e-01	2.209931963238452646e+00	1.594176458900000171e+01	2.328832490900000707e+01	9.691237750966220119e+02	7.150600508007095568e-01
1.220000000000000107e+01	4.566332239469446663e-01	2.195677501943399612e+00	1.772589123500001662e+01	3.881866300000009318e+01	9.732670951184848036e+02	4.769928644262653172e-01
1.230000000000000071e+01	9.439395762424272363e+00	2.254094584689213310e+00	7.212915817999997614e+01	-7.641289759999999376e+00	9.680970787295494802e+02	4.757947207643625082e-02
1.240000000000000036e+01	1.032566677944575240e+00	2.244322361435256319e+00	5.331559515499998980e+01	5.163404581400000382e+01	9.906247823885011030e+02	1.078605129006385388e+00
1.250000000000000000e+01	6.998375529820774155e+00	2.282052942136728380e+00	1.721802154000001650e+01	2.460288315000004555e+00	9.886540101158806237e+02	9.021075534567923881e-01
1.259999999999999964e+01	7.898739201430392320e+00	2.326278818194158937e+00	3.358187488900001227e+01	4.251548764000035341e+00	1.001002624495046803e+03	3.663236494189336390e-01
1.270000000000000107e+01	1.311760497134695891e+00	2.318352893810881277e+00	2.513061244900001512e+01	-1.915792745999997848e+01	9.868587737761610015e+02	1.370247200939980869e+00
1.280000000000000071e+01	9.649303523540186944e+00	2.375181968459946003e+00	1.144185890410000006e+01	-1.185770441999957958e+00	9.933807519865872564e+02	3.433250030187266072e-02
1.290000000000000036e+01	1.302950814614372566e-01	2.357913607790727006e+00	-9.692315148999982810e+00	7.438742153799999812e+01	9.797908910362405095e+02	1.361044726219168000e-01
1.300000000000000000e+01	3.651360365539280117e-01	2.342701565262201413e+00	2.951511549000001011e+01	8.083320334129999196e+01	9.865955781664118831e+02	3.814161450533170017e-01
1.309999999999999964e+01	7.895119554952179097e-01	2.330934977309421452e+00	-1.252271396000001147e+01	1.586133544000001194e+01	9.788436014597581334e+02	8.247134667410919162e-01
1.320000000000000107e+01	8.849624150097783470e-01	2.320063003156792369e+00	1.415044356300000139e+01	-1.598988083899997825e+01	9.815306672127775300e+02	9.244197204847822702e-01
1.330000000000000071e+01	1.105616529252672731e+00	2.310999969769448548e+00	1.605300854999999416e+01	1.451950845999997597e+01	9.970678524215167045e+02	1.154912011629124047e+00
1.340000000000000036e+01	1.850076772931756208e+00	2.307585723866946825e+00	2.529721917000001596e+01	1.367360508499998062e+01	9.964463309056346816e+02	1.932565072031974029e+00
1.350000000000000000e+01	6.306117863401489165e-01	2.295255033149838031e+00	5.489864540000001014e+00	-8.705616765999986129e+00	9.952924221593349330e+02	6.587285079858768988e-01
1.359999999999999964e+01	2.984443229367514938e-01	2.280679772491348789e+00	2.003988290999999933e+01	6.714781073000004596e+01	9.871662236048883869e+02	3.117508867158086949e-01
1.370000000000000107e+01	1.713396087294515313e-01	2.265394698840899945e+00	1.191775582409998435e+01	6.955633850499999937e+01	9.855913235637860907e+02	1.789790284007727328e-01
1.380000000000000071e+01	5.101855941651743942e-01	2.252767295210139409e+00	1.253970884099999417e+01	2.457871994900001056e+01	9.844481980410807864e+02	5.329329430881217800e-01
1.390000000000000036e+01	1.742812546701920096e-01	2.237920966349139285e+00	3.840269602000009108e+00	-2.203489760999996605e+01	9.827285801286233209e+02	1.820518318014396897e-01
1.400000000000000000e+01	2.005970990780898133e-01	2.223471860907500819e+00	1.157176337999999838e+01	5.768659383999996493e+01	9.959283335771319798e+02	2.095410054875347372e-01
1.409999999999999964e+01	5.601298313642493198e-01	2.211758184643112024e+00	1.477109185999999141e+01	2.637083588999999506e+01	9.988330116812653614e+02	5.851040149984293448e-01
1.420000000000000107e+01	3.791514584739315019e-01	2.198942752991579042e+00	1.530341649520002889e+01	4.036227780000010767e+01	1.007855537139750140e+03	3.960564644544780077e-01
1.430000000000000071e+01	1.445852050651328380e-01	2.184676381130978839e+00	2.921722630000020082e+00	-2.020761825999998251e+01	1.006002160286657727e+03	1.510317416712755878e-01
1.440000000000000036e+01	6.881786685130981240e+00	2.217070245296496100e+00	2.761492233999998902e+01	-4.012754768999991839e+00	9.875064829882255708e+02	9.977315625488047957e-01
1.450000000000000000e+01	3.847760713340118155e+00	2.228239358091315570e+00	6.811611449999963597e+00	-1.770279379999964098e+00	9.979001834222208345e+02	3.598460851604674993e+00
1.459999999999999964e+01	6.012625037836436093e+00	2.253983478361690551e+00	3.292169088000000698e+01	-5.475427234000017407e+00	9.874051215387769389e+02	1.881264110329064820e+00
1.470000000000000107e+01	1.314752154172186271e+00	2.247637320765815350e+00	3.873804692499995639e+01	2.946414409899999853e+01	9.939737048574244227e+02	1.373372245253136947e+00
1.480000000000000071e+01	6.772494857896539378e-01	2.237097805094834246e+00	2.877127723700001027e+01	4.248253832699999322e+01	9.973220834449384711e+02	7.074456154674283459e-01
1.490000000000000036e+01	3.372278243751535065e+00	2.244665674685879075e+00	4.434205452299993766e+01	-1.314899047999996462e+01	1.006200215813667910e+03	3.428628476241726286e+00
1.500000000000000000e+01	2.692138245290379039e+00	2.247629069193193718e+00	-1.131143270000000989e+01	-4.201653730000012743e+00	1.010403055368328410e+03	2.812171050439725040e+00
1.509999999999999964e+01	1.673034326603646704e+00	2.243848840623525742e+00	4.013473507500002313e+01	2.398918805000001342e+01	1.008454387016267560e+03	1.747628936923044440e+00
1.520000000000000107e+01	7.647610377207860743e-01	2.234181600081677654e+00	2.210174796099997252e+01	-2.890020133200001240e+01	9.995784518545162882e+02	7.988589941638251091e-01
1.530000000000000071e+01	1.071132168309295141e+00	2.226629331044194693e+00	-8.139344902699969353e+00	7.598824070000005371e+00	9.904273678610385332e+02	1.118890116502627263e+00
1.540000000000000036e+01	6.058973050304579111e-01	2.216172995392493128e+00	2.491420329600000372e+01	4.111951495599998907e+01	1.000934701102854319e+03	6.329120964448529119e-01
1.550000000000000000e+01	1.942129986475163328e+00	2.214416309437894803e+00	4.050254265700002065e+01	2.085470228000003345e+01	9.991406760322553282e+02	2.028722608770505698e+00
1.559999999999999964e+01	1.167821086708444867e+00	2.207750097828153013e+00	2.490655810900001654e+01	-2.132737488000002202e+01	9.979537977886360522e+02	1.219890047578265468e+00
1.570000000000000107e+01	9.113472491985624702e-01	2.199545016507712614e+00	3.276811007199998471e+01	-3.595568001200005170e+01	1.005963137820700126e+03	9.519809599590751681e-01
1.580000000000000071e+01	7.977041859101797749e-01	2.190728407510243780e+00	2.693454412200003389e+01	3.376507807999997368e+01	1.024072458032456325e+03	8.332709593779540347e-01
1.590000000000000036e+01	2.421864407753640869e+00	2.192173007511764915e+00	4.129801259809997305e+01	-1.705215719999999635e+01	1.021685695459560975e+03	2.529846670203418135e+00
1.600000000000000000e+01	3.744040438718434949e+00	2.201811935655905828e+00	-8.165714719000035871e+00	-2.180989989999978729e+00	1.019147039840322691e+03	3.583095098394696087e+00
1.610000000000000142e+01	2.658677572998849659e+00	2.204632093911109258e+00	3.054441654800001515e+01	-1.148857494350001396e+01	1.012971432814995524e+03	2.777218486576742418e+00
1.619999999999999929e+01	2.528788123133837717e-01	2.192658147398240054e+00	-2.757911384000002908e+00	1.090605954199998706e+01	1.013151002835660847e+03	2.641537731211770490e-01
1.630000000000000071e+01	2.626891287957491272e-01	2.180890043626273478e+00	2.123389764200000585e+00	-8.083279936000007382e+00	1.028225532822245896e+03	2.744014964896268061e-01
1.639999999999999858e+01	8.934219239888587794e+00	2.221819311482408743e+00	6.097435703900000448e+01	6.824810921000006303e+00	1.027339347285918393e+03	9.953296109603471109e-02
1.650000000000000000e+01	3.610141158508810011e-01	2.210609641629206479e+00	1.768071640999999872e+01	4.897513873751995561e+01	1.041952285977832162e+03	3.771104426646691987e-01
1.660000000000000142e+01	5.712616948899982283e-01	2.200793186858313266e+00	1.598459721999998306e+00	-2.798121659999970312e+00	1.048768747592557702e+03	5.967322084611244026e-01
1.669999999999999929e+01	1.843873235810224998e+00	2.198668663340169527e+00	5.267973835399999416e+01	2.857015185800001333e+01	1.051551393370430560e+03	1.926084941401974948e+00
1.680000000000000071e+01	7.118302525521128521e-01	2.189870802921305426e+00	2.393130965999999304e+01	3.361940515200004143e+01	1.055662653889171906e+03	7.435682148032979333e-01
1.689999999999999858e+01	3.915316371275785745e-02	2.177219522690667208e+00	1.711557919999991073e+00	4.371442197000006047e+01	1.044618734507641193e+03	4.089886309470285725e-02
1.700000000000000000e+01	1.290211934132046823e+00	2.172032343810207156e+00	2.636367408700000681e+01	-2.043359961999995988e+01	1.048219983721766312e+03	1.347737864667730934e+00
1.710000000000000142e+01	4.564553370728958726e-01	2.162058058887315948e+00	2.264022708700000308e+01	4.960009281999995778e+01	1.038524464321354344e+03	4.768070462134271215e-01
1.719999999999999929e+01	2.127186488681326537e+00	2.161856489117339297e+00	5.152838243999997303e+01	2.422372590000003356e+01	1.045111566892069959e+03	2.222030117814743022e+00
1.730000000000000071e+01	1.580016304566328023e+00	2.158512580010723880e+00	2.622940046699998362e+01	1.660071506300009148e+01	1.044483144881726957e+03	1.650463574334357197e+00
1.740000000000000213e+01	8.794022510070141907e-01	2.151203378130702948e+00	3.627395669799998501e+01	4.124842375199999367e+01	1.057184787402000666e+03	9.186116486773168166e-01
1.750000000000000000e+01	1.667779283406597424e+00	2.148456650319770844e+00	6.618584935599984931e+01	3.968501708499998415e+01	1.061001807745072938e+03	1.742139590165534768e+00
1.760000000000000142e+01	3.685531656756779295e+00	2.157140689904160524e+00	-2.682753535999999173e+01	-7.279149348999997216e+00	1.056498872332547080e+03	3.569018562769495251e+00
1.769999999999999929e+01	1.455586272002764803e+00	2.153199372949658130e+00	3.405125655600000556e+01	2.339349938300004084e+01	1.055204323139721282e+03	1.520485652140847410e+00
1.780000000000000071e+01	8.277232828336169579e-01	2.145794478591468213e+00	2.206405664900000119e+01	-2.665631993999999594e+01	1.052779187120286679e+03	8.646285003497509170e-01
1.790000000000000213e+01	9.257697045285470105e-01	2.139016563180007324e+00	4.694966804999997834e+01	5.071419794830004690e+01	1.051951190493235345e+03	9.670464609325840621e-01
1.800000000000000000e+01	1.428149168205797570e-01	2.127987824802330952e+00	7.778366335999998604e+00	5.446466314000002029e+01	1.057300317272485472e+03	1.491825226124196546e-01
1.810000000000000142e+01	6.231949664044190706e-01	2.119719732173771298e+00	1.908842279600001035e+01	3.062993737920000825e+01	1.067638610405160989e+03	6.509809986051563468e-01
1.819999999999999929e+01	4.422190264589217490e-01	2.110553061650739082e+00	1.629994550899999695e+01	3.685943962999999712e+01	1.067069062141040604e+03	4.619359894823239499e-01
1.830000000000000071e+01	2.960017418612256868e-01	2.100691369695361299e+00	1.088527600999998590e+01	3.677436470999999329e+01	1.063828071255532450e+03	3.091993996957932422e-01
1.840000000000000213e+01	3.697467956653281429e-01	2.091334912538441948e+00	1.550878375909999818e+01	-4.194433580199999057e+01	1.059976127911320873e+03	3.862324814046592114e-01
1.850000000000000000e+01	7.008630300863250007e-01	2.083859257256441389e+00	1.390730468900001426e+01	1.984311355000000177e+01	1.062070609585361808e+03	7.321120031559297248e-01
1.860000000000000142e+01	1.043669535068497245e+00	2.078296745373083620e+00	3.520553465700002249e+01	3.373245407100001358e+01	1.060652093574042055e+03	1.090203022775653618e+00
1.869999999999999929e+01	6.470652138825438993e-01	2.070683811694942200e+00	2.205211357999999677e+01	3.408020259300003829e+01	1.057312187243893959e+03	6.759155349508461086e-01
1.880000000000000071e+01	8.289071883627227022e-01	2.064113565010644802e+00	1.721346101300000697e+01	2.076645160600000040e+01	1.060834416834745980e+03	8.658651919874226222e-01
1.890000000000000213e+01	6.352577073387497553e-01	2.056593271022898239e+00	3.418803601100000122e+01	5.381758554999995425e+01	1.069647801512272281e+03	6.635815739670728464e-01
1.900000000000000000e+01	5.977145358235637085e-01	2.048955162461644885e+00	-1.065974278680000431e+01	-1.783417023999998463e+01	1.083174860684600844e+03	6.243644868574501627e-01
1.910000000000000142e+01	9.940524072164463876e-01	2.043460877278076016e+00	2.710989245100001455e+01	2.727209577099999649e+01	1.085355819504172359e+03	1.038373644846938282e+00
1.919999999999999929e+01	6.357513134364410945e+01	2.362277822699661911e+00	1.585544220000000948e+01	2.493969239999871412e-01	1.085780962295291374e+03	1.031881445756498895e-198
1.930000000000000071e+01	2.219691657083497083e-01	2.351245303849191171e+00	1.386587562000001128e+01	6.246757551100002104e+01	1.085150910031205967e+03	2.318659760460964614e-01
1.940000000000000213e+01	2.591616068491131575e+00	2.352477974437098940e+00	4.391005684100000650e+01	-1.694311799299999777e+01	1.089849612887484454e+03	2.707166949696920621e+00
1.950000000000000000e+01	3.409617351130251706e+01	2.514435604727228490e+00	5.296850453100000777e+01	1.553502902999995383e+00	1.096908350293678268e+03	5.542327987156233081e-52
1.960000000000000142e+01	5.158910846847659659e-01	2.504290708686403466e+00	1.550252887780000677e+01	3.005000345620004509e+01	1.095901589508114739e+03	5.388928210014579667e-01
1.969999999999999929e+01	8.957637989895564701e+00	2.536883371722813418e+00	2.088401940799996837e+01	2.331420340000081914e+00	1.098646175679837825e+03	9.632724469113508603e-02
1.980000000000000071e+01	4.181068906122362150e-02	2.524345318041096853e+00	-3.145054542999996094e+00	7.522130377700007386e+01	1.106322849859619282e+03	4.367487798318012843e-02
1.990000000000000213e+01	3.725266567255278716e+01	2.697986919813655682e+00	4.521279131999998668e+01	-1.213679357000003955e+00	1.102696739210929763e+03	3.567764775886609898e-63
2.000000000000000000e+01	5.135520791555011483e-02	2.684819597863913554e+00	-2.907793629999988916e+00	5.662120256200000057e+01	1.102898172697241989e+03	5.364495275904587746e-02
2.010000000000000142e+01	4.336219414411342510e-01	2.673675055010335200e+00	1.139361648999999765e+01	2.627546118199999370e+01	1.098750106089677047e+03	4.529555912254790706e-01
2.019999999999999929e+01	2.069517143624113320e-01	2.661523708504681007e+00	6.677356160000002205e+00	-3.226528555500002682e+01	1.108460760625105650e+03	2.161789503146672176e-01
2.030000000000000071e+01	4.035843255387669970e+00	2.668260569028616747e+00	4.943402296690000952e+01	-1.224874700000001226e+01	1.092068480104751870e+03	3.595120888445468399e+00
2.040000000000000213e+01	2.489113597431181768e-01	2.656458865568687155e+00	1.047330642000001966e+01	4.207645014999996391e+01	1.108818887742228526e+03	2.600094260462778029e-01
2.050000000000000000e+01	2.269946411236825889e-01	2.644665349916041741e+00	1.213730121999999767e+01	5.346954958899996768e+01	1.110778833470720883e+03	2.371155194164709379e-01
2.060000000000000142e+01	9.956851278405302041e-01	2.636699261886691570e+00	2.699022122100001653e+01	2.710718525999998008e+01	1.120332158638458395e+03	1.040079162637689292e+00
2.069999999999999929e+01	3.715437490103278284e-01	2.625809091151708685e+00	1.165926514599999564e+01	3.138059832000000071e+01	1.121040720567126300e+03	3.881095544653161977e-01
2.080000000000000071e+01	9.814757825283266790e-01	2.617941467665472643e+00	-2.217405428399996126e+01	2.259256385000002609e+01	1.136739487031083399e+03	1.025236273494613437e+00
2.090000000000000213e+01	2.252555634047724631e+00	2.616201535124435651e+00	2.209019338000001298e+01	9.806724880000007971e+00	1.130344391542545964e+03	2.352989024488470360e+00
2.100000000000000000e+01	2.692199130625350101e+00	2.616561713302164804e+00	4.504544112000004930e+01	-1.673183852100003932e+01	1.129896380415606245e+03	2.812234650433782512e+00
2.110000000000000142e+01	1.561456372301282258e-01	2.604955977094277841e+00	8.905087594999987033e+00	-5.703065262000003344e+01	1.127369873801388621e+03	1.631076121143499869e-01
2.119999999999999929e+01	2.088158313384965226e+01	2.690761738393599334e+00	2.342850607000001162e+01	1.121969819999984797e+00	1.134422025330050701e+03	6.303868634049457287e-17
2.130000000000000071e+01	9.191636797788475810e-02	2.678617601148665539e+00	-1.486729230000012558e+00	-1.617480392999995686e+01	1.141240191975106200e+03	9.601458971921847385e-02
2.140000000000000213e+01	5.092327177234640123e-01	2.668527438900176740e+00	3.068235075000000123e+01	6.025211986999995162e+01	1.135844886473376164e+03	5.319375812976522289e-01
2.150000000000000000e+01	1.650465046715043016e+00	2.663814187084505125e+00	4.439248207700003945e+01	2.689695377999999337e+01	1.150238820337945754e+03	1.724053373653574583e+00
2.160000000000000142e+01	1.349638914127684053e-01	2.652160499086017698e+00	-6.844148040000001210e+00	5.071095659999992478e+01	1.139793823288417798e+03	1.409814480922913504e-01
2.169999999999999929e+01	1.081690681649670888e-01	2.640490813623077138e+00	-1.758183186000020992e+00	1.625402913999999654e+01	1.139754172796723651e+03	1.129919396148065386e-01
2.180000000000000071e+01	7.728483590644569245e-01	2.631962765885366817e+00	2.118920686000002362e+01	-2.741703027700005180e+01	1.143185378629479828e+03	8.073069002095346614e-01
2.190000000000000213e+01	3.626756877711331484e+00	2.636484557302757548e+00	3.601068566000000715e+01	9.929170019999958186e+00	1.145117400633296938e+03	3.550970555540861273e+00
2.200000000000000000e+01	3.432236514383264492e+00	2.640085244891356986e+00	3.091309362100005131e+01	-9.006690970000008178e+00	1.145419890054950656e+03	3.463783927027078935e+00
2.210000000000000142e+01	2.508999729161193737e-01	2.629323149071648213e+00	9.622837333000001436e+00	3.835328167300001923e+01	1.148003994452899406e+03	2.620867043604283575e-01
2.219999999999999929e+01	6.525489246161813028e-01	2.620458690666018331e+00	1.624431824669998292e+01	2.489364036000002400e+01	1.158086171114492572e+03	6.816437447116555637e-01
2.230000000000000071e+01	2.516493526630590449e-01	2.609883648978505555e+00	1.305479226000001169e+01	-5.187691572360000691e+01	1.166788397638002380e+03	2.628694962671279112e-01
2.240000000000000213e+01	7.145689041724523349e-01	2.601460027890478255e+00	5.135656635000006531e+01	7.187069861300008711e+01	1.166349726680080266e+03	7.464289730936388700e-01
2.250000000000000000e+01	7.584126833191004446e-02	2.590284723644643794e+00	5.970927655999995309e+00	7.872926952999993944e+01	1.161370348829386103e+03	7.922275893696681393e-02
2.260000000000000142e+01	3.525939821533942364e+00	2.594406552269706623e+00	6.005172552999993485e+01	1.703140965799998696e+01	1.162248352620749756e+03	3.510986860981388791e+00
2.269999999999999929e+01	5.503159038572407180e-01	2.585441242408249352e+00	9.244225726000017573e+00	-1.679803483999999614e+01	1.168169922839062565e+03	5.748525196026766926e-01
2.280000000000000071e+01	1.105135934151367572e+00	2.578977027088349860e+00	3.183938007000002202e+01	2.881037443999994707e+01	1.167039033035908460e+03	1.154409988513023677e+00
2.290000000000000213e+01	8.883503480941649100e-01	2.571626476310113762e+00	-5.826882260999973973e+00	6.559216499999982020e+00	1.179877699723663454e+03	9.279587093748982163e-01
2.300000000000000000e+01	4.509098078137689369e-01	2.562445884671601615e+00	7.244505881000006475e+00	-1.606641895000002407e+01	1.175475759337532736e+03	4.710142616604179877e-01
2.310000000000000142e+01	1.969448912801977203e+00	2.559889863241129770e+00	2.233207193999998452e+01	-1.133924916500000357e+01	1.179100746352105489e+03	2.057259588206743484e+00
2.319999999999999929e+01	6.697317204686202563e-02	2.549190649974201417e+00	2.477837003999990628e+00	3.699745626899999706e+01	1.181617314683387804e+03	6.995926599081085662e-02
2.330000000000000071e+01	5.779720549699455256e-01	2.540766638884439210e+00	3.311095032999997301e+01	5.728815095000005897e+01	1.180029558594255150e+03	6.037417594705744017e-01
2.340000000000000213e+01	1.973850781493319717e+00	2.538354230980647941e+00	-1.454748775079996648e+01	7.370105120000024712e+00	1.169443848315085233e+03	2.061857720462130672e+00
2.350000000000000000e+01	1.549917812082497237e+00	2.534165941070062100e+00	2.291683493199998978e+01	1.478583880599999212e+01	1.177519023048918370e+03	1.619023097838404812e+00
2.360000000000000142e+01	3.274044661777588239e+00	2.537287792212287840e+00	1.801672630400000230e+01	-5.502895703999993948e+00	1.172113417374149549e+03	3.362940626869604710e+00
2.369999999999999929e+01	1.966686372950714745e-01	2.527453257947930076e+00	7.743959319000004449e+00	-3.937566978400001716e+01	1.193024654766264575e+03	2.054373876594794701e-01
2.380000000000000071e+01	2.417393319739517654e+00	2.526992756114421645e+00	3.450805610699996606e+01	1.427490339500000260e+01	1.193351131547457953e+03	2.525176232383488095e+00
2.390000000000000213e+01	1.620739600027135907e+00	2.523216701297391840e+00	2.197578361700000116e+01	1.355910820999996780e+01	1.193711995096968167e+03	1.693002575729894765e+00
2.400000000000000000e+01	1.103900704239527131e-01	2.513204972538580773e+00	6.654955410000002125e+00	6.028581542200006993e+01	1.191391043080826648e+03	1.153119684122158317e-01
2.410000000000000142e+01	9.127110471306530970e-01	2.506591361276564456e+00	2.015895727000000193e+01	2.208689960899999960e+01	1.183965600405890882e+03	9.534055647578756343e-01
2.419999999999999929e+01	6.841197010416585345e-01	2.499091477901111968e+00	1.809841725000000068e+01	2.645504466899999585e+01	1.189877789052992057e+03	7.146221490186958070e-01
2.430000000000000071e+01	4.412420826547320729e+01	2.669686218833784874e+00	2.710522139000001118e+01	6.142936600000050706e-01	1.194476277440150170e+03	2.744459680871841798e-91
2.440000000000000213e+01	4.253096438403238810e-01	2.660525498119525878e+00	2.397622131999995077e+00	5.637356609999998547e+00	1.206157295261996524e+03	4.442726780368522754e-01
2.450000000000000000e+01	9.896595530286949050e-01	2.653733360131351304e+00	-1.581149663999996413e+01	1.597670288899996471e+01	1.193939622328472979e+03	1.033784929019581078e+00
2.460000000000000142e+01	2.162096601532991214e-01	2.643864843127391673e+00	1.599657327999999268e+01	7.398639481999991574e+01	1.210318126252617276e+03	2.258496747602711519e-01
2.469999999999999929e+01	6.145502698230250749e-01	2.635682123073745498e+00	9.742969099999999827e+00	-1.585381957899998717e+01	1.215454288022061064e+03	6.419508659555571706e-01
2.480000000000000071e+01	1.302333946960104250e+01	2.677399622457389050e+00	4.129324962000000987e+00	3.170711299999998123e-01	1.228750529272839231e+03	3.784799273781445797e-05
2.490000000000000213e+01	4.695445336042476658e-02	2.666877841781001290e+00	-3.681060087000018299e+00	7.839639956500002427e+01	1.234346617790215987e+03	4.904798431522088692e-02
2.500000000000000000e+01	3.034013938004593083e-02	2.656373707508487225e+00	-1.428187203999973454e+00	4.707253272999998472e+01	1.235038462448896325e+03	3.169289756205238145e-02
2.510000000000000142e+01	7.587680366578616331e-01	2.648843526274953231e+00	2.566029320000003722e+00	-3.381836339999993779e+00	1.227364381918927393e+03	7.925987866414611061e-01
2.519999999999999929e+01	1.987568485321753542e+01	2.716933808199627265e+00	5.188447914000001049e+01	2.610449880000023981e+00	1.243160081181741816e+03	4.856268148692497623e-15
2.530000000000000071e+01	1.116134378177596975e+00	2.710631448238911112e+00	4.917651935399997853e+01	-4.405967624999999543e+01	1.253225110769303001e+03	1.165898813778424525e+00
2.540000000000000213e+01	3.888467701019935885e-01	2.701526410285432611e+00	2.599964824900002114e+01	-6.686348003399996287e+01	1.264912900489497588e+03	4.061840553139463017e-01
2.550000000000000000e+01	1.672383980628061817e+00	2.697506322669583234e+00	1.793207484400000595e+01	-1.072246269500000615e+01	1.253037010513532550e+03	1.746949594348973678e+00
2.560000000000000142e+01	4.773258434520841198e-01	2.688867488120099125e+00	-9.560848450999980486e+00	2.003002473499999425e+01	1.250990377023498240e+03	4.986080937451597417e-01
2.569999999999999929e+01	2.238628706619848696e+00	2.687122376563896520e+00	6.015834892999999539e+01	-2.687285692000006421e+01	1.248122260049139413e+03	2.338441145231985985e+00
2.580000000000000071e+01	7.190664593117664927e-01	2.679523705068714179e+00	2.052308962100000755e+01	2.854129733800000324e+01	1.242405641019385484e+03	7.511270581131068713e-01
2.590000000000000213e+01	7.812890449168612417e-01	2.672222802529669039e+00	3.209061040000003828e+01	4.107392854000003979e+01	1.246348356691615209e+03	8.161239260221995195e-01
2.600000000000000000e+01	2.319176489574611422e-01	2.662872974355062983e+00	5.359245936000004207e+00	-2.310840058999998448e+01	1.250397490225911270e+03	2.422580265427150270e-01
2.610000000000000142e+01	1.242128477545274778e+00	2.657450285435941861e+00	3.201781822900000662e+01	-2.577657529619996879e+01	1.251543532011396337e+03	1.297510538914699030e+00
2.619999999999999929e+01	1.154462039163634435e+00	2.651735501229583125e+00	-1.511617981000003397e+01	1.309370017999998836e+01	1.268859923955331169e+03	1.205935367935537350e+00
2.630000000000000071e+01	1.106358085299513938e+01	2.683598551804452281e+00	4.380809385700001002e+01	3.959666805810006185e+00	1.274475456579456250e+03	2.826403877157612939e-03
2.640000000000000213e+01	3.791311512258814798e-01	2.674902448406042410e+00	-8.970351169999981167e+00	-2.366028520999995877e+01	1.279667043953314760e+03	3.960352517789475502e-01
2.650000000000000000e+01	1.806981394760890591e+00	2.671639587302113039e+00	3.186097936299997357e+01	-1.763215684200001832e+01	1.269724117112983095e+03	1.887548225251585832e+00
2.660000000000000142e+01	5.507266561430098628e-01	2.663696093177922108e+00	2.141850815000001518e+01	3.889135909999999541e+01	1.272081992958386081e+03	5.752815858621687095e-01
2.669999999999999929e+01	1.358262564198010391e+00	2.658825072547399859e+00	2.635170329599999661e+01	-1.940103775999997993e+01	1.276986585225862882e+03	1.418822628672873787e+00
2.680000000000000071e+01	3.742592063650237305e-02	2.649080094287508125e+00	-1.007748429999980821e+00	-2.692648338000001829e+01	1.281264630041422151e+03	3.909460843407557007e-02
2.690000000000000213e+01	2.616584833205425120e+00	2.648959741468685181e+00	3.898232084999998648e+01	1.489816816000000443e+01	1.286755865757809488e+03	2.733248982229095958e+00
2.700000000000000000e+01	2.862326538805843867e+00	2.649747072824172989e+00	3.753103716000001810e+01	1.311207392000001626e+01	1.299078901931271048e+03	2.989947430603406620e+00
2.710000000000000142e+01	1.180782425741394235e+02	3.074116541579008377e+00	4.995383568840005495e+01	4.230570730000054458e-01	1.292044800341284827e+03	0.000000000000000000e+00
2.719999999999999929e+01	2.408921499997168425e+01	3.151094924210483761e+00	2.264441692999999134e+01	-9.400230322999985066e-01	1.290966572485965344e+03	1.104700037068052463e-23
2.730000000000000071e+01	1.868092204041258864e+00	3.146412432531033865e+00	2.568131820000000332e+01	1.374735044900000247e+01	1.294533345002834722e+03	1.951383746710350309e+00
2.740000000000000213e+01	1.497031178036565754e-02	3.135025370273758938e+00	-2.513585400000342140e-01	1.679046794000002052e+01	1.281280835154728038e+03	1.563778438141099139e-02
2.750000000000000000e+01	1.591717530963517424e+00	3.129433675203793896e+00	8.115918605689994081e+01	5.098843512000002676e+01	1.298619366483899057e+03	1.662686516520324842e+00
2.760000000000000142e+01	6.288724976619033402e-01	3.120406378533967739e+00	-8.528419495999987276e+00	-1.356144453400006533e+01	1.296187516164776980e+03	6.569116706529960492e-01
2.769999999999999929e+01	4.456125349120991785e+00	3.125211123032482163e+00	9.841928253000013171e+00	2.208629129999993612e+00	1.316910514174120181e+03	3.448586137691123987e+00
2.780000000000000071e+01	3.011227403245310130e-01	3.115088942449300013e+00	1.860760098000000085e+01	6.179407427000002428e+01	1.307791970370784838e+03	3.145487251448287336e-01
2.790000000000000213e+01	5.043477225528799623e-01	3.105764866663955015e+00	2.444471257599998637e+01	-4.846797454000002858e+01	1.318096455817214519e+03	5.268347816831500108e-01
2.800000000000000000e+01	4.496377355044513524e-01	3.096312456944526392e+00	2.662355649800000634e+01	-5.921112574799994377e+01	1.329156487554210344e+03	4.696854722014862094e-01
2.810000000000000142e+01	3.718250227388331997e+00	3.098517910031206579e+00	2.235692377900000594e+01	6.012753959999976416e+00	1.311822686978023057e+03	3.577370050680528824e+00
2.819999999999999929e+01	2.831273853784300326e-02	3.087669128506495220e+00	1.982754657999981296e+00	7.003047957900001563e+01	1.315815912025119133e+03	2.957510217540973776e-02
2.830000000000000071e+01	2.528900447439853316e+00	3.085701633150626844e+00	5.587015911999996121e+01	-2.209266844669999941e+01	1.318169602003608816e+03	2.641655063656414004e+00
2.840000000000000213e+01	1.992293768638241813e+00	3.081865114327776212e+00	4.982001321999999988e+01	2.500635900400000367e+01	1.333801073396445190e+03	2.081123014368680302e+00
2.850000000000000000e+01	5.853148970981297827e-01	3.073135917764036051e+00	1.478213746000000839e+01	2.525501663000000363e+01	1.326940821435323869e+03	6.114119926381885728e-01
2.860000000000000142e+01	1.288115122471806595e+00	3.066916333111450399e+00	3.173813767999999058e+01	2.463920897000000210e+01	1.346686624574860843e+03	1.345547563683200387e+00
2.869999999999999929e+01	2.411738141092531831e-02	3.056351058973601376e+00	8.958692890000223841e-01	-3.714620894100004733e+01	1.348209065925922914e+03	2.519268909569015100e-02
2.880000000000000071e+01	3.856893001875225657e-01	3.047110014825552771e+00	1.066450826999999890e+01	-2.765051626999997936e+01	1.345925760271319859e+03	4.028858051213184410e-01
2.890000000000000213e+01	1.328774057832779638e-02	3.036648558707458978e+00	3.515369499999798641e-01	2.645573549000000568e+01	1.349545291844302710e+03	1.388019335392492830e-02
2.900000000000000000e+01	3.827402812125796361e-01	3.027528598990981479e+00	1.195841072899997037e+01	-3.124419173000003980e+01	1.361862344824946149e+03	3.998052999492530679e-01
2.910000000000000142e+01	3.654732189154195204e-02	3.017285512425572414e+00	-1.377587959999996503e+00	3.769326694000000089e+01	1.355209592871420227e+03	3.817683611690250722e-02
2.919999999999999929e+01	1.861852980900845278e+00	3.013342056686580062e+00	3.841339948200000265e+01	2.063181136000004301e+01	1.366330141104658424e+03	1.944866338949660767e+00
2.930000000000000071e+01	2.321001063869346126e+00	3.010987155350467237e+00	2.279369855000001976e+01	9.820632530000048988e+00	1.371761620540944477e+03	2.424486190956794296e+00
2.940000000000000213e+01	2.221216774810539363e+00	3.008309967619823055e+00	3.232697339699998196e+01	1.455372288000001291e+01	1.371351160228794015e+03	2.320252877726767693e+00
2.950000000000000000e+01	1.996429466464057390e+00	3.004891452413215536e+00	3.254813388999998836e+01	1.630317245699998097e+01	1.380178564987119444e+03	2.085443108152671865e+00
2.960000000000000142e+01	2.081060605454027712e+00	3.001780910840962324e+00	4.522469133000003438e+01	-2.173155900000005047e+01	1.391662245972852133e+03	2.173847646608186412e+00
2.969999999999999929e+01	5.511668120702607476e-01	2.993557373596765547e+00	1.486949365999999628e+01	-2.697820938119998146e+01	1.376249978593846890e+03	5.757413667662362178e-01
2.980000000000000071e+01	1.945139361768914776e+00	2.990050958841488526e+00	4.812344899400000031e+01	-2.474036047999995702e+01	1.368136728305965562e+03	2.031866161333529153e+00
2.990000000000000213e+01	1.842532552051163952e+00	2.986225897485520697e+00	3.678109737000001189e+01	-1.996225104900000957e+01	1.373408334046833261e+03	1.924684481354419052e+00
3.000000000000000000e+01	4.402668216521503552e+01	3.122572928275320070e+00	8.685030178000003431e+00	-1.972674240000293344e-01	1.367539884239983394e+03	7.471670765181612779e-91
3.010000000000000142e+01	8.848703085487109599e-01	3.115163316951721661e+00	4.451251412000002006e+01	5.030399787399993272e+01	1.390341223424615237e+03	9.243235073264032264e-01
3.019999999999999929e+01	4.027616045206472983e-01	3.106211496118616022e+00	1.031385783199997874e+01	-2.560784770999998727e+01	1.411029298022755029e+03	4.207193023772261009e-01
3.030000000000000071e+01	4.196583523856315945e-01	3.097374150251073655e+00	-2.617438192999993163e+01	-6.237069220999996588e+01	1.397960190119495564e+03	4.383694157306593508e-01
3.040000000000000213e+01	1.292338464333416592e+00	3.091456000461179521e+00	3.301356088000000000e+01	2.554559953999997290e+01	1.419249927495678094e+03	1.349959209236732738e+00
3.050000000000000000e+01	3.781607442417656006e-01	3.082589022499678144e+00	1.006595605499997248e+01	-2.661819400419999226e+01	1.408332344142332886e+03	3.950215778219547391e-01
3.060000000000000142e+01	1.183861437155023344e+00	3.076404242091389296e+00	2.371170544000002067e+01	2.002912223999998176e+01	1.413410004170959837e+03	1.236645579818739460e+00
3.069999999999999929e+01	5.466386948237594856e-01	3.068190717587273575e+00	-7.499783525000026430e+00	1.371981821999998452e+01	1.408898391894550059e+03	5.710113569846493320e-01
3.080000000000000071e+01	1.091409136057604812e+00	3.061793366190737498e+00	1.593043139599998881e+01	-1.459620491500006878e+01	1.409010201833285919e+03	1.140071161641097230e+00
3.090000000000000213e+01	2.418692989658355053e-01	3.052696836941624525e+00	4.916294509999995732e+00	2.032624450900000923e+01	1.413516654408116210e+03	2.526533849930534537e-01
3.100000000000000000e+01	2.720821247079315164e+00	3.051629712858466181e+00	4.126031609999997585e+01	-1.516465520999997985e+01	1.419941483921447798e+03	2.842132924578865794e+00
3.110000000000000142e+01	2.871316737377361150e+00	3.051051786655001319e+00	1.258314505000000771e+01	-4.382360498999966048e+00	1.439783969787956494e+03	2.999338469939798024e+00
3.119999999999999929e+01	3.377696094407927951e+00	3.052095378692550653e+00	4.572986610299998489e+01	1.353877460399998256e+01	1.441980202966723709e+03	3.431961195902932360e+00
3.130000000000000071e+01	1.153359244299383413e+00	3.046048448328241065e+00	4.353328649199999489e+01	-3.774477614600003506e+01	1.436289988330238202e+03	1.204783403396849195e+00
3.140000000000000213e+01	2.968749055866978015e+00	3.045803053431538565e+00	5.254322947999947147e+00	1.769877766399996943e+00	1.434016555050691295e+03	3.099641859856222759e+00
3.150000000000000000e+01	5.186177106772978940e-01	3.037805631460797517e+00	3.374735840000001019e+01	6.507174302999999327e+01	1.436603825235906243e+03	5.417410174843052539e-01
3.160000000000000142e+01	3.627178756596076137e-01	3.029366868824200587e+00	-1.090277413699995002e+01	3.005855202799999759e+01	1.433708879230265438e+03	3.788901670229504193e-01
3.169999999999999929e+01	5.846837758028715637e-01	3.021679186141743578e+00	1.526728515300001732e+01	2.611203830999997066e+01	1.449589364859467423e+03	6.107527319041062830e-01
3.180000000000000071e+01	1.924599175257768469e-01	3.012810160221317091e+00	-9.152230771000024134e+00	4.755395766900000609e+01	1.454438562891514721e+03	2.010410161450043309e-01
3.190000000000000213e+01	1.846874844730082676e+00	3.009166612360407278e+00	6.395210370000006250e+00	-3.462719949999998104e+00	1.450353675291405125e+03	1.929220381316300248e+00
3.200000000000000000e+01	1.862123635584042036e+00	3.005593269753627172e+00	2.004639541100001310e+01	1.076534072599996961e+01	1.453788644427672125e+03	1.945149061156101533e+00
3.210000000000000142e+01	6.744479281451197794e-01	2.998353687947389989e+00	1.721500742699999620e+01	-2.552459086700000057e+01	1.449078023587298958e+03	7.045191463985089886e-01
3.220000000000000284e+01	3.785126793401540901e-01	2.990242725072444596e+00	1.061003745199998249e+01	-2.803086404000001508e+01	1.469995468214642642e+03	3.953892044462758437e-01
3.229999999999999716e+01	1.151496779112677560e+00	2.984567583263927126e+00	3.746505349999992518e+01	-3.253596030800000705e+01	1.451192727464089103e+03	1.202837897556029656e+00
3.239999999999999858e+01	4.696284035339036607e-03	2.975398748497069423e+00	-1.618500429999993884e-01	-3.446342720799999881e+01	1.467756722869903570e+03	4.905674525417316918e-03
3.250000000000000000e+01	2.477340434059560892e-01	2.967031678849550769e+00	1.056678267699997953e+01	4.265373677240005179e+01	1.448638467494637553e+03	2.587796173890259399e-01
3.260000000000000142e+01	1.779230304489324510e+00	2.963399258744473741e+00	2.457010115200000655e+01	-1.380939898000002231e+01	1.457130267560390621e+03	1.858559813227663060e+00
3.270000000000000284e+01	5.388957054892126175e-01	2.956007479618695033e+00	-1.935343212099999732e+01	3.591313110100003314e+01	1.473063105734139981e+03	5.629231354794689279e-01
3.279999999999999716e+01	7.572056274216001359e-01	2.949324191314144805e+00	3.713572956999999519e+01	-4.904312411999998034e+01	1.476678595806968133e+03	7.909667151715651379e-01
3.289999999999999858e+01	2.998655968420791851e+00	2.949473681547801540e+00	2.660111248300002984e+01	-8.871011801000033614e+00	1.461011472253191641e+03	3.129074642963247666e+00
3.300000000000000000e+01	4.163154819024387443e+00	2.953140391932927322e+00	4.264928364999997967e+01	-1.024446255399999828e+01	1.468323894180356319e+03	3.570422185224400469e+00
3.310000000000000142e+01	1.173733173084077874e+00	2.947780731635189611e+00	1.749118790000001056e+01	-1.490218415999993695e+01	1.471945687650307036e+03	1.226065732717146917e+00
3.320000000000000284e+01	4.484733418869919497e+00	2.952396205170428889e+00	-3.862492079999997330e+00	8.612534390000115003e-01	1.473475014513148153e+03	3.432135869371341741e+00
3.329999999999999716e+01	1.744398163608698482e+00	2.948779444566950847e+00	-2.643370113699999990e+01	1.515347911300001726e+01	1.488849363216105758e+03	1.822174631901743114e+00
3.339999999999999858e+01	1.818018776954058779e+00	2.945404039589001766e+00	3.722054817999998022e+01	-2.047313737999997585e+01	1.490109429992602600e+03	1.899077724797370914e+00
3.350000000000000000e+01	4.178826283856670543e+00	2.949074939125512884e+00	3.274735730099998676e+01	-7.836496440999984436e+00	1.486039697451044958e+03	3.566159822009045133e+00
3.360000000000000142e+01	9.081231539477744308e-01	2.943018702374243567e+00	-2.614720846000007981e+01	2.879257989000001672e+01	1.497971294881081576e+03	9.486131138449361844e-01
3.370000000000000284e+01	4.984606832860463133e-01	2.935786282199426722e+00	1.472571886999999968e+01	-2.954238792299995353e+01	1.499101274927135591e+03	5.206852604139680096e-01
3.379999999999999716e+01	2.380953783406997815e+00	2.934149608161690903e+00	8.032948415699993916e+01	-3.373836347300005656e+01	1.501184044131807013e+03	2.487111987597757867e+00
3.389999999999999858e+01	1.126636470063091811e-01	2.925851120040645181e+00	6.108656498000003765e+00	-5.422029785400003732e+01	1.506419874022183194e+03	1.176869156338325589e-01
3.400000000000000000e+01	3.924853478947334384e+00	2.928780745726589085e+00	2.484416947600001180e+01	-6.329961005999985346e+00	1.514008995590831546e+03	3.601935614731918811e+00
3.410000000000000142e+01	2.319609029372529996e+00	2.926999541877600475e+00	3.637360393099999101e+01	1.568092013369998661e+01	1.527745140993614768e+03	2.423032090625948154e+00
3.420000000000000284e+01	1.909750621078960986e+00	2.924033801583726611e+00	4.677060050800000113e+01	2.449042298600001999e+01	1.532015311456590325e+03	1.994899563405690524e+00
3.430000000000000426e+01	4.466653451498972416e+00	2.928518161031154587e+00	1.762578007500002286e+01	-3.946081840999989598e+00	1.530882530234345268e+03	3.442621413326476532e+00
3.439999999999999858e+01	3.111124899138399402e-01	2.920931477926466791e+00	1.615012896999998304e+01	-5.191089876999997443e+01	1.540495280927506656e+03	3.249838818999999379e-01
3.450000000000000000e+01	6.391613787168037852e-02	2.912674208157522315e+00	-1.725631525999999250e+00	-2.699836979300000550e+01	1.541398177058618103e+03	6.676592960747684824e-02
3.460000000000000142e+01	8.133684724970751123e-01	2.906624335720460639e+00	1.022423471000000994e+01	1.257023729799998613e+01	1.542217489419001822e+03	8.496336604177392449e-01
3.470000000000000284e+01	2.635378030078431077e+00	2.905844892313443228e+00	9.733687819000003572e+00	3.693469288999999822e+00	1.553742667348450595e+03	2.752880100461577939e+00
3.480000000000000426e+01	6.096630295739240424e-01	2.899265574655164102e+00	5.833508532599999086e+01	-9.568414434899997900e+01	1.553973454555582066e+03	6.368457211625253578e-01
3.489999999999999858e+01	4.261520277345008378e-01	2.892199535949675937e+00	7.827292838999977853e+00	1.836737204000000645e+01	1.561113005875880845e+03	4.451526208127127848e-01
3.500000000000000000e+01	9.701231200340790783e-01	2.886723534764731536e+00	1.288869274300002310e+01	-1.328562578999999566e+01	1.570594918925879028e+03	1.013377436427985501e+00
3.510000000000000142e+01	2.905341134854905194e-02	2.878605153732298749e+00	1.206546992999998347e+00	4.152858260000005686e+01	1.574739387020647882e+03	3.034879893476419982e-02
3.520000000000000284e+01	1.093111881537704722e-01	2.870760128334059580e+00	-5.961889000000008210e+00	-5.454051960000001742e+01	1.586635046681292579e+03	1.141849826445470034e-01
3.530000000000000426e+01	5.342025111257787451e+00	2.877741102862092948e+00	3.079528962999999919e+01	5.764721990000006180e+00	1.575966599276566285e+03	2.659441453601622651e+00
3.539999999999999858e+01	2.726291150098723293e+01	2.946431723701881555e+00	5.071322505799997771e+01	-1.860154409999958069e+00	1.588439456303652833e+03	1.783486165423959401e-31
3.550000000000000000e+01	3.137051038207487319e-01	2.939036424207833509e+00	-1.282094289300000511e+01	-4.086941122999994036e+01	1.576085904077175428e+03	3.276920911781567858e-01
3.560000000000000142e+01	6.396332564953283173e-01	2.932595518976146121e+00	2.082684896300003530e+01	-3.256060993000001957e+01	1.584266892945839800e+03	6.681522131938778530e-01
3.570000000000000284e+01	8.161402171573181041e-01	2.926683632658216183e+00	2.173274587000000224e+01	-2.662869126300000389e+01	1.596103822467205418e+03	8.525289872481434106e-01
3.580000000000000426e+01	5.106868746690997884e-01	2.919953836674960002e+00	3.357028319799999139e+01	-6.573555120200005319e+01	1.605542922655663915e+03	5.334565738948811031e-01
3.589999999999999858e+01	3.872607474523769522e+00	2.922600096780095136e+00	-3.662619110010000867e+01	9.457759749999986809e+00	1.589032003220277602e+03	3.600319628520205040e+00
3.600000000000000000e+01	6.765113270194341721e-01	2.916378244232281869e+00	-1.133177105000002349e+01	1.675030497999998147e+01	1.598706602675418253e+03	7.066745448406239749e-01
3.610000000000000142e+01	1.423747711473638822e-01	2.908715251212710129e+00	6.453009829000015074e+00	4.532411028300005995e+01	1.599289633012310560e+03	1.487227524195778305e-01
3.620000000000000284e+01	7.275409598962077062e-01	2.902706506608533132e+00	1.055686712999999699e+01	-1.451034060200000120e+01	1.601517268172561216e+03	7.599794063356364315e-01
3.630000000000000426e+01	9.148304528916401113e-01	2.897245308658761065e+00	6.717646059000013103e+00	7.343050330000005843e+00	1.609308504668822252e+03	9.556194672332071205e-01
3.639999999999999858e+01	1.937174711693779017e+01	2.942380930051306187e+00	9.305293890000005064e+00	4.803538800000063946e-01	1.604793542216553078e+03	3.888554871133460158e-14
3.650000000000000000e+01	2.392361118804014364e+00	2.940878143681778134e+00	3.713447041000000581e+01	-1.552210078910002267e+01	1.609986470756051403e+03	2.499027935236132425e+00
3.660000000000000142e+01	2.795707718378710016e+00	2.940482583939807881e+00	2.447454185000001203e+01	-8.754327817999985939e+00	1.620930973383026185e+03	2.920358315502290747e+00
3.670000000000000284e+01	2.085065521505798714e+00	2.938158081052759218e+00	3.489915161730006332e+01	-1.673767622999995197e+01	1.617186789071673957e+03	2.178031127527093602e+00
3.680000000000000426e+01	2.455397032118347767e+01	2.996737518017883239e+00	6.026421117000003846e+01	2.454357090999992774e+00	1.633216530370635610e+03	9.353289382694045252e-25
3.689999999999999858e+01	7.591522224014783937e-01	2.990689990191893077e+00	1.547919437599999526e+01	-2.039010612000001288e+01	1.637908248742915248e+03	7.930001018518076927e-01
3.700000000000000000e+01	1.869439900879217298e+00	2.987667752754392225e+00	3.994349149700002499e+01	2.136655555399998718e+01	1.646170421831882322e+03	1.952791532524881246e+00
3.710000000000000142e+01	9.845666452700397864e-01	2.982283072357928777e+00	4.046272363540000327e+01	-4.109698802999992040e+01	1.649609072658446166e+03	1.028464946739137131e+00
3.720000000000000284e+01	1.065207205465259488e+00	2.977143458773766405e+00	1.201043984999999914e+01	1.127521461400000469e+01	1.658922762728228236e+03	1.112700980779721460e+00
3.730000000000000426e+01	9.380334020975354292e+00	2.994264289153984127e+00	9.883787748000003148e+00	-1.053671194000008526e+00	1.643296332543467543e+03	5.204668059400261587e-02
3.739999999999999858e+01	9.496453041160629605e-01	2.988811971860549921e+00	1.698217526999999549e+01	-1.788265070800000700e+01	1.660833532944332319e+03	9.919865880190594787e-01
3.750000000000000000e+01	4.264901458428636549e-01	2.981997286153056148e+00	1.522665124999993225e+01	-3.570223461999999159e+01	1.665337017018414599e+03	4.455058143968947393e-01
3.760000000000000142e+01	1.198643903375797848e+00	2.977266905827387067e+00	-7.716383250000052207e+00	-6.437594374999976665e+00	1.663685667061504091e+03	1.252087143279638548e+00
3.770000000000000284e+01	1.576621689246708646e+00	2.973561495201511917e+00	5.741822145899995178e+01	3.641851552000004943e+01	1.660605739805316261e+03	1.646917605272065099e+00
3.780000000000000426e+01	6.778070869929025966e-01	2.967504095707558243e+00	1.676944367000000469e+01	-2.474073227000000230e+01	1.677518397144897563e+03	7.080280781118373223e-01
3.789999999999999858e+01	4.026106223593272637e-01	2.960754376040852343e+00	2.061007947999999246e+01	-5.119109714299995773e+01	1.691083352241555076e+03	4.205615884619248179e-01
3.800000000000000000e+01	1.006119397461985754e+00	2.955624100506524243e+00	3.293426196000001482e+01	-3.273394990999999266e+01	1.703149835934185603e+03	1.050978658981635450e+00
3.810000000000000142e+01	1.051393444205213967e+01	2.975410253233083502e+00	4.552234474099998351e+01	-4.329715482999987763e+00	1.704133771643455020e+03	7.933383780266506369e-03
3.820000000000000284e+01	1.548382388414073274e+00	2.971684331915017907e+00	3.058864118399999654e+01	1.975522416999998043e+01	1.700262570983393061e+03	1.617419215126194354e+00
3.830000000000000426e+01	7.874335792280713342e+00	2.984451653426387185e+00	2.713665138999999016e+01	-3.446214652999978423e+00	1.695247445056755168e+03	3.764562168771266593e-01
3.839999999999999858e+01	4.414358833442538765e-01	2.977846417659940847e+00	1.617741442000001229e+01	3.664725734899999310e+01	1.709403588460754463e+03	4.611179288202190141e-01
3.850000000000000000e+01	1.630494919955574051e+00	2.974355869738425806e+00	-2.616768218999997941e+01	1.604891979100000299e+01	1.698200950340607733e+03	1.703192850444992912e+00
3.860000000000000142e+01	3.947748374285093426e-02	2.966772204658334910e+00	1.069476596999993312e+00	-2.709079950399997827e+01	1.699995544243698760e+03	4.123764339370905585e-02
3.870000000000000284e+01	2.842100756002091444e+00	2.966450886491694305e+00	-1.827576245100005892e+01	6.430371060000031669e+00	1.722444327758054214e+03	2.968819852562904149e+00
3.880000000000000426e+01	1.645261362572282005e-01	2.959247995102917361e+00	-5.109157357000007948e+00	3.105377341999998109e+01	1.734007522588797428e+03	1.718617675866692673e-01
3.889999999999999858e+01	2.041770088990842169e-01	2.952183710522907401e+00	1.856960536100000780e+01	-9.094856204000006983e+01	1.726755364914382199e+03	2.132805306695706449e-01
3.900000000000000000e+01	8.797962067611565518e-01	2.946883486728119728e+00	2.038963890699998416e+01	-2.317541124899993932e+01	1.733055854373297734e+03	9.190231695079768004e-01
3.910000000000000142e+01	5.599198048312381548e-01	2.940794293662056358e+00	2.292822475100003743e+01	-4.094912262999999797e+01	1.731614221416897863e+03	5.848846241343117480e-01
3.920000000000000284e+01	4.122699071765035250e-01	2.934360389370745281e+00	2.087634761600001099e+01	5.063757323199993010e+01	1.730153035506962851e+03	4.306515462040039766e-01
3.930000000000000426e+01	1.799308943872100830e+00	2.931479548138514524e+00	7.030129400000001283e+01	-3.907127469100003481e+01	1.732326369542355678e+03	1.879533687248895690e+00
3.939999999999999858e+01	1.485955378945849503e+00	2.927819993279799693e+00	2.885401142100000627e+01	1.941781821299998256e+01	1.734872968258659284e+03	1.552208808825855879e+00
3.950000000000000000e+01	1.717830859686093614e-01	2.920860304119922368e+00	7.106048880000012780e+00	-4.136640601100000225e+01	1.749391140045045631e+03	1.794422787021531795e-01
3.960000000000000142e+01	1.854732664247087381e-01	2.913970160448145830e+00	-4.372976184000016531e+00	-2.357739348799999846e+01	1.735844537336579378e+03	1.937428552870624487e-01
3.970000000000000284e+01	1.782120946799418404e-01	2.907096396463803689e+00	5.922002590000001732e+00	-3.323008239499996108e+01	1.762522752934908567e+03	1.861579338928411598e-01
