0.000000000000000000e+00	6.464086773823869425e-01	6.464086773823869425e-01	-4.718329214999993582e+01	7.299297457000004385e+01	3.689476981653758685e+03	6.651902127940012566e-01
1.000000000000000056e-01	2.921874039448204119e+00	1.784141358415295642e+00	4.500353083599998882e+01	1.540228299659998612e+01	2.887954777333184666e+03	3.006769683118083236e+00
2.000000000000000111e-01	4.179774652981046223e+00	2.582685789937212650e+00	2.626650024999993960e+01	6.284190520000037417e+00	2.902302262629022607e+03	4.301218854465817643e+00
2.999999999999999889e-01	2.237267756325245216e+00	2.496331281534220459e+00	-3.968841433999997292e+01	1.773968012000000627e+01	2.896171514704104538e+03	2.302272025390508237e+00
4.000000000000000222e-01	3.624993675575207686e-01	2.069564898738880387e+00	-2.073032980999999708e+01	5.718721648999992624e+01	2.906737374030107276e+03	3.730318603081430595e-01
5.000000000000000000e-01	1.514665324365454813e-01	1.749881837688491260e+00	-6.508707630000005295e+00	4.297125923000003667e+01	2.904070080722852254e+03	1.558674233004355425e-01
5.999999999999999778e-01	6.942016706867546461e+00	2.491615390428356669e+00	4.599955367000002582e+01	6.626252227899989578e+00	2.888224988670056973e+03	2.953877678774780247e+00
7.000000000000000666e-01	9.328063070109764154e-02	2.191823545462448841e+00	4.191590899999991571e+00	4.493527615000000708e+01	2.908528619605124277e+03	9.599091837208754974e-02
8.000000000000000444e-01	1.366378625954667476e-02	1.949805794439904094e+00	9.240533700000002071e-01	6.762791457999999523e+01	2.875307130993134251e+03	1.406079034453143646e-02
9.000000000000000222e-01	7.222429807568320648e+00	2.477068195752745616e+00	5.354868034999994109e+01	-7.414219559999980724e+00	2.901699764921310361e+03	2.525792963477709208e+00
1.000000000000000000e+00	7.363697514673410716e-01	2.318822882635890537e+00	-3.679285667999992171e+01	4.996519290300008009e+01	2.893141072546826308e+03	7.577651241582372688e-01
1.100000000000000089e+00	6.661826303862086740e-02	2.131139164336118164e+00	-7.439158930000007608e+00	1.116684613300000848e+02	2.921475118574284807e+03	6.855387020185815805e-02
1.199999999999999956e+00	2.883748016958516749e-02	1.969423650169461748e+00	-1.241706239999985417e+00	4.305876355000012978e+01	2.917050694447749265e+03	2.967535901301287388e-02
1.300000000000000044e+00	9.856465979842068403e-01	1.899153860727657905e+00	3.637182046000003766e+01	3.690148227000000958e+01	2.900204006069549905e+03	1.014284760080577774e+00
1.400000000000000133e+00	4.661870685723095153e-01	1.803622741250634709e+00	1.130158938699997861e+01	-2.424260591700004852e+01	2.887211067780375743e+03	4.797322285356371285e-01
1.500000000000000000e+00	1.079387357520315005e+00	1.758358029767489672e+00	8.593474330000027805e+00	-7.961436893000010784e+00	2.884186031634145365e+03	1.110749176424432605e+00
1.600000000000000089e+00	1.698455448027032855e+00	1.754834348488639284e+00	1.437669031000000430e+01	-8.464567219999981518e+00	2.911210607173934477e+03	1.747804416038021502e+00
1.699999999999999956e+00	7.182939883507996059e-01	1.697248772925425975e+00	-3.572415550400005912e+01	4.973472712199998824e+01	2.908331382297356868e+03	7.391641660730267072e-01
1.800000000000000044e+00	9.801731400411127504e-02	1.613078696140093582e+00	-3.696005971999989814e+00	-3.770768470399998051e+01	2.904918952867801181e+03	1.008652269705248156e-01
1.900000000000000133e+00	1.073410051538850052e-01	1.537791811590783153e+00	7.837789700000014292e+00	7.301766635000008421e+01	2.920906233123336733e+03	1.104598198603642112e-01
2.000000000000000000e+00	7.403721115080577064e-01	1.499819444920177158e+00	1.963223625999997424e+01	-2.651671498000003879e+01	2.891993157867671016e+03	7.618837735828452029e-01
2.100000000000000089e+00	7.248990346670837193e-01	1.464595789908673007e+00	-1.997303133000000130e+01	-2.755284580999999733e+01	2.907004946361423208e+03	7.459611233515630602e-01
2.200000000000000178e+00	6.155611290446305617e-01	1.427681239436323191e+00	3.333509264000000627e+01	-5.415399229600003395e+01	2.902616685882304409e+03	6.334463826739314962e-01
2.300000000000000266e+00	5.968997381836120830e-01	1.393065343550793811e+00	-3.059366761999994466e+01	5.125428218999995522e+01	2.898600422650228666e+03	6.142427813111829282e-01
2.399999999999999911e+00	1.045828935880974875e+01	1.755674304161152000e+00	1.770122798999998892e+01	1.692554812999987002e+00	2.914399355847770494e+03	9.170707426016183605e-02
2.500000000000000000e+00	1.672568619794624567e+00	1.752477931685516355e+00	-2.585343505000004072e+01	-1.545732398899998117e+01	2.908391663128642449e+03	1.721165440753518849e+00
2.600000000000000089e+00	1.595845794940642381e-01	1.693481881604351535e+00	8.328684489999982787e+00	5.218978247400006154e+01	2.935984199893461664e+03	1.642213418640444678e-01
2.700000000000000178e+00	7.671296623836840745e-01	1.660397873775041777e+00	-3.125954816999999153e+01	4.074871524699999981e+01	2.928322612516972640e+03	7.894187705338145955e-01
2.800000000000000266e+00	2.491913485143147644e-02	1.604002055191469100e+00	-1.259780850000018493e+00	5.055475872299999196e+01	2.924944080223390301e+03	2.564316537579600444e-02
2.899999999999999911e+00	3.764280081176522019e-01	1.563082920289008415e+00	2.145343646999998199e+01	5.699213662999999741e+01	2.880084358426246581e+03	3.873652003487565998e-01
3.000000000000000000e+00	1.277676072703880505e-01	1.516782426320665733e+00	-6.018319560000024993e+00	4.710364143599999665e+01	2.891911516991240205e+03	1.314799210501526039e-01
3.100000000000000089e+00	6.563172638238421452e-01	1.489892889992640246e+00	-2.990696031000003430e+01	4.556784037000002741e+01	2.892165502451970497e+03	6.753866952270183299e-01
3.200000000000000178e+00	1.148227575081766538e+00	1.479539395601401797e+00	2.346787296000002598e+01	-2.043834643000004192e+01	2.904569239694470980e+03	1.181589560489077151e+00
3.300000000000000266e+00	5.173273170397572063e-01	1.451239040349588727e+00	-4.280798935999996502e+01	8.274836442999998098e+01	2.926477800584693341e+03	5.323583673092602275e-01
3.399999999999999911e+00	7.569427267565345119e-01	1.431402002818358499e+00	-2.406538204000000647e+01	3.179287043700001547e+01	2.918034482813638078e+03	7.789358514229780539e-01
3.500000000000000000e+00	2.958408086930720549e-01	1.399858636314878391e+00	-2.246557362999997665e+01	7.593804833499994800e+01	2.931519664863357320e+03	3.044365234770533002e-01
3.600000000000000089e+00	2.865807229793035371e-01	1.369770044062565528e+00	2.372084064999999597e+01	8.277193386700012923e+01	2.906907094117997531e+03	2.949073840920809486e-01
3.700000000000000178e+00	1.143115777394878130e+00	1.363805458097626211e+00	4.778596808500002879e+01	4.180326177799996401e+01	2.900364007069908439e+03	1.176329238482153317e+00
3.800000000000000266e+00	1.405306185707396460e-01	1.332439436571295932e+00	-8.819465620000020323e+00	6.275832064000002219e+01	2.917468961452490021e+03	1.446137642360956488e-01
3.899999999999999911e+00	5.218657461406969178e-01	1.312175094310530810e+00	-2.908296557600003140e+01	-5.572882641000001058e+01	2.926310962253275648e+03	5.370286613895154382e-01
4.000000000000000000e+00	2.277949010940731256e+01	1.835768143459233004e+00	-3.054472807699998427e+01	-1.340887259999987480e+00	2.912205850591799390e+03	6.301306509364143752e-18
4.099999999999999645e+00	2.141965817809000638e-01	1.797159296752605995e+00	1.464510418999998720e+01	6.837225910999991640e+01	2.928596914187391121e+03	2.204201069694162185e-01
4.200000000000000178e+00	2.715519181857171116e-01	1.761680055390585364e+00	9.305516689999985047e+00	3.426790998999994997e+01	2.928946888511940415e+03	2.794419143227581115e-01
4.299999999999999822e+00	3.777707819511199605e-01	1.730227571903324657e+00	-2.425488432000004124e+01	6.420529452999993225e+01	2.924704842750763873e+03	3.887469887486827980e-01
4.400000000000000355e+00	1.426262218414146687e+00	1.723472786270231927e+00	6.077958827000001207e+01	4.261459602960002258e+01	2.917593664086250556e+03	1.467702556854322937e+00
4.500000000000000000e+00	2.218752233719136768e-01	1.690829360989833718e+00	4.733662119999970663e+00	2.133479371000009905e+01	2.909348828665060864e+03	2.283218530514442846e-01
4.600000000000000533e+00	6.446574891119782880e-01	1.668570384992432487e+00	6.673464207599991482e+00	1.035195327799999809e+01	2.932832922841621439e+03	6.633881433927167892e-01
4.700000000000000178e+00	2.678367905467549104e-01	1.639388435108147357e+00	2.300497339870000602e+01	8.589176024600004666e+01	2.931008433687475645e+03	2.756188428956766190e-01
4.799999999999999822e+00	2.413938275059757804e-02	1.606424168733503688e+00	1.348033150000009339e+00	5.584372906000002956e+01	2.923924267673355644e+03	2.484075741929909695e-02
4.900000000000000355e+00	6.755051888809651128e-01	1.587805789136452761e+00	1.403133466639999583e+01	2.077161640999998582e+01	2.923455743132753923e+03	6.951321293438821325e-01
5.000000000000000000e+00	5.361194878120753016e-01	1.567184489110484691e+00	2.381002926000000386e+01	4.441179587999993572e+01	2.935129671759388657e+03	5.516965484201935555e-01
5.100000000000000533e+00	2.616500635870657732e-01	1.542078057850418960e+00	2.082493429005998209e+01	7.959078627600007394e+01	2.915461137616195174e+03	2.692523593276048288e-01
5.200000000000000178e+00	3.495169965417830316e-01	1.519576905750255946e+00	-1.126183455999998451e+01	3.222113565699998361e+01	2.941349721932138436e+03	3.596722838657298027e-01
5.299999999999999822e+00	1.521880116198621180e-01	1.494254889192285551e+00	-6.531669790000015574e+00	4.291842517999995010e+01	2.918788591872915276e+03	1.566098652079610520e-01
5.400000000000000355e+00	1.908857341828379961e-01	1.470557268192113964e+00	-1.597407875000003408e+01	8.368398413000011260e+01	2.913527275493390789e+03	1.964319579597910426e-01
5.500000000000000000e+00	4.097634754461974838e-02	1.445029037466265764e+00	2.343119969999986285e+00	5.718225538399996566e+01	2.897073060404197804e+03	4.216692364512068109e-02
5.600000000000000533e+00	1.468630919040334604e-01	1.422254196316051100e+00	-1.197629348000002203e+01	8.154733312999999839e+01	2.918636029993525426e+03	1.511302288682593586e-01
5.700000000000000178e+00	3.838865819748024655e-01	1.404351306413615941e+00	2.122732879999999156e+01	-5.529583423000002540e+01	2.922753225603960800e+03	3.950404845842165336e-01
5.799999999999999822e+00	6.659761410690125061e+00	1.493426053943726295e+00	-1.864516959199996293e+01	-2.799675310000007578e+00	2.950889053200926810e+03	3.384511649573003655e+00
5.900000000000000355e+00	6.727451414316303058e-02	1.469656861613716892e+00	-6.663454090000016095e+00	9.904871369000007064e+01	2.925770131336860686e+03	6.922918881553212500e-02
6.000000000000000000e+00	1.106772757233839943e+00	1.463707941869784479e+00	5.269869319000005703e+01	4.761473649000002695e+01	2.925677112541738097e+03	1.138930264488806410e+00
6.100000000000000533e+00	6.153003407705726957e+00	1.539341739705847978e+00	3.355389948999999916e+01	5.453255470000017091e+00	2.921658841610962099e+03	4.091643099597590094e+00
6.200000000000000178e+00	4.492142490738907368e-01	1.522038128743435914e+00	-1.643615487000003483e+01	3.658867657000005380e+01	2.909239116478416690e+03	4.622662603193896658e-01
6.299999999999999822e+00	1.286040720397597648e+00	1.518350669238032413e+00	1.441960089000002476e+01	1.121239837999997491e+01	2.913596379079041981e+03	1.323406894732904515e+00
6.400000000000000355e+00	3.532231935907908138e+01	2.038411726004817570e+00	-2.926130994999996560e+01	-8.284085100000313506e-01	2.951743920322030135e+03	1.827657753529825334e-51
6.500000000000000000e+00	1.970067708694954733e-01	2.010511650927009786e+00	2.042988417799998402e+01	1.037014316199999513e+02	2.948380352874703476e+03	2.027308426106060879e-01
6.600000000000000533e+00	3.896075254089373274e+00	2.038654391272716637e+00	-6.199111024999987052e+01	1.591116860099998398e+01	2.968164981823765629e+03	4.009276511917951424e+00
6.700000000000000178e+00	7.141701005534337732e-01	2.019176681115080640e+00	-4.691466119999971873e+00	-6.569115840000024242e+00	2.953516609302948382e+03	7.349204578781169950e-01
6.799999999999999822e+00	3.284611988229744206e-01	1.994673558183310602e+00	-1.857018908000003066e+01	5.653693387999997810e+01	2.944903741346525749e+03	3.380047056676167005e-01
6.900000000000000355e+00	7.850922255011081319e-01	1.977393824859279059e+00	1.031177885400000704e+01	1.313448091708997900e+01	2.932251151651425971e+03	8.079032395709416781e-01
7.000000000000000000e+00	8.296724866779974228e-01	1.961228735589120031e+00	-2.806940182399999983e+01	3.383190629400003502e+01	2.938539723805544781e+03	8.537787892908983434e-01
7.100000000000000533e+00	5.804819675487178643e-02	1.934795672549755485e+00	-3.615007469999989898e+00	6.227596500999998597e+01	2.947938405695801521e+03	5.973479890159241745e-02
7.200000000000000178e+00	8.878805936593811010e-01	1.920454370099202501e+00	4.392235968099994636e+01	4.946876865499995546e+01	2.926299515480236096e+03	9.136781446431129217e-01
7.299999999999999822e+00	1.973904931708303501e+00	1.921176674985811905e+00	1.490985018000001006e+01	-7.553479370000040660e+00	2.962217255325131191e+03	2.031257140413430307e+00
7.400000000000000355e+00	5.823092045255273685e-02	1.896337398258701734e+00	-1.921518649999991446e+00	3.299825307700001531e+01	2.958352358294710484e+03	5.992283167342198763e-02
7.500000000000000000e+00	2.330831423365671284e-01	1.874452473838673638e+00	-1.541340845900004553e+01	6.612837078000008262e+01	2.936044117411884599e+03	2.398554203780249861e-01
7.600000000000000533e+00	1.456274891238204527e-01	1.852000201309909500e+00	-2.261941600000005437e+00	-1.553238068999994148e+01	2.949480447565815211e+03	1.498587253983074408e-01
7.700000000000000178e+00	2.465405154163632095e-01	1.831417384824094885e+00	2.357014347799997367e+01	9.560352966000002084e+01	2.971557797866601959e+03	2.537038001659441822e-01
7.799999999999999822e+00	1.077125380914018660e+00	1.821869384774600364e+00	-4.090281541599996018e+01	3.797405217700001145e+01	2.951291799869505667e+03	1.108421477628416474e+00
7.900000000000000355e+00	4.061286727568964583e-01	1.804172625874378655e+00	-1.847897993200010447e+01	4.550030857599998058e+01	2.928765162223714469e+03	4.179288238315134740e-01
8.000000000000000000e+00	3.544030732102642745e+00	1.825652355580900332e+00	2.194421627000000896e+01	6.191880920000007116e+00	2.938824971397883473e+03	3.647003264842112014e+00
8.099999999999999645e+00	1.114200519225101882e+00	1.816976113674122484e+00	-1.750662581000002049e+01	1.571227576000003445e+01	2.980956202043501435e+03	1.146573841613356404e+00
8.199999999999999289e+00	4.470326562419266736e-01	1.800470770813493493e+00	2.032744358000000418e+01	4.547194326000006726e+01	2.969206189575669669e+03	4.600212808645955942e-01
8.300000000000000711e+00	2.868222847591055391e+00	1.813182105060845428e+00	5.971530147299993985e+01	2.081961711000009885e+01	2.956328277832730237e+03	2.951559644984580455e+00
8.400000000000000355e+00	5.524842171792782031e-02	1.792500532315634665e+00	2.909551588000002464e+00	5.266307158700007562e+01	2.958430677481339444e+03	5.685367583229551658e-02
8.500000000000000000e+00	4.171818436873709901e-01	1.776508454540887350e+00	7.030171017399997169e+00	-1.685157473599998923e+01	2.957782565726403845e+03	4.293031468883517499e-01
8.599999999999999645e+00	1.368510375285761360e-01	1.757661817563734186e+00	1.117122865700002166e+01	8.163057334999989223e+01	2.929658574804201635e+03	1.408272722194026105e-01
8.700000000000001066e+00	1.959651872183127974e-01	1.739915264946172657e+00	-2.465062409999949189e+00	1.257908328000000431e+01	2.946771363097620906e+03	2.016589955348851437e-01
8.800000000000000711e+00	1.171822915606756776e+00	1.733532204841235380e+00	-1.968465297999997787e+01	-1.679831714999999548e+01	2.952988756720414585e+03	1.205870468425404907e+00
8.900000000000000355e+00	1.648064525593717078e-01	1.716101918704770135e+00	-6.930122120000026698e+00	4.205006546999998562e+01	2.968457985483043103e+03	1.695949375118645519e-01
9.000000000000000000e+00	5.008513632757060074e-01	1.702747516996758304e+00	-1.195736465999999965e+01	2.387407829300002149e+01	2.974032628572182603e+03	5.154037013622093655e-01
9.099999999999999645e+00	1.089180828417497082e+00	1.696078313860027054e+00	2.791472405699997594e+01	2.562909971299999867e+01	2.969861506446879957e+03	1.120827198607656783e+00
9.200000000000001066e+00	9.353186338909916242e-02	1.678846631596898842e+00	-3.341937569999983815e+00	-3.573047140200005600e+01	2.951033153570363993e+03	9.624945067686613287e-02
9.300000000000000711e+00	1.837037052017420347e-01	1.662940855784184491e+00	-3.155662765999975861e+00	1.717800282000001388e+01	2.962238489225094327e+03	1.890412536679274003e-01
9.400000000000000355e+00	2.577381288605238741e+00	1.672566544550721845e+00	3.156335834000001839e+01	1.224628985999997965e+01	2.953920546433482741e+03	2.652267625430410725e+00
9.500000000000000000e+00	1.652497744439364702e+00	1.672357494549562063e+00	-3.441968157700001996e+01	2.082888263710001553e+01	2.958239542789273401e+03	1.700511402038272335e+00
9.599999999999999645e+00	8.208229790899282952e-01	1.663578788204617576e+00	1.191892855000001106e+01	1.452070526000002282e+01	2.959101249286491566e+03	8.446721574624590501e-01
9.700000000000001066e+00	6.388164569921094271e-01	1.653122029722857267e+00	-2.678315994789999266e+01	4.192622098999996894e+01	2.984213800996185000e+03	6.573773988982494210e-01
9.800000000000000711e+00	9.433360417344743842e-01	1.645952474288631340e+00	7.410000629999954569e+00	-7.855101789999967998e+00	2.982081463328113841e+03	9.707448620254298666e-01
9.900000000000000355e+00	5.932634625144999063e+00	1.688819295797195030e+00	3.305273978000003154e+01	5.571342560000008604e+00	2.979610500381409565e+03	4.346498166185964962e+00
1.000000000000000000e+01	8.798420833008431252e-01	1.680809620425943951e+00	-8.585929449999948559e+00	9.758489180000013974e+00	2.991031520069511771e+03	9.054060737334280740e-01
1.009999999999999964e+01	1.851791928782334506e-01	1.666146577018613462e+00	1.361650198600001538e+01	7.353149008999996283e+01	2.979895152522323315e+03	1.905596119385414566e-01
1.020000000000000107e+01	9.518189920028848894e-01	1.659211357746616100e+00	1.571273258199999390e+01	1.650810996000000941e+01	2.998555586270177628e+03	9.794742861368375131e-01
1.030000000000000071e+01	2.127156396704714236e+00	1.663710829275058867e+00	-1.902091724999997879e+01	-8.941945819999999046e+00	2.983874930231653707e+03	2.188961357851790357e+00
1.040000000000000036e+01	4.604020386816100041e-01	1.652250745555121414e+00	-3.783243970000011558e+00	8.217261550000010573e+00	2.992664024899381729e+03	4.737791134264820458e-01
1.050000000000000000e+01	3.415524638923230771e-01	1.639885667426227212e+00	3.100747072099999357e+01	9.078391754999995555e+01	3.002692814561256000e+03	3.514763401024857403e-01
1.059999999999999964e+01	3.540835588641113585e-01	1.627868825290132548e+00	-7.267790500000190779e-01	-2.052563672629994063e+00	3.001698104312559735e+03	3.643715285838351470e-01
1.070000000000000107e+01	1.016866553230164893e-01	1.613737508901548212e+00	8.495467690000012340e+00	8.354555140999988794e+01	2.991205647819806472e+03	1.046411817467205324e-01
1.080000000000000071e+01	2.245158241727467918e-01	1.600992355830642033e+00	-1.726918225300001453e+01	7.691743919000013818e+01	3.002353840290008520e+03	2.310391770448707027e-01
1.090000000000000036e+01	1.046358140316284713e-01	1.587389114541560176e+00	-8.826655310000017352e+00	8.435596733000009806e+01	2.985113191758745415e+03	1.076760288606066623e-01
1.100000000000000000e+01	2.639275437476665820e-01	1.575466037327200475e+00	8.919194399999998524e+00	3.379410225000002299e+01	2.987331244226783838e+03	2.715960121368445335e-01
1.109999999999999964e+01	1.464523870308429565e+00	1.574475482264533044e+00	2.149785587800004194e+01	-1.467907509999996130e+01	2.990218921574331489e+03	1.507075908815611820e+00
1.120000000000000107e+01	2.522591437022948524e-01	1.562774452719734475e+00	-1.788531749999998155e+01	7.090057168000001298e+01	2.998271106468399921e+03	2.595885843582182440e-01
1.130000000000000071e+01	5.032390584525919808e-01	1.553480282594583928e+00	-2.257113225000007972e+01	-4.485170988000012215e+01	3.007349643060246308e+03	5.178607715074178275e-01
1.140000000000000036e+01	2.496706043639149442e-01	1.542142807131708704e+00	3.467407469999992387e+00	1.388792837199996377e+01	3.021105339324039960e+03	2.569248344836106979e-01
1.150000000000000000e+01	5.251472840407923615e-01	1.533375604346442156e+00	-5.431443849999986639e+00	-1.034270577999996554e+01	3.001537970104391206e+03	5.404055450398022042e-01
1.159999999999999964e+01	3.030255226002190883e-01	1.522859791681944630e+00	3.107681850000018287e+00	1.025551189000002594e+01	3.013131348383496970e+03	3.118299907060397280e-01
1.170000000000000107e+01	1.820379054772688077e-01	1.511496894341227026e+00	-1.591838138799996472e+01	8.744542158000001564e+01	2.995066659929352682e+03	1.873270537941236491e-01
1.180000000000000071e+01	5.856406341376056979e-01	1.503716589633633527e+00	3.135724659999999986e+01	5.354349540000004737e+01	3.012015436138611676e+03	6.026565417103145750e-01
1.190000000000000036e+01	7.611886784491959101e-01	1.497528857040429706e+00	1.511723701999999392e+01	-1.986003923599996668e+01	2.974540548454492637e+03	7.833051701044531079e-01
1.200000000000000000e+01	5.099644397512811400e-01	1.489367167641346024e+00	7.907499760000005651e+00	1.550598266000004877e+01	3.027782343071657124e+03	5.247815601257139750e-01
1.209999999999999964e+01	3.383359779547188695e-01	1.479932485758668648e+00	-1.970807552699996634e+01	5.825001421999996154e+01	3.023401273455886439e+03	3.481663985126728922e-01
1.220000000000000107e+01	8.986037212993371881e-01	1.475206235641113306e+00	4.186764339999973217e+00	4.659188740000003826e+00	3.008437788901629119e+03	9.247128349345925535e-01
1.230000000000000071e+01	7.573364368854325068e-01	1.469416963070502735e+00	3.748291800000004770e+01	4.949308678999997113e+01	3.018578068677341889e+03	7.793410008796365362e-01
1.240000000000000036e+01	1.772465399302371125e+00	1.471841350560357808e+00	1.054009222999999551e+01	-5.946571500999960236e+00	3.009766311346193106e+03	1.823964741479620066e+00
1.250000000000000000e+01	3.433859437341343912e-02	1.460432598527128256e+00	-1.280455173000005997e+00	3.728909689999992594e+01	3.003403099437589844e+03	3.533630920734938397e-02
1.259999999999999964e+01	9.542238673488940837e-01	1.456446703006039733e+00	8.381107076000007794e+01	8.783166469400008225e+01	3.007544743252100943e+03	9.819490356244725549e-01
1.270000000000000107e+01	1.078474549971514929e+00	1.453493795560457436e+00	-4.554290857699993467e+01	-4.222900631099994939e+01	3.000264065098334413e+03	1.109809847066904220e+00
1.280000000000000071e+01	1.869556876997064521e+00	1.456719090765392410e+00	2.462091581999996848e+01	1.316938581700000732e+01	3.019530332964672198e+03	1.923877231778712948e+00
1.290000000000000036e+01	2.830847085151674825e-01	1.447691133978852296e+00	-1.233613183999995755e+00	4.357752809999977828e+00	3.010603089177202492e+03	2.913097922176236532e-01
1.300000000000000000e+01	4.195675266242994139e-01	1.439842862166985427e+00	-1.388199836000000431e+01	-3.308644611199999019e+01	3.028088310049569372e+03	4.317581463275620979e-01
1.309999999999999964e+01	7.755817856416002964e-01	1.434810581284217568e+00	-2.394366580000037104e+00	3.087187739999975200e+00	3.035931328240748371e+03	7.981164719496768312e-01
1.320000000000000107e+01	2.754029159751198108e+00	1.444729517964420396e+00	-1.153246705999997346e+01	-4.187489089999987257e+00	3.023696282001661075e+03	2.834048036350973909e+00
1.330000000000000071e+01	7.689773575856746757e-02	1.434521818097212353e+00	3.263445419999969843e+00	-4.243877128250004205e+01	3.031832444092183778e+03	7.913201508951792085e-02
1.340000000000000036e+01	3.296770941766034912e+00	1.448316256050314887e+00	-3.432112909999999317e+01	-1.041052887999996557e+01	3.038583876287297699e+03	3.392559291077025918e+00
1.350000000000000000e+01	1.942966942457966806e-01	1.439095523978222602e+00	2.122845166000000106e+01	1.092579147699999851e+02	3.046333403162311242e+03	1.999420241601695958e-01
1.359999999999999964e+01	7.527976747170210536e-02	1.429140664441678643e+00	-4.200826309999991182e+00	5.580285979999997892e+01	3.069062312229958934e+03	7.746703640545665737e-02
1.370000000000000107e+01	4.350514459600449135e-01	1.421937119380217718e+00	1.947145775000000967e+01	4.475667861999995978e+01	3.056630543908900108e+03	4.476919540845034629e-01
1.380000000000000071e+01	1.043436554941230554e+00	1.419214093736771654e+00	2.173690111999999530e+01	-2.083202952499999583e+01	3.051532688017191958e+03	1.073753815974545223e+00
1.390000000000000036e+01	4.411267031519962023e-01	1.412227755232594584e+00	-2.049519686000006757e+01	4.646102064000004361e+01	3.066193100450492238e+03	4.539437291080954950e-01
1.400000000000000000e+01	2.559772384066859807e+00	1.420366369621490321e+00	2.043499363900000887e+01	7.983129189999988107e+00	3.062200119195434581e+03	2.634147090594173513e+00
1.409999999999999964e+01	1.146007552782738470e+00	1.418434265277555228e+00	-4.649649526699994340e+01	4.057259060299998765e+01	3.054594313669421354e+03	1.179305034991248391e+00
1.420000000000000107e+01	1.131155665842317193e+00	1.416425324022763554e+00	1.201925004999996460e+01	1.062563748999993507e+01	3.056839324433377442e+03	1.164021623459247534e+00
1.430000000000000071e+01	2.698953600683535736e+00	1.425331770388463148e+00	-2.978219556000003720e+01	-1.103471936399996345e+01	3.074340286664552423e+03	2.777372245728356948e+00
1.440000000000000036e+01	9.431467261123190893e-01	1.422006356290007156e+00	-2.721245539800004920e+01	2.885283344000000838e+01	3.075524613505916477e+03	9.705500457994215013e-01
1.450000000000000000e+01	2.241212456016941701e+01	1.565774289193290647e+00	1.727998927999997747e+01	7.710107640000263274e-01	3.070932551424559279e+03	3.332400320926568917e-17
1.459999999999999964e+01	4.638111424209681921e+00	1.586674541812449712e+00	2.468282111019999903e+01	5.321739572999987899e+00	3.080118783225725110e+03	4.698654827802379863e+00
1.470000000000000107e+01	6.245559155074024149e-01	1.580173740283361550e+00	3.326899196490000321e+01	5.326823610000005971e+01	3.077405456259664788e+03	6.427025144842852811e-01
1.480000000000000071e+01	2.932382265416152989e-02	1.569765351574440970e+00	1.476160976999997487e+00	5.033999129000005013e+01	3.074636516336049226e+03	3.017583227725827155e-02
1.490000000000000036e+01	3.276808413290216437e-01	1.561484788172804672e+00	-1.663409202000000775e+01	5.076308994000003594e+01	3.081152612165430128e+03	3.372016747281808557e-01
1.500000000000000000e+01	6.716929427551305842e-01	1.555592126944873144e+00	1.861580395999998316e+01	-2.771475293999996481e+01	3.084114678339294187e+03	6.912091176325667607e-01
1.509999999999999964e+01	1.244566475548731788e+00	1.553545905554108986e+00	5.177133020000016295e+00	4.159788264999994212e+00	3.084673497085839244e+03	1.280727607276236357e+00
1.520000000000000107e+01	2.445012165290932682e+00	1.559372482415134042e+00	6.279621859999982014e+00	-2.568339720000030191e+00	3.098746089196778030e+03	2.516052490353082760e+00
1.530000000000000071e+01	8.569646997760681506e-01	1.554811392917477830e+00	3.792762945799995578e+01	4.425810009199999939e+01	3.068253394940481485e+03	8.818639831837790100e-01
1.540000000000000036e+01	4.998299942347969704e+01	1.867251315695298564e+00	4.338790009600007380e+01	8.680531500000068235e-01	3.080207643592596924e+03	2.182186439602241035e-112
1.550000000000000000e+01	3.043455497188059938e-02	1.855476849280404794e+00	1.256347160000018004e+00	4.128028687000006869e+01	3.081032721760611366e+03	3.131883714806642238e-02
1.559999999999999964e+01	9.963539949471385618e-03	1.843721987437532572e+00	-5.674913369000170738e-01	5.695679846499990617e+01	3.064354601455951524e+03	1.025303262637016974e-02
1.570000000000000107e+01	1.309759478321208315e+00	1.840342477886163453e+00	1.978865363900000673e+01	1.510861647999999668e+01	3.099956928125584000e+03	1.347814805985436681e+00
1.580000000000000071e+01	1.585755734742673839e+00	1.838741303400984295e+00	2.359505720100004211e+01	1.487937687000002818e+01	3.094347581998069018e+03	1.631830189694060129e+00
1.590000000000000036e+01	1.833700437160594443e-01	1.828395233027953370e+00	1.791025459999984193e+00	9.767273997999964763e+00	3.073238687514125104e+03	1.886978975800092384e-01
1.600000000000000000e+01	9.681361222466942085e-01	1.823052008737386709e+00	-4.248962610600001710e+01	4.388807020999995956e+01	3.092927539695820542e+03	9.962655139140076388e-01
1.610000000000000142e+01	1.086472835166769069e-01	1.812469263519975060e+00	-3.348892175999968135e+00	3.082352422999997899e+01	3.080267758722475264e+03	1.118040524063015906e-01
1.619999999999999929e+01	6.563268078752085843e-01	1.805376365019086826e+00	5.054986308000020578e+00	-7.701934839999946547e+00	3.096216096305301107e+03	6.753965165827356953e-01
1.630000000000000071e+01	7.575263077602757411e-01	1.798987035401655277e+00	-3.509745724999996952e+01	4.633166781199999207e+01	3.098743840294979236e+03	7.795363884913124597e-01
1.639999999999999858e+01	1.136025673711368589e-01	1.788772584080258410e+00	1.129051605999998920e+01	9.938609946300020681e+01	3.122820741020967489e+03	1.169033130396068126e-01
1.650000000000000000e+01	2.461819851618173960e+00	1.792827085691932387e+00	-3.816634334999997691e+01	-1.550330473000001774e+01	3.100070150810992345e+03	2.533348527420324459e+00
1.660000000000000142e+01	3.670971853125163942e-01	1.784289780899241062e+00	1.151225948000003108e+01	3.136024992999997707e+01	3.120089432398727240e+03	3.777632685918601019e-01
1.669999999999999929e+01	5.716896323199461838e-01	1.777071922871983345e+00	-2.825887222999999793e+01	4.943044378000004713e+01	3.132926016512275055e+03	5.883001907012938014e-01
1.680000000000000071e+01	1.079509698444401089e-01	1.767195467528624997e+00	-1.186811020000026140e+00	-1.099398200600002795e+01	3.117037699776676618e+03	1.110875071988916274e-01
1.689999999999999858e+01	4.516625365462850761e-01	1.759457038522846739e+00	9.493141230999986746e+00	2.101821705999996581e+01	3.108739629117021650e+03	4.647856832815592809e-01
1.700000000000000000e+01	6.422642247684480221e-01	1.752923747214341077e+00	2.618053143000001981e+01	4.076286739999996200e+01	3.116015305936167806e+03	6.609253422675960277e-01
1.710000000000000142e+01	2.145523059628841267e+00	1.755206301356286192e+00	-1.662054273000003590e+01	-7.746615752000009181e+00	3.139942180732579800e+03	2.207861667897579760e+00
1.719999999999999929e+01	1.500164290175520332e+00	1.753732070077784311e+00	-1.059852291999999707e+01	-7.064908149999999054e+00	3.126116678331851290e+03	1.543751868320767606e+00
1.730000000000000071e+01	1.531369803514741612e-01	1.744533247723035529e+00	5.345706829999999243e+00	-3.490800731300001303e+01	3.136450906333036528e+03	1.575864064188124969e-01
1.740000000000000213e+01	1.109776002240578652e-01	1.735198644023041359e+00	-5.774222717999983878e+00	5.203052423499999435e+01	3.129457751294916761e+03	1.142020769389196500e-01
1.750000000000000000e+01	2.195823132371250985e-02	1.725464323496340935e+00	-2.845989899999941675e-01	-1.296092503100001991e+01	3.119458919911902285e+03	2.259623219469828262e-02
1.760000000000000142e+01	1.054619654072306956e+00	1.721674240618238816e+00	5.018677839499998328e+01	-4.758756220900001210e+01	3.144015686677214944e+03	1.085261842322243320e+00
1.769999999999999929e+01	1.264680826831255711e+00	1.719106861889098337e+00	4.304617450999999306e+01	3.403718440000005785e+01	3.145062412879774456e+03	1.301426385120644014e+00
1.780000000000000071e+01	4.720165152440562117e+00	1.735872550663128955e+00	5.853958640000019642e+00	-1.240202079999940032e+00	3.130086282062458395e+03	4.743179388316820955e+00
1.790000000000000213e+01	1.617374664185199790e-02	1.726318668418566071e+00	1.428282980999995733e+00	8.830872726199994815e+01	3.129908384228055638e+03	1.664367813553571315e-02
1.800000000000000000e+01	1.165784672493098695e+00	1.723221795512900778e+00	2.512924499999997963e+01	2.155564882000002669e+01	3.117483648927132435e+03	1.199656782931668886e+00
1.810000000000000142e+01	2.394772213479085532e-01	1.715069352797708557e+00	1.022787751500000297e+01	4.270918735999993743e+01	3.131590044322763788e+03	2.464352806537245533e-01
1.819999999999999929e+01	7.489507795865769924e-02	1.706106651842303590e+00	3.658741288999985741e+00	4.885155859000001755e+01	3.148186158663178958e+03	7.707116966047752871e-02
1.830000000000000071e+01	2.172481677732274630e+00	1.708641298722140434e+00	2.600109069400003747e+01	-1.196838204000000516e+01	3.149211378883845555e+03	2.235603574125498483e+00
1.840000000000000213e+01	4.145648486687644185e-01	1.701646290884013979e+00	8.943581200000000564e+00	2.157341904099998686e+01	3.154806497364892493e+03	4.266101145479490042e-01
1.850000000000000000e+01	1.796687825035924835e+00	1.702157266874078312e+00	-1.497584524799998995e+01	-8.335251699999997044e+00	3.140982995809773911e+03	1.848890954712611778e+00
1.860000000000000142e+01	6.449061218221053826e-01	1.696503517435297592e+00	-3.425372998400009550e+01	5.311428876999998749e+01	3.148049137580181650e+03	6.636440001767357488e-01
1.869999999999999929e+01	4.831011958315317364e-03	1.687505259427441118e+00	-3.100438500000455844e-01	6.417782706300003781e+01	3.158567479022757652e+03	4.971377991977574649e-03
1.880000000000000071e+01	1.601471927632734271e+00	1.687050056613712767e+00	6.247751500000013181e+01	-3.901255708700009706e+01	3.175632585870265302e+03	1.648003019760613475e+00
1.890000000000000213e+01	1.181249317722028902e+00	1.684387947461650992e+00	1.472759282379999135e+01	1.246781065000003963e+01	3.164491061402680316e+03	1.215570756568706612e+00
1.900000000000000000e+01	5.065712478944826014e-01	1.678221367882765547e+00	1.229894367999998117e+01	2.427880329000002035e+01	3.162643719878596585e+03	5.212897783903343019e-01
1.910000000000000142e+01	5.722751677206520116e-01	1.672461231423587824e+00	3.752073745000000571e+01	6.556415439000005563e+01	3.167476452162987243e+03	5.889027389519935207e-01
1.919999999999999929e+01	9.793809319593145546e-02	1.664303080448314764e+00	-1.200601889999989069e+00	-1.225878359299999687e+01	3.159648499954063936e+03	1.007837043856730230e-01
1.930000000000000071e+01	2.086778825003229976e+00	1.666480790471793982e+00	-3.032763138300002836e+01	1.453322748899998373e+01	3.174662676856359212e+03	2.147410607603543298e+00
1.940000000000000213e+01	5.301055409486566949e-01	1.660653225089623763e+00	-1.073187765499999458e+01	-2.024479433999998435e+01	3.158820671055103048e+03	5.455078651091822550e-01
1.950000000000000000e+01	2.712516057320067731e+00	1.666019872192840312e+00	-2.531866280000000202e+01	9.334013980000003485e+00	3.165121195522016023e+03	2.791328762297096144e+00
1.960000000000000142e+01	5.636211268301072330e+00	1.686173128010648670e+00	5.227083017000003196e+01	9.274107672999999608e+00	3.172713523849694866e+03	4.614956259409809469e+00
1.969999999999999929e+01	1.527695433997120489e+00	1.685372735616641027e+00	6.016654749800007096e+01	-3.938386288199999541e+01	3.200084609887393526e+03	1.572082935117878444e+00
1.980000000000000071e+01	2.128900943987721006e-01	1.677973325359264800e+00	1.219844742999997322e+01	-5.729927202320001811e+01	3.182897881023835453e+03	2.190756593310435041e-01
1.990000000000000213e+01	4.137649331876260272e-01	1.671652283398406658e+00	-2.257689218000001219e+01	-5.456453741999997931e+01	3.189618801496829292e+03	4.257869573600375213e-01
2.000000000000000000e+01	1.090953922622715622e+00	1.668763236827383256e+00	1.233064193200000780e+01	-1.130262394799996528e+01	3.191402753754135574e+03	1.122651810425136176e+00
2.010000000000000142e+01	6.188380936000991150e-01	1.663565587603485607e+00	1.609949852859999098e+01	2.601568761700000820e+01	3.177159175701864115e+03	6.368185601001343787e-01
2.019999999999999929e+01	8.923293355067214438e-01	1.659766394243403331e+00	1.590663210999999322e+01	1.782596567999996751e+01	3.185018152901423036e+03	9.182561455883992974e-01
2.030000000000000071e+01	1.888092588045509279e+00	1.660885640291452692e+00	4.429812968000001661e+01	-2.346184184000000172e+01	3.201523605063755895e+03	1.942951501676406956e+00
2.040000000000000213e+01	7.870390229251600367e-01	1.656622973865276016e+00	-1.675738816300001943e+01	2.129168653000003530e+01	3.209341453960285435e+03	8.099066015895579618e-01
2.050000000000000000e+01	4.476168936598184933e-01	1.650754012310880148e+00	-1.849092353999998650e+01	-4.130970881999995470e+01	3.205770916099183978e+03	4.606224934193270948e-01
2.060000000000000142e+01	6.206640124487112775e-01	1.645777732118309578e+00	1.268741495000000796e+01	2.044167970999999895e+01	3.206594352688207437e+03	6.386975313917502284e-01
2.069999999999999929e+01	1.185894914345588580e+00	1.643566757032863590e+00	5.353381479999978154e+00	4.514212359999984159e+00	3.197993896967411729e+03	1.220351331945718210e+00
2.080000000000000071e+01	6.718628322286003263e-01	1.638917455957245251e+00	2.295168964999997385e+01	3.416127302929997001e+01	3.199587991709875496e+03	6.913839432791939466e-01
2.090000000000000213e+01	1.807942679345083015e+00	1.639722337973377631e+00	2.921799964200000588e+01	-1.616091039599997714e+01	3.177253915058837720e+03	1.860472821099664609e+00
2.100000000000000000e+01	1.595890537975616974e+00	1.639514604324099123e+00	-2.417100553999997103e+01	1.514577909000001199e+01	3.196579148691753289e+03	1.642259461693388101e+00
2.110000000000000142e+01	1.010629772454003650e+00	1.636548166437919338e+00	-1.039713795299998012e+01	-1.028778117999999786e+01	3.200929485049498453e+03	1.039993825758857460e+00
2.119999999999999929e+01	5.611777328142885102e-01	1.631499478956118576e+00	-1.097110341199996419e+01	1.955014030399999925e+01	3.195924878975258252e+03	5.774828658204564924e-01
2.130000000000000071e+01	2.922130491795516677e-02	1.624012197769024279e+00	7.668712599999858437e-01	2.624356654000000688e+01	3.201243042956350564e+03	3.007033586740433945e-02
2.140000000000000213e+01	1.508364685423780466e-02	1.616528809160118207e+00	8.405516900000082892e-01	5.572602555089999754e+01	3.205745688203122427e+03	1.552190527718525295e-02
2.150000000000000000e+01	1.145782404209295358e+01	1.662090361164436869e+00	-1.341669760399999056e+01	-1.170963836999997953e+00	3.217794373900169376e+03	1.895648374753480456e-02
2.160000000000000142e+01	8.318023455258276577e-01	1.658264149110802776e+00	-3.976877091099994033e+01	4.781036158999999941e+01	3.226747460595443044e+03	8.559705316201420278e-01
2.169999999999999929e+01	9.338153503039771097e-01	1.654940989483248526e+00	4.101680324999998106e+01	-4.392389056000003222e+01	3.217694825648721235e+03	9.609475449716983197e-01
2.180000000000000071e+01	1.455836561412632291e-01	1.648048946865248832e+00	1.166518326999999466e+01	-8.012701136370002075e+01	3.213264026924712198e+03	1.498136188395391977e-01
2.190000000000000213e+01	7.783874855647507918e-01	1.644095940222973784e+00	-3.583501610999996245e+01	4.603750288200001961e+01	3.213205814606220429e+03	8.010036920539523875e-01
2.200000000000000000e+01	2.861865730598450952e+00	1.649606210767659009e+00	2.466681978199997971e+01	-8.619139437000018944e+00	3.254457715041127813e+03	2.945017820666579578e+00
2.210000000000000142e+01	4.358497645130215981e-01	1.644138839388133544e+00	-1.567426020999998570e+01	3.596252994999999686e+01	3.219894957209075983e+03	4.485134679451811546e-01
2.219999999999999929e+01	2.908679111205960233e+00	1.649809423566688915e+00	-4.888641666999988189e+01	1.680708486599995055e+01	3.220190976220242192e+03	2.993191373555775581e+00
2.230000000000000071e+01	2.696834399520195436e-01	1.643648146854123748e+00	-7.044486520000004859e+00	-2.612131661200004729e+01	3.250811987014408260e+03	2.775191470744790556e-01
2.240000000000000213e+01	1.095061940608281992e+00	1.641209985937475579e+00	1.834611092600003346e+01	-1.675349151099999645e+01	3.213201325042934513e+03	1.126879187707641394e+00
2.250000000000000000e+01	1.702715536708991451e+00	1.641482134392216574e+00	4.507288317800005473e+01	2.647117631000003968e+01	3.215927038008618638e+03	1.752188282461889068e+00
2.260000000000000142e+01	6.611493700105512683e-02	1.634542190791374416e+00	2.206708539999977070e+00	3.337685310000008343e+01	3.211325177612596690e+03	6.803591992404178779e-02
2.269999999999999929e+01	1.954584785496968902e-01	1.628230420123648159e+00	-7.907340479999983351e+00	4.045534652000004172e+01	3.209593827759368196e+03	2.011375643429864080e-01
2.280000000000000071e+01	5.588798307513802577e-01	1.623560766894948104e+00	-4.155182890999999756e+01	7.434841378000001555e+01	3.252642655107372320e+03	5.751181977463899475e-01
2.290000000000000213e+01	9.982786585762655207e-01	1.620842149032692969e+00	2.920498237899996852e+01	-2.925534080899997136e+01	3.227354062001038074e+03	1.027283847758801327e+00
2.300000000000000000e+01	2.367661759631416174e-01	1.614850478153603941e+00	1.319061870999997943e+01	5.571158403999994846e+01	3.258450342725180235e+03	2.436454652946703214e-01
2.310000000000000142e+01	4.661144151610103759e-01	1.609899029606222109e+00	-3.674047259999982273e+00	-7.882286281000025596e+00	3.245314379733932583e+03	4.796574641647162740e-01
2.319999999999999929e+01	1.369360483540041883e-02	1.603048362547119909e+00	-1.003495533000027695e+00	7.328205721300005848e+01	3.256186889279858406e+03	1.409147530516297910e-02
2.330000000000000071e+01	4.363292567598732603e+02	3.460852671937402647e+00	7.433108869999974999e+00	-1.703555000000989139e-02	3.231414011276764995e+03	0.000000000000000000e+00
2.340000000000000213e+01	2.717962541562878087e+00	3.457691437340064233e+00	-3.514711785999999449e+01	-1.293142099000001721e+01	3.243024451793950448e+03	2.796933495245801371e+00
2.350000000000000000e+01	9.439267859572366692e-01	3.447039892207086176e+00	-4.295970612999997940e+01	4.551169303500007857e+01	3.248456843335448866e+03	9.713527704415688691e-01
2.360000000000000142e+01	9.510143464086086018e-01	3.436508138849286631e+00	5.918527082999998612e+01	6.223383596000002171e+01	3.242418328207423201e+03	9.786462614013901051e-01
2.369999999999999929e+01	1.232747964786033018e-01	3.422586990351931036e+00	4.143196018999993235e+00	-3.360943304999999981e+01	3.266810533542255143e+03	1.268565707282902355e-01
2.380000000000000071e+01	6.893945325019521508e-01	3.411151038645445777e+00	-1.411434104999994510e+01	-2.047353204089992929e+01	3.244911304148934960e+03	7.094250306648028914e-01
2.390000000000000213e+01	4.271803650790122475e-01	3.398717827505584932e+00	-1.990268738000007076e+01	-4.659082909000001393e+01	3.245753485108467885e+03	4.395921773497990515e-01
2.400000000000000000e+01	8.141668307756065592e-02	3.384953092466464586e+00	3.292524217099987993e+00	4.044041212000006169e+01	3.229700216068786176e+03	8.378226134069528819e-02
2.410000000000000142e+01	1.524950720431150208e-01	3.371595827919260824e+00	8.721003810000013345e+00	5.718875825399996415e+01	3.250885042506438822e+03	1.569258473341777760e-01
2.419999999999999929e+01	3.449973936343807557e-01	3.359140690329611267e+00	-1.090311111800000710e+01	-3.160345938600000082e+01	3.284114715226840417e+03	3.550213629778889990e-01
2.430000000000000071e+01	1.117187826414369478e-01	3.345831584150561699e+00	-5.716677319999969420e+00	5.117024357800002576e+01	3.271682820356414140e+03	1.149647945619751838e-01
2.440000000000000213e+01	3.655363096260889622e-01	3.333667113642298396e+00	-9.477767180000023828e+00	-2.592838777000001471e+01	3.286693177873273271e+03	3.761570413453383943e-01
2.450000000000000000e+01	1.962181718184928592e+00	3.328091969758325330e+00	3.979515381900002780e+01	-2.028107460700002207e+01	3.284892174333594994e+03	2.019193306540064459e+00
2.460000000000000142e+01	7.128617182825115473e-01	3.317503993031702514e+00	-1.831643468000002528e+01	2.569423242999998891e+01	3.284112784325680877e+03	7.335740602945712840e-01
2.469999999999999929e+01	1.441987852244445589e+00	3.309941427947882708e+00	1.514475106999997678e+01	-1.050268977400001091e+01	3.278442322097072520e+03	1.483885102169550940e+00
2.480000000000000071e+01	4.785746331571917311e-01	3.298570476964787890e+00	-2.047226535169995643e+01	-4.277758145400003542e+01	3.262743743479120894e+03	4.924797163255368870e-01
2.490000000000000213e+01	5.130776921371474897e-01	3.287428505825477298e+00	1.296710654000000851e+01	2.527318326000003879e+01	3.279082910929997979e+03	5.279852686919757065e-01
2.500000000000000000e+01	1.774727559243045871e-01	3.275038243873679811e+00	6.652832181000023049e+00	3.748649839999993816e+01	3.265095498539437358e+03	1.826292628936832252e-01
2.510000000000000142e+01	5.189848713811430869e+00	3.282636698119463681e+00	-1.850267300999997033e+01	3.565166159999987094e+00	3.277969205671489362e+03	4.820035001329472379e+00
2.519999999999999929e+01	3.322252494102257536e+00	3.282793282293308579e+00	-4.061001757999993345e+01	-1.222363972999999682e+01	3.302707552922960076e+03	3.418781215091864389e+00
2.530000000000000071e+01	9.828969861345275560e-02	3.270255866609530493e+00	-7.265267549999995467e+00	7.391687686999998164e+01	3.316497108935802316e+03	1.011455257700139970e-01
2.540000000000000213e+01	3.597304112744450499e+00	3.271538408751236027e+00	-3.455087548999999569e+01	9.604657934700018274e+00	3.272444738895236696e+03	3.701824514378675879e+00
2.550000000000000000e+01	1.304735150436047597e+00	3.263855583523442405e+00	6.711055783999997004e+01	5.143615377999999083e+01	3.294743443482404018e+03	1.342644495233095370e+00
2.560000000000000142e+01	6.762895964814611416e-01	3.253787233379310084e+00	1.091039072599998505e+01	-1.613272004000000592e+01	3.288172929860469139e+03	6.959393280665293613e-01
2.569999999999999929e+01	9.529081299848156383e-02	3.241544999191787291e+00	-8.411682016000051831e+00	8.827379839999990452e+01	3.281010981699796048e+03	9.805950692440450200e-02
2.580000000000000071e+01	2.972222672514367448e-01	3.230176957755723777e+00	-1.925231100000000950e+01	6.477412065400004337e+01	3.289604460716959238e+03	3.058581205944154724e-01
2.590000000000000213e+01	1.545063959970862100e-01	3.218347455595113704e+00	-1.266938687300000765e+01	8.199910943000013219e+01	3.264367699997393629e+03	1.589956107141460018e-01
2.600000000000000000e+01	4.712179372568667368e+00	3.224070949529878494e+00	-3.269877903999994828e+01	6.939205080000051318e+00	3.306355923532454653e+03	4.739241723635295500e+00
2.610000000000000142e+01	5.887876614958249100e+00	3.234238146726169827e+00	2.860541746999991730e+01	4.858358851700012693e+00	3.313890561384611374e+03	4.392920340721840233e+00
2.619999999999999929e+01	2.221251531676166735e+00	3.230386486592899953e+00	2.681765723999999906e+01	-1.207321946999999085e+01	3.319098451472536908e+03	2.285790446081239935e+00
2.630000000000000071e+01	3.182296589248754692e+00	3.230204327890839000e+00	3.984275825099994961e+01	-1.252012725199998933e+01	3.293182488324324822e+03	3.274758862996788533e+00
2.640000000000000213e+01	1.955887905834188700e+00	3.225395586675531057e+00	1.928472471499997098e+01	-9.859831260000051500e+00	3.294309176943165767e+03	2.012716626193154834e+00
2.650000000000000000e+01	1.264568031977559404e+00	3.218024054515012278e+00	-4.516673985999998564e+01	3.571712926299998259e+01	3.308060008868521891e+03	1.301310312989564011e+00
2.660000000000000142e+01	4.429430911766403245e-01	3.207630492854569138e+00	-2.454378613100002937e+01	-5.541069862000006907e+01	3.302282594307388536e+03	4.558128926557171723e-01
2.669999999999999929e+01	4.923801432772575426e-01	3.197498961699429820e+00	3.445001999000002257e+01	6.996630644099987251e+01	3.302927281444184246e+03	5.066863483461400142e-01
2.680000000000000071e+01	4.218467594568502815e-02	3.185769168815586916e+00	-1.262135599999963942e+00	2.991929110999997832e+01	3.305802521531940329e+03	4.341036027329913533e-02
2.690000000000000213e+01	4.269863395778394910e+00	3.189784332619153062e+00	-5.913850295219995701e+01	-1.385020959000001639e+01	3.326508495615700667e+03	4.393925143982817083e+00
2.700000000000000000e+01	8.641928478605038766e-01	3.181202814225209785e+00	-4.797878049999956040e+00	5.551860399999999807e+00	3.327662761955251881e+03	8.893021465788970570e-01
2.710000000000000142e+01	1.419334939884096647e+00	3.174725358804837416e+00	-3.474706626000003240e+01	-2.448123080999999246e+01	3.325827569978670908e+03	1.460574004839602091e+00
2.719999999999999929e+01	3.276927181734564432e+00	3.175099724456595052e+00	-4.864810695799992857e+01	1.484564784630008027e+01	3.317901619728984315e+03	3.372138966567430174e+00
2.730000000000000071e+01	1.851305154165872713e+00	3.170268357411738069e+00	-3.545328026999987969e+01	-1.915042487199997723e+01	3.309566925384852766e+03	1.905095201433604224e+00
2.740000000000000213e+01	8.014136287034303585e-01	3.161654340216434989e+00	7.658427354499998785e+01	9.556148136500011958e+01	3.333995177041449097e+03	8.246988644583022054e-01
2.750000000000000000e+01	3.236043688176520328e-01	3.151371550464990623e+00	-2.920375647899995286e+01	-9.024524788000000797e+01	3.317573479514100654e+03	3.330067594800324438e-01
2.760000000000000142e+01	2.490228604644924015e+00	3.148984752826650801e+00	-5.899813937600001879e+01	2.369185675000003855e+01	3.331846851370113654e+03	2.562582702536289503e+00
2.769999999999999929e+01	8.028403869247192626e-01	3.140545384603981471e+00	5.118340161099995811e+01	-6.375289839000005543e+01	3.342998026493638008e+03	8.261670774294955777e-01
2.780000000000000071e+01	1.460109046707969815e+00	3.134522315292526784e+00	4.027748244000004263e+01	-2.758525641000002082e+01	3.338872749532890339e+03	1.502532811618758180e+00
2.790000000000000213e+01	2.606600362894428535e+00	3.132636879748248226e+00	1.561912586400000436e+01	-5.992144436999989665e+00	3.343371111977504825e+03	2.682335665857677576e+00
2.800000000000000000e+01	1.698623210362098720e-02	3.121549155023533917e+00	-7.888563679999907041e-01	4.644092716899992723e+01	3.326543385795327140e+03	1.747977052741806273e-02
2.810000000000000142e+01	9.283288096700775816e-01	3.113771777912351713e+00	4.361609231999997149e+01	4.698345226999996527e+01	3.323572135134232667e+03	9.553015917853248107e-01
2.819999999999999929e+01	8.234806137594486986e-01	3.105678876272235378e+00	4.395624171300006111e+01	5.337859929977702222e+01	3.353393667914166599e+03	8.474070102470870891e-01
2.830000000000000071e+01	6.330382631323939746e-01	3.096972395240053189e+00	-1.427387929000001776e+01	2.254820936000004750e+01	3.348000197587546609e+03	6.514313184423470293e-01
2.840000000000000213e+01	4.282979464567218564e+00	3.101133823553481772e+00	-1.569810961299998553e+01	-3.665231118400011034e+00	3.363772376466262358e+03	4.407422302814268278e+00
2.850000000000000000e+01	5.014056906272313929e-01	3.092043865046746998e+00	-3.764548492999996654e+01	7.507989165999991599e+01	3.354333198235421150e+03	5.159741348075211897e-01
2.860000000000000142e+01	1.007860567173356703e+00	3.084781902336386494e+00	1.374759878200000074e+01	-1.364037767699998760e+01	3.365953389290334144e+03	1.037144160656335856e+00
2.869999999999999929e+01	1.205491152614508454e-01	3.074489427381264406e+00	-8.302206139999990242e+00	6.886990519999997673e+01	3.363904361204943143e+03	1.240516942897678943e-01
2.880000000000000071e+01	3.815380461092001130e-01	3.065171256511811215e+00	2.995020238999996209e+01	7.849859979999978066e+01	3.345164801443532724e+03	3.926237115320345139e-01
2.890000000000000213e+01	2.537007306303393861e+01	3.142084711017059995e+00	6.368955568999992778e+01	-2.510420664999987395e+00	3.355404488980501810e+03	1.904069244892438814e-23
2.900000000000000000e+01	1.052064855402248811e-01	3.131648703369372733e+00	9.302305557000007497e+00	8.841950673700000607e+01	3.349580012393914785e+03	1.082632813457928417e-01
2.910000000000000142e+01	5.316932340257128908e-01	3.122744746282579698e+00	-2.722999410399998155e+01	5.121373070299993202e+01	3.381916482278552849e+03	5.471416889310642961e-01
2.919999999999999929e+01	4.676153140110742186e-03	3.112102873951035242e+00	2.496585999999845762e-01	5.338973992499999355e+01	3.368556276034476923e+03	4.812019719357121458e-03
2.930000000000000071e+01	2.067525902148342531e+00	3.108549891053747238e+00	7.547142034999991722e+01	3.650325264199999964e+01	3.399515622134319528e+03	2.127598287164699453e+00
2.940000000000000213e+01	2.900093588270977740e-01	3.098995516368233449e+00	2.693155739999998488e+01	9.286444240599992384e+01	3.396574196779008162e+03	2.984356396508135445e-01
2.950000000000000000e+01	4.486860299108760275e-01	3.090041768103174213e+00	1.822034942999999529e+01	-4.060823875800002725e+01	3.367441167807167403e+03	4.617226936413084126e-01
2.960000000000000142e+01	5.952392796314958101e-01	3.081641759724482288e+00	3.567710242399999032e+01	5.993741280999999788e+01	3.394681213912233943e+03	6.125340777985838203e-01
2.969999999999999929e+01	4.017155387329406913e-01	3.072648718714443117e+00	1.771518175200001011e+01	4.409882128999996098e+01	3.400677372634236690e+03	4.133874653021523127e-01
2.980000000000000071e+01	1.632716518221451141e+00	3.067832891956941310e+00	4.522920462150006671e+01	2.770181113300004583e+01	3.410258185276906261e+03	1.680155428274887397e+00
2.990000000000000213e+01	1.942999478772182709e+00	3.064083447246325864e+00	-2.624392931000002349e+01	-1.350691525999999065e+01	3.440415805319376886e+03	1.999453723265129712e+00
3.000000000000000000e+01	3.982526846988246660e+01	3.186213630045780842e+00	-1.045496838800002415e+01	-2.625209769999795051e-01	3.489369480432448654e+03	1.092916720821331587e-67
3.010000000000000142e+01	1.929863440744576275e+00	3.182053530081207171e+00	-4.349556043000006866e+01	2.253815451999997066e+01	3.470776511406622831e+03	1.985936014984607034e+00
3.019999999999999929e+01	2.361911801858385951e-01	3.172331212094753994e+00	1.347954246800004086e+01	5.707047340800001223e+01	3.490457470610853761e+03	2.430537628982719633e-01
3.030000000000000071e+01	2.302832181990898119e-01	3.162653422641150680e+00	-1.963947659000003299e+01	8.528401132999998424e+01	3.484015804547942025e+03	2.369741438760484820e-01
3.040000000000000213e+01	1.084934607071013080e+00	3.155841229803215686e+00	-3.195801634999999052e+01	2.945616827200002774e+01	3.495934971763444537e+03	1.116457602437512575e+00
3.050000000000000000e+01	2.745441863283932249e-01	3.146425226393167129e+00	1.213684593000001399e+01	4.420725892000003654e+01	3.549396667330518994e+03	2.825211234240709302e-01
3.060000000000000142e+01	8.392877068674051699e-01	3.138910120466372966e+00	6.584894349999994745e+01	7.845812938899996425e+01	3.545346139178084286e+03	8.636733816558299637e-01
3.069999999999999929e+01	1.362374160433606107e+01	3.172951781128287241e+00	-4.173752202999996541e+01	-3.063587319999967029e+00	3.567285982791675906e+03	2.577985692389443933e-04
3.080000000000000071e+01	5.777508693628778946e-01	3.164553072675972079e+00	2.986671053999996772e+01	5.169479117000008017e+01	3.589830440025055850e+03	5.945375382175888124e-01
3.090000000000000213e+01	2.686234778259651179e+00	3.163010110435919398e+00	-4.042466926999997412e+01	1.504882208999995719e+01	3.588444821705304093e+03	2.764283875335661556e+00
3.100000000000000000e+01	6.297995220562239149e-01	3.154864738769103560e+00	3.894308868999999618e+01	6.183410327600000755e+01	3.590135012543381890e+03	6.480984750863971744e-01
3.110000000000000142e+01	5.269887928032871427e-01	3.146442059455111462e+00	3.019578627000001703e+01	5.729872566999999606e+01	3.608434360340787407e+03	5.423005592134150232e-01
3.119999999999999929e+01	1.330543333531512395e+01	3.178898900592043830e+00	5.104855911000003488e+01	-3.836670165000004573e+00	3.627830993704577850e+03	5.227478542876913157e-04
3.130000000000000071e+01	4.564184497672666985e-01	3.170228580684959052e+00	6.305771835000000891e+01	1.381576892480001675e+02	3.617787221944974590e+03	4.696797805271368254e-01
3.140000000000000213e+01	3.337968265728431527e-01	3.161224035433809476e+00	2.471107664000001236e+01	7.403029230000008454e+01	3.649806147156407405e+03	3.434953611654623651e-01
3.150000000000000000e+01	1.625580559086294619e+00	3.156364404179545335e+00	1.003457014179999618e+02	6.172914707739997198e+01	3.644997121627649904e+03	1.672812132397694107e+00
3.160000000000000142e+01	5.992760321148689062e-01	3.148297879346533268e+00	5.127225339700004270e+01	8.555698984999987999e+01	3.673717902222439989e+03	6.166881189452548817e-01
3.169999999999999929e+01	9.857785618939921557e-01	3.141497504134418417e+00	4.129352676000009836e+01	4.188925216700004484e+01	3.648977485066458485e+03	1.014420558228564584e+00
3.180000000000000071e+01	1.723435155127619245e+00	3.137052167617155884e+00	4.794410934000003977e+01	2.781892268900004694e+01	3.682018712305057761e+03	1.773509913601974297e+00
3.190000000000000213e+01	1.705483765946645303e+00	3.132578516361935517e+00	1.046333228099999602e+01	6.135111039999974203e+00	3.643385080313658818e+03	1.755036943162290308e+00
3.200000000000000000e+01	2.374529489457020415e-01	3.123559433597399071e+00	3.195054533000003616e+01	1.345552686199997936e+02	3.667379919235152556e+03	2.443521926057276028e-01
3.210000000000000142e+01	3.592359792588058487e-01	3.114974578149142470e+00	1.208375492966998799e+01	3.363737383599998054e+01	3.672563162520675633e+03	3.696736535995912565e-01
3.220000000000000284e+01	3.976856110349371143e+00	3.117642942025923514e+00	4.024978352000006510e+01	-1.012100574000000108e+01	3.674704422404843626e+03	4.092404472363758039e+00
3.229999999999999716e+01	1.399806846016499851e+00	3.112340978766634958e+00	8.571267481000000998e+01	6.123178712399988655e+01	3.699712746883478303e+03	1.440478518238385242e+00
3.239999999999999858e+01	2.357333013637262109e+00	3.110017877335467862e+00	5.130461210000004968e+01	2.176383726999999624e+01	3.669916233420823573e+03	2.425825803139846304e+00
3.250000000000000000e+01	9.886798482555121392e-01	3.103510705467124264e+00	7.857137726999994243e+01	7.947100106130021402e+01	3.721896588696447452e+03	1.017406142054590790e+00
3.260000000000000142e+01	5.240649134901554929e-01	3.095622492036002260e+00	2.953509966449999169e+01	5.635771238300006303e+01	3.725505470988390243e+03	5.392917259929792539e-01
3.270000000000000284e+01	6.766200521967929982e-01	3.088247484597467896e+00	7.496876738000001694e+01	1.107989146000000034e+02	3.743955048947996602e+03	6.962793852397881622e-01
3.279999999999999716e+01	1.050159364527198241e-01	3.079179911502802902e+00	-6.747718145000019874e+00	6.425423009999983037e+01	3.712783096472734996e+03	1.080671958158484353e-01
3.289999999999999858e+01	1.224697449035938135e+00	3.073560267677145852e+00	6.080540180000001271e+01	4.964932510299995272e+01	3.728723922674464575e+03	1.260281282162570626e+00
3.300000000000000000e+01	8.260566587493253232e-01	3.066770226562560264e+00	8.116641011000008632e+01	9.825767911959995615e+01	3.751886796472938386e+03	8.500579027473579297e-01
3.310000000000000142e+01	4.658165807539848657e+00	3.071563586746226981e+00	1.042537012699999792e+02	2.238084808000002468e+01	3.738303002468506747e+03	4.710364291574006934e+00
3.320000000000000284e+01	5.661707608994214214e-01	3.064039884566506888e+00	8.844357708000012508e+01	1.562136076039996340e+02	3.763161161457999242e+03	5.826209673507229958e-01
3.329999999999999716e+01	8.714373230521273994e-01	3.057475206238619236e+00	8.654403164000009951e+01	9.931182582000018044e+01	3.784469209437097106e+03	8.967571114686184730e-01
3.339999999999999858e+01	7.197780543548334409e-01	3.050497005785234972e+00	5.630346402000001405e+01	7.822336854999991829e+01	3.809585713069420763e+03	7.406913519162322546e-01
3.350000000000000000e+01	3.636640247554486560e+00	3.052241479719072004e+00	2.626995171999999812e+01	7.223687230999993325e+00	3.831642299013969023e+03	3.742303568575070294e+00
3.360000000000000142e+01	3.502401686901280176e+00	3.053577266684004421e+00	8.701452226000003520e+01	2.484424404700004274e+01	3.806835067785448700e+03	3.604164679277264582e+00
3.370000000000000284e+01	6.066921524788456033e+00	3.062492486382538015e+00	6.549052239000013742e+01	-1.079468757299999737e+01	3.823360981768395504e+03	4.196087907532509931e+00
3.379999999999999716e+01	7.420242112001594892e-01	3.055647447222708202e+00	3.535604239299993168e+01	4.764809808000013192e+01	3.809069031673934205e+03	7.635838753670542989e-01
3.389999999999999858e+01	2.091969986192705466e+00	3.052813101749090485e+00	5.105172504999995908e+01	2.440366037130000976e+01	3.845272481587729544e+03	2.152752599035741454e+00
3.400000000000000000e+01	1.624089749625612589e+00	3.048623297197408988e+00	5.628165630000022190e+01	3.465427715000008391e+01	3.853357350689591840e+03	1.671278007165337698e+00
3.410000000000000142e+01	9.757235048315848758e+00	3.068239121031088423e+00	7.913822360000003187e+01	-8.110722270000016110e+00	3.889077038984233695e+03	2.374370682462380866e-01
3.420000000000000284e+01	1.251191457076326952e+00	3.062941605975826320e+00	5.829205889200008528e+01	4.658923985000008372e+01	3.872312567811465669e+03	1.287545078987697211e+00
3.430000000000000426e+01	1.425747218058915777e+01	3.095483846018307172e+00	9.468450948999995376e+01	6.641044659999984390e+00	3.883131821717150160e+03	5.842407073146420543e-05
3.439999999999999858e+01	1.211265995137684959e+00	3.090022345001262494e+00	5.792915270999998967e+01	4.782529431400009656e+01	3.894971000173547964e+03	1.246459574643278501e+00
3.450000000000000000e+01	1.368418636220488649e+00	3.085046611738889499e+00	4.978361618999997518e+01	3.638039914999996682e+01	3.941585710933825339e+03	1.408178317631578969e+00
3.460000000000000142e+01	1.566685041660643263e+00	3.080670929980739103e+00	1.047888540010000042e+02	6.688571807000001002e+01	3.919421270423357328e+03	1.612205393751135585e+00
3.470000000000000284e+01	8.539357858803675594e-01	3.074272265773554391e+00	5.806302433000001884e+01	6.799460250999995026e+01	3.945922020196847370e+03	8.787470635796446050e-01
3.480000000000000426e+01	1.419200138489131513e+00	3.069529938761278220e+00	9.151015903000008223e+01	6.448009448999985693e+01	3.920427768442234083e+03	1.460435286762727047e+00
3.489999999999999858e+01	2.190730894759013392e+00	3.067019084349842828e+00	1.006748450900001188e+02	4.595491181999998531e+01	3.986840245183288971e+03	2.254383025859497014e+00
3.500000000000000000e+01	1.376512650172377228e+01	3.097498022860880162e+00	8.290607483599995930e+01	-6.022906860000003526e+00	3.972266448315406251e+03	1.867704794951263053e-04
3.510000000000000142e+01	2.922654117807810259e+00	3.097001307221524780e+00	5.217970135699995637e+01	-1.785353286900000569e+01	3.998698244375565082e+03	3.007572426812866961e+00
3.520000000000000284e+01	4.990289272433423093e+02	4.501907612989572094e+00	9.287097406999988891e+01	-1.861033880000168006e-01	4.026832491132788164e+03	0.000000000000000000e+00
3.530000000000000426e+01	1.940458244334866578e+00	4.494671880309756062e+00	8.405139117500002044e+01	-4.331522794699992573e+01	4.036247991684265344e+03	1.996838652745094311e+00
3.539999999999999858e+01	1.426584442721780421e+00	4.486029380485565099e+00	6.232474886999995078e+01	4.368808953999986500e+01	4.066404821123545844e+03	1.468034143454661100e+00
3.550000000000000000e+01	1.148410629327707655e+00	4.476654046914896767e+00	4.565227660000007859e+01	3.975257232400002039e+01	4.084375279674447484e+03	1.181777933413313830e+00
3.560000000000000142e+01	9.364891247490622073e-01	4.466737618561491985e+00	5.196564206099998984e+01	5.548985106999986527e+01	4.110013725536297898e+03	9.636990064763482078e-01
3.570000000000000284e+01	1.557899865140648599e+00	4.458612373440203669e+00	4.741932623799999647e+01	3.043798083499990170e+01	4.154756552228901455e+03	1.603164962143019734e+00
3.580000000000000426e+01	8.646802984947998816e-01	4.448601420585203137e+00	6.379315825999997713e+01	7.377658351999981790e+01	4.167172574068734320e+03	8.898037601903773242e-01
3.589999999999999858e+01	1.580118932663329367e+00	4.440633413674308194e+00	9.532511054399986961e+01	-6.032780734000006362e+01	4.212548402765642095e+03	1.626029609185424940e+00
3.600000000000000000e+01	4.053020866424948965e-01	4.429455210552336375e+00	3.743710649600001972e+01	9.236840305000006879e+01	4.217862186377905346e+03	4.170782210896724074e-01
3.610000000000000142e+01	2.215199334668095155e+00	4.423338481613429352e+00	6.263441596000001965e+01	2.827484415499997539e+01	4.249162893058506597e+03	2.279562401259853655e+00
3.620000000000000284e+01	9.713994158210612628e-01	4.413829007602982912e+00	6.029801304300002585e+01	-6.207334703000001497e+01	4.255396317346983778e+03	9.996236231459764143e-01
3.630000000000000426e+01	2.152944761903946347e+00	4.407617787147764865e+00	8.943804692499983844e+01	4.154219304999991635e+01	4.305683914659216498e+03	2.215499009239689343e+00
3.639999999999999858e+01	5.692885588152491572e+00	4.411139068794353690e+00	6.789121357999988504e+01	1.192562410200001466e+01	4.332961172791444369e+03	4.571070920707416718e+00
3.650000000000000000e+01	1.809147343868684477e-01	4.399581078809633894e+00	1.465830115500002151e+01	8.102325774999995645e+01	4.296975404838977738e+03	1.861712487395675575e-01
3.660000000000000142e+01	4.555290542314855529e+00	4.400005355276951136e+00	1.353850905151999484e+02	-2.972040735000000922e+01	4.369865023020085573e+03	4.644725742234174781e+00
3.670000000000000284e+01	3.314267418306987567e-01	4.388949435131715759e+00	1.278237768000001218e+01	-3.856773176900003364e+01	4.365970989886597636e+03	3.410564131297536550e-01
3.680000000000000426e+01	1.126055642911092169e+00	4.380106904529491807e+00	4.623227612399993092e+01	-4.105683090799999491e+01	4.403714470438230819e+03	1.158773418325904414e+00
3.689999999999999858e+01	5.594949704355273168e-01	4.369780926329237758e+00	2.705484039199996360e+01	-4.835582413000010149e+01	4.396274998955079354e+03	5.757512104389992391e-01
3.700000000000000000e+01	1.299478410162957065e+00	4.361505178307226060e+00	4.582622571239998166e+01	3.526509201999999732e+01	4.435592750037927544e+03	1.337235019303688155e+00
3.710000000000000142e+01	6.427137358291878932e-01	4.351508427117768640e+00	2.653767621700005819e+01	-4.129004055400007189e+01	4.444781443601523279e+03	6.613879139635046034e-01
3.720000000000000284e+01	4.908806727358592248e+00	4.353002524437449949e+00	5.788623359000000335e+01	1.179232281999995102e+01	4.442976353420308442e+03	4.810870473282548687e+00
3.730000000000000426e+01	1.892508332875955657e-01	4.341869498525284143e+00	2.272427893000005739e+01	-1.200749213900001280e+02	4.462073615008888737e+03	1.947495546869771610e-01
3.739999999999999858e+01	1.213718322452755682e+00	4.333527762055757293e+00	2.792523328700004370e+01	-2.300800174999998049e+01	4.478937746947786763e+03	1.248983154826573960e+00
3.750000000000000000e+01	9.742499641921293918e-01	4.324593512593354561e+00	1.145247242199998361e+01	1.175516843000003497e+01	4.486173275818985530e+03	1.002556994778932786e+00
3.760000000000000142e+01	5.725191161087824554e+00	4.328308625719334835e+00	6.004973610000001116e+01	-1.048868665000002487e+01	4.481966017021052721e+03	4.544406958513301120e+00
3.770000000000000284e+01	9.421348678850469671e-01	4.319350494084853054e+00	3.686169158000004842e+01	3.912570570999996988e+01	4.539710073005615413e+03	9.695087878258402680e-01
3.780000000000000426e+01	9.451257584819779956e-01	4.310447526444740163e+00	6.474582724999999073e+01	6.850498641999988081e+01	4.507757781548642924e+03	9.725865793565365847e-01
3.789999999999999858e+01	7.398836363811085448e-01	4.301051305681414583e+00	4.016302379999998351e+01	-5.428289237000007006e+01	4.524090830133262898e+03	7.613811057118696768e-01
3.800000000000000000e+01	1.987169475011435482e+00	4.294978125023487081e+00	9.318645904999985419e+01	-4.689406727600000124e+01	4.530832806556182732e+03	2.044907087716359317e+00
3.810000000000000142e+01	4.765781987501458983e-01	4.284982313698164624e+00	4.578221064000002372e+01	-9.606442501999994477e+01	4.519079461469661510e+03	4.904252751113041264e-01
3.820000000000000284e+01	8.770170302962825293e-01	4.276084232018265041e+00	4.087541654250000533e+01	-4.660732360999998747e+01	4.565064918983582174e+03	9.024989382400313565e-01
3.830000000000000426e+01	1.207176879951656012e+00	4.268092285788923412e+00	3.770671104200003043e+01	3.123544831599994964e+01	4.583225159927203094e+03	1.242251649384990664e+00
3.839999999999999858e+01	8.741544365878832490e-02	4.257233384900273698e+00	2.362555889999990555e+00	2.702675627000001768e+01	4.547647404164949876e+03	8.995531712900210752e-02
3.850000000000000000e+01	3.484357259428642806e+01	4.336472605649979606e+00	6.951310676999992211e+01	-1.995005149999989458e+00	4.601991220953575976e+03	7.192398255732644317e-50
3.860000000000000142e+01	1.063831923962118120e+00	4.328016169779984601e+00	3.991792131000001831e+01	3.752277066599991429e+01	4.594706664811590599e+03	1.094741776584781334e+00
3.870000000000000284e+01	5.404095872328572581e-01	4.318254297144553000e+00	5.654340425999999553e+01	1.046306460800000337e+02	4.638251406030599355e+03	5.561112975509965306e-01
3.880000000000000426e+01	1.597450400567970519e+01	4.348218949351585039e+00	9.588148806799988222e+01	6.002157439999977306e+00	4.633065419219474279e+03	6.260873828974418856e-07
3.889999999999999858e+01	3.590487831855596057e-01	4.337990307899876719e+00	1.564149058499997835e+01	4.356369194800004863e+01	4.677852789155804203e+03	3.694810185064160146e-01
3.900000000000000000e+01	6.169689698466546135e-01	4.328473629285930713e+00	5.406901377999996328e+01	-8.763652051000006793e+01	4.688188101441053732e+03	6.348951285764010688e-01
3.910000000000000142e+01	7.798299512711547976e+00	4.337325225927322059e+00	4.900455944599993785e+01	6.284005810000051540e+00	4.637030363624759957e+03	1.713917315223629112e+00
3.920000000000000284e+01	2.528879491945159597e-01	4.326932255757518497e+00	1.041347612999999939e+01	-4.117822206700002852e+01	4.672747664121216985e+03	2.602356599217307553e-01
3.930000000000000426e+01	3.967459118404890184e-01	4.316957163514074658e+00	3.420320007000005802e+01	-8.620933209199996838e+01	4.726294711827838000e+03	4.082734448909733360e-01
3.939999999999999858e+01	1.514999080033715639e+00	4.309863598745769409e+00	9.242421027999984062e+01	6.100611643800007045e+01	4.726195963490658869e+03	1.559017686011345605e+00
3.950000000000000000e+01	3.078618360277154964e-01	4.299757533688400635e+00	7.181749070000003066e+00	-2.332783161000008221e+01	4.767786157794966130e+03	3.168068242024622005e-01
3.960000000000000142e+01	1.723836420402457215e+00	4.293269067408084005e+00	5.415894851000001609e+01	3.141768434000004717e+01	4.789795328573013649e+03	1.773922837720872447e+00
3.970000000000000284e+01	6.143320720155034387e-01	4.284025507118152554e+00	3.783608689000005398e+01	-6.158898194240006063e+01	4.798508307359077662e+03	6.321816151431928210e-01
