0.000000000000000000e+00	6.464086773823869425e-01	6.464086773823869425e-01	-4.718329214999993582e+01	7.299297457000004385e+01	3.689476981653759594e+03	6.621976774351433503e-01
1.000000000000000056e-01	2.921874039448204119e+00	1.784141358415295642e+00	4.500353083599998882e+01	1.540228299659998612e+01	2.898938809979315465e+03	1.991503956323392721e+00
2.000000000000000111e-01	4.179677570253270247e+00	2.582653429027953695e+00	2.626650256999993260e+01	6.284337040000024466e+00	2.919726331583665342e+03	1.324993084925822240e+00
2.999999999999999889e-01	2.248547773749743239e+00	2.499127015208401303e+00	-3.965906252999997861e+01	1.763763394000002904e+01	2.911463036662949889e+03	1.962456100545055815e+00
4.000000000000000222e-01	3.639705087033806574e-01	2.072095713907397219e+00	-2.072843761999999046e+01	5.695087135999999362e+01	2.926681417888196847e+03	3.728607519538126858e-01
5.000000000000000000e-01	1.240704510214817868e-01	1.747424836759744471e+00	-5.020369730000038722e+00	4.046386297999998760e+01	2.921479869538860385e+03	1.271009616353807048e-01
5.999999999999999778e-01	1.923228372418545007e+01	4.245261820677702858e+00	4.789587987100004796e+01	2.490389625999998024e+00	2.906403921218422056e+03	3.008710273914410504e-17
7.000000000000000666e-01	2.154169221419706681e-01	3.741531208360735938e+00	1.018611058000001357e+01	4.728556363500008786e+01	2.936552201987673925e+03	2.206786364630675401e-01
8.000000000000000444e-01	1.430771651695023072e-02	3.327395264822537335e+00	-7.943001219999707985e-01	5.551550598999988040e+01	2.911838564748285989e+03	1.465719285404976438e-02
9.000000000000000222e-01	3.554587760102403848e+01	6.549243498442687716e+00	3.603986250100000177e+01	1.013897107999992997e+00	2.922493578703587445e+03	1.622871481654986502e-63
1.000000000000000000e+00	1.601293551336402388e+00	6.099429866887570384e+00	-3.379953037799998583e+01	2.110764160000000089e+01	2.924609461117204773e+03	1.592895900514493590e+00
1.100000000000000089e+00	4.370335041552046995e+00	5.955338631442944397e+00	-2.060961903399996586e+01	-4.715798408600001324e+00	2.952958017101426776e+03	1.191794092109240699e+00
1.199999999999999956e+00	4.356029877209288137e-01	5.530743581925865904e+00	5.199598555000003230e+00	1.193655393000002007e+01	2.964215412426046896e+03	4.462429061452262702e-01
1.300000000000000044e+00	8.304721153695560076e-02	5.141622412612371740e+00	-2.542919721999986393e+00	3.062016983999998132e+01	2.967353331947897004e+03	8.507569981877766141e-02
1.400000000000000133e+00	6.671209048706376876e-01	4.843322312096256965e+00	4.622507408000004148e+01	-6.929039959999995801e+01	2.954024841360354458e+03	6.834158160789017833e-01
1.500000000000000000e+00	1.659422662839540985e+00	4.644328584017711314e+00	-1.188466628000002601e+01	7.161928390000071865e+00	2.949840919300581845e+03	1.638436884121184045e+00
1.600000000000000089e+00	8.427431335132358203e-01	4.420705910458624821e+00	-1.717868483999999896e+01	2.038424777000001242e+01	2.967599911201047234e+03	8.633277448358794848e-01
1.699999999999999956e+00	2.919566003353808004e+00	4.337309248952801788e+00	2.460765023600000845e+01	-8.428530202000001026e+00	2.946901830162710212e+03	1.992003648923928116e+00
1.800000000000000044e+00	5.097473363845358291e-03	4.109298102869172631e+00	-2.543259170000425895e-01	4.989254457000004095e+01	2.969096710246591101e+03	5.221982842178162290e-03
1.900000000000000133e+00	5.061345563634310762e-01	3.929139925543885248e+00	2.837675018600002730e+01	5.606562489999998178e+01	2.966552784016234000e+03	5.184972594284407155e-01
2.000000000000000000e+00	1.433533623969715509e-01	3.748864374917841413e+00	-6.131036850000004534e+00	4.276869930000000863e+01	2.966953114342014032e+03	1.468548720852606848e-01
2.100000000000000089e+00	8.352004050235549426e-02	3.582257814262591822e+00	-2.599975689999984407e+00	3.112996203499994508e+01	2.951983889673789690e+03	8.556007797406446624e-02
2.200000000000000178e+00	1.064427465542185036e+00	3.472786929535617517e+00	2.574015807000003164e+01	2.418216262100003533e+01	2.980795197131042187e+03	1.090426877211065015e+00
2.300000000000000266e+00	3.797228501252836175e-01	3.343909259560188030e+00	-1.628699599999998426e+01	4.289179857000005569e+01	2.981266836144757690e+03	3.889978557222680267e-01
2.399999999999999911e+00	6.121229676688204613e-01	3.234637807884533256e+00	9.895053419999987554e+00	1.616513991899998715e+01	2.977700511502598147e+03	6.270745144332509069e-01
2.500000000000000000e+00	5.211746060586115448e-01	3.130273838583536250e+00	8.470739669999991506e+00	1.625317037999999670e+01	3.003226721054368682e+03	5.339046732289303154e-01
2.600000000000000089e+00	1.777539684261644215e+00	3.080172573608651376e+00	6.985142357099999799e+01	3.929668867000003729e+01	3.015483023963291089e+03	1.724132636943811692e+00
2.700000000000000178e+00	1.021057662631371876e+00	3.006632755359462728e+00	-1.060225453000001750e+01	1.038360018049999667e+01	3.022063798977026181e+03	1.045997735457184774e+00
2.800000000000000266e+00	1.027945787108368453e-01	2.906500404440544916e+00	-1.168477309000001085e+01	1.136711024699999513e+02	3.098079543437304437e+03	1.053054107362682845e-01
2.899999999999999911e+00	3.630869637436631603e+00	2.930646045540414413e+00	6.262421643999995524e+01	1.724771823099994705e+01	3.113057345687121142e+03	1.687561146149258118e+00
3.000000000000000000e+00	5.325697707145810034e-01	2.853288746352484750e+00	3.710153085000001028e+01	6.966510848000000067e+01	3.160481497267452141e+03	5.455781730336215496e-01
3.100000000000000089e+00	5.961788719398447567e-01	2.782754062777088588e+00	-2.335222473200003535e+01	3.916982944400000122e+01	3.225386456110724339e+03	6.107409726199105604e-01
3.200000000000000178e+00	5.456550710161940376e-01	2.714963184238879723e+00	2.804150186000001455e+01	5.139052736699994028e+01	3.308614990309037694e+03	5.589830912710412880e-01
3.300000000000000266e+00	3.666559449431175399e-02	2.636189725716980625e+00	-4.709843038000009585e+00	1.284540208049998284e+02	3.352954519264898408e+03	3.756117819184088408e-02
3.399999999999999911e+00	6.454236829666666619e-02	2.562714086933543189e+00	-4.948916730000012087e+00	7.667702411000003337e+01	3.412034747907899146e+03	6.611886238175189445e-02
3.500000000000000000e+00	2.709899304294061673e-01	2.499055082586206122e+00	2.462255555999999856e+01	9.086151474700001529e+01	3.447272847135937809e+03	2.776090557220502464e-01
3.600000000000000089e+00	3.756295717857567884e-01	2.441665203915923676e+00	-3.619355803000002680e+01	9.635438939999990282e+01	3.482194295148948640e+03	3.848045960950820521e-01
3.700000000000000178e+00	9.359262135822410400e-01	2.402040493643984309e+00	5.171771928499992299e+01	5.525832969999981970e+01	3.554773035449255531e+03	9.587868891156613449e-01
3.800000000000000266e+00	1.525140086333202083e+00	2.379555867815502435e+00	6.011288401000003745e+01	3.941466397000005628e+01	3.583030560071888885e+03	1.530102682157877592e+00
3.899999999999999911e+00	1.052481082372669352e-01	2.322698173826047263e+00	-5.897007389999997962e+00	5.602958085200003069e+01	3.628990198124354265e+03	1.078188694981460083e-01
4.000000000000000000e+00	5.009372797900500940e-01	2.278264981288584234e+00	1.741318885999999466e+01	3.476121574999989861e+01	3.626085259008825687e+03	5.131730356110598690e-01
4.099999999999999645e+00	1.096990586352086350e+00	2.250139400456762750e+00	4.940515232999996442e+01	4.503698841599999980e+01	3.639282755895208084e+03	1.123785375827878630e+00
4.200000000000000178e+00	5.116982268300133141e-01	2.209710535953814947e+00	5.579026325000000952e+01	1.090296200470000798e+02	3.669130390558576437e+03	5.241968265751945077e-01
4.299999999999999822e+00	4.365268079903412979e-02	2.160481948336660629e+00	2.853601639999999051e+00	6.537059323200004712e+01	3.661541698172601173e+03	4.471892913937190739e-02
4.400000000000000355e+00	1.049882796242865401e+00	2.135801967179020711e+00	4.401939066700003167e+01	4.192790930999996135e+01	3.688730466815341515e+03	1.075526943831343285e+00
4.500000000000000000e+00	4.776141758593126063e+00	2.193200658296718952e+00	4.659626881999999881e+01	9.756048119000038099e+00	3.673804068508471119e+03	9.171824019040801801e-01
4.600000000000000533e+00	3.484034721008746338e-01	2.153949654335105102e+00	1.976399229999999463e+01	5.672731153000004412e+01	3.690858109636594691e+03	3.569134792091596675e-01
4.700000000000000178e+00	3.468524491155397516e-01	2.116301795893031024e+00	2.874733442899996660e+01	8.288058655000000385e+01	3.699570283874495999e+03	3.553245713642086412e-01
4.799999999999999822e+00	2.692859734974336616e-01	2.078607595435977728e+00	2.940558480000003172e+01	1.091983530300001632e+02	3.730348495792391986e+03	2.758634784080652991e-01
4.900000000000000355e+00	3.430734137936425898e-01	2.043896911803131378e+00	1.561559427599998884e+01	4.551677176999996988e+01	3.745339831998488535e+03	3.514532303679223091e-01
5.000000000000000000e+00	3.490950903692228158e-01	2.010665503539720955e+00	3.617321014000005164e+01	1.036199337599999097e+02	3.746095097553941287e+03	3.576219907545591936e-01
5.100000000000000533e+00	1.688136230240464997e+00	2.004463017514735323e+00	6.964515350000002059e+01	4.125564765000007128e+01	3.761240887337486583e+03	1.660131682427045785e+00
5.200000000000000178e+00	4.778993023123505046e-01	1.975659928548652688e+00	4.363035256700002407e+01	9.129612107799988507e+01	3.761010756458443666e+03	4.895723388501294626e-01
5.299999999999999822e+00	3.438188860327370810e-01	1.945440649983543047e+00	5.969056641000002550e+00	1.736104933000001793e+01	3.773761146477783313e+03	3.522169113063028933e-01
5.400000000000000355e+00	2.467120440207808851e+00	1.954925737078529790e+00	6.030473832200004125e+01	-2.444337022999999576e+01	3.775101815309144513e+03	2.011997414322854283e+00
5.500000000000000000e+00	4.288497996599589968e+00	1.996596670284263242e+00	1.075909735044999422e+02	2.508826484000000434e+01	3.787620236791799925e+03	1.248936820713023144e+00
5.600000000000000533e+00	2.397110510209590650e+00	2.003623228879444440e+00	1.067393861500000298e+02	4.452835432300003049e+01	3.793595493924952279e+03	2.000443015329993468e+00
5.700000000000000178e+00	2.629438960729833519e-01	1.973611516244849984e+00	2.983452049000001338e+01	1.134634457599999564e+02	3.818761066340311572e+03	2.693664911498009906e-01
5.799999999999999822e+00	2.876006666920230548e-01	1.945035061167683654e+00	3.359502918599998367e+01	1.168113745089999895e+02	3.849077816018674639e+03	2.946255212468249507e-01
5.900000000000000355e+00	1.444171618112371380e+00	1.936687337116761887e+00	1.012237981449999467e+02	7.009125292000004492e+01	3.839574467159923643e+03	1.459711407790461379e+00
6.000000000000000000e+00	2.513951759960413312e+00	1.946150688310920085e+00	9.693564163000000633e+01	3.855906989700010712e+01	3.862560222891287140e+03	2.017469643079015551e+00
6.100000000000000533e+00	2.645214290301881732e+01	2.341408627257821617e+00	8.997941910799988818e+01	-3.401592809999945288e+00	3.851066901111959396e+03	3.856946896387041999e-34
6.200000000000000178e+00	3.219026781143131122e-01	2.309352977271417195e+00	2.491681064200000506e+01	7.740479448000002094e+01	3.840210318397979790e+03	3.297653841384816653e-01
6.299999999999999822e+00	7.440526763400348020e-01	2.284895160069363662e+00	6.626859813300012547e+01	8.906439052000013135e+01	3.911718683273934857e+03	7.622267017778722176e-01
6.400000000000000355e+00	2.087413370433563120e+00	2.281856978690351312e+00	9.961494943700006388e+01	4.772171666999990691e+01	3.896626476386075865e+03	1.900656544923770008e+00
6.500000000000000000e+00	1.577039131646776449e+00	2.271177920401812322e+00	1.257633821479998204e+02	7.974651968000003421e+01	3.910552663318649593e+03	1.573272274211860333e+00
6.600000000000000533e+00	4.174762664812584845e+00	2.299589633004958333e+00	7.713500078999999232e+01	1.847649962000001977e+01	3.904488915834685940e+03	1.328421711031251284e+00
6.700000000000000178e+00	1.467163574449630969e+00	2.287348073320321085e+00	1.134974220200000730e+02	7.735839683899986596e+01	3.942390079400265677e+03	1.480061667583413065e+00
6.799999999999999822e+00	5.526546204021607345e+00	2.334292973765267121e+00	1.189831614799999073e+02	2.152938871540007426e+01	3.929794999157426446e+03	4.978387878956433976e-01
6.900000000000000355e+00	1.431211605417641408e+01	2.505404732056855099e+00	1.342487221399998703e+02	-9.380075009999991664e+00	3.895296854698126481e+03	5.168784814469270637e-09
7.000000000000000000e+00	4.725766591929539295e+00	2.536677434308582946e+00	1.148958997269999998e+02	2.431264800999995757e+01	3.976931616982715241e+03	9.500132392591296160e-01
7.100000000000000533e+00	9.252194676315684818e-01	2.514296073660291064e+00	7.395180012000010095e+01	7.992892790000009029e+01	3.974864056828829689e+03	9.478186231416738661e-01
7.200000000000000178e+00	2.873366766147801954e+00	2.519214850269708705e+00	1.437446836911003061e+02	-5.002657001000000037e+01	4.004944217758762989e+03	2.001205760299129999e+00
7.299999999999999822e+00	2.077402554588391403e+00	2.513244413841583036e+00	8.640603804000004118e+01	-4.159330498999997872e+01	4.031349301397225190e+03	1.896119962954476046e+00
7.400000000000000355e+00	3.172217451936782950e+00	2.522030721016185417e+00	1.490468031399999802e+02	-4.698505238000003459e+01	4.039264051002654014e+03	1.916047785059120212e+00
7.500000000000000000e+00	1.515930455819585809e+01	2.688310639926444257e+00	1.411189872630000934e+02	-9.309067359999987801e+00	4.046178391739176732e+03	3.059342048013615339e-10
7.600000000000000533e+00	2.065341333961404047e+01	2.921623662000309096e+00	1.330117901899998287e+02	6.440184389999986436e+00	4.076068370039742149e+03	4.022288476427944876e-20
7.700000000000000178e+00	1.087484638689594263e+01	3.023588055909227634e+00	8.985389458999999590e+01	-8.262543800000047511e+00	4.070816363050117161e+03	7.539074590753947814e-05
7.799999999999999822e+00	1.821531869666346060e+00	3.008372154817545496e+00	1.079170853050001000e+02	-5.924523589300005000e+01	4.105078271919726831e+03	1.753578515408664718e+00
7.900000000000000355e+00	9.225356341978361296e-01	2.982299198309799060e+00	6.011953413899996690e+01	-6.516770941999996580e+01	4.121577045484390510e+03	9.450692351327796281e-01
8.000000000000000000e+00	1.133306703298040174e+00	2.959472130470147899e+00	8.682562809000009452e+01	-7.661264848899993751e+01	4.178337266367857410e+03	1.160947056975169422e+00
8.099999999999999645e+00	1.557673887457526263e+01	3.113341237105576198e+00	1.484890983150000352e+02	9.532746200000026704e+00	4.190552126999229586e+03	7.104086091903802425e-11
8.199999999999999289e+00	1.263558453515110536e+01	3.228067059973594777e+00	9.589829345900014346e+01	-7.589541520000073760e+00	4.236992004843272298e+03	8.103466294588380132e-07
8.300000000000000711e+00	4.389080695585314551e+00	3.241888650873734345e+00	1.006384499500000658e+02	2.292927766200006801e+01	4.215401972685152941e+03	1.178740766406793261e+00
8.400000000000000355e+00	1.951573125845373458e+00	3.226708468226341608e+00	1.499544075300001964e+02	-7.683770879200011450e+01	4.236498839077520643e+03	1.832312069943367261e+00
8.500000000000000000e+00	5.247106067461874801e+00	3.250201463566289473e+00	9.862970195349996061e+01	-1.879697126100007054e+01	4.273346964402961021e+03	6.369697014757274012e-01
8.599999999999999645e+00	8.702496468416626385e+00	3.312871521093305294e+00	1.297391698100000212e+02	1.490827031999995533e+01	4.294794566822509296e+03	6.698536251271003730e-03
8.700000000000001066e+00	3.058344846903422454e+00	3.309979172522965474e+00	1.217242903770001021e+02	-3.980070805300000103e+01	4.369440000993869035e+03	1.955433873129647004e+00
8.800000000000000711e+00	4.421054203434048091e+00	3.322463161634325868e+00	1.348347464800000637e+02	-3.049832467000005565e+01	4.382847779168828311e+03	1.156522361370126539e+00
8.900000000000000355e+00	1.122966701050179594e+00	3.298024312072279862e+00	9.345436093300014591e+01	-8.322095467799996982e+01	4.420101313555792331e+03	1.150389774185739844e+00
9.000000000000000000e+00	3.042443678899892312e+00	3.295215733685770143e+00	1.256998759030001196e+02	-4.131543231999993537e+01	4.505368264578329217e+03	1.960280268155820016e+00
9.099999999999999645e+00	1.532614373312850375e+01	3.425986690201451967e+00	1.530691413400001295e+02	-9.987453074000001152e+00	4.549149535782035855e+03	1.715902866092482698e-10
9.200000000000001066e+00	1.985116389061265751e+00	3.410493461156933748e+00	1.349743402700000559e+02	-6.799316202000002818e+01	4.648723393589554689e+03	1.850537445366873701e+00
9.300000000000000711e+00	1.188440856590978356e+01	3.500641494186219393e+00	8.188357739600000684e+01	6.890000199999990471e+00	4.669223623731732914e+03	6.178760739440548633e-06
9.400000000000000355e+00	1.656124476078565166e+00	3.481225525574559665e+00	7.189905034100016223e+01	-4.341403764000003207e+01	4.792377089768707265e+03	1.635910495809744125e+00
9.500000000000000000e+00	6.088979591843658667e+00	3.508389630431529849e+00	4.341447965600012537e+01	7.130009059999957266e+00	4.827069369110551634e+03	2.835954935857309955e-01
9.599999999999999645e+00	9.555208917959528980e-01	3.482071396012606623e+00	7.591268640599999173e+01	-7.944639102899991201e+01	4.909059885691246564e+03	9.788601815345582269e-01
9.700000000000001066e+00	3.028949430442107182e-01	3.449630819961908568e+00	1.756474113999999886e+01	-5.798954899500002824e+01	4.955958106971803318e+03	3.102933713745216759e-01
9.800000000000000711e+00	2.584836846353937845e-01	3.417397010514166222e+00	2.783256366700003426e+01	-1.076762879879999986e+02	4.980520937135569511e+03	2.647973358179113168e-01
9.900000000000000355e+00	8.699018251257913947e-01	3.391922058660282513e+00	8.765521667999989575e+01	-1.007644933580000099e+02	4.989413636599452730e+03	8.911498071584940117e-01
1.000000000000000000e+01	3.554273555821008568e+00	3.393529499226230151e+00	1.060587500999999122e+02	-2.983978257000007162e+01	5.060419321323234726e+03	1.732177272820064617e+00
1.009999999999999964e+01	1.469390909960889280e+00	3.374665395409903290e+00	9.419485646999979167e+01	-6.410469523900006550e+01	5.037761974078560343e+03	1.482018172699339331e+00
1.020000000000000107e+01	8.656557234532537004e-01	3.350306078206440663e+00	7.404781626600004074e+01	-8.553956759000011800e+01	5.063672627997490054e+03	8.867999913777188103e-01
1.030000000000000071e+01	3.330144664793598941e-01	3.321293658862911169e+00	2.525162030299999927e+01	-7.582739744000005544e+01	5.069538223777317398e+03	3.411485859811327348e-01
1.040000000000000036e+01	1.890349530531045730e+01	3.469695579305268840e+00	3.427988312999998044e+01	1.813415063000011207e+00	5.097607037629238221e+03	1.293359953605997372e-16
1.050000000000000000e+01	1.863497422387282665e+00	3.454542766504155704e+00	2.548483075999999770e+01	-1.367580682100004275e+01	5.137140245599542141e+03	1.780363992104246229e+00
1.059999999999999964e+01	1.381526984235353472e+00	3.435168787230615361e+00	1.217866912730000877e+02	-8.815368260099999986e+01	5.121399704999354981e+03	1.402890866887233745e+00
1.070000000000000107e+01	8.749472105522635434e-01	3.411463031891000863e+00	7.218176194299989845e+01	-8.249841941600000439e+01	5.137003111877872470e+03	8.963184297777082588e-01
1.080000000000000071e+01	3.854690088368660228e-01	3.383701618835458724e+00	4.768343774499998489e+01	-1.237023902100001180e+02	5.163933279751593545e+03	3.948843685215580601e-01
1.090000000000000036e+01	3.768515989182514847e-01	3.356366618654393452e+00	6.350110758299998537e+01	-1.685042806379997842e+02	5.195794929486749425e+03	3.860564721252393583e-01
1.100000000000000000e+01	4.974798250100261887e-01	3.330610881774714205e+00	7.360494026000002066e+01	-1.479556286700000101e+02	5.192703472477603100e+03	5.096311299942599682e-01
1.109999999999999964e+01	1.550728673433522609e+00	3.314719076343095594e+00	8.428609770599987883e+01	-5.435257576000002899e+01	5.211235225072776302e+03	1.551584849215257966e+00
1.120000000000000107e+01	1.590978758104763413e+00	3.299464737243641199e+00	7.637148690000016416e+01	-4.800283254000002131e+01	5.240396517185816265e+03	1.584594284368285866e+00
1.130000000000000071e+01	4.850702786494538898e+00	3.313072088552859729e+00	3.232498570999997156e+01	-6.663979866999910406e+00	5.260979101959575928e+03	8.694696704928366326e-01
1.140000000000000036e+01	3.015281452199799483e-01	3.286884749915182535e+00	4.142369955000003756e+01	-1.373792138699999725e+02	5.227713681295896095e+03	3.088931885236445019e-01
1.150000000000000000e+01	9.020517182976792725e-01	3.266325844470204132e+00	9.172248210999995877e+01	-1.016820657279999978e+02	5.270135530391756220e+03	9.240849847529899463e-01
1.159999999999999964e+01	1.799797839903376051e+00	3.253791417080744264e+00	1.046374009099998830e+02	-5.813841898800003349e+01	5.317567753603244455e+03	1.739203718779660734e+00
1.170000000000000107e+01	8.466118356242443577e-01	3.233391590119248260e+00	1.754799058999999204e+02	-2.072731546100000060e+02	5.275135893682596361e+03	8.672909427975349361e-01
1.180000000000000071e+01	2.455465843280141836e-01	3.208283648894111550e+00	3.019510108999999787e+01	-1.229709676989999423e+02	5.305259481186910307e+03	2.515442374669056846e-01
1.190000000000000036e+01	5.345545032551580755e-01	3.186002572680453504e+00	7.293313272000007430e+01	-1.364372244099999989e+02	5.338543916973486375e+03	5.476113841037796304e-01
1.200000000000000000e+01	5.809888182334551621e-01	3.164473533387503146e+00	1.144128530400001296e+02	-1.969278055778800081e+02	5.299592032213649873e+03	5.951798908516100495e-01
1.209999999999999964e+01	1.847692344335743198e-01	3.140049727658372536e+00	3.369705543000002734e+01	-1.823737351800000397e+02	5.389205210677570903e+03	1.892823567883562541e-01
1.220000000000000107e+01	4.969921714046462990e-01	3.118561454843301828e+00	1.001647211827999513e+02	-2.015418490389998283e+02	5.431141961584789897e+03	5.091315650964260975e-01
1.230000000000000071e+01	9.376494160588337845e-01	3.100973454530523643e+00	1.006244551499999744e+02	-1.073156484999999094e+02	5.432870147297579024e+03	9.605521820606308658e-01
1.240000000000000036e+01	1.177183429311452034e+00	3.085583134328771404e+00	1.177513022389998980e+02	-1.000279984469998595e+02	5.428273319700491811e+03	1.205380171144308399e+00
1.250000000000000000e+01	5.713933441397348600e-01	3.065629247105048805e+00	5.546758843999993616e+01	-9.707426418049993799e+01	5.473966649389887607e+03	5.853500403544270592e-01
1.259999999999999964e+01	6.356160437818696440e-01	3.046495284874157328e+00	6.781756967000013958e+01	-1.066958116200001712e+02	5.514574136683001598e+03	6.511414259432667384e-01
1.270000000000000107e+01	2.915144976826983814e-01	3.024971997474224850e+00	5.518970197999995975e+01	-1.893206081300000960e+02	5.532853836205275002e+03	2.986349503937139049e-01
1.280000000000000071e+01	1.366364895115500300e+00	3.012114578076095395e+00	9.545538096900004632e+01	-6.986082656999988671e+01	5.528681523568508965e+03	1.388849494291394482e+00
1.290000000000000036e+01	1.111189299140886932e+00	2.997492075930439981e+00	1.214071750189998227e+02	-1.092587690620000132e+02	5.555219604705390338e+03	1.138330902458781768e+00
1.300000000000000000e+01	2.701907513466797806e+00	2.995235705224610356e+00	1.237474376600000028e+02	-4.580002721900002172e+01	5.628128605864395468e+03	2.021542322409154213e+00
1.309999999999999964e+01	1.432833291396303110e+00	2.983399323301668904e+00	4.471811891999998778e+01	-3.120957559300004647e+01	5.611062606987507024e+03	1.449573973014215866e+00
1.320000000000000107e+01	1.926232888398873577e-01	2.962416044847068886e+00	2.779098317999996581e+01	-1.442763403500001118e+02	5.658798134326984837e+03	1.973282521611887941e-01
1.330000000000000071e+01	1.227314623310161279e+00	2.949467526775897408e+00	1.935557287699998597e+02	-1.577066915800002960e+02	5.726388090891035063e+03	1.255360730539898828e+00
1.340000000000000036e+01	4.187101871864447045e-01	2.930721176112272008e+00	9.845054173399996955e+01	-2.351281261999999401e+02	5.708350824542007103e+03	4.289374867244823974e-01
1.350000000000000000e+01	7.025647012196167829e-01	2.914337672620414654e+00	9.160033972000005065e+01	-1.303799344899999824e+02	5.791333141943691771e+03	7.197253528209246465e-01
1.359999999999999964e+01	6.587290798163097927e-01	2.897873376322574579e+00	1.072249291880000044e+02	-1.627754603119999786e+02	5.779574600964913770e+03	6.748190146205409468e-01
1.370000000000000107e+01	4.053749722759507623e-01	2.879811793684555532e+00	6.256481771360007116e+01	-1.543381362750000960e+02	5.837863707247166531e+03	4.152765495328799572e-01
1.380000000000000071e+01	5.924407321671574245e-01	2.863355886767163572e+00	6.684017073600003300e+01	-1.128217003100000397e+02	5.859065323247700690e+03	6.069115260762386610e-01
1.390000000000000036e+01	3.232667585439442659e-01	2.845212392994140860e+00	6.846489701000001560e+01	-2.117907121610001013e+02	5.924933555137616167e+03	3.311627832204283028e-01
1.400000000000000000e+01	2.349066342792467399e-01	2.826699586194744374e+00	6.282616940279991269e+01	-2.674516605100003517e+02	5.882449270226159570e+03	2.406443989330987188e-01
1.409999999999999964e+01	2.204802238981386220e-01	2.808345928713782857e+00	3.403244037999995442e+01	-1.543559770500000354e+02	5.979797698172476885e+03	2.258656130313048405e-01
1.420000000000000107e+01	8.185676173156515301e-01	2.794431395067641599e+00	8.530302492999997810e+01	-1.042101142599999690e+02	5.998126762989630151e+03	8.385617241480634032e-01
1.430000000000000071e+01	8.530488440709108611e-01	2.780949571796830888e+00	1.049446879219998294e+02	-1.230230703099999232e+02	6.065220336473756106e+03	8.738851798369789980e-01
1.440000000000000036e+01	5.834612476941410941e-01	2.765794479906467540e+00	1.193188528160000175e+02	-2.045017613209998615e+02	6.012566671281719209e+03	5.977127111923244973e-01
1.450000000000000000e+01	7.091962073628819141e-01	2.751708190368497675e+00	1.172304539600002187e+02	-1.653004524599998035e+02	6.054895231850194250e+03	7.265188383040555031e-01
1.459999999999999964e+01	6.131464191002500286e-01	2.737160151108169792e+00	8.701339222700013920e+01	-1.419129094069998303e+02	6.083765562179773951e+03	6.281229644070427387e-01
1.470000000000000107e+01	2.563969179855911107e-01	2.720398237370854844e+00	-5.014922140899992087e+01	-1.955921381700001120e+02	6.122266102063676044e+03	2.626595983815201429e-01
1.480000000000000071e+01	4.881576702706577064e-01	2.705416757054746046e+00	8.139973719800015317e+01	-1.667488644659998727e+02	6.133523944305187797e+03	5.000812748745876446e-01
1.490000000000000036e+01	4.579152181749291950e-01	2.690433413462214318e+00	5.843303389899985234e+01	-1.276066651199998319e+02	6.202255618221664918e+03	4.691001289858417467e-01
1.500000000000000000e+01	3.481188542850884859e-01	2.674921396514021055e+00	6.440250125000001447e+01	-1.850014742300002695e+02	6.159076320477039189e+03	3.566219093971121357e-01
1.509999999999999964e+01	1.735265783628417435e-01	2.658464851657763361e+00	2.038051890800000976e+01	-1.174489758300000517e+02	6.201157290873082275e+03	1.777650907015379533e-01
1.520000000000000107e+01	1.694775360408928566e-01	2.642196960706018949e+00	3.950951946999999365e+01	-2.331254064282998968e+02	6.211222445188519487e+03	1.736171475886935378e-01
1.530000000000000071e+01	7.109666893683009858e-01	2.629656504398631522e+00	1.083152321599999226e+02	-1.523492362999999159e+02	6.246437623638711557e+03	7.283325656145811511e-01
1.540000000000000036e+01	2.470657302429015434e-01	2.614284951016981218e+00	4.954364614999997229e+01	-2.005281999299998574e+02	6.251476091390473812e+03	2.531004896208791655e-01
1.550000000000000000e+01	3.367626203030229526e-01	2.599685448897020024e+00	7.626655402000002937e+01	-2.264697725400000934e+02	6.324764230743237022e+03	3.449882911762272575e-01
1.559999999999999964e+01	4.204042477858615512e-01	2.585804676915420597e+00	6.720515241000002504e+01	-1.598584047709999822e+02	6.344360427453140801e+03	4.306729259808224075e-01
1.570000000000000107e+01	2.235366807176063786e-01	2.570853613648345970e+00	-4.725670180999998848e+01	-2.114046860599998183e+02	6.373797029241208293e+03	2.289967260219726020e-01
1.580000000000000071e+01	2.405168405870805326e-01	2.556197407528463472e+00	4.370993894000007174e+01	-1.817333823000000450e+02	6.316958912080132905e+03	2.463916385927263919e-01
1.590000000000000036e+01	2.405345424326592041e-01	2.541724514621614528e+00	6.291169110999994984e+01	-2.615495075000003453e+02	6.398824511348454507e+03	2.464097728187024106e-01
1.600000000000000000e+01	2.603875146203032398e-01	2.527554719590550558e+00	4.234100443000008340e+01	-1.626076599400001328e+02	6.404671959805034021e+03	2.667476682288926204e-01
1.610000000000000142e+01	1.148300242839656593e-01	2.512661357273843432e+00	2.067864739000001251e+01	-1.800804930500000296e+02	6.413360232366311720e+03	1.176348307831906609e-01
1.619999999999999929e+01	4.238557395810140793e-01	2.499846598883090021e+00	7.879462811999998451e+01	-1.858996369800001105e+02	6.448144316333618917e+03	4.342087229625272160e-01
1.630000000000000071e+01	5.072886926034503308e-01	2.487696855552116837e+00	6.996439352999995265e+01	-1.379182988899999032e+02	6.491427358475568326e+03	5.196795862819095779e-01
1.639999999999999858e+01	1.452843359693628544e-01	2.473500416039493555e+00	3.477569319000002679e+01	-2.393629909100002635e+02	6.494716674067774875e+03	1.488330110855045629e-01
1.650000000000000000e+01	3.628300384965764125e-01	2.460785534247066586e+00	5.912128625999997666e+01	-1.629448501699999952e+02	6.480175942071356076e+03	3.716924249363166011e-01
1.660000000000000142e+01	4.566750686772692580e-01	2.448784872776589072e+00	9.851332289199990555e+01	-2.157186359600001424e+02	6.534525642668336332e+03	4.678296879386263929e-01
1.669999999999999929e+01	8.576852395486535274e-02	2.434719299271697501e+00	-1.723045754699993282e+01	-2.008948825570001873e+02	6.592772023490400898e+03	8.786348226317891585e-02
1.680000000000000071e+01	3.173875626272705808e-01	2.422190709114038221e+00	7.417165830999999798e+01	-2.336942812000000629e+02	6.561877456426464960e+03	3.251399836859714676e-01
1.689999999999999858e+01	7.351822577285397342e-01	2.412267129988241443e+00	1.583690583700001184e+02	-2.154146903100001680e+02	6.609796727352329981e+03	7.531396167681289056e-01
1.700000000000000000e+01	5.044184873758041782e-02	2.398455286238237338e+00	7.566339740999991292e+00	-1.500012376700000232e+02	6.576680339001301036e+03	5.167392742130708788e-02
1.710000000000000142e+01	9.938242996696999842e-02	2.385088583585497357e+00	-2.456776644999998283e+01	-2.472043243274001441e+02	6.621609241506071157e+03	1.018099177883677181e-01
1.719999999999999929e+01	3.535801550872855192e-01	2.373345760299380824e+00	7.470243070599995860e+01	-2.112743875219998131e+02	6.632499869277421567e+03	3.622166064262954954e-01
1.730000000000000071e+01	2.792910581827623417e-01	2.361310963160779153e+00	4.025365673499999986e+01	-1.441279824599999699e+02	6.670430934027953299e+03	2.861129445321831111e-01
1.740000000000000213e+01	2.365294118395518397e-01	2.349169354296086532e+00	6.212408387000004240e+01	-2.626484519910001723e+02	6.698685089967928434e+03	2.423068140104758517e-01
1.750000000000000000e+01	2.758096713443929787e-02	2.335978511187213780e+00	-7.526893062999983286e+00	-2.729017088600000420e+02	6.663415335810909710e+03	2.825465222991818681e-02
1.760000000000000142e+01	6.179416588993575932e-01	2.326272088292931972e+00	9.589861645000003421e+01	-1.551904052250000063e+02	6.723682394693085371e+03	6.330353314107968199e-01
1.769999999999999929e+01	4.942347350860428618e-02	2.313480803940211050e+00	-1.142201182000000514e+01	-2.311049994899996705e+02	6.740636673962593704e+03	5.063067763988970266e-02
1.780000000000000071e+01	3.829227218038633862e-01	2.302695563257885158e+00	7.137810197000005985e+01	-1.864034122439999521e+02	6.796041970120971200e+03	3.922758865838378850e-01
1.790000000000000213e+01	2.755564018156085870e-01	2.291433679027650161e+00	6.580771298000000513e+01	-2.388175798000001180e+02	6.825239813438259262e+03	2.822870664787475170e-01
1.800000000000000000e+01	9.836202758942147462e-02	2.279317261063903199e+00	-1.744554934000000301e+01	-1.773606112799998584e+02	6.879187460785365147e+03	1.007645913438060675e-01
1.810000000000000142e+01	2.800348076231470307e-01	2.268332192638404354e+00	8.736029031999991901e+01	-3.119622559120001029e+02	6.828833176421636381e+03	2.868748605912478378e-01
1.819999999999999929e+01	6.290402025654934226e-01	2.259374312911230032e+00	1.165073115300000950e+02	-1.852144124569999519e+02	6.878084764278299190e+03	6.444049650431746823e-01
1.830000000000000071e+01	1.521296760936251546e-01	2.247921896406786413e+00	5.475624090999995985e+01	-3.599313580100001673e+02	6.906708609520977916e+03	1.558455535994698882e-01
1.840000000000000213e+01	3.109954472307208673e-01	2.237452023708537574e+00	8.898304772999983925e+01	-2.861233131299997012e+02	6.857710019716083480e+03	3.185917362419034005e-01
1.850000000000000000e+01	2.315267038578206205e-01	2.226667478978157089e+00	5.678369014199999754e+01	-2.452576277199997321e+02	6.967993695896683676e+03	2.371819112634959148e-01
1.860000000000000142e+01	3.373437421463592045e-01	2.216564143487078198e+00	6.695380146000009347e+01	-1.984735244650000539e+02	6.930453046443323728e+03	3.455836073414161325e-01
1.869999999999999929e+01	1.989023300826452401e-01	2.205831899798756712e+00	4.961323825000000909e+01	-2.494351787099999171e+02	6.985512105811965739e+03	2.037606635333741034e-01
1.880000000000000071e+01	1.005425261665450487e-01	2.194692802583771751e+00	3.146284826999996298e+01	-3.129307514900003184e+02	6.965285666549180860e+03	1.029983501777205213e-01
1.890000000000000213e+01	2.245857566529689542e-01	2.184323818131504336e+00	5.739101088999999689e+01	-2.555416324940003960e+02	7.008578998463234711e+03	2.300714263967623407e-01
1.900000000000000000e+01	1.277577095610225311e-01	2.173556456306527718e+00	2.254067423000001114e+01	-1.764329863727998600e+02	7.046048094971026330e+03	1.308782841349398762e-01
1.910000000000000142e+01	3.047424956026169029e-01	2.163823050261194592e+00	8.604046933000002184e+01	-2.823382710700003031e+02	7.040387162019399511e+03	3.121860517421031211e-01
1.919999999999999929e+01	3.627796159851118252e-01	2.154491218995515656e+00	1.060095704589999173e+02	-2.922147931910001830e+02	7.110267946456066966e+03	3.716407708184951697e-01
1.930000000000000071e+01	2.238701043769603383e-01	2.144539563765523127e+00	5.353936732499997930e+01	-2.391537158299998396e+02	7.074912317136553611e+03	2.293382937956606193e-01
1.940000000000000213e+01	1.894927224880236238e-01	2.134513682528202505e+00	5.601960282000007396e+01	-2.956293101099998353e+02	7.078095547881912353e+03	1.941212194591286078e-01
1.950000000000000000e+01	3.442113469452094954e-01	2.125379486938493656e+00	6.462026074000000619e+01	-1.877342548799998099e+02	7.127029450629120220e+03	3.526189583607696187e-01
1.960000000000000142e+01	2.642465727394812114e-01	2.115932111739513566e+00	7.047155319999990297e+01	-2.666886176399997908e+02	7.194673117141403054e+03	2.707009866372332429e-01
1.969999999999999929e+01	4.120545623043700423e-01	2.107326669570649180e+00	7.788167649499995093e+01	-1.890081645000001913e+02	7.164269824091532428e+03	4.221192933848805784e-01
1.980000000000000071e+01	1.058545227560343249e-01	2.097269020591681521e+00	2.268967169999998745e+01	-2.143476831149998532e+02	7.255733110729639520e+03	1.084400961306795502e-01
1.990000000000000213e+01	8.134210527921724443e-02	2.087189386015118941e+00	2.968168284599995488e+01	-3.648993684650004639e+02	7.207748490501279775e+03	8.332894510591272452e-02
2.000000000000000000e+01	3.802190582021576504e-02	2.076994522929572096e+00	1.032810678000001658e+01	-2.716356941400000551e+02	7.209757951025184411e+03	3.895061840407570974e-02
2.010000000000000142e+01	1.733921719086373159e-01	2.067570748914617340e+00	6.213673352199997169e+01	-3.583595086100003186e+02	7.222689943431485517e+03	1.776274012723569051e-01
2.019999999999999929e+01	1.997195217966674374e-01	2.058369511342607261e+00	5.932812724000016402e+01	-2.970572265859997856e+02	7.241618323662277362e+03	2.045978157467943925e-01
2.030000000000000071e+01	3.327435201514657992e-01	2.049910560405395987e+00	6.789892744000002267e+01	-2.040578503500000238e+02	7.250609801401778896e+03	3.408710215929695031e-01
2.040000000000000213e+01	2.829806517193787438e-02	2.040049036038403596e+00	-6.915336434000003862e+00	-2.443748854199997709e+02	7.266750125644383843e+03	2.898926590628124467e-02
2.050000000000000000e+01	6.863086522394344635e-02	2.030479044917945064e+00	-1.921333267099999276e+01	-2.799517769199998725e+02	7.289882757487088384e+03	7.030722380723106180e-02
2.060000000000000142e+01	4.649735006404599399e-03	2.020692429894217934e+00	-1.118864493999990772e+00	-2.406297331909998718e+02	7.346919981531543272e+03	4.763308151119667946e-03
2.069999999999999929e+01	1.541708184581292440e-01	2.011718768300775118e+00	3.732215717000002542e+01	-2.420831487000001232e+02	7.361333384276839752e+03	1.579365523443544972e-01
2.080000000000000071e+01	1.337957749349503733e-01	2.002733490820555851e+00	4.264314920900001482e+01	-3.187182048889997645e+02	7.304865736517243022e+03	1.370638336281922998e-01
2.090000000000000213e+01	1.975945094391120815e-01	1.994137590909215829e+00	4.617626486000001051e+01	-2.336920443340002294e+02	7.397397625350000453e+03	2.024208984235423836e-01
2.100000000000000000e+01	2.544299229192358847e-01	1.985892530871348649e+00	-4.448912947000007279e+01	-1.748580864999999562e+02	7.410348223018828321e+03	2.606445580362367065e-01
2.110000000000000142e+01	4.203484482289119306e-01	1.978507888972091733e+00	7.078317165999995098e+01	-1.683916568700001335e+02	7.463099786045352630e+03	4.306157634792860955e-01
2.119999999999999929e+01	2.967957858536465765e-01	1.970612526985620061e+00	8.237687550000006809e+01	-2.775540604899998698e+02	7.428066960740771719e+03	3.040452378527709887e-01
2.130000000000000071e+01	2.071734008074989641e-01	1.962372157237124215e+00	7.005824902599997017e+01	-3.381623738999997499e+02	7.452221624744318433e+03	2.122337611503170574e-01
2.140000000000000213e+01	3.690145929883676540e-02	1.953416479572295028e+00	-9.053751709999930952e+00	-2.453494220020000682e+02	7.561562660442983542e+03	3.780280416502188046e-02
2.150000000000000000e+01	2.933680065871566156e-02	1.944508703281028650e+00	7.021213979999998855e+00	-2.393312775200000715e+02	7.491729032830080541e+03	3.005337325954131333e-02
2.160000000000000142e+01	1.464582664707903825e-01	1.936222756567617331e+00	-3.942149388400000731e+01	-2.691653727300003425e+02	7.516278866177220152e+03	1.500356156895509274e-01
2.169999999999999929e+01	5.530517566256654832e-02	1.927594694269887832e+00	-9.607508769999965281e+00	-1.737180771039993772e+02	7.529189325387729696e+03	5.665604462829581384e-02
2.180000000000000071e+01	4.295841175332491824e-02	1.918989049144241399e+00	-1.240064001999997068e+01	-2.886661660399998368e+02	7.572352491430534428e+03	4.400770206945466695e-02
2.190000000000000213e+01	6.598401315123271493e-02	1.910566298980636679e+00	1.753201817799996931e+01	-2.657009984799997824e+02	7.589048211443547189e+03	6.759572045588202460e-02
2.200000000000000000e+01	8.240648095410661733e-02	1.902294082609476078e+00	-2.375716874000001511e+01	-2.882924797290000924e+02	7.531072774814453624e+03	8.441931892744677923e-02
2.210000000000000142e+01	4.381911142503912560e-01	1.895699024193444160e+00	9.449719170500009113e+01	-2.156529163459998699e+02	7.665999237561745758e+03	4.488942495394060983e-01
2.219999999999999929e+01	5.217076676776728761e-02	1.887432081335032930e+00	-1.464447264179992203e+01	-2.807026530199999002e+02	7.616526911930719507e+03	5.344507552640627435e-02
2.230000000000000071e+01	3.365010753945656408e-01	1.880508282201369896e+00	7.608536469999994267e+01	-2.261073448600000688e+02	7.649838233839060194e+03	3.447203578439787530e-01
2.240000000000000213e+01	2.358959895659790973e-01	1.873198894234101353e+00	4.998371633000004977e+01	-2.118887922680000315e+02	7.665101288874569036e+03	2.416579199391677424e-01
2.250000000000000000e+01	1.186029834379817294e-01	1.865435195513764466e+00	2.838472943999997611e+01	-2.393255938189998062e+02	7.663031964083125786e+03	1.214999471967952577e-01
2.260000000000000142e+01	5.600744012614397027e-01	1.859684707433357786e+00	1.384685743200000445e+02	-2.472324641299998689e+02	7.679842861206457201e+03	5.737546240995270441e-01
2.269999999999999929e+01	1.667929651783812417e-01	1.852259743651537782e+00	6.485472959500000911e+01	-3.888337228469999900e+02	7.748361029844036239e+03	1.708670041387880256e-01
2.280000000000000071e+01	1.780226710408746027e-01	1.844948664731840493e+00	6.182204820999998418e+01	-3.472706473200002506e+02	7.726544743950121301e+03	1.823710036991527395e-01
2.290000000000000213e+01	3.475129753789613085e-02	1.837078241396214562e+00	-1.329207187229996912e+01	-3.824913834599996107e+02	7.798643230234210932e+03	3.560012314599454719e-02
2.300000000000000000e+01	1.264177567871517874e-02	1.829180248038130285e+00	3.144096589999997526e+00	-2.487068802600001050e+02	7.774855911065606961e+03	1.295056020442180572e-02
2.310000000000000142e+01	2.350299508947105709e-01	1.822308910550443084e+00	6.140590256000000835e+01	-2.612684142010003256e+02	7.814255045370728112e+03	2.407707276461970303e-01
2.319999999999999929e+01	1.216497970963126285e-01	1.815009944398279451e+00	4.957284804099996478e+01	-4.075045682299998475e+02	7.827450600406218655e+03	1.246211814851321403e-01
2.330000000000000071e+01	3.159410984715095849e-01	1.808603667278934513e+00	9.325827310000001091e+01	-2.951761374230003980e+02	7.788430124032213826e+03	3.236581885957247051e-01
2.340000000000000213e+01	2.621343600201194723e-01	1.802022946822513738e+00	8.608572782499996379e+01	-3.284030671080001298e+02	7.781199213747087015e+03	2.685371815926068106e-01
2.350000000000000000e+01	3.486528669223700749e-01	1.795864599026326891e+00	8.494677733900003602e+01	-2.436428476519999720e+02	7.852369277902456815e+03	3.571689656797735757e-01
2.360000000000000142e+01	1.276341315330179471e-01	1.788825651906101877e+00	3.002881847999998044e+01	-2.352726353000001609e+02	7.847912939122944408e+03	1.307516876241101855e-01
2.369999999999999929e+01	3.178715115728962259e-01	1.782645172324869742e+00	8.010672805000004359e+01	-2.520097748100004935e+02	7.898641392039829043e+03	3.256357534350537986e-01
2.380000000000000071e+01	1.477680583984589402e-01	1.775804682308441462e+00	4.206486448000000422e+01	-2.846681815807000930e+02	7.908042381258387650e+03	1.513774002335606106e-01
2.390000000000000213e+01	4.050277784689932381e-01	1.770093111875777003e+00	9.894587792000004356e+01	-2.442940538400005437e+02	7.901241520187393689e+03	4.149208752657612687e-01
2.400000000000000000e+01	2.367236853660214801e-01	1.763730583135072694e+00	-6.963698414899984357e+01	-2.941699054800001818e+02	7.932551921311534898e+03	2.425058328085159531e-01
2.410000000000000142e+01	2.781496436351993395e-01	1.757591818922263238e+00	4.857421737599997158e+01	-1.746333978399999296e+02	7.923671405568906266e+03	2.849436501077213801e-01
2.419999999999999929e+01	1.191353328640309406e-01	1.750849199638072839e+00	4.465799428000007509e+01	-3.748509632400003966e+02	7.961007834024650947e+03	1.220452996430854975e-01
2.430000000000000071e+01	1.912351727794036893e-01	1.744457338872258623e+00	6.690245579800001963e+01	-3.498438850220000518e+02	7.987141962870672614e+03	1.959062303607002620e-01
2.440000000000000213e+01	2.724070873623313793e-01	1.738448970498748691e+00	7.531352467999995781e+01	-2.764741747700003316e+02	7.983193537185235982e+03	2.790608277393201164e-01
2.450000000000000000e+01	2.424855130071955078e-01	1.732367818232523060e+00	8.237602110999996796e+01	-3.397152270599998474e+02	7.971836733458283561e+03	2.484083972623498393e-01
2.460000000000000142e+01	2.023887617602210531e-01	1.726173571040327204e+00	5.180384449999997543e+01	-2.559620605879999005e+02	7.975154941660672193e+03	2.073322538294327388e-01
2.469999999999999929e+01	3.990264874773086223e-01	1.720822171509831300e+00	9.521968361999979891e+01	-2.386299822400001460e+02	8.015395120246053011e+03	4.087729983956691626e-01
2.480000000000000071e+01	1.586168632980062415e-02	1.713974940645654588e+00	7.232115049999966239e+00	-4.559486866420003821e+02	8.040859788856419073e+03	1.624911950491234741e-02
2.490000000000000213e+01	4.933658286394897868e-02	1.707316387214527831e+00	-1.529729911999992709e+01	-3.100599642700002505e+02	8.017216645017072551e+03	5.054166462831537199e-02
2.500000000000000000e+01	2.613731900747173209e-01	1.701555657345444672e+00	6.775317176000001496e+01	-2.592200513780001074e+02	8.087653350770924590e+03	2.677574195200742024e-01
2.510000000000000142e+01	2.578155618835398233e-01	1.695826529982500608e+00	1.059630220570000887e+02	-4.110032043173002876e+02	8.090530611538463745e+03	2.641128936840110297e-01
2.519999999999999929e+01	3.152836523519165213e-01	1.690369838766569544e+00	1.104654554999999618e+02	-3.503684846200002312e+02	8.155624680207978599e+03	3.229846838785599417e-01
2.530000000000000071e+01	2.617381895663611902e-02	1.683817885932672231e+00	-5.567586390000007768e+00	-2.127158592800001031e+02	8.140085424062569473e+03	2.681313343886219600e-02
2.540000000000000213e+01	4.381658948130215045e-03	1.677231861513124977e+00	-1.808752789000035666e+00	-4.128009072390000824e+02	8.077174107071386061e+03	4.488684140990155044e-03
2.550000000000000000e+01	1.637132431909522068e-01	1.671319679410304238e+00	4.153751562000000774e+01	-2.537211700800001211e+02	8.218779467338978066e+03	1.677120577115836786e-01
2.560000000000000142e+01	1.120347637637528204e-01	1.665252422929189180e+00	4.554558919999993805e+01	-4.065308630100002460e+02	8.171624344677858971e+03	1.147712940005368026e-01
2.569999999999999929e+01	8.760754206809436007e-02	1.659137520290192791e+00	-3.152214148399988503e+01	-3.598108192500001792e+02	8.164431221920382086e+03	8.974741972557936931e-02
2.580000000000000071e+01	2.490466750297725407e-01	1.653693154092276130e+00	6.872772995000003959e+01	-2.759632504300003575e+02	8.175887679264085818e+03	2.551298204187039120e-01
2.590000000000000213e+01	1.765493165357535921e-01	1.648011831640135760e+00	-5.076472352000002530e+01	-2.875384879199999091e+02	8.243539764711662428e+03	1.808616614432897451e-01
2.600000000000000000e+01	1.232840227699081720e-01	1.642169962640632974e+00	-3.395968985999999035e+01	-2.754589694350000855e+02	8.205190058369018516e+03	1.262953243042571894e-01
2.610000000000000142e+01	1.065497987196814406e-01	1.636308816976812519e+00	2.617750754999999074e+01	-2.456833130099999778e+02	8.263116504671841540e+03	1.091523547132344923e-01
2.619999999999999929e+01	2.470677203540720956e-01	1.631026531438322991e+00	9.336832468999990908e+01	-3.779058007099997099e+02	8.292334583637544711e+03	2.531025283419562344e-01
2.630000000000000071e+01	1.101141306941691017e-01	1.625265499617322362e+00	3.837083380300001068e+01	-3.484642121870001574e+02	8.314221124169647737e+03	1.128037480773698420e-01
2.640000000000000213e+01	5.078549113060796399e-02	1.619324065623032993e+00	-2.104604160100002375e+01	-4.144105163199999424e+02	8.342492645284002720e+03	5.202596352863873841e-02
2.650000000000000000e+01	2.039305299895194379e-01	1.614003037293583631e+00	4.933609254999999649e+01	-2.419259762259997046e+02	8.318440399769482610e+03	2.089116808642290657e-01
2.660000000000000142e+01	4.836508764641483937e-02	1.608139224748088569e+00	-1.536834005999986985e+01	-3.177568946500002767e+02	8.376953292157042597e+03	4.954643993656839690e-02
2.669999999999999929e+01	1.516886185805334589e-02	1.602195305483573584e+00	-6.597468039999977663e+00	-4.349349411800000098e+02	8.372818288637834485e+03	1.553937229372217427e-02
2.680000000000000071e+01	6.052922946130034204e-02	1.596464204829215472e+00	1.828308890999987213e+01	-3.020538849199997458e+02	8.302308651163461036e+03	6.200769972414990616e-02
2.690000000000000213e+01	8.691996533980825279e-02	1.590873300238514254e+00	3.827444069000003424e+01	-4.403411867500000199e+02	8.357104678908006463e+03	8.904304843778464151e-02
2.700000000000000000e+01	1.029990643814539079e-02	1.585040926091649149e+00	-4.114227667599971383e+00	-3.994432077910003045e+02	8.395643660211186216e+03	1.055148911174719033e-02
2.710000000000000142e+01	1.084571697285522107e-01	1.579612309340314269e+00	-3.820228433000005452e+01	-3.522338304200003449e+02	8.453057046835296205e+03	1.111063146402516688e-01
2.719999999999999929e+01	8.311606839427009702e-03	1.573856629111373362e+00	-3.059514382000030341e+00	-3.681014322630001629e+02	8.459038109272121801e+03	8.514623855469591676e-03
2.730000000000000071e+01	2.255673875473956577e-02	1.568194950679414834e+00	-8.206257827999957399e+00	-3.638051545139999234e+02	8.429743488806616369e+03	2.310770343366499308e-02
2.740000000000000213e+01	2.834058297718778374e-01	1.563522990239751165e+00	9.584731274400003542e+01	-3.381980985400001032e+02	8.476965209130172298e+03	2.903282223971436204e-01
2.750000000000000000e+01	2.608645541529556328e-02	1.557952568012126227e+00	6.321282079999982706e+00	-2.423204678199996067e+02	8.487353010354579965e+03	2.672363597975862398e-02
2.760000000000000142e+01	9.487168681128994863e-02	1.552670687574578157e+00	2.456935453999998842e+01	-2.589745725599998423e+02	8.499403213199888341e+03	9.718899646457983266e-02
2.769999999999999929e+01	1.450470977708944453e-01	1.547607293366651149e+00	5.745084152000004707e+01	-3.960840472019998515e+02	8.501459565212720918e+03	1.485899781722385404e-01
2.780000000000000071e+01	8.134666010465224639e-02	1.542351878910515062e+00	-2.663336842000000715e+01	-3.274058011199999214e+02	8.550837806431421996e+03	8.333361118625744191e-02
2.790000000000000213e+01	6.284596847957403878e-03	1.536865924331719979e+00	2.028877950999988578e+00	-3.228334291100003952e+02	8.497033932505228222e+03	6.438102677065037950e-03
2.800000000000000000e+01	7.850038422032767915e-02	1.531676011377586910e+00	-2.808287659700006245e+01	-3.577418999400005646e+02	8.561199973790675358e+03	8.041781295227978799e-02
2.810000000000000142e+01	6.452085573333385393e-02	1.526473333520692588e+00	-2.914681946000002100e+01	-4.517426052200002005e+02	8.554419022001577105e+03	6.609682435848099336e-02
2.819999999999999929e+01	1.269252510491429842e-01	1.521527933935987509e+00	2.800273161999997384e+01	-2.206238032899998984e+02	8.605920898434516857e+03	1.300254922210688779e-01
2.830000000000000071e+01	1.691448871659370634e-01	1.516766021799473174e+00	5.895314154999996248e+01	-3.485363497400005031e+02	8.538937655343474034e+03	1.732763735240736847e-01
2.840000000000000213e+01	8.532893992232279401e-02	1.511743435547272529e+00	-2.714726848999999831e+01	-3.181484325800001898e+02	8.645843586946639334e+03	8.741316107230934218e-02
2.850000000000000000e+01	1.074045899654927361e-01	1.506833159863420146e+00	-4.572237309000004046e+01	-4.257022265499999776e+02	8.658412702727398937e+03	1.100280248542361561e-01
2.860000000000000142e+01	8.772545101303522164e-02	1.501888533700178607e+00	3.283103922000002228e+01	-3.742475968020001460e+02	8.646378436164044615e+03	8.986820868188614975e-02
2.869999999999999929e+01	1.795290392949452918e-01	1.497297007677937941e+00	6.319132512000003743e+01	-3.519838649400003305e+02	8.646307449425448794e+03	1.839141660886909613e-01
2.880000000000000071e+01	2.234293946202096648e-01	1.492889161265973597e+00	7.964653143099998545e+01	-3.564729321600005392e+02	8.640843174643296152e+03	2.288868193839539433e-01
2.890000000000000213e+01	4.507597227025703090e-01	1.489295611477823744e+00	1.382846297279999987e+02	-3.067812467779998542e+02	8.679685970513188295e+03	4.617698553547983642e-01
2.900000000000000000e+01	1.848154861216972375e-03	1.484184108190481632e+00	7.565672499999986922e-01	-4.093635581499996761e+02	8.739781991748599467e+03	1.893297382074555103e-03
2.910000000000000142e+01	2.246880950485777573e-01	1.479870765679721645e+00	-8.977096370999997532e+01	-3.995359152899997639e+02	8.725130277097647195e+03	2.301762644817939574e-01
2.919999999999999929e+01	2.499887154328215844e-01	1.475673216020175760e+00	7.893533062999991046e+01	-3.157555751799999371e+02	8.720867983608108261e+03	2.560948708407917995e-01
2.930000000000000071e+01	1.834158884468520823e-01	1.471277782933191780e+00	6.662548151000001440e+01	-3.632481464620001930e+02	8.766599697270463366e+03	1.878959543458601222e-01
2.940000000000000213e+01	6.665384646763898580e-02	1.466516345860427339e+00	3.186138016700000364e+01	-4.780126257599998212e+02	8.681582195129920365e+03	6.828191493611256158e-02
2.950000000000000000e+01	1.951323202469842644e-01	1.462221129557679244e+00	6.518857690700001228e+01	-3.340737035488998572e+02	8.756123848317824013e+03	1.998985684773612326e-01
2.960000000000000142e+01	9.958787288062232249e-03	1.457331357361485225e+00	-4.257933659999996401e+00	-4.275554379100007054e+02	8.774346400073734912e+03	1.020203787939609301e-02
2.969999999999999929e+01	1.367708223334111461e-01	1.452899946170115753e+00	5.575145845799995925e+01	-4.076268425299997489e+02	8.785349794647587260e+03	1.401115487137909732e-01
2.980000000000000071e+01	3.314533286555105263e-01	1.449149288586454976e+00	1.409032485599999802e+02	-4.251073571400002038e+02	8.766171783043309915e+03	3.395493162354116801e-01
2.990000000000000213e+01	6.035857434816947753e-02	1.444519986205660578e+00	-2.624028021169998581e+01	-4.347398939600001881e+02	8.796520676976482719e+03	6.183287623629805940e-02
3.000000000000000000e+01	1.117175349193248057e-04	1.439721287638648040e+00	-4.371093999995019630e-02	-3.912630191090003677e+02	8.833197067665452778e+03	1.144463166118570474e-04
3.010000000000000142e+01	1.125502092358627720e-01	1.435326681418771289e+00	-3.828448475999998379e+01	-3.401547186799995188e+02	8.813996606166925631e+03	1.152993296015715347e-01
3.019999999999999929e+01	1.605177674737731097e-01	1.431119391273738328e+00	5.940078593999992052e+01	-3.700573891280002385e+02	8.837214762514577160e+03	1.644385301859551118e-01
3.030000000000000071e+01	3.487428880472698972e-02	1.426526479752458831e+00	-1.395567523200002569e+01	-4.001708912300004499e+02	8.889689331835566918e+03	3.572611856358393762e-02
3.040000000000000213e+01	1.499890338687237144e-03	1.421854261426511945e+00	-5.167739449999833035e-01	-3.445411518900002648e+02	8.926145088153776669e+03	1.536526246380432413e-03
3.050000000000000000e+01	2.083877354085906797e-01	1.417888684544100553e+00	7.577810149699986653e+01	-3.636399299047997147e+02	8.891254640545470465e+03	2.134777567534212328e-01
3.060000000000000142e+01	3.296879852968801483e-01	1.414344056859256016e+00	1.065025504779999181e+02	-3.230404358899995145e+02	8.902415252026499729e+03	3.377408530868437619e-01
3.069999999999999929e+01	1.458652791034028007e-01	1.410225619269139807e+00	-5.272912242999994703e+01	-3.614919379999997773e+02	8.986146499855545699e+03	1.494281441762931595e-01
3.080000000000000071e+01	4.999285984015629236e-02	1.405823571503997282e+00	1.818032618999999173e+01	-3.636584553899998582e+02	8.931443822627454210e+03	5.121397164492053067e-02
3.090000000000000213e+01	3.644839997911288876e-01	1.402464411595246263e+00	1.525672686920000558e+02	-4.185842692119001640e+02	9.007217693411452274e+03	3.733867854332323377e-01
3.100000000000000000e+01	5.209372403598513390e-01	1.399629919083235308e+00	8.813279257999990079e+01	-1.691812098499999877e+02	9.021105070046067340e+03	5.336615097010856124e-01
3.110000000000000142e+01	1.378501041125659021e-01	1.395585753009611185e+00	5.388095837000000898e+01	-3.908662870940002563e+02	8.981850599605075331e+03	1.412171927319815778e-01
3.119999999999999929e+01	2.408772471345830557e-01	1.391896588454100137e+00	1.044978894099999422e+02	-4.338221673199994370e+02	9.001902003495133613e+03	2.467608483311461154e-01
3.130000000000000071e+01	1.061037760179667361e-01	1.387801706885832154e+00	4.624376774000003820e+01	-4.358352687859996877e+02	9.046177804955088504e+03	1.086954375840355896e-01
3.140000000000000213e+01	1.704274860970713956e-01	1.383937026819835880e+00	7.319062184000009097e+01	-4.294531563899996627e+02	9.049946109841044745e+03	1.745903008629164921e-01
3.150000000000000000e+01	5.794403754941102741e-03	1.379575815987352128e+00	2.352128473000037800e+00	-4.059310625350003647e+02	9.038286487403340288e+03	5.935936262770258841e-03
3.160000000000000142e+01	2.570859798499403603e-01	1.376034838586287723e+00	9.798582787399999461e+01	-3.811403015099997447e+02	9.070444784582023203e+03	2.633654910809018479e-01
3.169999999999999929e+01	2.951174979312122873e-02	1.371800489250460275e+00	1.078391011900002994e+01	-3.654107328300000290e+02	9.050027794131521659e+03	3.023259565324708589e-02
3.180000000000000071e+01	4.464011113407566692e-03	1.367514168002381680e+00	-1.411604449999974698e+00	-3.162188476100001822e+02	9.105144480520340949e+03	4.573047817541108818e-03
3.190000000000000213e+01	9.023739674029643276e-02	1.363522678092187634e+00	-2.915286158999999699e+01	-3.230685130900001809e+02	9.056710178833647660e+03	9.244151050260336622e-02
3.200000000000000000e+01	5.908322207074950816e-02	1.359459003774363683e+00	2.259989342000000434e+01	-3.825094947079501821e+02	9.057785674678108990e+03	6.052637255593434906e-02
3.210000000000000142e+01	7.618187088529530804e-02	1.355473671063528229e+00	2.075169810000001647e+01	-2.723968033188002096e+02	9.156446653890241578e+03	7.804266825004892161e-02
3.220000000000000284e+01	2.226799654700923614e-01	1.351966569807820928e+00	7.593047924999990528e+01	-3.409847809600004211e+02	9.104869049841730885e+03	2.281190848841333219e-01
3.229999999999999716e+01	2.693721479390582818e-01	1.348625228999584147e+00	1.235628256169999872e+02	-4.587067614910000088e+02	9.154254778789714692e+03	2.759517577228312590e-01
3.239999999999999858e+01	5.652876334624235000e-02	1.344649547566804326e+00	-1.536085536999991419e+01	-2.717352098419998470e+02	9.210522871406999911e+03	5.790951932722695344e-02
3.250000000000000000e+01	3.359010675284624381e-01	1.341555227075889256e+00	1.242727423399999225e+02	-3.699682863600000928e+02	9.246394614334554717e+03	3.441056943512402211e-01
3.260000000000000142e+01	4.852901564289041625e-02	1.337601018478234760e+00	2.270243310000000392e+01	-4.678115308799993954e+02	9.202837155172519488e+03	4.971437199306909943e-02
3.270000000000000284e+01	1.189602814264208164e-02	1.333559234971114060e+00	3.616948159999981982e+00	-3.040467050540001424e+02	9.216026633448636858e+03	1.218659724473452992e-02
3.279999999999999716e+01	1.301358902097359549e-01	1.329901413254514164e+00	-5.184191457999988728e+01	-3.983675410100003091e+02	9.200039589027424881e+03	1.333145535681975746e-01
3.289999999999999858e+01	6.732677616399748710e-02	1.326075429505755077e+00	-2.758421909999999500e+01	-4.097065190349995873e+02	9.244127405175782769e+03	6.897128142761795033e-02
3.300000000000000000e+01	1.354920770832818144e-02	1.322110093488240157e+00	4.574281399999960307e+00	-3.376050835199997664e+02	9.250442877197312555e+03	1.388015691849023986e-02
3.310000000000000142e+01	9.283473144916110087e-02	1.318407456855592352e+00	-3.562062692769995209e+01	-3.836993587600003366e+02	9.195260504094354474e+03	9.510228699263557905e-02
3.320000000000000284e+01	6.430647094336891523e-02	1.314641387828829000e+00	-3.233383807000002719e+01	-5.028084669499996835e+02	9.310313139294139546e+03	6.587720306477080900e-02
3.329999999999999716e+01	1.041707317053176957e-01	1.311017224187740471e+00	-3.910235358000002748e+01	-3.753679458700004261e+02	9.261267041793049430e+03	1.067151772642036117e-01
3.339999999999999858e+01	1.632288647483944033e-01	1.307590990278966414e+00	5.314769404800004793e+01	-3.256023015900000814e+02	9.222923650147327862e+03	1.672158479747956061e-01
3.350000000000000000e+01	9.175316414880528570e-02	1.303972425320245820e+00	3.479858541990004284e+01	-3.792630558599994970e+02	9.308085770747738934e+03	9.399430162773345088e-02
3.360000000000000142e+01	8.788765546822871477e-02	1.300363865172316835e+00	3.918511820000001222e+01	-4.458546310200001699e+02	9.306656423781583726e+03	9.003437509836081931e-02
3.370000000000000284e+01	7.703172564282165236e-02	1.296744539315720646e+00	-3.119523652999996344e+01	-4.049660872800004654e+02	9.318842533665167139e+03	7.891328132546442109e-02
3.379999999999999716e+01	9.396415485670249479e-02	1.293196514582803491e+00	3.998072886999999298e+01	-4.254891552100003196e+02	9.414735817075905288e+03	9.625929738479707676e-02
3.389999999999999858e+01	1.146116723609788383e-02	1.289426704737665963e+00	-5.359015379999988227e+00	-4.675802446299999247e+02	9.342099778326386513e+03	1.174111454563616687e-02
3.400000000000000000e+01	1.015920151905738977e-01	1.285943318551310943e+00	3.687153579000006687e+01	-3.629373403100005930e+02	9.265753541036552633e+03	1.040734737311663632e-01
3.410000000000000142e+01	1.266677947605995835e-01	1.282553624037302775e+00	-3.305232035599998142e+01	-2.609370473250001510e+02	9.314976483429709333e+03	1.297617473762365248e-01
3.420000000000000284e+01	1.234527718764870906e-02	1.278850392705379591e+00	3.156853290000010581e+00	-2.557134393999999986e+02	9.372424868398966282e+03	1.264681952299668080e-02
3.430000000000000426e+01	5.290157391852528396e-02	1.275286587999603816e+00	-2.228125384999998815e+01	-4.211831936100005009e+02	9.367959827545588269e+03	5.419373317104780180e-02
3.439999999999999858e+01	1.545640909534025664e-01	1.272038116993672974e+00	-8.078864411999998651e+01	-5.226870201330001464e+02	9.350476699032993565e+03	1.583394308051197519e-01
3.450000000000000000e+01	2.231543625715078361e-01	1.269006661056036656e+00	8.661730228000000409e+01	-3.881497152100006929e+02	9.397733441028232846e+03	2.286050694782935100e-01
3.460000000000000142e+01	6.066126988479588616e-02	1.265524397680903412e+00	-3.148939712999998264e+01	-5.191021749099992348e+02	9.382557627999896795e+03	6.214296533060861827e-02
3.470000000000000284e+01	1.006220908331967867e-01	1.262176977258927080e+00	4.206892765000005596e+01	-4.180883869699998741e+02	9.398609635184557192e+03	1.030798582689733123e-01
3.480000000000000426e+01	5.699195340608071564e-02	1.258723725041583918e+00	2.490324950999998421e+01	-4.369607992300005890e+02	9.418722731783820564e+03	5.838402313970372098e-02
3.489999999999999858e+01	4.911522921747434045e-02	1.255267700767800587e+00	2.269311022000004030e+01	-4.620381617179998557e+02	9.443709711587891434e+03	5.031490425872862937e-02
3.500000000000000000e+01	2.195715164021512858e-02	1.251753995499630845e+00	9.315292109999965930e+00	-4.242486576874002253e+02	9.446267758009526005e+03	2.249347096966722304e-02
3.510000000000000142e+01	2.653327809500328691e-02	1.248273254825186029e+00	9.163122892999963298e+00	-3.453445465800002694e+02	9.509005836530073793e+03	2.718137262699234918e-02
3.520000000000000284e+01	9.522238942585828370e-02	1.245006821778728900e+00	4.251909082800002437e+01	-4.465240904409995437e+02	9.521891344001538528e+03	9.754826524447617053e-02
3.530000000000000426e+01	1.148690803423605689e-01	1.241814342283146022e+00	5.754045096000000825e+01	-5.009220130299995617e+02	9.568875022590678782e+03	1.176748408140949609e-01
3.539999999999999858e+01	1.808079662913024133e-01	1.238825591928239378e+00	5.795738307000002720e+01	-3.205466233529999727e+02	9.546358384658517025e+03	1.852243318030905583e-01
3.550000000000000000e+01	1.787381796263322886e-01	1.235847818298177803e+00	-6.786290416000001358e+01	-3.796777180000004250e+02	9.608125439395067588e+03	1.831039890999577868e-01
3.560000000000000142e+01	3.277899879938644002e-03	1.232395241495885863e+00	-1.297929779999975830e+00	-3.959638266999999132e+02	9.578118416926485224e+03	3.357964958252352642e-03
3.570000000000000284e+01	3.899883587147238984e-02	1.229061731982968420e+00	1.441505268000003426e+01	-3.696277685700006259e+02	9.541727154583892116e+03	3.995141067929457168e-02
3.580000000000000426e+01	4.761970071560883699e-02	1.225770807104786586e+00	-2.023633534999992278e+01	-4.249572140500000046e+02	9.576340954430006605e+03	4.878284639019300067e-02
3.589999999999999858e+01	1.156915841528928339e-02	1.222398024747315626e+00	-4.835234199000104205e+00	-4.179417400500000781e+02	9.549985703229020146e+03	1.185174348758294242e-02
3.600000000000000000e+01	5.101313490378100307e-02	1.219153191257444258e+00	2.202666494700009636e+01	-4.317841863383996497e+02	9.631090830245544566e+03	5.225916766582358597e-02
3.610000000000000142e+01	1.980008578371406647e-01	1.216332328457940815e+00	8.043499133999995365e+01	-4.062355699800008324e+02	9.685994235526326520e+03	2.028371721754568258e-01
3.620000000000000284e+01	3.298522924682335822e-02	1.213072419093722765e+00	1.112296402999998968e+01	-3.372104509799999619e+02	9.621819854766732533e+03	3.379091735798432639e-02
3.630000000000000426e+01	2.260164685012350239e-01	1.210360726921765329e+00	1.088334558799999883e+02	-4.815288753146998602e+02	9.663423184527986450e+03	2.315370844179963083e-01
3.639999999999999858e+01	3.353251894832676161e-02	1.207136540050605333e+00	-1.512033060999997147e+01	-4.509154422100002080e+02	9.711408229065773412e+03	3.435157500677597786e-02
3.650000000000000000e+01	2.540940644797597958e-01	1.204532598860521109e+00	5.876881982999999110e+01	-2.312876530600001672e+02	9.664202390845704940e+03	2.603004960111588995e-01
3.660000000000000142e+01	1.138927197537019202e-02	1.201281527125139137e+00	-4.457094879999964121e+00	-3.913415088900001706e+02	9.763846725622777740e+03	1.166746319110104242e-02
3.670000000000000284e+01	3.908603475544088907e-02	1.198123387200221490e+00	1.739485165999997562e+01	-4.450400704199998358e+02	9.728179002092525479e+03	4.004073945915053584e-02
3.680000000000000426e+01	1.648763382834277091e-01	1.195323259696382090e+00	6.470879449000003092e+01	-3.924686535600004618e+02	9.717426984933541462e+03	1.689035622439677142e-01
3.689999999999999858e+01	1.358880182172179374e-01	1.192459921205897722e+00	4.418079709000014788e+01	-3.251265098250004257e+02	9.734012805802271032e+03	1.392071814677623143e-01
3.700000000000000000e+01	4.970017519757886221e-02	1.189379706257088332e+00	-2.130479846599999050e+01	-4.286664660899998580e+02	9.795813059584179427e+03	5.091413796799565405e-02
3.710000000000000142e+01	6.353962068660665152e-02	1.186353254414156844e+00	2.305804965999998402e+01	-3.628924663200000964e+02	9.683808515755968983e+03	6.509162193515964645e-02
3.720000000000000284e+01	1.208733824157929952e-02	1.183205088419056139e+00	4.467451998000011137e+00	-3.695976656491996550e+02	9.737384771250975973e+03	1.238258023137870853e-02
3.730000000000000426e+01	4.457161259232916839e-02	1.180160613884760012e+00	-1.518352193999995414e+01	-3.406545345100001327e+02	9.837168119750578626e+03	4.566030650717806116e-02
3.739999999999999858e+01	1.783618365823934071e-01	1.177489150478620461e+00	5.517487679000002032e+01	-3.093423898700002610e+02	9.757990384183554852e+03	1.827184536046355667e-01
3.750000000000000000e+01	3.757603212317196795e-02	1.174457466653207049e+00	1.014615899500001461e+01	-2.700167745689996650e+02	9.819202896037853861e+03	3.849385391909469767e-02
3.760000000000000142e+01	2.531269608673035187e-01	1.172013619157753705e+00	1.243200382800000057e+02	-4.911370873100008225e+02	9.758176943142503660e+03	2.593097701926240228e-01
3.770000000000000284e+01	3.607385487508026067e-02	1.169008487506212335e+00	-1.474931871460001354e+01	-4.088645021630003384e+02	9.785584034346467888e+03	3.695498490389148571e-02
3.780000000000000426e+01	5.488467002485441365e-02	1.166068846826841865e+00	2.295903740999999698e+01	-4.183142105000001152e+02	9.904521645402821378e+03	5.622526783586634380e-02
3.789999999999999858e+01	1.256120190558950855e-01	1.163330802543234066e+00	4.947477160950003139e+01	-3.938697266500003593e+02	9.857149401020022196e+03	1.286801835853869092e-01
3.800000000000000000e+01	7.219112162378717168e-02	1.160466918866280173e+00	-2.362135787999998016e+01	-3.272058578490998002e+02	9.880909494883078878e+03	7.395444204786039144e-02
3.810000000000000142e+01	1.184166848606169886e-01	1.157739038672548126e+00	-4.949964617099993802e+01	-4.180124298300004853e+02	9.887238642029145922e+03	1.213090981417671438e-01
3.820000000000000284e+01	3.776865193563371803e-01	1.155702348021591996e+00	-1.249125137599997402e+02	-3.307306651369997894e+02	9.791961480275240319e+03	3.869117860996469371e-01
3.830000000000000426e+01	1.619240733549925102e-03	1.152696923263029305e+00	5.928758850000164227e-01	-3.661443741599998702e+02	9.869223367983413482e+03	1.658791861067232878e-03
3.839999999999999858e+01	2.128447191778284620e-01	1.150255748706963788e+00	-9.487633075999993082e+01	-4.457537453900006312e+02	9.884223219039629839e+03	2.180436055788222416e-01
3.850000000000000000e+01	9.401946517984496876e-03	1.147300168908546691e+00	3.503615899999998895e+00	-3.726479291600003876e+02	9.940891968317624560e+03	9.631595870263621323e-03
3.860000000000000142e+01	8.797008493575633747e-02	1.144562881869857218e+00	3.228634629999998396e+01	-3.670150633999998604e+02	9.888333642513955056e+03	9.011881796532549005e-02
3.870000000000000284e+01	2.051774930493523164e-02	1.141665858332318928e+00	9.909712662000005778e+00	-4.829824419200002126e+02	9.837822680774983382e+03	2.101891018998075858e-02
3.880000000000000426e+01	6.093931881359825747e-02	1.138887641007077844e+00	2.858129807000003453e+01	-4.690124311599998350e+02	9.891226276255061748e+03	6.242780580585078481e-02
3.889999999999999858e+01	1.673381157841842271e-01	1.136396488378301317e+00	4.988330574999999811e+01	-2.980988850999997908e+02	9.969561513973885667e+03	1.714254704429176990e-01
3.900000000000000000e+01	1.444540813102848653e-01	1.133859551275825606e+00	6.606336206300004221e+01	-4.573312257000000614e+02	9.932093093702025726e+03	1.479824768551357417e-01
3.910000000000000142e+01	6.910719449721254570e-02	1.131143346284043449e+00	-3.179092975599997928e+01	-4.600234460000003764e+02	9.949600887411916119e+03	7.079518776794159474e-02
3.920000000000000284e+01	6.642598522064036004e-02	1.128434141802965973e+00	2.511547354500006790e+01	-3.780971175900000958e+02	9.928862442187146371e+03	6.804848801314644646e-02
3.930000000000000426e+01	2.431400533578035039e-01	1.126187202492191508e+00	8.162955290000000730e+01	-3.357305872590001741e+02	9.940862946685068891e+03	2.490789252350178173e-01
3.939999999999999858e+01	1.945383831163491617e-01	1.123828597886176839e+00	-9.166154589999986513e+01	-4.711746054000001322e+02	9.922324383416698765e+03	1.992901240022008358e-01
3.950000000000000000e+01	1.297948786973053548e-01	1.121318411726608844e+00	-6.105824935999977754e+01	-4.704210980649993417e+02	1.004620834973670571e+04	1.329652126026266423e-01
3.960000000000000142e+01	2.732032807312881895e-01	1.119182101572968158e+00	-1.086431088550001220e+02	-3.976639979000000835e+02	9.983038206670014915e+03	2.798764687078905133e-01
3.970000000000000284e+01	1.171381035594602250e-02	1.116399517926694340e+00	4.254150490000016660e+00	-3.631739255399995727e+02	1.000050756594609084e+04	1.199992865664235159e-02
