0.000000000000000000e+00	6.464086773823869425e-01	6.464086773823869425e-01	-4.718329214999993582e+01	7.299297457000004385e+01	3.689476981653758685e+03	6.659047983639470036e-01
1.000000000000000056e-01	2.921874039448204119e+00	1.784141358415295642e+00	4.500353083599998882e+01	1.540228299659998612e+01	2.898651013748115929e+03	2.914471036221644606e+00
2.000000000000000111e-01	4.179743145849859509e+00	2.582675287560150412e+00	2.626649727999992834e+01	6.284237180000018519e+00	2.914255238152006768e+03	2.915962486206370663e+00
2.999999999999999889e-01	2.258547351963328342e+00	2.501643303660944895e+00	-3.965527429000001547e+01	1.755786712000001160e+01	2.912177206644035323e+03	2.326666660934812558e+00
4.000000000000000222e-01	3.645985480585980376e-01	2.074234352540475612e+00	-2.091931178999998409e+01	5.737628934999995067e+01	2.922964951695684249e+03	3.755950857774854601e-01
5.000000000000000000e-01	1.091980974019582940e-01	1.746728310017389374e+00	-4.544803089999999379e+00	4.161980105999992929e+01	2.914573251601545508e+03	1.124915855502390954e-01
5.999999999999999778e-01	5.194448953246364908e+00	2.239259830478671720e+00	4.581859886899999168e+01	8.820685173999992301e+00	2.901337087034510205e+03	2.035803323395695585e+00
7.000000000000000666e-01	2.582608794905404959e-01	1.991634961605155185e+00	1.124281987399999849e+01	4.353280255289999445e+01	2.933498267276848765e+03	2.660502015209023075e-01
8.000000000000000444e-01	6.225035925054247382e-02	1.777258894676864820e+00	3.602396859000002394e+00	5.786949508999997960e+01	2.906704398877631775e+03	6.412787200301472978e-02
9.000000000000000222e-01	1.522856819910855419e+00	1.751818687200264124e+00	4.328152184999998298e+01	2.842126803000007840e+01	2.910573965686587599e+03	1.568787207044276766e+00
1.000000000000000000e+00	1.352962304895878320e+00	1.715559016081683597e+00	-1.587157077650000936e+01	1.173097781000000417e+01	2.922687556571518599e+03	1.393768559054710643e+00
1.100000000000000089e+00	4.309331415280499566e-01	1.608506859868880978e+00	-1.444398981999994547e+01	3.351793683999996887e+01	2.958172496122523626e+03	4.439303752536495895e-01
1.199999999999999956e+00	6.420485757774868629e-01	1.534163914938773576e+00	3.497771837999994915e+01	5.447830537999992373e+01	2.935501229439852978e+03	6.614131931586848534e-01
1.300000000000000044e+00	5.953989425450281064e-02	1.428833627747039925e+00	-4.906684485999981860e+00	8.241003024000005439e+01	2.926107467994269427e+03	6.133565755755079896e-02
1.400000000000000133e+00	3.083222078490203444e+02	2.188839190916526078e+01	-2.621091178999997950e+01	8.501142999999200534e-02	2.933795632923237008e+03	0.000000000000000000e+00
1.500000000000000000e+00	1.337229048013829913e-01	2.052872509639251675e+01	-7.688159200000026061e+00	-5.749321113999995703e+01	2.935139105948907400e+03	1.377560776550808830e-01
1.600000000000000089e+00	8.674900552210422333e+00	1.983144129967592306e+01	5.256411568999998707e+01	6.059333518999972412e+00	2.920906019052511965e+03	6.654813993237729264e-02
1.699999999999999956e+00	8.552169475588881908e-02	1.873444576606925338e+01	4.664862650000030087e+00	5.454595659400001040e+01	2.944886863643243032e+03	8.810108665740336298e-02
1.800000000000000044e+00	7.809240521977032223e+00	1.815943496374860899e+01	-4.996135991000000587e+01	6.397723283000060768e+00	2.954913236909890657e+03	2.114731016157374854e-01
1.900000000000000133e+00	4.698218836313305946e-02	1.725381232497933581e+01	-1.941969586000021453e+00	4.133416627999996962e+01	2.965381673705424419e+03	4.839920280052471130e-02
2.000000000000000000e+00	9.329904249191223187e-02	1.643664502581327014e+01	-9.024147719999989548e+00	9.672283315000002801e+01	2.933589089590923777e+03	9.611300443817183403e-02
2.100000000000000089e+00	8.396469456154530275e-02	1.569334137439273569e+01	-6.601774769999959602e+00	-7.862560334999996314e+01	2.923452887993501008e+03	8.649712628876243814e-02
2.200000000000000178e+00	3.702035498730512852e+00	1.517198024936394418e+01	2.525584936299999939e+01	-6.822152130000005421e+00	2.937656131238222770e+03	3.099353997451521625e+00
2.300000000000000266e+00	2.291355560070153508e-01	1.454936172047407439e+01	4.395464769999997579e+00	1.918281407999997867e+01	2.933838501523842751e+03	2.360464386690176997e-01
2.399999999999999911e+00	3.434466421285435445e+01	1.534117382016928488e+01	6.686926704999996218e+01	-1.947005992999997437e+00	2.946734330415059048e+03	1.582863635563930261e-54
2.500000000000000000e+00	1.777873948558661432e-02	1.475181247091222048e+01	-6.461211400000045346e-01	3.634234814700000271e+01	2.962111220490215146e+03	1.831495824012785781e-02
2.600000000000000089e+00	6.678031907474221818e+00	1.445278356115525931e+01	-3.303422825000001239e+01	-4.946701169999991876e+00	2.973212128847927033e+03	7.087241734714078145e-01
2.700000000000000178e+00	3.057460563980583412e+00	1.404580773982759112e+01	6.339194515999998458e+01	2.073352830999999696e+01	3.000264469367732545e+03	2.990773560860402025e+00
2.800000000000000266e+00	1.114108709416491566e-01	1.356531129607290254e+01	1.052095458999998456e+01	9.443382410600018773e+01	2.998648042313307997e+03	1.147710978299006229e-01
2.899999999999999911e+00	1.205679212594173433e-01	1.311715318357911997e+01	6.725032670000056001e+00	5.577795983999994434e+01	3.038039387270423504e+03	1.242043309513285315e-01
3.000000000000000000e+00	1.194196976656324738e+00	1.273254169303322314e+01	-2.890945314999999383e+01	2.420827863000006630e+01	3.084873830968578204e+03	1.230214761607766771e+00
3.100000000000000089e+00	7.800220386460973154e-01	1.235902545383362572e+01	-6.336935820000014985e+00	8.124047149999997330e+00	3.136324839692160367e+03	8.035480285744958096e-01
3.200000000000000178e+00	9.848044301762996611e+00	1.228293511589209075e+01	2.734620166790000084e+01	-2.776815459999959934e+00	3.200021321172323496e+03	1.013986797805701244e-02
3.300000000000000266e+00	1.265248654212932866e+00	1.195888551407799838e+01	-4.632323796400003602e+01	3.661196382999997212e+01	3.274337926173501728e+03	1.303409405603495053e+00
3.399999999999999911e+00	8.117850672559555336e-02	1.161952245672507367e+01	8.652231050999997564e+00	1.065827815759999879e+02	3.287644356566987881e+03	8.362690515154731774e-02
3.500000000000000000e+00	7.495086235322641344e-02	1.129883991243696606e+01	1.244463065940001556e+01	1.660371911500002966e+02	3.312555623841445595e+03	7.721143083140348529e-02
3.600000000000000089e+00	1.453062868405470554e-01	1.099739305769111652e+01	1.566820027860001829e+01	1.078287844199999199e+02	3.362657885264253764e+03	1.496888222964390669e-01
3.700000000000000178e+00	1.229562353027719435e-01	1.071122366762826417e+01	9.465497392000051136e+00	7.698265458999995303e+01	3.403889045771741166e+03	1.266646781544478739e-01
3.800000000000000266e+00	1.332176887383438491e+01	1.077816072419765270e+01	9.232640027000005034e+01	6.930491073999985652e+00	3.435400328443708531e+03	4.768300655807915367e-06
3.899999999999999911e+00	2.776594942419291723e+00	1.057812157965319422e+01	5.408530135200001610e+01	1.947900305000002064e+01	3.461056640376019914e+03	2.813695794637006031e+00
4.000000000000000000e+00	2.014789277474800411e+00	1.036925981618542814e+01	-6.489562132000011729e+01	3.220963206700001535e+01	3.496862121779100562e+03	2.075556678780525743e+00
4.099999999999999645e+00	2.786126115770393707e-01	1.012900631131380003e+01	3.978733902499990194e+01	1.428052334020000842e+02	3.537862660010677246e+03	2.870157555513599967e-01
4.200000000000000178e+00	2.176737866752389006e-01	9.898510206089646601e+00	-1.261960068000002622e+01	5.797482954999995286e+01	3.551682557243794690e+03	2.242389746561921915e-01
4.299999999999999822e+00	1.766561301231913406e-01	9.677558977090409797e+00	1.959477135000000558e+01	1.109204154779999527e+02	3.559756669810354651e+03	1.819841979625074491e-01
4.400000000000000355e+00	8.350481397609892387e-01	9.481058736260866482e+00	7.067446893199992530e+01	8.463520312999996520e+01	3.610213426167535999e+03	8.602337539518957188e-01
4.500000000000000000e+00	9.114093201656052745e-01	9.294762009824014015e+00	2.141294405999997608e+01	2.349432201999996295e+01	3.589620537665764914e+03	9.388980389767834778e-01
4.600000000000000533e+00	5.395835260043340131e-01	9.108481616551253879e+00	6.473666434900010813e+01	1.199752424400001587e+02	3.621300212456613735e+03	5.558577284875630964e-01
4.700000000000000178e+00	1.741450430791195814e+01	9.281523755954601995e+00	8.686013373999993803e+01	-4.987803971000003500e+00	3.593262861315473856e+03	1.092292035321703331e-11
4.799999999999999822e+00	5.568907672275318771e-02	9.093241415562115293e+00	-5.457599613000005512e+00	9.800125866999989910e+01	3.638275696411519675e+03	5.736869677602161183e-02
4.900000000000000355e+00	3.893472918343877653e-01	8.919163533087560936e+00	2.788995003999999156e+01	7.163257745700006751e+01	3.618092958478324817e+03	4.010902683305953564e-01
5.000000000000000000e+00	2.913255302820508819e-01	8.749990238914902463e+00	3.497410033700001009e+01	1.200516147800000510e+02	3.637794492232140328e+03	3.001121044450028030e-01
5.100000000000000533e+00	1.242442163627624080e-01	8.584110507711976368e+00	-7.872282089999953492e+00	6.336135653200012996e+01	3.637414609171596567e+03	1.279915055904944643e-01
5.200000000000000178e+00	3.635777804272574798e+00	8.490745739722553864e+00	6.829350017400007289e+01	-1.878373867999995639e+01	3.670366601694641304e+03	3.107821587181763601e+00
5.299999999999999822e+00	9.049900483952617591e-01	8.350268782475751550e+00	6.267340014000001247e+01	6.925313737000000458e+01	3.667850873312826025e+03	9.322851576473063506e-01
5.400000000000000355e+00	1.047150461353259843e+00	8.217484813000798027e+00	4.721553764999998748e+01	4.508954480999999959e+01	3.683170446670500496e+03	1.078733224386564160e+00
5.500000000000000000e+00	4.144120397152248891e-01	8.078144227763557339e+00	2.938167974000002047e+01	7.089967695000001413e+01	3.693504168519909854e+03	4.269109858853482597e-01
5.600000000000000533e+00	5.366028226473064100e-01	7.945836483814148643e+00	4.005347552000004185e+01	7.464268510999994533e+01	3.727686019741658583e+03	5.527871251101735828e-01
5.700000000000000178e+00	5.765193089350223454e-01	7.818779291143819421e+00	5.811577396000011220e+01	1.008045577299998996e+02	3.682065158684537892e+03	5.939075195028603593e-01
5.799999999999999822e+00	8.191717451545716955e+00	7.825100276913342867e+00	7.955189850999997248e+01	-9.711260059999885286e+00	3.717713092638102808e+03	1.300256293057477919e-01
5.900000000000000355e+00	1.094008186364666457e+00	7.712915408737531564e+00	7.822964988300012124e+01	7.150737157000010313e+01	3.719356726472386072e+03	1.127004209936864454e+00
6.000000000000000000e+00	1.539503887615866651e+00	7.611711941178159968e+00	8.916982499299997755e+01	5.792114311000000271e+01	3.733718558251780905e+03	1.585936361520894122e+00
6.100000000000000533e+00	1.016031813791123461e+01	7.652818492738370892e+00	7.398291859000001125e+01	-7.281555319999997167e+00	3.782098644993825019e+03	5.784212161769860042e-03
6.200000000000000178e+00	9.388069489002378587e-01	7.546246880931416712e+00	2.095316360000001410e+01	2.231892683000005917e+01	3.793888637371346704e+03	9.671219986427724846e-01
6.299999999999999822e+00	6.332411798835732020e-01	7.438231166852544263e+00	4.605238349000002529e+01	7.272487158600006296e+01	3.774428756081854317e+03	6.523401602739814509e-01
6.400000000000000355e+00	7.655964974123430800e+00	7.441580917733634948e+00	5.765965250999989422e+01	7.531337030000144317e+00	3.793850360207247832e+03	2.541897468828831497e-01
6.500000000000000000e+00	5.313352889892031072e+01	8.133883159872826951e+00	9.907272548900002107e+01	1.864599011999995559e+00	3.805181832449261492e+03	1.220763390457046871e-138
6.600000000000000533e+00	4.163184321545395861e+00	8.074618998106744883e+00	1.199164223200003079e+02	-2.880401468159994849e+01	3.833613434898209107e+03	2.925619034440086974e+00
6.700000000000000178e+00	3.053931265201063283e+00	8.000785354975779029e+00	1.086532699999999636e+02	3.557816485199987255e+01	3.843158601462185743e+03	2.989013293584589448e+00
6.799999999999999822e+00	7.816520275139204887e-01	7.896160234287926905e+00	6.091632865200003977e+01	7.793279683000012881e+01	3.858622531707162125e+03	8.052271790041568567e-01
6.900000000000000355e+00	2.072739962937596214e+00	7.812968516125779139e+00	1.054517415670001554e+02	5.087552874580002538e+01	3.884146145357209662e+03	2.135255195939087525e+00
7.000000000000000000e+00	2.121536536514045057e+00	7.732807502328431504e+00	1.036940496899999999e+02	4.887686254999998425e+01	3.874602057907688504e+03	2.185523507032712587e+00
7.100000000000000533e+00	1.343048179367303252e+00	7.644060845065082432e+00	8.425075812000005726e+01	6.273100207000002371e+01	3.887341993862252366e+03	1.383555416824326922e+00
7.200000000000000178e+00	1.255180658134702476e+01	7.711290238712780187e+00	1.337023647300000562e+02	1.065204151000002852e+01	3.930039917217349284e+03	3.405603289415165004e-05
7.299999999999999822e+00	2.270209319348809540e+00	7.637762118180835280e+00	1.067631345100000573e+02	-4.702788134999999414e+01	3.933128012749534719e+03	2.338680361109449546e+00
7.400000000000000355e+00	2.378747838052513774e+00	7.567641927779124700e+00	1.102584101460001165e+02	4.635144943999988243e+01	3.937813804505871758e+03	2.450492474623755079e+00
7.500000000000000000e+00	3.184368199936926658e+00	7.509967273465410820e+00	8.449398285999994584e+01	2.653398651000017239e+01	3.948225226815832229e+03	3.045821538476809476e+00
7.600000000000000533e+00	2.743545480410277460e+00	7.448065691737421723e+00	1.125487554399999937e+02	4.102310541000003496e+01	3.977266148042885561e+03	2.788167453704682330e+00
7.700000000000000178e+00	2.748749486704244127e+00	7.387818048083150124e+00	1.242876915890000333e+02	4.521608541999992070e+01	3.964272941461008941e+03	2.792248964125997102e+00
7.799999999999999822e+00	2.004373971891893813e+00	7.319673186359210604e+00	9.455068850660006774e+01	-4.717217936000002965e+01	4.013332285525114912e+03	2.064827240567892463e+00
7.900000000000000355e+00	5.338563345136837057e+00	7.294909313343930890e+00	1.295527243499999486e+02	-2.426733860299999535e+01	4.062957892299231844e+03	1.887931896120255360e+00
8.000000000000000000e+00	3.372768627857092127e+01	7.621239893161547485e+00	1.269276789799999676e+02	-3.763308219000014887e+00	4.064769183321846413e+03	2.041113785884611262e-52
8.099999999999999645e+00	4.112089827367727324e+00	7.578445380164062328e+00	1.914329602690000911e+02	-4.655369126299998328e+01	4.066360732059418751e+03	2.954044607994070759e+00
8.199999999999999289e+00	7.754574098210809119e-01	7.496481669678002113e+00	8.069824019499995416e+01	-1.040653415299999978e+02	4.097545565480691039e+03	7.988457274704363620e-01
8.300000000000000711e+00	3.919689663120468737e+00	7.453900812457080249e+00	1.715337151500000914e+02	4.376206533999988579e+01	4.125787797892873641e+03	3.041378936597324945e+00
8.400000000000000355e+00	2.696386665079762768e+00	7.397930057782052593e+00	1.258305984300000944e+02	-4.666637765999998066e+01	4.185867567262588636e+03	2.750146678059754990e+00
8.500000000000000000e+00	2.854631852175786744e+00	7.345101008879654003e+00	1.568617660150005406e+02	-5.494991093000004412e+01	4.188385424078575852e+03	2.870194364142376831e+00
8.599999999999999645e+00	9.806045852395937956e+00	7.373387731218921992e+00	1.544673321610002006e+02	-1.575225472999993848e+01	4.243700828505509890e+03	1.091388800186851929e-02
8.700000000000001066e+00	1.409204859570415413e+00	7.305612925859278128e+00	1.851922138200001484e+02	-1.314161050200000602e+02	4.284688202104229276e+03	1.451707427050237031e+00
8.800000000000000711e+00	1.548807383454584574e+00	7.240929717517651909e+00	1.220046512349999972e+02	-7.877328875000002029e+01	4.286117738594042748e+03	1.595520457058795527e+00
8.900000000000000355e+00	3.077056805774009973e+01	7.502370143520123769e+00	8.467686559400000590e+01	2.751878530000039902e+00	4.358800852534614023e+03	7.064096176580958329e-43
9.000000000000000000e+00	1.504850776663968270e+00	7.436463337290934561e+00	7.879634932999998398e+01	5.236157003200001014e+01	4.389061694683005953e+03	1.550238089408348063e+00
9.099999999999999645e+00	4.223685931350566847e+01	7.814728510945442075e+00	9.266924857000012139e+01	-2.194037389999975218e+00	4.451924694081058988e+03	3.523551541862508661e-85
9.200000000000001066e+00	3.123434349773320573e+00	7.764284487707032945e+00	1.774103271900000323e+02	-5.679976184000005190e+01	4.451714239077202365e+03	3.021406123162468926e+00
9.300000000000000711e+00	8.528563278826160854e+01	8.588979682393784287e+00	1.707126316299998336e+02	-2.001657559999907576e+00	4.531315228310524617e+03	0.000000000000000000e+00
9.400000000000000355e+00	3.515105098157409902e+00	8.535570476243927729e+00	8.569442896200000348e+01	-2.437890946900004252e+01	4.588773182288337921e+03	3.111824619088595867e+00
9.500000000000000000e+00	3.619177496863672072e+00	8.484358049375382294e+00	6.383206531200001876e+01	1.763717456999994582e+01	4.668252170542607018e+03	3.109251717206646948e+00
9.599999999999999645e+00	1.151919056515660067e+01	8.515644982527765805e+00	5.845783615000002698e+01	-5.074821518000063314e+00	4.736120304075774584e+03	3.746547606996416049e-04
9.700000000000001066e+00	3.034394096017374753e+00	8.459713851032763188e+00	7.068247534000005317e+01	-2.329376906999997487e+01	4.862063656268395789e+03	2.979047641594914975e+00
9.800000000000000711e+00	4.030355329307933054e+00	8.414972855863824819e+00	3.917381890000000766e+01	-9.719693599999949640e+00	4.814938045806945411e+03	2.995056423252118183e+00
9.900000000000000355e+00	5.197328820546133210e-01	8.336020456125732281e+00	2.922831480000001747e+01	-5.623718608000006469e+01	4.890813687247138660e+03	5.354083757495061713e-01
1.000000000000000000e+01	4.513171087938752102e+00	8.298170462381307289e+00	1.095368505919999507e+02	2.427048486700012120e+01	4.920278955883900380e+03	2.680115935320950271e+00
1.009999999999999964e+01	1.088840623716344602e+00	8.227490758080671540e+00	1.433194336000002522e+02	-1.316257223309998494e+02	4.892234210626148524e+03	1.121680790119391702e+00
1.020000000000000107e+01	7.393589637933080105e-01	8.154790449398268137e+00	5.475550889000009391e+01	-7.405808487000004448e+01	4.936718278083477344e+03	7.616585280028833616e-01
1.030000000000000071e+01	9.827910578807845354e+00	8.170878142950284584e+00	6.852395579999999597e+01	6.972382914000033516e+00	4.972595354372825568e+03	1.050442823822625611e-02
1.040000000000000036e+01	6.698092139952861734e-02	8.093698169411705834e+00	-6.634475477999991710e+00	-9.905022713000006718e+01	4.994223321674134240e+03	6.900111109182924252e-02
1.050000000000000000e+01	1.057274601396896152e+01	8.117085413228284807e+00	3.347231465000000128e+01	-3.165905490000004541e+00	5.051652432761084128e+03	2.651041711786668482e-03
1.059999999999999964e+01	2.319526732674108693e+00	8.062902621821235627e+00	1.177408859500000347e+02	-5.076073678799998135e+01	5.041371459041078197e+03	2.389485220829467682e+00
1.070000000000000107e+01	5.213296993866666895e+00	8.036517384525360796e+00	1.354478431800000067e+02	-2.598122519000001773e+01	5.084924777143403844e+03	2.016505688758866821e+00
1.080000000000000071e+01	1.084425250322361034e+00	7.972736722743682058e+00	5.134938920000001872e+01	-4.735170929000009465e+01	5.103053745379394059e+03	1.117132246090668968e+00
1.090000000000000036e+01	9.250007316228869847e-01	7.908666395551675166e+00	9.093189605829992672e+01	-9.830467474199998890e+01	5.126808924469518388e+03	9.528993765556549311e-01
1.100000000000000000e+01	2.643987898913479739e+00	7.861236859545924993e+00	4.833102872000001327e+01	1.827959528100002373e+01	5.149035380438957873e+03	2.705771157270596028e+00
1.109999999999999964e+01	5.212254975228424181e-01	7.795701043813575204e+00	2.689643311999997266e+01	-5.160229737000011596e+01	5.114723652568569378e+03	5.369460095053383286e-01
1.120000000000000107e+01	6.043139792040404072e-03	7.726766018114269663e+00	-6.785027359999505903e-01	-1.122765250100000003e+02	5.176033784029780691e+03	6.225404957432674295e-03
1.130000000000000071e+01	1.239936705678244211e+00	7.669864006601673445e+00	1.254605165089999019e+02	-1.011830006599999052e+02	5.210344255363863340e+03	1.277334031656713220e+00
1.140000000000000036e+01	1.179899521399887297e+00	7.613429532817309386e+00	9.194387277000005554e+01	-7.792517167979998760e+01	5.225214682964874555e+03	1.215486085473328925e+00
1.150000000000000000e+01	3.996614265495183282e+00	7.582250090857636238e+00	1.261060306499999939e+02	3.155321536499979729e+01	5.220573812602956423e+03	3.010327319057504170e+00
1.159999999999999964e+01	1.075887885020530232e+00	7.526640157474412618e+00	1.016745684599998611e+02	-9.450294020000019657e+01	5.251234013825657712e+03	1.108337388102536014e+00
1.170000000000000107e+01	2.757263859793250282e-01	7.465191735682081386e+00	9.887762300000042970e+00	-3.586077648999999212e+01	5.203808862377772130e+03	2.840424794461230973e-01
1.180000000000000071e+01	1.506280687878217117e+00	7.415116852927426727e+00	1.189810440239999991e+02	-7.898995518000003813e+01	5.245204511520470078e+03	1.551711127707676940e+00
1.190000000000000036e+01	9.688540760728358014e-01	7.361397996453638903e+00	7.900786817999990319e+01	-8.154774813999988226e+01	5.275130733937607147e+03	9.980753674037066148e-01
1.200000000000000000e+01	6.222456496336048470e-01	7.305702522512977026e+00	7.380588400999998555e+01	-1.186121334129999809e+02	5.310377675597500456e+03	6.410129974276224107e-01
1.209999999999999964e+01	8.921054650752595627e-01	7.253132054829061204e+00	1.379175130700000125e+02	-1.545977672699999061e+02	5.313531463155619349e+03	9.190119666182910985e-01
1.220000000000000107e+01	6.671453241571126958e-01	7.199587447262622675e+00	4.335093303500008233e+01	-6.497974499000001458e+01	5.340012712373614704e+03	6.872668763688181137e-01
1.230000000000000071e+01	1.379673810197773687e+00	7.152652659866938656e+00	8.888694365999992897e+01	-6.442605708900001105e+01	5.340282474351837664e+03	1.421285701343216745e+00
1.240000000000000036e+01	1.597640068908533451e+01	7.223242644100686505e+00	1.295345967900000517e+02	8.107871060000062968e+00	5.359069148002703514e+03	1.701477100373820814e-09
1.250000000000000000e+01	9.023509025267147932e-01	7.173076836627877206e+00	6.370303540000008269e+01	-7.059674370760005502e+01	5.424802045074092348e+03	9.295664133622444369e-01
1.259999999999999964e+01	3.475356773305661395e+00	7.143960930617465621e+00	5.049490893000001535e+01	-1.452941732999995850e+01	5.434993501963259405e+03	3.109873344883729018e+00
1.270000000000000107e+01	6.364337732880792631e-01	7.093120874700830747e+00	7.660952750500007369e+01	-1.203731334200001299e+02	5.458866887466427215e+03	6.556290444453616306e-01
1.280000000000000071e+01	5.837713215711747283e-01	7.042660800645561991e+00	1.373564903800000536e+02	-2.352916035859997805e+02	5.515087409496807595e+03	6.013782577234011439e-01
1.290000000000000036e+01	5.484825829563987343e-01	6.992705583586414697e+00	8.395481588400006956e+01	-1.530674236390000544e+02	5.477423580929157652e+03	5.650251869896530943e-01
1.300000000000000000e+01	9.801357743362145714e-01	6.946808104126488637e+00	8.782467770999998891e+01	-8.960460377999999082e+01	5.567334931249296460e+03	1.009697329283457234e+00
1.309999999999999964e+01	1.907264085516624519e-01	6.895625667038800088e+00	2.705033337100001134e+01	-1.418279386499999646e+02	5.541642184074356010e+03	1.964788454628736691e-01
1.320000000000000107e+01	9.503176949927304440e-01	6.850924103339206539e+00	1.124598633400000267e+02	-1.183392290099999684e+02	5.613230208605355074e+03	9.789799165883967813e-01
1.330000000000000071e+01	4.761510806316178734e-01	6.803351170333926667e+00	6.288554911999997188e+01	-1.320705794400000741e+02	5.691285613356401882e+03	4.905121178489494915e-01
1.340000000000000036e+01	4.422215573613452744e-02	6.753283548003572001e+00	-4.301372643999987311e+00	-9.726736683000002870e+01	5.676052662308120489e+03	4.555592573097488190e-02
1.350000000000000000e+01	9.736467143826704751e-01	6.710786218344594545e+00	9.779489271999989342e+01	-1.004418659000001099e+02	5.751905120978730338e+03	1.003012554912180887e+00
1.359999999999999964e+01	2.813466897379517939e-01	6.663856002807320600e+00	3.945821072000002516e+01	-1.402476451979999013e+02	5.785402315637319589e+03	2.898322953506495825e-01
1.370000000000000107e+01	4.565458556414225266e-01	6.618875494494523615e+00	9.753952061999984835e+01	-2.136467113099998016e+02	5.818050966825801879e+03	4.703155860714948178e-01
1.380000000000000071e+01	3.531222429104980964e-01	6.573798132972336283e+00	5.067431866999997681e+01	-1.435036157800000751e+02	5.846289654870588492e+03	3.637726475383282199e-01
1.390000000000000036e+01	6.896932026600418597e-01	6.531768812041534034e+00	5.563334701300004070e+01	-8.066390505000002520e+01	5.892594127324427063e+03	7.104948140704430148e-01
1.400000000000000000e+01	5.003147943554068222e-01	6.488992542412554521e+00	9.704787073000008490e+01	-1.939736178599998198e+02	5.880621861048947721e+03	5.154046254497489654e-01
1.409999999999999964e+01	1.481245549728336941e-01	6.444338542501006906e+00	-2.395383653000000024e+01	-1.617141501920000906e+02	5.961304617783233880e+03	1.525920912933304840e-01
1.420000000000000107e+01	1.764561391183715189e-01	6.400507197022807127e+00	2.038771610999998174e+01	-1.155398514999999833e+02	6.015436995717293030e+03	1.817781750943144592e-01
1.430000000000000071e+01	3.001123660059205611e-01	6.358143344029634214e+00	5.358240984600000445e+01	-1.785411596299998394e+02	5.996816491824683908e+03	3.091639570510891222e-01
1.440000000000000036e+01	1.822369458473149240e-01	6.315550886111135576e+00	3.686499257270002516e+01	-2.022915408359999958e+02	6.005510912793684838e+03	1.877333348468201157e-01
1.450000000000000000e+01	5.041053476857728644e-01	6.275746464615071574e+00	9.901843801299990844e+01	-1.964240975970000704e+02	6.042519755225041990e+03	5.193095044210008782e-01
1.459999999999999964e+01	5.877951282733157035e-01	6.237052918109345256e+00	1.111833186359999814e+02	-1.891531815900002584e+02	6.072678878604925558e+03	6.055234251451863114e-01
1.470000000000000107e+01	2.573216916954527700e-01	6.196649328741684393e+00	4.482096304569989798e+01	-1.741826068000000873e+02	6.091862107613861554e+03	2.650826871894946257e-01
1.480000000000000071e+01	5.737632050979314391e-01	6.158911837978974013e+00	1.099062291899998627e+02	-1.915532892549998394e+02	6.105272632642186181e+03	5.910682897181672724e-01
1.490000000000000036e+01	1.987338133315682542e-01	6.119177317814657791e+00	2.832484824999999873e+01	-1.425265674479999802e+02	6.125144978107830866e+03	2.047277589628813399e-01
1.500000000000000000e+01	4.966088026624709828e-01	6.081941764734180467e+00	4.392766600000003763e+01	-8.845527055599990263e+01	6.147177638624355495e+03	5.115868585518534850e-01
1.509999999999999964e+01	5.084626647350209971e-01	6.045274139076290965e+00	9.847227031399999930e+01	-1.936666684569998722e+02	6.159068539388227691e+03	5.237982410865374971e-01
1.520000000000000107e+01	8.347520742402742000e-02	6.006308132987061121e+00	9.191710370000006236e+00	-1.101130581600001364e+02	6.187165401158253189e+03	8.599287588957144068e-02
1.530000000000000071e+01	2.401828355027894324e-01	5.968865760925474717e+00	4.917064818000006454e+01	-2.047217407399997455e+02	6.204274097111251649e+03	2.474269115532823082e-01
1.540000000000000036e+01	6.555257616339064120e-01	5.934586148026818719e+00	5.474856302000004149e+01	-8.351855293000009794e+01	6.270318767279875829e+03	6.752968600156562529e-01
1.550000000000000000e+01	1.215500822163503442e-01	5.897323096322905300e+00	2.301499002000001681e+01	-1.893457379899998898e+02	6.209255807999887111e+03	1.252161145440796042e-01
1.559999999999999964e+01	3.512054037276148288e-01	5.861997505924209761e+00	5.537798523499996861e+01	-1.576797641700000554e+02	6.259118519014494268e+03	3.617979951949486517e-01
1.570000000000000107e+01	6.029600916981567305e-02	5.825277876197915816e+00	-1.646421203000002365e+01	-2.730564137940002638e+02	6.296665660143999958e+03	6.211457740785401166e-02
1.580000000000000071e+01	3.808912727333949588e-01	5.791036451018893416e+00	1.051042683899999446e+02	-2.759429682799997749e+02	6.325935284016256446e+03	3.923792099994936056e-01
1.590000000000000036e+01	3.157033633864807509e-01	5.756815619221191227e+00	5.287130736999998959e+01	-1.674714732300000435e+02	6.361558831999077483e+03	3.252251894111447550e-01
1.600000000000000000e+01	4.377540759240426405e-01	5.723777969883942163e+00	9.008027905999996676e+01	-2.057782760099995869e+02	6.381796723790475880e+03	4.509570336240326660e-01
1.610000000000000142e+01	2.976302878036874433e-01	5.690283231105668804e+00	6.740273064999998098e+01	-2.264646220899998923e+02	6.431038444235377938e+03	3.066070176989215690e-01
1.619999999999999929e+01	3.105322931831847599e-01	5.657278624124549182e+00	7.083455536000006703e+01	-2.281068890899999246e+02	6.404059136777840649e+03	3.198981562484778385e-01
1.630000000000000071e+01	2.526047792423179450e-01	5.624323295802096112e+00	3.645683294000004793e+01	-1.443236072149998677e+02	6.449561382891323774e+03	2.602235094805495641e-01
1.639999999999999858e+01	3.206581775682245672e-01	5.592179870843103195e+00	6.309543288400011818e+01	-1.967685133199999825e+02	6.452483021455984272e+03	3.303294441250292923e-01
1.650000000000000000e+01	1.639589264271220648e-01	5.559479744671922852e+00	3.322688749569999800e+01	-2.026537268799999367e+02	6.525626439752341867e+03	1.689040380530585639e-01
1.660000000000000142e+01	2.617360787251124532e-01	5.527756728708169476e+00	5.530364199000005954e+01	-2.112954479159999437e+02	6.496003958603600040e+03	2.696302151044811524e-01
1.669999999999999929e+01	1.060865213463663137e-01	5.495484882235778024e+00	2.184945534000000933e+01	-2.059588255199999480e+02	6.545895531472484436e+03	1.092861622655709186e-01
1.680000000000000071e+01	1.946512815102611482e-01	5.464119002941544068e+00	4.580795641399996043e+01	-2.353334437799998113e+02	6.552766586722077591e+03	2.005220952327923245e-01
1.689999999999999858e+01	1.755979690985889352e-01	5.433010055683643813e+00	4.158824790999999266e+01	-2.368378639200001032e+02	6.559976193762155162e+03	1.808941220888699575e-01
1.700000000000000000e+01	5.252297273324473270e-01	5.404309585927204118e+00	9.076982419300006200e+01	-1.728192816769998785e+02	6.625152993657041407e+03	5.410710095823260124e-01
1.710000000000000142e+01	1.220798977752755726e-01	5.373598948205390968e+00	3.456804144000000889e+01	-2.831591610900001683e+02	6.636184031535704889e+03	1.257619096970234995e-01
1.719999999999999929e+01	4.255732404808669211e-01	5.344997643536462562e+00	6.041626872999999875e+01	-1.419644446200000516e+02	6.623742143517052682e+03	4.384088159816911245e-01
1.730000000000000071e+01	4.415302729532401549e-01	5.316816796579088233e+00	5.752064002000005161e+01	-1.302756425629997921e+02	6.659059798047471304e+03	4.548471232984056534e-01
1.740000000000000213e+01	2.576940487922612100e-01	5.287907523734592274e+00	5.333904963000004784e+01	-2.069859582710001291e+02	6.667597839605919035e+03	2.654662748270765760e-01
1.750000000000000000e+01	1.244087113337786210e-01	5.258569462300496156e+00	3.015400481200004279e+01	-2.423785640789997444e+02	6.671310967865916609e+03	1.281609618406023554e-01
1.760000000000000142e+01	6.465567019456420761e-01	5.232512893032954082e+00	1.106880004400000956e+02	-1.711961226400000555e+02	6.711975584390327640e+03	6.660572874477050931e-01
1.769999999999999929e+01	2.072257300778043154e-01	5.204280942679273991e+00	4.834650111999999211e+01	-2.333035627470004272e+02	6.726995282029614827e+03	2.134757976363792498e-01
1.780000000000000071e+01	1.419538165421339593e-01	5.175999785550016163e+00	3.403466810999999836e+01	-2.397587394200000972e+02	6.731616853675813218e+03	1.462352392363755194e-01
1.790000000000000213e+01	2.618233403119920588e-01	5.148698805298693948e+00	-4.719917284499999255e+01	-1.802710667000002616e+02	6.795822057191919157e+03	2.697201085595803405e-01
1.800000000000000000e+01	2.809652991459687596e-02	5.120408184992704115e+00	-6.300912370000025575e+00	-2.242594508700000802e+02	6.791222601525714708e+03	2.894394017615956743e-02
1.810000000000000142e+01	1.609291642518550225e-01	5.093158300263358917e+00	5.347429194999999424e+01	-3.322846557899998174e+02	6.818423535941786213e+03	1.657828962104368753e-01
1.819999999999999929e+01	4.163387187555949165e-01	5.067601909107579239e+00	9.882305160099997465e+01	-2.373621456500001727e+02	6.806876811118178921e+03	4.288957748629422251e-01
1.830000000000000071e+01	6.732714089434490567e-01	5.043719678128425699e+00	9.271381988999993951e+01	-1.377064563539001654e+02	6.856746799887725501e+03	6.935777279974273402e-01
1.840000000000000213e+01	3.807913806846526666e-02	5.016662161695668587e+00	1.188034335200003255e+01	-3.119908683500003121e+02	6.863289142337386693e+03	3.922763051392969685e-02
1.850000000000000000e+01	2.652291676005630872e-01	4.991116823017738291e+00	4.724249958999999421e+01	-1.781195485299999746e+02	6.926187537727927520e+03	2.732286578925539056e-01
1.860000000000000142e+01	1.061461128053596409e-01	4.964993984995212273e+00	2.540980953750003479e+01	-2.393852103100003035e+02	6.956040879581000809e+03	1.093475510430945291e-01
1.869999999999999929e+01	2.201851060954266859e-01	4.939755639894682027e+00	6.800632068000004438e+01	-3.088597675200001049e+02	6.941764108090732407e+03	2.268260371611380277e-01
1.880000000000000071e+01	2.419551131174502989e-01	4.914899552451416298e+00	4.690788252000004377e+01	-1.938701849099999492e+02	6.985273394986614221e+03	2.492526422541985198e-01
1.890000000000000213e+01	1.657853081546768470e-01	4.889904214323538056e+00	4.645089495799994239e+01	-2.801870411500004252e+02	6.976766581748448516e+03	1.707855046833456347e-01
1.900000000000000000e+01	9.311704859529432166e-02	4.864790145393024012e+00	1.486865310000003504e+01	-1.596770228899997903e+02	7.016968564790371602e+03	9.592552148308283733e-02
1.910000000000000142e+01	1.131174064863355033e-01	4.840041849877884772e+00	-2.756123078100000967e+01	-2.436515443300000356e+02	6.965260315677350263e+03	1.165291036357432169e-01
1.919999999999999929e+01	2.711491396913685015e-01	4.816368830654120359e+00	5.297071596999999343e+01	-1.953563859000000207e+02	7.059421179597146875e+03	2.793271803279450127e-01
1.930000000000000071e+01	4.825460955309278099e-01	4.794029538205031749e+00	1.366499542400001701e+02	-2.831852863499998421e+02	7.028087652350737699e+03	4.971000107038288096e-01
1.940000000000000213e+01	2.975360656666834469e-01	4.770970597320219220e+00	5.558836475999999749e+01	-1.868289971350000940e+02	7.102792097748888409e+03	3.065099537588192313e-01
1.950000000000000000e+01	2.212035389751324244e-01	4.747757500083765514e+00	7.241888309000009372e+01	-3.273857345390002251e+02	7.089762944490131304e+03	2.278751866622770461e-01
1.960000000000000142e+01	3.254497230663598861e-01	4.725309237256265504e+00	8.289450113199994519e+01	-2.547075485300000821e+02	7.071703055410329398e+03	3.352655058618676520e-01
1.969999999999999929e+01	2.006566838401793174e-01	4.702457456683457160e+00	3.242293140899999315e+01	-1.615841086800002984e+02	7.115514987144091720e+03	2.067086245408339129e-01
1.980000000000000071e+01	1.734681403209017633e-02	4.678914187122395596e+00	4.719070427000018775e+00	-2.720424867800005018e+02	7.143000563063514164e+03	1.787000562410866189e-02
1.990000000000000213e+01	3.665036411196678223e-01	4.657352134392381160e+00	7.483812916000006510e+01	-2.041947767050000948e+02	7.187677871503896313e+03	3.775576377281081863e-01
2.000000000000000000e+01	1.413314919286013105e-01	4.634884370002014364e+00	2.664150003999999328e+01	-1.885036355058001050e+02	7.191962850016981974e+03	1.455941448934444937e-01
2.010000000000000142e+01	2.421051198476617261e-01	4.613137938070556388e+00	5.796966388999997122e+01	-2.394400577999996642e+02	7.145666361301929101e+03	2.494071732884030612e-01
2.019999999999999929e+01	2.328013400547521705e-01	4.591559925272449938e+00	5.732947786299997261e+01	-2.462592262120001010e+02	7.156092038593074903e+03	2.398227852320604092e-01
2.030000000000000071e+01	3.057167901876400862e-01	4.570550890296543933e+00	7.555966725000003237e+01	-2.471557653199999152e+02	7.191753271169161962e+03	3.149374144399760267e-01
2.040000000000000213e+01	2.712222127502185720e-01	4.549578555284123027e+00	5.345357526000000803e+01	-1.970840615080002749e+02	7.231615093465318751e+03	2.794024573194551775e-01
2.050000000000000000e+01	1.738340822174658240e-01	4.528337077259527277e+00	5.079910286999998448e+01	-2.922275207599996634e+02	7.257510864574571315e+03	1.790770351916650405e-01
2.060000000000000142e+01	9.245737247013303683e-01	4.510927592464559766e+00	1.180788446100000755e+02	-1.277116593900001504e+02	7.314186980891558051e+03	9.524594908178108943e-01
2.069999999999999929e+01	2.012386479539561290e-01	4.490207934077490748e+00	5.240143505999991902e+01	-2.603944897900004207e+02	7.272265385017150948e+03	2.073081410841589589e-01
2.080000000000000071e+01	3.039921505511614802e-02	4.468869136378819107e+00	9.615742609999935908e+00	-3.163154901390001328e+02	7.252153100510012337e+03	3.131607585107419600e-02
2.090000000000000213e+01	1.690710500095851387e-01	4.448393907396108737e+00	4.365335104999999061e+01	-2.581953033800000412e+02	7.315724847017083448e+03	1.741703467251153881e-01
2.100000000000000000e+01	1.686760300227962694e-01	4.428110884280594739e+00	5.706688220000008727e+01	-3.383224171939996268e+02	7.327629551570132207e+03	1.737634126695306591e-01
2.110000000000000142e+01	1.577389548699559829e-01	4.407967620462620140e+00	4.727814792000000210e+01	-2.997239835839999955e+02	7.383368656203447244e+03	1.624964679653909394e-01
2.119999999999999929e+01	5.404235814178222075e-01	4.389810136711236765e+00	1.490481732850001322e+02	-2.757987963700001046e+02	7.433543525719529498e+03	5.567231205379895576e-01
2.130000000000000071e+01	3.821319124519941823e-01	4.371082668373576396e+00	8.749308133999997494e+01	-2.289604152100000363e+02	7.384854248421923330e+03	3.936572682474143714e-01
2.140000000000000213e+01	1.624395924329495866e-01	4.351507584299434406e+00	3.489240374000000600e+01	-2.148023349319999795e+02	7.408521326917311853e+03	1.673388799225490886e-01
2.150000000000000000e+01	5.058612517140630427e-01	4.333703666093019713e+00	1.203835964799999374e+02	-2.379775008899999875e+02	7.434624814851050360e+03	5.211183676971559153e-01
2.160000000000000142e+01	1.230593468599171375e-01	4.314299775220978184e+00	3.614609696399996608e+01	-2.937289843180003572e+02	7.485008988316257273e+03	1.267708996255887122e-01
2.169999999999999929e+01	2.862470159923615198e-01	4.295822468985984521e+00	8.390260952999997812e+01	-2.931126084900005253e+02	7.472084143732569828e+03	2.948804187446211755e-01
2.180000000000000071e+01	1.444575967164140121e-02	4.276272803646650189e+00	3.148932190000015119e+00	-2.179831494899995903e+02	7.543326429135823673e+03	1.488145351066803672e-02
2.190000000000000213e+01	8.455294400263800580e-02	4.257219531557358216e+00	2.771748843999997902e+01	-3.278122218799999246e+02	7.514759999915431763e+03	8.710311772910757366e-02
2.200000000000000000e+01	2.692338888952083842e-01	4.239174347653909436e+00	9.329579632000003642e+01	-3.465232281969999804e+02	7.595157015263956964e+03	2.773541642781017780e-01
2.210000000000000142e+01	2.837250612077641398e-01	4.221357008525774113e+00	6.904717593000009401e+01	-2.433594538179999631e+02	7.595810627046605077e+03	2.922824001055136511e-01
2.219999999999999929e+01	8.801722967530284381e-02	4.202821852566803962e+00	-2.266424175100003069e+01	-2.574977857700001209e+02	7.559401958679237396e+03	9.067188859040331561e-02
2.230000000000000071e+01	1.855282512436350062e-01	4.184887506132325186e+00	4.718068997000001019e+01	-2.543046121209998773e+02	7.628075843399668884e+03	1.911239082301569581e-01
2.240000000000000213e+01	8.129262187040542723e-03	4.166324136159234470e+00	2.796702689999976954e+00	-3.440290921430000708e+02	7.577772351917566994e+03	8.374446208596628485e-03
2.250000000000000000e+01	2.114194719835918168e-01	4.148824557999165386e+00	3.638424277299996135e+01	-1.720950413489998994e+02	7.614331542938744860e+03	2.177960256219819979e-01
2.260000000000000142e+01	3.637100551214108579e-01	4.132150044770629194e+00	1.243968000499997970e+02	-3.420218888600003879e+02	7.644918070358177829e+03	3.746797952950289279e-01
2.269999999999999929e+01	7.645899392482884138e-02	4.114361926126568036e+00	1.807035089829998142e+01	-2.363404221100000768e+02	7.605176359143804802e+03	7.876504866673482430e-02
2.280000000000000071e+01	2.424086985425309981e-01	4.097453833429694825e+00	-5.896511514999998127e+01	-2.432466966099999865e+02	7.626579838358788948e+03	2.497199081211301241e-01
2.290000000000000213e+01	1.044767072200523672e-01	4.080093063315739954e+00	-3.479530509000009175e+01	-3.330436612700000865e+02	7.707208613785617672e+03	1.076277950612080508e-01
2.300000000000000000e+01	9.675866447305840612e-02	4.062849191459278586e+00	1.871428579999998121e+01	-1.934119895300002554e+02	7.658865911743369907e+03	9.967697094787232592e-02
2.310000000000000142e+01	7.901143434987063785e-02	4.045677476988978505e+00	2.083127113000003661e+01	-2.636488161670000636e+02	7.749522673595429296e+03	8.139447241373069797e-02
2.319999999999999929e+01	3.428237021427226194e-01	4.029785400702085241e+00	1.029816416399998928e+02	-3.003924203499998953e+02	7.729040958214427519e+03	3.531634958462762652e-01
2.330000000000000071e+01	4.072337969692074733e-01	4.014304410942543200e+00	9.568492298000009555e+01	-2.349631187100004013e+02	7.774722585924158921e+03	4.195162425045032006e-01
2.340000000000000213e+01	2.559568181319025332e-02	3.997331182307950037e+00	1.197684313000002732e+01	-4.679243638600002555e+02	7.771148913039407489e+03	2.636766481202038395e-02
2.350000000000000000e+01	3.197011495940640935e-01	3.981748004203229829e+00	1.032051487970000068e+02	-3.228175717480004323e+02	7.837036366760991768e+03	3.293435515427349802e-01
2.360000000000000142e+01	1.572945669006004243e-01	3.965611069868619776e+00	-3.910454398999998915e+01	-2.486070864400003586e+02	7.877721686768709333e+03	1.620386769556424467e-01
2.369999999999999929e+01	6.013549273276175972e-02	3.949201508620149959e+00	-2.143705013039999940e+01	-3.564791632399997638e+02	7.847895742618456097e+03	6.194921968697172238e-02
2.380000000000000071e+01	1.070915201491252633e-01	3.933125734609810742e+00	-2.811195459000007801e+01	-2.625040204009999911e+02	7.819228237069389252e+03	1.103214725089563392e-01
2.390000000000000213e+01	2.081210702614731400e-01	3.917604881841692421e+00	4.296621794000002126e+01	-2.064481884800004536e+02	7.928236972201005301e+03	2.143981418828820318e-01
2.400000000000000000e+01	6.415697620186879002e-02	3.901615471444847216e+00	-2.184796117999999510e+01	-3.405391350000001580e+02	7.848802382526020665e+03	6.609199380545020819e-02
2.410000000000000142e+01	9.909150403099256654e-02	3.885902562488591450e+00	2.960141327000004097e+01	-2.987280651300003456e+02	7.846855498761654417e+03	1.020801705177361435e-01
2.419999999999999929e+01	3.531162835570919034e-01	3.871364347348955626e+00	-8.775697084000015025e+01	-2.485214500900001156e+02	7.883238987496271875e+03	3.637665084468104104e-01
2.430000000000000071e+01	7.504362509771323776e-03	3.855528855607811778e+00	-2.239265282000006074e+00	-2.983951373730001251e+02	7.933169813309859819e+03	7.730699136272761035e-03
2.440000000000000213e+01	5.379132177461812270e-02	3.840011559551349762e+00	1.731777686900007396e+01	-3.219436945900000069e+02	7.912047081148401958e+03	5.541370426076102501e-02
2.450000000000000000e+01	1.478952511121969238e-01	3.825002956671515353e+00	-5.908565378899992737e+01	-3.995101488700007053e+02	7.973443600218369284e+03	1.523558714738507402e-01
2.460000000000000142e+01	3.106826610596388760e-01	3.810774939280374252e+00	7.861961589570002218e+01	-2.530544048629998883e+02	7.922801099449086905e+03	3.200530593213389285e-01
2.469999999999999929e+01	2.418950467034703677e-01	3.796384294552241467e+00	-6.960499781599999380e+01	-2.877487520499997231e+02	7.949277947410023444e+03	2.491907641967260889e-01
2.480000000000000071e+01	4.804823121357111593e-02	3.781330736064937525e+00	1.295298817999999486e+01	-2.695830388100000050e+02	7.987899886533053177e+03	4.949739822117242560e-02
2.490000000000000213e+01	8.892200039732471584e-02	3.766561101122267274e+00	3.008936859999997537e+01	-3.383793489300003898e+02	7.996475614711795970e+03	9.160394780664612990e-02
2.500000000000000000e+01	1.801934757634606477e-01	3.752272783889762042e+00	5.086105413999999314e+01	-2.822580225200002246e+02	8.016187561140274738e+03	1.856282323292269554e-01
2.510000000000000142e+01	3.738826217045393419e-02	3.737531178644843965e+00	1.318685830999998387e+01	-3.527004879200001142e+02	8.035655715919616341e+03	3.851591733361978132e-02
2.519999999999999929e+01	2.164107614426147852e-01	3.723613706640092058e+00	4.791430244000002858e+01	-2.214044353459999570e+02	7.997929139333036801e+03	2.229378557320698118e-01
2.530000000000000071e+01	2.564766869690143225e-01	3.709963560893355883e+00	6.335461418799999223e+01	-2.470189978540000766e+02	8.027484745147588001e+03	2.642121965515065729e-01
2.540000000000000213e+01	1.064267427951314515e-01	3.695832043959637048e+00	3.543058207000003534e+01	-3.329105179720000365e+02	8.037704334852646753e+03	1.096366450223254657e-01
2.550000000000000000e+01	7.642899771371113038e-02	3.681693750810239418e+00	2.244199798999997242e+01	-2.936319808100001296e+02	8.039816161476435809e+03	7.873414774969127172e-02
2.560000000000000142e+01	1.815096268904765608e-01	3.668074357331952307e+00	-6.901815806000013254e+01	-3.802451651870007368e+02	8.035235085607519068e+03	1.869840794604893108e-01
2.569999999999999929e+01	7.848042518774693554e-02	3.654161202556199584e+00	-2.480391155000002712e+01	-3.160522065300002623e+02	8.165368192887071928e+03	8.084744765771212371e-02
2.580000000000000071e+01	8.560050052078495286e-02	3.640382975907414220e+00	2.175283512999999047e+01	-2.541204198299998325e+02	8.073529525973729505e+03	8.818226925723414433e-02
2.590000000000000213e+01	3.006529202870953932e-01	3.627537860308874595e+00	9.119177047500004107e+01	-3.033124387680001064e+02	8.179056052363102935e+03	3.097208148133767658e-01
2.600000000000000000e+01	1.488230396753176532e-01	3.614209451034416709e+00	-4.535340666499992324e+01	-3.047472136299995213e+02	8.102634617951505788e+03	1.533116427647794600e-01
2.610000000000000142e+01	7.493022264171099456e-02	3.600700751689406065e+00	-2.375036447000003292e+01	-3.169664206600001535e+02	8.164838165635354017e+03	7.719016861229061055e-02
2.619999999999999929e+01	1.129036322063620423e-01	3.587439165683766973e+00	-3.546691518999999460e+01	-3.141344037999998022e+02	8.166469622817740856e+03	1.163088817795367436e-01
2.630000000000000071e+01	3.060077351492263009e-02	3.573966292986157978e+00	1.107283993999997485e+01	-3.618483674799999790e+02	8.176139209177254997e+03	3.152371344975170991e-02
2.640000000000000213e+01	1.681043709742212622e-01	3.561113983846490250e+00	4.137496769999999202e+01	-2.461266620268001475e+02	8.134547380029089254e+03	1.731745119991130455e-01
2.650000000000000000e+01	9.722489510276763336e-02	3.548091844415122598e+00	2.645276182999998227e+01	-2.720780701490000411e+02	8.220390530765314907e+03	1.001572634073189388e-01
2.660000000000000142e+01	1.383158198690694618e-01	3.535321147693976762e+00	3.407834613999999362e+01	-2.463806827900000656e+02	8.226617543902320904e+03	1.424875181339364250e-01
2.669999999999999929e+01	3.638642782816391974e-01	3.523487353405124978e+00	-7.724096009999998103e+01	-2.122795907990004025e+02	8.255491534223781855e+03	3.748386699296188951e-01
2.680000000000000071e+01	2.391858558472413354e-01	3.511278054157697337e+00	7.429622761999993941e+01	-3.106213256500001307e+02	8.218935977443903539e+03	2.463998623199874505e-01
2.690000000000000213e+01	3.400237121108285604e-02	3.498399255331969382e+00	-1.212729927000000885e+01	-3.566603986149999059e+02	8.244524415559491899e+03	3.502790562295931415e-02
2.700000000000000000e+01	2.947834977917568877e-01	3.486577794972042454e+00	1.016049008500000213e+02	-3.446763526830002320e+02	8.293398838912633437e+03	3.036743665832904449e-01
2.710000000000000142e+01	4.538008074090355004e-02	3.473926332787368398e+00	1.321165892199998915e+01	-2.911334379819998617e+02	8.256787754668252092e+03	4.674877453359879698e-02
2.719999999999999929e+01	2.170683912792505457e-02	3.461280840136601533e+00	-8.443093040000027472e+00	-3.889600411300002065e+02	8.338383195463196898e+03	2.236153201274061753e-02
2.730000000000000071e+01	2.030598018550087147e-01	3.449389522478639503e+00	8.316946010499999886e+01	-4.095811152439993634e+02	8.343509011698954055e+03	2.091842222131762852e-01
2.740000000000000213e+01	1.076108128297833255e-01	3.437237599898098406e+00	3.474294881000000146e+01	-3.228574145699997189e+02	8.288602506897223066e+03	1.108564274065387545e-01
2.750000000000000000e+01	2.158279879596563255e-01	3.425565825941799591e+00	9.673759514999994735e+01	-4.482161746699998730e+02	8.378283708171602484e+03	2.223375054084436031e-01
2.760000000000000142e+01	1.246022322841741914e-01	3.413648989863613092e+00	3.717123707199996829e+01	-2.983191905200009160e+02	8.376982327757730673e+03	1.283603195131729213e-01
2.769999999999999929e+01	1.293677608230408282e-01	3.401835028608071188e+00	3.711539254500001306e+01	-2.868983146100001136e+02	8.407209740424594202e+03	1.332695796017320244e-01
2.780000000000000071e+01	1.098774300138203180e-01	3.390035897430314193e+00	4.918349173000001429e+01	-4.476214243800000077e+02	8.430373919407707945e+03	1.131914072911165414e-01
2.790000000000000213e+01	1.468664731719685479e-01	3.378453149486534191e+00	5.010907836800006265e+01	-3.411880008130000874e+02	8.400709702139924048e+03	1.512960648981976908e-01
2.800000000000000000e+01	1.581902855474551228e-01	3.366993139294580217e+00	-6.777843469999999115e+01	-4.284614220489999639e+02	8.374138699403656574e+03	1.629614110800356452e-01
2.810000000000000142e+01	3.958017690515281545e-02	3.355193802548519066e+00	-1.011064287000000128e+01	-2.554471369400001208e+02	8.419222036972278147e+03	4.077394169268509783e-02
2.819999999999999929e+01	3.649034316592571214e-02	3.343466935200877010e+00	-1.272826974999999372e+01	-3.488120046479999701e+02	8.464698302349121150e+03	3.759091648728396517e-02
2.830000000000000071e+01	5.146810709640352310e-02	3.331875390031494799e+00	-1.599915923999998135e+01	-3.108557928900005436e+02	8.506539755726549629e+03	5.302041986347021119e-02
2.840000000000000213e+01	2.821392389615255333e-02	3.320283595413476174e+00	1.249901775209999855e+01	-4.430088419500008285e+02	8.489361914400664318e+03	2.906487483924845641e-02
2.850000000000000000e+01	2.678723932214255865e-01	3.309610828972245677e+00	7.870112477800000761e+01	-2.938008050458002458e+02	8.514977578927891955e+03	2.759516049780084135e-01
2.860000000000000142e+01	2.276287058672978036e-01	3.298872215302889987e+00	6.540293359000006035e+01	-2.873228723099995818e+02	8.516632431730609824e+03	2.344941409144197519e-01
2.869999999999999929e+01	1.011173865502973807e-01	3.287768899925277211e+00	3.610139791000002418e+01	-3.570246338600001081e+02	8.520613331332715461e+03	1.041671550179901207e-01
2.880000000000000071e+01	5.110893495103924211e-02	3.276569384475539248e+00	1.962967797999995767e+01	-3.840752697899999930e+02	8.547898568002929096e+03	5.265041484434627994e-02
2.890000000000000213e+01	6.431779764049452841e-02	3.265492654865763456e+00	3.029949775999997641e+01	-4.710904115430001866e+02	8.587861910069083024e+03	6.625766572695711287e-02
2.900000000000000000e+01	2.018444234826086425e-01	3.254964654070632069e+00	8.136616171400005726e+01	-4.031132508400002621e+02	8.619876144291411038e+03	2.079321872106662250e-01
2.910000000000000142e+01	3.300245218502426137e-02	3.243930536940886622e+00	1.421398860000000752e+01	-4.306949229199998967e+02	8.549528964329816517e+03	3.399782836576009659e-02
2.919999999999999929e+01	3.631840058584175912e-01	3.234098637517397012e+00	9.396920600899993303e+01	-2.587371814100001188e+02	8.650368220895179547e+03	3.741378800320384057e-01
2.930000000000000071e+01	3.817652639354084804e-02	3.223228154146227986e+00	-1.294190689999997979e+01	-3.390016882780001310e+02	8.657533621231656070e+03	3.932795613646786204e-02
2.940000000000000213e+01	3.502077011208756807e-02	3.212420671488485091e+00	1.430578092890000974e+01	-4.084941845399998215e+02	8.623613243999881888e+03	3.607702012057679986e-02
2.950000000000000000e+01	2.675471177970940029e-01	3.202471774347635858e+00	1.044663927999999089e+02	-3.904597951200003081e+02	8.614801821585131620e+03	2.756165190278485611e-01
2.960000000000000142e+01	2.505803566367167945e-01	3.192532746005174449e+00	8.121955956899989815e+01	-3.241258040299996992e+02	8.633702592975656444e+03	2.581380289259795902e-01
2.969999999999999929e+01	9.664225224966796479e-02	3.182143851730827144e+00	-3.553536130999993503e+01	-3.677000533700002052e+02	8.664987444672638958e+03	9.955704765343602325e-02
2.980000000000000071e+01	1.781986017126706012e-01	3.172097212098659469e+00	-6.867640035000000864e+01	-3.853924760909998213e+02	8.745525885569521051e+03	1.835731915337782960e-01
2.990000000000000213e+01	1.530715732761065151e-01	3.162033793302584606e+00	3.791060072000004766e+01	-2.476658461699998099e+02	8.748474605820812940e+03	1.576883149997998779e-01
3.000000000000000000e+01	4.850852053070413561e-01	3.153140276398944675e+00	9.966634904000002848e+01	-2.054615311899995902e+02	8.730836911235786829e+03	4.997157017405483570e-01
3.010000000000000142e+01	4.633038994221884699e-01	3.144233533428822724e+00	1.417776528599999324e+02	-3.060143742300001577e+02	8.802976524614625305e+03	4.772774570033473385e-01
3.019999999999999929e+01	6.156383110871660458e-02	3.134059706028426540e+00	2.355046426899997769e+01	-3.825373412419999681e+02	8.718143872475369790e+03	6.342063771014447293e-02
3.030000000000000071e+01	2.831715069158298181e-01	3.124681784320819222e+00	8.122463256599998260e+01	-2.868390024500002937e+02	8.829129223081750752e+03	2.917121502433881464e-01
3.040000000000000213e+01	8.559921086651006705e-02	3.114717579161953243e+00	-2.212400169999998312e+01	-2.584603464920002125e+02	8.782686091310084521e+03	8.818094070611791346e-02
3.050000000000000000e+01	7.073773957512245747e-02	3.104769932627355455e+00	2.252588359000005269e+01	-3.184422307710000837e+02	8.810094878916741436e+03	7.287123743332471482e-02
3.060000000000000142e+01	2.148969612493653314e-01	3.095356665619609871e+00	8.017669176999999081e+01	-3.730936505749998560e+02	8.826152058829382440e+03	2.213783983056454852e-01
3.069999999999999929e+01	5.935444940507909189e-02	3.085499515566965112e+00	2.305401666000001271e+01	-3.884126108669997848e+02	8.879956738024342485e+03	6.114461956659560798e-02
3.080000000000000071e+01	3.385645856263759801e-01	3.076609758512141468e+00	1.011967372899998026e+02	-2.988993580140002564e+02	8.884376517739759947e+03	3.487759215078385933e-01
3.090000000000000213e+01	1.141062275526459474e-01	3.067053295509046151e+00	3.983320778900002068e+01	-3.490888152499994703e+02	8.845032486539379533e+03	1.175477482112552569e-01
3.100000000000000000e+01	1.394944283979918098e-01	3.057639922945987632e+00	-4.264161236999996163e+01	-3.056868497166001362e+02	8.864245975397763686e+03	1.437016742897297694e-01
3.110000000000000142e+01	1.978595250524077184e-02	3.047903211502267506e+00	-6.254401807000013136e+00	-3.161031446599999981e+02	8.854731903626583517e+03	2.038271015605025091e-02
3.119999999999999929e+01	2.005112771412483411e-02	3.038229562672273509e+00	8.818824859999990551e+00	-4.398169013599992923e+02	8.892636154085490489e+03	2.065588322779507782e-02
3.130000000000000071e+01	8.058208684554786505e-02	3.028810303195118347e+00	-2.486458045279993101e+01	-3.085621311900002297e+02	8.887385855936845473e+03	8.301249684630659931e-02
3.140000000000000213e+01	2.466776802214996067e-01	3.019978136138059099e+00	9.853591127000002814e+01	-3.994520752000000812e+02	8.883502773691076072e+03	2.541176451621373067e-01
3.150000000000000000e+01	8.624606055736078192e-02	3.010694173873563084e+00	-2.753111852000003168e+01	-3.192159542370002328e+02	8.919366867349879612e+03	8.884729981921335451e-02
3.160000000000000142e+01	8.302606940829626581e-02	3.001458627802695123e+00	2.826329198000000886e+01	-3.404146695299999124e+02	8.959701208036942262e+03	8.553019156885012519e-02
3.169999999999999929e+01	2.374868964971199592e-02	2.992094760072654402e+00	9.720660660000048026e+00	-4.093135580689998960e+02	8.956838025676497637e+03	2.446496612118394948e-02
3.180000000000000071e+01	1.888730581544926790e-01	2.983307231226515643e+00	7.255504778999997484e+01	-3.841471541730004446e+02	8.965283727882771927e+03	1.945695967697361473e-01
3.190000000000000213e+01	1.298682435881816366e-01	2.974390234390146048e+00	-3.960361294199990567e+01	-3.049522488929998758e+02	8.997750101797242678e+03	1.337851572640791631e-01
3.200000000000000000e+01	6.208090456769829041e-02	2.965317619655496451e+00	2.162776318599996372e+01	-3.483802843500002950e+02	8.960048905324178122e+03	6.395330645283038573e-02
3.210000000000000142e+01	2.908187932501959949e-01	2.957011722679082411e+00	8.640850834000002578e+01	-2.971214733900000056e+02	8.991784471564631531e+03	2.995900838830460322e-01
3.220000000000000284e+01	2.168777336286563384e-01	2.948528335716078086e+00	6.128827021299993305e+01	-2.825936493690002180e+02	9.041626799956569812e+03	2.234189121136870571e-01
3.229999999999999716e+01	1.147545306450384051e-01	2.939782120268328303e+00	2.996627848999997568e+01	-2.611337288519999333e+02	9.014252250448462291e+03	1.182156045614616152e-01
3.239999999999999858e+01	2.313643376469790014e-01	2.931448527091031320e+00	8.494176887000001841e+01	-3.671342339699997979e+02	9.053141084717932245e+03	2.383424418640356091e-01
3.250000000000000000e+01	1.848623417581199135e-01	2.923023416093077920e+00	5.678529412000002452e+01	-3.071761050949998548e+02	9.109345991885436888e+03	1.904379144661557943e-01
3.260000000000000142e+01	3.964428002762135361e-01	2.915296869867338270e+00	1.495803656899999226e+02	-3.773062988804004476e+02	9.005411872938917440e+03	4.083997820849235572e-01
3.270000000000000284e+01	9.952122572172579507e-02	2.906712188025430521e+00	-4.118389484400000100e+01	-4.138202131790005183e+02	9.115024430218669295e+03	1.025228529040232428e-01
3.279999999999999716e+01	2.240022799410112953e-01	2.898558054566207520e+00	9.030830230999997355e+01	-4.031579604179999592e+02	9.045611595693530035e+03	2.307583395402728332e-01
3.289999999999999858e+01	8.391889937495430885e-02	2.890028845005021996e+00	2.532724770600001918e+01	-3.018062426300000425e+02	9.089669911820130437e+03	8.644994988850679407e-02
3.300000000000000000e+01	1.260259301776247565e-01	2.881678383026691659e+00	6.669877529999996568e+01	-5.292464432200000601e+02	9.107369822628157635e+03	1.298269570937642947e-01
3.310000000000000142e+01	1.604940668346618582e-01	2.873482044724908313e+00	6.079498253000001284e+01	-3.787989408519999870e+02	9.143337411746937505e+03	1.653346759621599493e-01
3.320000000000000284e+01	2.874300836281074578e-01	2.865716122919812925e+00	-6.158095495999994284e+01	-2.142467280483997740e+02	9.192765317320829126e+03	2.960991684969025428e-01
3.329999999999999716e+01	2.924307284540385646e-02	2.857223688638153014e+00	-1.241336009000002960e+01	-4.244889090700002043e+02	9.127235076235509041e+03	3.012506361380640554e-02
3.339999999999999858e+01	3.970597055133667092e-02	2.848813187987147444e+00	1.694762633000001628e+01	-4.268281594600005633e+02	9.158966026682528536e+03	4.090352935994343020e-02
3.350000000000000000e+01	1.298597557697423743e-01	2.840721064676976493e+00	-4.323928195000004848e+01	-3.329690687749999825e+02	9.188373173172465613e+03	1.337764134473203304e-01
3.360000000000000142e+01	7.197950696815563765e-02	2.832505214357365908e+00	-2.671129311999998279e+01	-3.710958055300002911e+02	9.219795055635540848e+03	7.415045736709971469e-02
3.370000000000000284e+01	6.241910743507685100e-02	2.824309693330968596e+00	1.732665017700001542e+01	-2.775856767100002571e+02	9.183776590209432470e+03	6.430170974642449022e-02
3.379999999999999716e+01	8.424051054635252334e-02	2.816226893381751584e+00	2.750754839299998267e+01	-3.265358699109999066e+02	9.200764357253745402e+03	8.678126106939744455e-02
3.389999999999999858e+01	8.319081249825853452e-02	2.808188551967388147e+00	-3.562718935719993141e+01	-4.282587017399995943e+02	9.279469827630062355e+03	8.569990342133858297e-02
3.400000000000000000e+01	2.075126800276818478e-02	2.800014249081861362e+00	6.003187289999996956e+00	-2.892925525899999002e+02	9.314486926656414653e+03	2.137714021899683389e-02
3.410000000000000142e+01	2.368139281414640418e-01	2.792519511301333690e+00	9.422409882100002676e+01	-3.978824200100003168e+02	9.278854383927284289e+03	2.439563956774208064e-01
3.420000000000000284e+01	2.537932300978217384e-02	2.784452047195527857e+00	8.626672059999970443e+00	-3.399094631749994733e+02	9.285663359625734302e+03	2.614478048141215955e-02
3.430000000000000426e+01	2.275711222047080151e-01	2.777019253808926447e+00	1.026251661440000333e+02	-4.509586504200000263e+02	9.372171727476592423e+03	2.344348204897911958e-01
3.439999999999999858e+01	2.620013772461045054e-01	2.769729346920338564e+00	7.627992355999997187e+01	-2.911432159699996873e+02	9.256986212674924900e+03	2.699035152075102140e-01
3.450000000000000000e+01	2.432881448050806528e-01	2.762427493735034378e+00	9.357556783000003975e+01	-3.846285560069998155e+02	9.325820920534039033e+03	2.506258790751503263e-01
3.460000000000000142e+01	3.572285316310535447e-02	2.754569555289582361e+00	-9.458254970000004036e+00	-2.647676244339999130e+02	9.313229081555180528e+03	3.680027846917439949e-02
3.470000000000000284e+01	4.850396782317079741e-02	2.746793504750885351e+00	-2.117416495000000154e+01	-4.365450065280001013e+02	9.327667656684770918e+03	4.996688015379663339e-02
3.480000000000000426e+01	9.549034163327942137e-02	2.739196647549975605e+00	3.593612590000003593e+01	-3.763325723350004637e+02	9.331328927302894954e+03	9.837039463719604582e-02
3.489999999999999858e+01	1.260174547377948713e-02	2.731406376401186442e+00	-4.665063371999957909e+00	-3.701918422100000043e+02	9.356674312469187498e+03	1.298182260289620395e-02
3.500000000000000000e+01	1.641467262219344914e-01	2.724092246343695845e+00	-4.968586537899999911e+01	-3.026917838849996656e+02	9.358525460982007644e+03	1.690975020161411269e-01
3.510000000000000142e+01	9.853619714159375653e-02	2.716633280294825870e+00	3.172346308000009074e+01	-3.219473046480001699e+02	9.415201757578435718e+03	1.015081151986264862e-01
3.520000000000000284e+01	8.805955325668152200e-02	2.709186895798966876e+00	-2.599975475000002589e+01	-2.952519492600002877e+02	9.385606772420524067e+03	9.071548867949577599e-02
3.530000000000000426e+01	2.012238404703224626e-02	2.701590668364639569e+00	-7.736622133000010670e+00	-3.844784054870003160e+02	9.406515068410901222e+03	2.072928869968480164e-02
3.539999999999999858e+01	1.874442061319810116e-01	2.694508565654124777e+00	7.342065046999989875e+01	-3.916933576399998742e+02	9.437551857994487364e+03	1.930976496080805405e-01
3.550000000000000000e+01	5.026305286213101492e-02	2.687080909719315791e+00	1.746750571700004073e+01	-3.475217823500000236e+02	9.411642236322930330e+03	5.177902038204561241e-02
3.560000000000000142e+01	2.051023954733736249e-02	2.679611524088581831e+00	-8.852998494999958723e+00	-4.316379862150002964e+02	9.420166727324647582e+03	2.112884218304907427e-02
3.570000000000000284e+01	5.677026848185194596e-02	2.672285151866216957e+00	-2.423261611000001281e+01	-4.268539987219997442e+02	9.521157399936200818e+03	5.848249800661604186e-02
3.580000000000000426e+01	2.201536913675986862e-01	2.665454702115524377e+00	-6.325101368899996856e+01	-2.873038979999996059e+02	9.496694404339817993e+03	2.267936749439650179e-01
3.589999999999999858e+01	1.820075134264238087e-02	2.658101218918933029e+00	-6.682337779999929062e+00	-3.671462597449995542e+02	9.445104756261043804e+03	1.874969825896222186e-02
3.600000000000000000e+01	1.743914477750842795e-01	2.651221136450390592e+00	4.701646014699998233e+01	-2.696030152100000805e+02	9.463266200710446356e+03	1.796512112698140928e-01
3.610000000000000142e+01	2.378097020373985959e-01	2.644554254034884977e+00	-5.593381635859991974e+01	-2.352040975594999850e+02	9.468957261697494687e+03	2.449822027845802441e-01
3.620000000000000284e+01	4.327609562506510438e-02	2.637388198502075731e+00	1.866078536800002396e+01	-4.312030717760008542e+02	9.525071976615290623e+03	4.458133180990785094e-02
3.630000000000000426e+01	2.172425389047295125e-02	2.630202308544351109e+00	7.558752770000012333e+00	-3.479407305819999010e+02	9.492683422731368410e+03	2.237947201625352378e-02
3.639999999999999858e+01	8.690891814111362593e-03	2.623020085484816466e+00	-3.868147999999997033e+00	-4.450806755780001822e+02	9.573177204900524885e+03	8.953014963404008070e-03
3.650000000000000000e+01	6.889334937198202113e-02	2.616041597134781238e+00	2.987829766399997666e+01	-4.336891432389999181e+02	9.564971484947071076e+03	7.097121917970196370e-02
3.660000000000000142e+01	6.845841788830907271e-02	2.609099953594600230e+00	-1.601075649000001633e+01	-2.338756428190000634e+02	9.586861811674580167e+03	7.052316986961196243e-02
3.670000000000000284e+01	1.232430078028150244e-01	2.602344907546253250e+00	-4.780740496999998612e+01	-3.879117024350001657e+02	9.594973570745225516e+03	1.269600999061960278e-01
3.680000000000000426e+01	1.179384680953849546e-01	2.595612098767253517e+00	5.269590550000007312e+01	-4.468084616580000556e+02	9.560547395453435456e+03	1.214955717092761067e-01
3.689999999999999858e+01	1.076327590190861300e-01	2.588887830281447311e+00	4.347813160999989890e+01	-4.039488721299997565e+02	9.572873864345545371e+03	1.108790355076888223e-01
3.700000000000000000e+01	8.929203275102201576e-02	2.582150375301580869e+00	3.651573385000000371e+01	-4.089472792249995337e+02	9.621563257526853704e+03	9.198514058529932980e-02
3.710000000000000142e+01	1.557066799412431257e-01	2.575627677195774012e+00	-4.080538313000002404e+01	-2.620657196300003875e+02	9.658871167205121310e+03	1.604028982563567296e-01
3.720000000000000284e+01	1.449770297418155954e-02	2.568761376996788304e+00	-4.483605729999972311e+00	-3.092631803799998806e+02	9.624185184565734744e+03	1.493496345818982711e-02
3.730000000000000426e+01	2.011039260627389413e-01	2.562430742101242664e+00	7.618263175000005560e+01	-3.788222002499998666e+02	9.624908096520566687e+03	2.071693558899850851e-01
3.739999999999999858e+01	9.897593288816516899e-02	2.555861529276674649e+00	3.317639763000001807e+01	-3.351966145900001379e+02	9.640241393806343694e+03	1.019611136714190097e-01
3.750000000000000000e+01	1.731019631400322889e-01	2.549524402770992015e+00	-6.347537591000033075e+01	-3.666935646400000337e+02	9.654994939133919615e+03	1.783228349098696652e-01
3.760000000000000142e+01	5.506686302265200589e-02	2.542907804522322568e+00	2.874134413000000521e+01	-5.219353809599998613e+02	9.708573819467879730e+03	5.672771669174582476e-02
3.770000000000000284e+01	1.744566291384795909e-01	2.536642060672100740e+00	7.437331909999990387e+01	-4.263140900250004393e+02	9.634815561971754505e+03	1.797183585470205347e-01
3.780000000000000426e+01	5.278021359338197493e-02	2.530088335481919248e+00	-1.870560076000001359e+01	-3.544055525070000385e+02	9.677157155660279386e+03	5.437210037592966200e-02
3.789999999999999858e+01	2.161883144785965438e-01	2.523999124900331736e+00	-7.003148792000003198e+01	-3.239374343100001852e+02	9.694501612631378521e+03	2.227086996178278266e-01
3.800000000000000000e+01	1.448011527293979750e-01	2.517754510800145340e+00	5.166527223000009172e+01	-3.568015257900004826e+02	9.763119631966106681e+03	1.491684530003559717e-01
3.810000000000000142e+01	8.048223405340525216e-02	2.511374216881960386e+00	-3.713188183999994152e+01	-4.613674344000006045e+02	9.708027817242676974e+03	8.290963242671517408e-02
3.820000000000000284e+01	4.869434127926368892e-03	2.504829817971375494e+00	-1.373517079999986290e+00	-2.820691365599997766e+02	9.724622716020681764e+03	5.016299540151691709e-03
3.830000000000000426e+01	2.162211278661374178e-03	2.498312454412279671e+00	-9.865608859999827063e-01	-4.562740448800003037e+02	9.739002430396692944e+03	2.227425026792324760e-03
3.839999999999999858e+01	1.319654955088861159e-01	2.492166098674868380e+00	6.241361902000016215e+01	-4.729540762100001530e+02	9.740281454449434023e+03	1.359456637149369651e-01
3.850000000000000000e+01	1.338962340356545933e-01	2.486056591253523074e+00	-4.127192266999997372e+01	-3.082381141430002458e+02	9.772497392472752836e+03	1.379346346157726833e-01
3.860000000000000142e+01	1.926101595851947845e-01	2.480130373083837547e+00	-8.185707650999998464e+01	-4.249883634709995022e+02	9.771708484534605304e+03	1.984194116960373011e-01
3.870000000000000284e+01	1.247858852542804708e-01	2.474059897599740765e+00	5.250209465000001074e+01	-4.207374459299999785e+02	9.721424081812889199e+03	1.285495115805238564e-01
3.880000000000000426e+01	7.713904986880583056e-03	2.467719676539039231e+00	-2.829562680000013764e+00	-3.668132657599996378e+02	9.802322970868359334e+03	7.946561555591090051e-03
3.889999999999999858e+01	1.629775306868119431e-02	2.461433979299371799e+00	-8.982399610000015855e+00	-5.511434350580001365e+02	9.815280620085994087e+03	1.678930427563789934e-02
3.900000000000000000e+01	1.799107115282749152e-03	2.455143353027801290e+00	7.704733200000166704e-01	-4.282531670599993276e+02	9.811019401999938054e+03	1.853369397343032719e-03
3.910000000000000142e+01	2.247047324259013323e-02	2.448937554865084021e+00	8.169844030000044555e+00	-3.635813069800002495e+02	9.741481405785034440e+03	2.314819784651170331e-02
3.920000000000000284e+01	3.466495856277402449e-02	2.442794367597139082e+00	1.657623710000000372e+01	-4.781842467799999099e+02	9.841973114386104498e+03	3.571047705534341477e-02
3.930000000000000426e+01	5.812738303951031638e-02	2.436741913321612163e+00	-2.874956923000003073e+01	-4.945959671100002311e+02	9.826186560026095322e+03	5.988054405317255746e-02
3.939999999999999858e+01	1.384870882512452550e-01	2.430923546675864522e+00	7.505490832000006662e+01	-5.419632203100001107e+02	9.891654471219428160e+03	1.426639520858454802e-01
3.950000000000000000e+01	2.694977656726462167e-01	2.425465400764239998e+00	-8.493355713000009644e+01	-3.151549584020198154e+02	9.896171598720149632e+03	2.776259997568336635e-01
3.960000000000000142e+01	1.633214178226637392e-01	2.419767305089324250e+00	-6.065619757400007472e+01	-3.713915687399999683e+02	9.843840081596124946e+03	1.682473017598110909e-01
3.970000000000000284e+01	9.415559676988931315e-02	2.413924059591034066e+00	4.328242499000000976e+01	-4.596904111370000123e+02	9.885825502564755880e+03	9.699539296994998117e-02
