0.000000000000000000e+00	6.464086773823869425e-01	6.464086773823869425e-01	-4.718329214999993582e+01	7.299297457000004385e+01	3.689476981653761413e+03	6.647036858500795509e-01
1.000000000000000056e-01	2.921874039448204119e+00	1.784141358415295642e+00	4.500353083599998882e+01	1.540228299659998612e+01	2.890270125324118908e+03	2.345637199492813796e+00
2.000000000000000111e-01	4.179717262229823760e+00	2.582666659686804866e+00	2.626648529999993187e+01	6.284273230000038346e+00	2.908551879491135878e+03	1.768708133535584537e+00
2.999999999999999889e-01	2.237743509117606777e+00	2.496435872044505455e+00	-3.968887999999994776e+01	1.773611668999999935e+01	2.902312758119430782e+03	2.155445654019288337e+00
4.000000000000000222e-01	3.612595240561074506e-01	2.069400602446825665e+00	-2.060728264999998416e+01	5.704287714999993852e+01	2.914168192172686304e+03	3.714840867559849324e-01
5.000000000000000000e-01	1.316078950900081423e-01	1.746435151220689486e+00	-5.618548869999975715e+00	4.269157914999997416e+01	2.908717233905043031e+03	1.353327330127245820e-01
5.999999999999999778e-01	8.941254677745499535e+00	2.774266512152805397e+00	4.717165307850000033e+01	5.275730843000005166e+00	2.884673687460932342e+03	9.316701792613825417e-03
7.000000000000000666e-01	1.321998529400233990e-01	2.444008179751207432e+00	6.019411030000002327e+00	4.553266055999998940e+01	2.911095952174698141e+03	1.359414447744020649e-01
8.000000000000000444e-01	7.719542017432884373e-02	2.181028984242665558e+00	5.135982254999985841e+00	6.653221452000003922e+01	2.884637116294099087e+03	7.938024676340785235e-02
9.000000000000000222e-01	2.346504303273761582e+00	2.197576516145775205e+00	3.767685380699997921e+01	1.605658841299993966e+01	2.911478884513668618e+03	2.212920716092691809e+00
1.000000000000000000e+00	8.632743597190932761e-01	2.076276320106985818e+00	-3.771761028160005935e+01	4.369133619799995927e+01	2.907161994546540882e+03	8.877072181778603577e-01
1.100000000000000089e+00	5.376792225938045039e-02	1.907733953619685119e+00	4.125870711200013474e+00	7.673479907400005118e+01	2.939935482421189135e+03	5.528969111466408570e-02
1.199999999999999956e+00	1.836578502744153074e-02	1.762397940651051043e+00	-9.533563700000173835e-01	5.190937215999995402e+01	2.916750583440210448e+03	1.888558342178471225e-02
1.300000000000000044e+00	1.031815987351757169e+00	1.710213515415387020e+00	2.903061550999997209e+01	-2.813545812999999995e+01	2.909436989190285203e+03	1.061019002234142805e+00
1.400000000000000133e+00	3.524708863328649855e+00	1.831179871942938187e+00	1.455181535499999512e+01	-4.128515551000036865e+00	2.896063782051667658e+03	2.187160959212820277e+00
1.500000000000000000e+00	1.298191662915133104e+00	1.797868108878700522e+00	-2.206504176899997915e+01	1.699675202000002372e+01	2.907426619751194721e+03	1.334933786430394287e+00
1.600000000000000089e+00	3.620994321071901556e+00	1.905110827243006622e+00	-5.608765503599991575e+01	-1.548957276999998633e+01	2.894864482001366014e+03	2.138294445979036507e+00
1.699999999999999956e+00	1.404101292443819649e+00	1.877276964198607345e+00	1.095180463999998643e+01	-7.799867928999991484e+00	2.908505833781665842e+03	1.443840927652277450e+00
1.800000000000000044e+00	1.374968826783263542e-01	1.785709591487013581e+00	-5.566841688499978957e+00	4.048703926999997549e+01	2.917943380210136183e+03	1.413883939171107496e-01
1.900000000000000133e+00	2.870638469401233239e-01	1.710777304259669007e+00	2.407802355099999758e+01	8.387689292000001728e+01	2.928239474804587644e+03	2.951884834035525262e-01
2.000000000000000000e+00	8.494244205906263667e-02	1.633356596535830541e+00	7.137560255000003018e+00	8.402819700000002001e+01	2.915835959627218017e+03	8.734652905713637117e-02
2.100000000000000089e+00	2.283625987733128415e+00	1.662914296135707737e+00	1.266615914999998793e+01	-5.546512090000000228e+00	2.921339290982685270e+03	2.180894604091653033e+00
2.200000000000000178e+00	5.381495583844237984e-01	1.614011481450869478e+00	-2.018811215199994180e+01	3.751394354499997519e+01	2.905761988275411113e+03	5.533805586355295958e-01
2.300000000000000266e+00	1.471971924930446096e-01	1.552894219410960064e+00	-1.329701635699997020e+01	9.033471448600002418e+01	2.907890595228429902e+03	1.513632471536750235e-01
2.399999999999999911e+00	1.174728997880524695e+01	1.960670049786731761e+00	1.572734172000000541e+01	-1.338805950000014233e+00	2.931513251118108656e+03	2.498729961657772297e-05
2.500000000000000000e+00	2.186002593278136841e-01	1.893667365538311831e+00	-1.601653171000000953e+01	7.326858513000007633e+01	2.920169604730759147e+03	2.247872022562984462e-01
2.600000000000000089e+00	3.466892500192103599e-01	1.836371879778345040e+00	6.940044065699975562e+00	2.001805381999995959e+01	2.939177372874199136e+03	3.565014369323625254e-01
2.700000000000000178e+00	2.514422636762472241e-01	1.779767250631841602e+00	-1.803849177000004644e+01	7.174009455000015123e+01	2.928902203974022086e+03	2.585587187982930080e-01
2.800000000000000266e+00	8.286066154616498203e-01	1.746968608039765947e+00	1.755384213509999469e+01	2.118477188999999683e+01	2.946730695554427257e+03	8.520582886471713691e-01
2.899999999999999911e+00	1.401835360137506425e+00	1.735464166443023926e+00	3.201368397999998194e+01	2.283697849999999363e+01	2.924224106813586332e+03	1.441510863702653023e+00
3.000000000000000000e+00	1.026948880559913624e-01	1.682794189720861588e+00	-1.054486979999972984e+00	-1.026815453000002343e+01	2.963575740316761312e+03	1.056014143949960682e-01
3.100000000000000089e+00	5.882763943719445665e-01	1.648590508616207817e+00	-3.150605327599994965e+01	5.355654854999992409e+01	2.949140821975252948e+03	6.049261114827372277e-01
3.200000000000000178e+00	1.334247283891919711e+00	1.639064956351835356e+00	-4.736201480000002562e+01	3.549717910000000387e+01	2.959704333738808145e+03	1.372009873118980261e+00
3.300000000000000266e+00	8.397322558079421961e-01	1.615555171041721083e+00	-3.578448520999996418e+01	4.261416060000004080e+01	2.995121294896590371e+03	8.634988128919414141e-01
3.399999999999999911e+00	1.989362814450953421e-01	1.575080345624674472e+00	-1.960911037000000690e+01	9.856980449999990412e+01	3.012937480606031841e+03	2.045666838219747929e-01
3.500000000000000000e+00	2.135139972449643098e-01	1.537259058169682557e+00	1.233773205000001738e+01	5.778418375000002527e+01	3.074145728647126361e+03	2.195569860293750120e-01
3.600000000000000089e+00	1.624653436002206908e-01	1.500102471289426864e+00	-1.893551618999998354e+01	1.165511103499999734e+02	3.095363856397681957e+03	1.670635257423739861e-01
3.700000000000000178e+00	5.128519967731348835e-03	1.460761051517803333e+00	-4.032737999999982947e-01	7.863356339400009176e+01	3.125745822893023160e+03	5.273670117349269458e-03
3.800000000000000266e+00	1.152959497502968489e+01	1.718936280325800148e+00	1.607792565000001517e+01	-1.394491799999992621e+00	3.162241136117449059e+03	4.254846004162487095e-05
3.899999999999999911e+00	1.504860078079480190e-01	1.679725023512853799e+00	1.087532391000000054e+01	7.226800729459986883e+01	3.210656436637302704e+03	1.547451443007692995e-01
4.000000000000000000e+00	6.720257511155329315e-03	1.638920029220129582e+00	5.275085799999943426e-01	7.849529264680013796e+01	3.205255703170139896e+03	6.910457878776526432e-03
4.099999999999999645e+00	1.312964822707740065e-01	1.603024230483240054e+00	5.142058279999970338e+00	3.916371704000000165e+01	3.237587712323636879e+03	1.350125064192262969e-01
4.200000000000000178e+00	4.565402418089370862e+00	1.671916746474080506e+00	7.964471956999996394e+01	1.744527913999997892e+01	3.274125680006726725e+03	1.466586285901601450e+00
4.299999999999999822e+00	7.319239124115919926e-02	1.635582102036968744e+00	5.108914300000016340e+00	6.980116667000019959e+01	3.268492388569834020e+03	7.526392193742111048e-02
4.400000000000000355e+00	1.345944580197836471e+00	1.629145712662765755e+00	3.970499052600001733e+01	2.949972168999996924e+01	3.296034981064775366e+03	1.384038232639939858e+00
4.500000000000000000e+00	4.851043388512440990e-01	1.604275248014689126e+00	2.843423222999995303e+01	-5.861467307700010565e+01	3.278240177741586194e+03	4.988340245710227161e-01
4.600000000000000533e+00	9.264965808540504000e-01	1.589854425309143782e+00	7.084328606600000455e+01	7.646362385999979949e+01	3.300190816092153909e+03	9.527187888551136297e-01
4.700000000000000178e+00	1.496366630160351763e+00	1.587906762910210157e+00	5.847555732199997180e+01	3.907836230999998151e+01	3.315432822445373404e+03	1.538717608925696867e+00
4.799999999999999822e+00	6.432529722066370192e-01	1.568628114120341532e+00	5.849110796999994477e+01	9.093017910099979417e+01	3.323213389023705531e+03	6.614586661973865800e-01
4.900000000000000355e+00	8.843793429874163836e-02	1.539024310523909422e+00	1.132259607700002135e+01	1.280287262110002473e+02	3.334729294239793035e+03	9.094095261126283747e-02
5.000000000000000000e+00	4.883608527395849608e-01	1.518423066253628662e+00	3.366811580999997489e+01	6.894106196500001715e+01	3.365102330853405874e+03	5.021827060790861053e-01
5.100000000000000533e+00	4.402595843990063096e-01	1.497689153141039675e+00	3.329812578999999317e+01	7.563293786200000568e+01	3.345028986796510708e+03	4.527200495913662470e-01
5.200000000000000178e+00	6.075151866076123897e-01	1.480893417923427879e+00	3.908102661000003764e+01	6.432929986200008443e+01	3.348590122464442629e+03	6.247094104355566113e-01
5.299999999999999822e+00	9.504357200105653103e-01	1.471070127221337565e+00	3.041240121500001337e+01	-3.199837776999999761e+01	3.340923959210933845e+03	9.773354664929361224e-01
5.400000000000000355e+00	4.392069217743281406e+00	1.524179201594463962e+00	2.523267121300003524e+01	5.745053177000020384e+00	3.366863230150528125e+03	1.604288111473699541e+00
5.500000000000000000e+00	3.443928629974542521e-01	1.503111588405231513e+00	1.996112673000004989e+01	5.796033795900005003e+01	3.374771966352561776e+03	3.541400563214450736e-01
5.600000000000000533e+00	7.314223346051312857e-01	1.489573180443826361e+00	3.424233698999996278e+01	4.681609429999997474e+01	3.370144925743088152e+03	7.521234456410287317e-01
5.700000000000000178e+00	8.892205236162370463e-02	1.465424023063098602e+00	3.517282382999975532e+00	3.955466939399992299e+01	3.368657764189779755e+03	9.143877244574805108e-02
5.799999999999999822e+00	1.024928648226053873e+01	1.614303047795258683e+00	3.195314099699998778e+01	3.117596629999997759e+00	3.385840690220743909e+03	7.602363352621300868e-04
5.900000000000000355e+00	6.169650629986976886e-01	1.597680748048649457e+00	8.470290518499992061e+01	1.372896299399998838e+02	3.390474095941110591e+03	6.344267423461030786e-01
6.000000000000000000e+00	1.109775975944138571e+00	1.589682309161690066e+00	1.016792774879999115e+02	9.162144404999988012e+01	3.381407149236073110e+03	1.141185456645043894e+00
6.100000000000000533e+00	3.962656861553712218e-01	1.570433653951910813e+00	5.785361657999989404e+01	1.459970383540000967e+02	3.370476725745414569e+03	4.074810122135329449e-01
6.200000000000000178e+00	1.108783279867629545e+01	1.721503481645948685e+00	6.854340256700002953e+01	-6.181857520000029638e+00	3.380604579771224962e+03	1.206929765438078973e-04
6.299999999999999822e+00	4.346621001219795333e-01	1.701396585059636646e+00	3.169131526999994364e+01	7.291023362999992230e+01	3.396284510323571794e+03	4.469641422828593003e-01
6.400000000000000355e+00	1.715073625927486134e+01	1.939078733893716988e+00	7.842465254000001096e+01	-4.572669730000024302e+00	3.406804664426031650e+03	9.413870801866775199e-13
6.500000000000000000e+00	1.820937561191180665e+00	1.937288716125497023e+00	3.584687737000000851e+01	1.968594538000001037e+01	3.393436688075420079e+03	1.850628210057361223e+00
6.600000000000000533e+00	1.967730708734572342e+00	1.937743074224139939e+00	5.770226851860000039e+01	2.932427097999997301e+01	3.435446090973608989e+03	1.972134375920437943e+00
6.700000000000000178e+00	5.689606845176472305e+00	1.992917541444027441e+00	6.637263551000003758e+01	1.166559260000000720e+01	3.392811964243604962e+03	6.620866160899023800e-01
6.799999999999999822e+00	3.650307171772237957e+00	2.016937681014001171e+00	9.483017765000005284e+01	-2.597868431000003753e+01	3.438890091687288987e+03	2.122356758499213569e+00
6.900000000000000355e+00	3.326118840952047684e+00	2.035640269013116121e+00	1.377451129600001423e+02	4.141316638000007089e+01	3.426632206674081317e+03	2.269326923280678532e+00
7.000000000000000000e+00	1.947662115471887390e+00	2.034401140090000393e+00	5.650364058999999628e+01	2.901100768000001295e+01	3.419127211603541582e+03	1.956365894522422266e+00
7.100000000000000533e+00	4.277741336949657303e+00	2.065558642824162572e+00	6.111837304099990575e+01	1.428753359000003975e+01	3.448391131539799972e+03	1.693702072122983404e+00
7.200000000000000178e+00	2.803777153792046839e+00	2.075671225166188183e+00	5.646549998099999357e+01	2.013908270300000325e+01	3.469244351315562199e+03	2.342237779715045320e+00
7.299999999999999822e+00	5.160947281286418331e+00	2.117364144843488560e+00	8.633371126800004447e+01	-1.672826839000000376e+01	3.477568078299792433e+03	1.007008148408607751e+00
7.400000000000000355e+00	4.044968869864506544e+00	2.143065541177102240e+00	8.583787048999982972e+01	2.122089767599994659e+01	3.450421206136829824e+03	1.868231914067477684e+00
7.500000000000000000e+00	1.976939971483849812e+00	2.140879678417980436e+00	9.053527716000000680e+01	4.579566322999991002e+01	3.471587741276766337e+03	1.979276961201480001e+00
7.600000000000000533e+00	2.137614060771200197e+00	2.140837267799191146e+00	1.286907271299999422e+02	6.020297559400007259e+01	3.472252917527392583e+03	2.093987869658278544e+00
7.700000000000000178e+00	8.994669982750473913e-01	2.124922264343753309e+00	8.297868031100000508e+01	9.225316823200000727e+01	3.492902876450331405e+03	9.249242003913450416e-01
7.799999999999999822e+00	1.015442283544032653e+00	2.110878213953883531e+00	4.403217518999996116e+01	-4.336255826999997964e+01	3.500682757131721246e+03	1.044181880993621858e+00
7.900000000000000355e+00	1.779686144090524946e+00	2.106738313080591229e+00	1.295394857999999090e+02	-7.278782623000002161e+01	3.556377471505008089e+03	1.814042727120742660e+00
8.000000000000000000e+00	5.740104818263188946e+01	2.789384113939249232e+00	6.869850665800002787e+01	1.196816240000064369e+00	3.550269502653898144e+03	1.647712753223476217e-168
8.099999999999999645e+00	5.159091800862052324e+00	2.818282988170015102e+00	1.098208191000000085e+02	2.128685112400008705e+01	3.600103763681840519e+03	1.008349818616546933e+00
8.199999999999999289e+00	5.517541297446380000e+00	2.850804172619127552e+00	8.034340024700006211e+01	1.456144973200009751e+01	3.642610884968351911e+03	7.655415791857519414e-01
8.300000000000000711e+00	2.097859105269354263e+00	2.841840540864963849e+00	1.056471793269999182e+02	5.035952083799992351e+01	3.676495288619655639e+03	2.067401514882587055e+00
8.400000000000000355e+00	2.361065278099729881e+01	3.086179508395932469e+00	1.114275237600000565e+02	-4.719374970000021818e+00	3.689706117361698034e+03	7.591153821445169794e-26
8.500000000000000000e+00	2.514617234564884285e+00	3.079533435444408163e+00	1.124250290699999226e+02	-4.470860516051992306e+01	3.729044049814734535e+03	2.281898889710642031e+00
8.599999999999999645e+00	8.861906020196864020e+00	3.145997488142711962e+00	9.791829866999977128e+01	1.104934970499998137e+01	3.791634641714902955e+03	1.069132622034661868e-02
8.700000000000001066e+00	6.676876841764948445e+00	3.186121117161147431e+00	1.524625295699998162e+02	-2.283440794000002327e+01	3.777300396326777900e+03	2.454481019304931289e-01
8.800000000000000711e+00	7.789570740153335393e-01	3.159074330159509447e+00	8.617229536999998629e+01	-1.106252170299999165e+02	3.832137610608142040e+03	8.010035389897653957e-01
8.900000000000000355e+00	4.135418867993483794e+00	3.169922602802109246e+00	1.445186091320001083e+02	3.494654683000005946e+01	3.864073385654876347e+03	1.801942099657520391e+00
9.000000000000000000e+00	2.592040486482883210e+00	3.163572249875524101e+00	2.377601581500003292e+01	9.172702332000028491e+00	3.918447983080278391e+03	2.305334820883957025e+00
9.099999999999999645e+00	2.260034399255718363e+00	3.153751186281831043e+00	8.451168899000005297e+01	3.739398347999999572e+01	3.927877268528943659e+03	2.168026171830428339e+00
9.200000000000001066e+00	1.047949675575556849e+00	3.131108159284989423e+00	7.489754257699996742e+01	7.147055275900018501e+01	3.957065619417056951e+03	1.077609314839695465e+00
9.300000000000000711e+00	1.046705893308432112e+00	3.108933667093749964e+00	9.318844512000006830e+01	8.903020964699994977e+01	4.042078151015890398e+03	1.076330330373242106e+00
9.400000000000000355e+00	3.718178552632524503e-01	3.080121921706060473e+00	2.212850540999998472e+01	5.951436999799990701e+01	4.112933133824208198e+03	3.823412455711094893e-01
9.500000000000000000e+00	3.501306304777067879e+01	3.412756725102565891e+00	3.540193962399998640e+01	1.011106614000001569e+00	4.126593883002815346e+03	4.348202698803678502e-60
9.599999999999999645e+00	1.544536310973102233e-01	3.379165971556119530e+00	1.037076505500001744e+01	6.714484458100008624e+01	4.147251169083874629e+03	1.588250614132426797e-01
9.700000000000001066e+00	3.057557290977680609e+01	3.656680328068575125e+00	9.833038388000019836e+01	3.215978459999949912e+00	4.158245752735246242e+03	4.465607498598071702e-45
9.800000000000000711e+00	4.890341454586193848e+00	3.669141551568753101e+00	7.510641925999991031e+01	-1.535811352999996160e+01	4.182851015494146850e+03	1.210045260595081107e+00
9.900000000000000355e+00	1.061344509997270924e+00	3.643063581153038299e+00	4.793392118750001174e+01	4.516339486000004655e+01	4.232524625647552057e+03	1.091383257119554306e+00
1.000000000000000000e+01	1.201929372380205585e+00	3.618893935521624527e+00	1.029963146199997510e+02	8.569248492200004819e+01	4.269309893584717429e+03	1.235947028415253612e+00
1.009999999999999964e+01	7.529262241293160907e-01	3.590796212860915659e+00	-2.066913391999994687e+00	2.745173863999986530e+00	4.264666978259854659e+03	7.742359498925504013e-01
1.020000000000000107e+01	3.539734511919986115e+00	3.590300468191585992e+00	9.533294303700004946e+01	-2.693222972399999193e+01	4.324474027828660837e+03	2.179899856429950322e+00
1.030000000000000071e+01	1.592798848013242452e+00	3.571093721843717539e+00	9.997355040710010599e+01	-6.276596102000001309e+01	4.341590300334096355e+03	1.636625340440422516e+00
1.040000000000000036e+01	4.866991080608629616e+00	3.583435601451002483e+00	1.054625940660001078e+02	2.166895157999996613e+01	4.388091086177011675e+03	1.228151263334442689e+00
1.050000000000000000e+01	5.276785775166049852e+00	3.599410603089823635e+00	7.653222071000001847e+01	1.450356788600001501e+01	4.396182377511132472e+03	9.248760932500839083e-01
1.059999999999999964e+01	2.239143729378264069e+01	3.775037020759850037e+00	9.014565874000003021e+01	-4.025898720000010478e+00	4.377040350489715820e+03	5.029810192948368442e-23
1.070000000000000107e+01	2.610732728998264562e+01	3.981817486215616597e+00	9.294564697500000250e+01	3.560136429999984919e+00	4.367273234294616486e+03	3.943749494849084581e-32
1.080000000000000071e+01	3.096516077817110357e+00	3.973695454945905592e+00	1.098980039899999639e+02	3.549085527999989864e+01	4.396340346504751324e+03	2.328796557433483017e+00
1.090000000000000036e+01	1.401299793317057896e+00	3.950310039840188914e+00	7.776481493000008527e+01	-5.549477371000013193e+01	4.428504698470395851e+03	1.440960138980001304e+00
1.100000000000000000e+01	2.222421725169958062e+00	3.934743478446763199e+00	1.239601548949999312e+02	5.577706224299988236e+01	4.431351187841501996e+03	2.146562798260677418e+00
1.109999999999999964e+01	2.731428932193299408e-01	3.902050616078661438e+00	1.070414689000000941e+01	3.918881712000000306e+01	4.438050088830379536e+03	2.808735313112774579e-01
1.120000000000000107e+01	1.050260705163045483e+00	3.876813537221001305e+00	1.117766383599999500e+02	-1.064275163399999968e+02	4.455170775704549669e+03	1.079985752438170854e+00
1.130000000000000071e+01	3.599988945905942206e+00	3.874385251332272517e+00	7.726916129000002798e+01	-2.146372181999996087e+01	4.475704962745512603e+03	2.149418319896031271e+00
1.140000000000000036e+01	3.451570577689861530e+00	3.870708601996251108e+00	8.872716485000009357e+01	-2.570631625599996894e+01	4.507196178438776769e+03	2.220478007419620869e+00
1.150000000000000000e+01	2.215522986113584114e+00	3.856439760480021128e+00	1.176493397899998712e+02	5.310228805000008379e+01	4.498937120221748046e+03	2.142500972652868096e+00
1.159999999999999964e+01	3.977109382550926053e+00	3.857471124771225224e+00	6.654095965000000490e+01	-1.673098555999998638e+01	4.529814403051790578e+03	1.916358698092470281e+00
1.170000000000000107e+01	2.356722621724015809e+00	3.844752917118283264e+00	1.284475900199998932e+02	-5.450263379999997682e+01	4.530131928100855475e+03	2.217809681677160416e+00
1.180000000000000071e+01	2.186915007612376893e+00	3.830821506114031827e+00	9.084178804999983470e+01	4.153878305000009874e+01	4.551325942835478600e+03	2.125247828826764440e+00
1.190000000000000036e+01	5.520840995324923561e+00	3.844905001857456206e+00	1.241474390480000096e+02	-2.248705209100003088e+01	4.578291133703373816e+03	7.634730645383102088e-01
1.200000000000000000e+01	1.837254188271278066e+00	3.828312846373273182e+00	1.141857042100000257e+02	6.215019399000006217e+01	4.598521959341007459e+03	1.864816473476345937e+00
1.209999999999999964e+01	2.250486542392622979e+01	3.981399342910592498e+00	9.379823496999989629e+01	4.167909170000081431e+00	4.611874094114498803e+03	2.792171868309649434e-23
1.220000000000000107e+01	1.342849673838617974e+00	3.959947719584803849e+00	1.154673973090001056e+02	-8.598683796000000257e+01	4.625618900409824164e+03	1.380855732564810978e+00
1.230000000000000071e+01	1.202223946129051813e+00	3.937708011734354141e+00	7.684625379600004180e+01	-6.392008247999998360e+01	4.643808625454493267e+03	1.236249939349874039e+00
1.240000000000000036e+01	8.327336916559258118e-01	3.912868217173726570e+00	7.790140975000011281e+01	-9.354900676000018223e+01	4.686130087216647553e+03	8.563021715870294814e-01
1.250000000000000000e+01	9.397512109417753834e-01	3.889272050457599939e+00	1.572238782389999301e+02	-1.673037250800000493e+02	4.687357341098171673e+03	9.663485586619912082e-01
1.259999999999999964e+01	2.177443547888608943e+00	3.875793085870442578e+00	1.038657037299998791e+02	-4.770075616000002583e+01	4.678545244945922605e+03	2.119391358906927980e+00
1.270000000000000107e+01	7.850253694650299430e+00	3.906843559376535602e+00	7.683744036000007327e+01	-9.787892639999949296e+00	4.740061067971844750e+03	5.343866196518731043e-02
1.280000000000000071e+01	3.018192743122500410e+00	3.899954793359061700e+00	1.181684819019999964e+02	-3.915206613999994545e+01	4.711863431811597366e+03	2.339511235453469062e+00
1.290000000000000036e+01	8.635162583788650315e-01	3.876597573859214663e+00	1.161753958100000830e+02	-1.345375894000000301e+02	4.743059759524123365e+03	8.879559631845078682e-01
1.300000000000000000e+01	5.646219194812453601e+00	3.890106135851223446e+00	1.115305248002002116e+02	-1.975313408000003079e+01	4.775304000689413442e+03	6.873150559702161377e-01
1.309999999999999964e+01	1.501650899862637001e+00	3.872011778002824922e+00	4.753259426000000332e+01	-3.165355827000005817e+01	4.803863999254076589e+03	1.544151436890937923e+00
1.320000000000000107e+01	1.094818357193666936e+00	3.851130624462907104e+00	8.124120122000020672e+01	-7.420518726800003151e+01	4.844724264544109246e+03	1.125804499267986092e+00
1.330000000000000071e+01	3.507869599420755935e-01	3.825008656817229014e+00	2.055108373999999927e+01	-5.858565478999999954e+01	4.853924434652803939e+03	3.607151224606923168e-01
1.340000000000000036e+01	1.942129688103733987e+00	3.811061405197128771e+00	1.233444861899999552e+02	-6.350991231199994758e+01	4.871191677305073426e+03	1.951970295596600513e+00
1.350000000000000000e+01	1.450609166542075279e+00	3.793705138736430449e+00	1.481732271399998240e+02	-1.021455196600000477e+02	4.906270440056455300e+03	1.491665092790881664e+00
1.359999999999999964e+01	6.165411628261472821e+00	3.811016864937343041e+00	8.990841257999998959e+01	-1.458271044999998267e+01	4.958788417097025558e+03	4.244443297524066461e-01
1.370000000000000107e+01	1.860818962416773470e+00	3.796884996078497831e+00	1.002823470539999278e+02	-5.389151179099999922e+01	4.995146867682758057e+03	1.885016394797866646e+00
1.380000000000000071e+01	1.002717085699498911e+00	3.776783068665699350e+00	6.421309351600001492e+01	-6.403909380999999712e+01	4.995964764167383692e+03	1.031096527708010857e+00
1.390000000000000036e+01	1.329665161578656329e+00	3.759303655043649162e+00	9.613149864000008904e+01	-7.229752378099998111e+01	5.054394849951023389e+03	1.367298065098432325e+00
1.400000000000000000e+01	9.954955955601075823e-01	3.739702179444475139e+00	9.125103521199996237e+01	-9.166392661000001851e+01	5.106593255877013689e+03	1.023670651043697699e+00
1.409999999999999964e+01	4.737663043132372409e-01	3.716702631028057979e+00	1.886351587000002539e+01	-3.981607745900001305e+01	5.149994756338646766e+03	4.871750948390964342e-01
1.420000000000000107e+01	3.770246327712166501e+00	3.717077062473401750e+00	1.833206527699997253e+02	-4.862299087000000952e+01	5.207279329750487705e+03	2.052414965531664581e+00
1.430000000000000071e+01	8.036567474114005849e-01	3.696844976952137429e+00	2.788645855999999057e+01	-3.469946422999993985e+01	5.249787271235688422e+03	8.264022759190760015e-01
1.440000000000000036e+01	2.197596685334062272e+00	3.686505333561668429e+00	1.225382655199999817e+02	-5.576012483900003502e+01	5.278273245347069860e+03	2.131766704862687156e+00
1.450000000000000000e+01	1.045354036853031410e+00	3.668415256186951634e+00	1.035608713600000499e+02	-9.906774902000009320e+01	5.355276508998684221e+03	1.074940212944305529e+00
1.459999999999999964e+01	3.857448455627198597e-02	3.643722461822117342e+00	4.245769520899957072e+00	-1.100667855900000518e+02	5.394546039412627579e+03	3.966624050925774553e-02
1.470000000000000107e+01	3.594461414328199989e-01	3.621531405603270137e+00	5.203034893999999611e+01	-1.447514465800000778e+02	5.354639214852376426e+03	3.696193807956059119e-01
1.480000000000000071e+01	6.008805616689282258e-01	3.601258581147335214e+00	7.810997217999991449e+01	-1.299925095980002254e+02	5.455552314216554805e+03	6.178870087486939555e-01
1.490000000000000036e+01	1.891478871606148360e+00	3.589860049750394300e+00	8.511089823999995474e+01	-4.499701240000004532e+01	5.428097083735701744e+03	1.910771354217000617e+00
1.500000000000000000e+01	1.039140374386641197e+00	3.572967866469838771e+00	1.004014727240000724e+02	-9.661973992999996597e+01	5.455038292221729535e+03	1.068550688037611440e+00
1.509999999999999964e+01	8.166043699425397095e-01	3.554833896097949530e+00	1.013779133800000665e+02	-1.241456905099999801e+02	5.493463239106199580e+03	8.397163490752329595e-01
1.520000000000000107e+01	5.808260169290454522e-01	3.535395936103381764e+00	6.777035514000007765e+01	-1.166792691179999224e+02	5.504778174171981846e+03	5.972648694224922394e-01
1.530000000000000071e+01	1.362864979834699231e+00	3.521288592231506698e+00	7.763511997999995629e+01	-5.696464516200002492e+01	5.535178878286393228e+03	1.401437522591033380e+00
1.540000000000000036e+01	2.262826016634129189e+00	3.513169478840555637e+00	5.271863917599999638e+01	-2.329769888999996752e+01	5.591085629478675401e+03	2.169572921050997749e+00
1.550000000000000000e+01	4.212458899917005395e-01	3.493349455835114803e+00	6.479220171000005735e+01	-1.538108815999999592e+02	5.540184622914203828e+03	4.331682193075552245e-01
1.559999999999999964e+01	1.710436344879681547e+00	3.481993321370430383e+00	7.592761509999994018e+01	-4.439078678799997846e+01	5.599308560298396515e+03	1.750428246181283010e+00
1.570000000000000107e+01	2.607840750732366875e+00	3.476460710163859602e+00	1.530445237499998541e+02	-5.868629965500000623e+01	5.627584505966741744e+03	2.309464451992397471e+00
1.580000000000000071e+01	6.189584915076843386e-01	3.458488998096840294e+00	1.127676171619998513e+02	-1.821893046290000768e+02	5.674338957112612661e+03	6.364765899483472156e-01
1.590000000000000036e+01	3.039239473844548844e-01	3.438772966529887842e+00	7.633357606000002704e+01	-2.511601231719996292e+02	5.641946648952519354e+03	3.125257675417111303e-01
1.600000000000000000e+01	3.604796875776903886e-01	3.419653132499128834e+00	6.434645957400009308e+01	-1.785023173049998206e+02	5.701137983323908884e+03	3.706821789232138120e-01
1.610000000000000142e+01	6.296700008975649965e+00	3.437412681119354385e+00	6.770552922999998202e+01	-1.075254166999998873e+01	5.694817955868048557e+03	3.713129894109033491e-01
1.619999999999999929e+01	2.697614992311538895e-01	3.417979238285684840e+00	3.967859327000002168e+01	-1.470876807220000444e+02	5.719455463861313547e+03	2.773964352791610244e-01
1.630000000000000071e+01	7.961478223307527635e-02	3.397623357456095672e+00	1.865150873000002107e+01	-2.342719304989998932e+02	5.780526496364824197e+03	8.186808291741305699e-02
1.639999999999999858e+01	1.181186798223129442e+00	3.384190408612259393e+00	1.419422320109998452e+02	-1.201691656429998289e+02	5.753078925666398391e+03	1.214617386690671763e+00
1.650000000000000000e+01	1.213454294022476621e+00	3.371113685030393547e+00	1.073516044900000281e+02	-8.846777749999999685e+01	5.800492074013527599e+03	1.247798134631482814e+00
1.660000000000000142e+01	2.028357634709012924e-01	3.352141960949198474e+00	2.804631428069997057e+01	-1.382710514200001057e+02	5.746362984946033976e+03	2.085765310999469768e-01
1.669999999999999929e+01	9.526425095472943472e-01	3.337859226119424871e+00	8.964101063999999042e+01	-9.409721877999999151e+01	5.863711880795559409e+03	9.796047137822813111e-01
1.680000000000000071e+01	3.087355879575828244e-01	3.319935417609591433e+00	9.199647482000004572e+01	-2.979782001439997430e+02	5.881624235398970086e+03	3.174735897722161804e-01
1.689999999999999858e+01	5.613603486873735005e-01	3.303708505439461263e+00	7.561357933999994430e+01	-1.346970435600000258e+02	5.896916947699234697e+03	5.772482732960758645e-01
1.700000000000000000e+01	4.404937992354867049e-01	3.286964559789145479e+00	5.527012050999990578e+01	-1.254730954349998910e+02	5.867880449649685943e+03	4.529608933029942164e-01
1.710000000000000142e+01	2.141433858123480694e-01	3.269099320405559173e+00	4.588781077400008712e+01	-2.142854452399999161e+02	5.946492666468458083e+03	2.202041878928555629e-01
1.719999999999999929e+01	6.630852709604403428e-01	3.254035655379865055e+00	9.723896296999997446e+01	-1.466462417859998766e+02	5.969054334708100214e+03	6.818522694112474358e-01
1.730000000000000071e+01	2.331629456447137372e-02	3.235468302731500323e+00	-2.277387440000045782e+00	-9.767364336999997931e+01	5.975368076332030796e+03	2.397620496081631289e-02
1.740000000000000213e+01	1.097468902155408627e-01	3.217607037517123736e+00	1.607489205300001700e+01	-1.464724150400000156e+02	6.001193897644919161e+03	1.128530061388710731e-01
1.750000000000000000e+01	2.172925087576547676e-01	3.200559795876445346e+00	4.124311130195997777e+01	-1.898045705199998849e+02	6.047645905359532662e+03	2.234424390212545741e-01
1.760000000000000142e+01	1.562916586296018984e-01	3.183360540863750643e+00	2.617524885999992890e+01	-1.674769408009999552e+02	6.093026410174314151e+03	1.607151097961876662e-01
1.769999999999999929e+01	5.341020343581532881e-01	3.168477066108101869e+00	1.007811981100001475e+02	-1.886927808300000038e+02	6.062725908986376453e+03	5.492184793922194608e-01
1.780000000000000071e+01	3.152286607513434674e-02	3.150952182309034733e+00	6.112275489999986711e+00	-1.938997385400000439e+02	6.109673401341599856e+03	3.241504330286881785e-02
1.790000000000000213e+01	4.782839663907640926e-01	3.136104025553933194e+00	7.777417853000004300e+01	-1.626108839000000046e+02	6.142646224672914286e+03	4.918206182354056821e-01
1.800000000000000000e+01	4.619042604228063009e-02	3.119032679700277644e+00	8.701209480000041907e+00	-1.883769045999997331e+02	6.182572337919835263e+03	4.749773249582620732e-02
1.810000000000000142e+01	3.831515374492719950e-01	3.104000365731865774e+00	3.196255100000004390e+01	-8.342012983370001677e+01	6.173711371904303633e+03	3.939956997684254114e-01
1.819999999999999929e+01	1.093896651504274176e-01	3.087636372832514020e+00	1.492946504999999746e+01	-1.364796667899998965e+02	6.186347197798967500e+03	1.124856706964997149e-01
1.830000000000000071e+01	9.896751341956880332e-02	3.071393607292225436e+00	2.142836660100002533e+01	-2.165191976700002954e+02	6.204822954957912771e+03	1.017685455829511199e-01
1.840000000000000213e+01	3.367418532199632497e-01	3.056611705918862221e+00	1.104791206799999230e+02	-3.280825345099999026e+02	6.204010862946005545e+03	3.462725035216164815e-01
1.850000000000000000e+01	3.191669320241422581e-01	3.041894260897922031e+00	8.082168173700002001e+01	-2.532269907300000398e+02	6.229141084298541500e+03	3.282001673879289538e-01
1.860000000000000142e+01	7.989399274175673638e-01	3.029899852697492957e+00	8.839130887100006362e+01	-1.106357384799998727e+02	6.267865114575148255e+03	8.215519579312535736e-01
1.869999999999999929e+01	4.860347260031257222e-02	3.014041893228890601e+00	-6.267782277999960350e+00	-1.289574991799999850e+02	6.267079604415560425e+03	4.997907440439536275e-02
1.880000000000000071e+01	3.769325608597879906e-01	3.000088933798366497e+00	6.806793163199996854e+01	-1.805838462899998547e+02	6.293498845936680482e+03	3.876007103354478511e-01
1.890000000000000213e+01	4.720554991099849551e-01	2.986783494668427519e+00	7.766484907999995357e+01	-1.645248264799997457e+02	6.341371836003152566e+03	4.854158695004480162e-01
1.900000000000000000e+01	3.068039663547538209e-01	2.972752188237466342e+00	5.566408333300000777e+01	-1.814320851009998989e+02	6.332271835170764462e+03	3.154872983686610177e-01
1.910000000000000142e+01	5.184284733200105189e-01	2.959969252222271141e+00	1.242407391810001656e+02	-2.396487569159999396e+02	6.331251901735745378e+03	5.331013167411267073e-01
1.919999999999999929e+01	1.208844538548626696e-01	2.945258968292906232e+00	-3.389155102799990260e+01	-2.803631893700001001e+02	6.381016617609588138e+03	1.243057911361671874e-01
1.930000000000000071e+01	3.197678438161212777e-01	2.931725508888386678e+00	1.091878544700000049e+02	-3.414597702100002152e+02	6.402389873893042932e+03	3.288180865108848994e-01
1.940000000000000213e+01	2.036379525615483396e-02	2.916795448818477965e+00	4.034158080000026736e+00	-1.981044313820002003e+02	6.409047924046025400e+03	2.094014241806850876e-02
1.950000000000000000e+01	1.182133916453475264e-01	2.902516968934941488e+00	1.950115570599998804e+01	-1.649657068000001630e+02	6.456722716670406044e+03	1.215591310774110784e-01
1.960000000000000142e+01	2.489298386706384758e-01	2.889046983502127741e+00	6.764689509999992367e+01	-2.717508494010000959e+02	6.449722860048950679e+03	2.559751857795026231e-01
1.969999999999999929e+01	2.553293382037552517e-01	2.875745379232943932e+00	5.121848855300005710e+01	-2.005977413849998641e+02	6.468277390748500693e+03	2.625558074142307907e-01
1.980000000000000071e+01	3.604512169147322705e-03	2.861312510554231636e+00	-6.981109884000081811e-01	-1.936769681000000958e+02	6.500484623715053203e+03	3.706529024681335608e-03
1.990000000000000213e+01	2.137898937771882113e-01	2.848074897470346478e+00	8.535244760000001918e+01	-3.992351840960000118e+02	6.472029396875813291e+03	2.198406911346732773e-01
2.000000000000000000e+01	4.944665320578357504e-01	2.836365403115060246e+00	1.150583716599999775e+02	-2.326919299899999487e+02	6.525869049379317403e+03	5.084611916401008402e-01
2.010000000000000142e+01	2.853539885263527975e-01	2.823736633735907553e+00	7.539774232000003451e+01	-2.642252968300001612e+02	6.557662228443456115e+03	2.934302316509345698e-01
2.019999999999999929e+01	6.882657484676615867e-02	2.810165648224138391e+00	2.101098159799996168e+01	-3.052742584499999907e+02	6.545906191090452921e+03	7.077454184300588369e-02
2.030000000000000071e+01	3.802877203498517544e-01	2.798254481911029323e+00	1.005042079200000700e+02	-2.642846522300000061e+02	6.614628363149741745e+03	3.910508293664783919e-01
2.040000000000000213e+01	1.007981128806636822e-03	2.784609377029164889e+00	2.563186100000680034e-01	-2.542890959710002221e+02	6.641925880972536106e+03	1.036509556614054455e-03
2.050000000000000000e+01	2.003151308969126909e-01	2.772064259329493741e+00	4.332555344000000019e+01	-2.162869736599999726e+02	6.613917916553756186e+03	2.059845582177313728e-01
2.060000000000000142e+01	8.977748012320538873e-01	2.763009720884578524e+00	6.654674390100005610e+01	-7.412409416000001272e+01	6.632407974139915495e+03	9.231841098711848215e-01
2.069999999999999929e+01	3.370521685437096737e-01	2.751346463421401545e+00	9.360549309000001017e+01	-2.777181155499999363e+02	6.703616449595421727e+03	3.465916015577154008e-01
2.080000000000000071e+01	4.968217285036270470e-01	2.740559263732799788e+00	7.803576326999997548e+01	-1.570699484200000597e+02	6.718492031460387807e+03	5.108830461312223736e-01
2.090000000000000213e+01	3.100685505065258196e-01	2.728985498431722334e+00	8.624918457999991972e+01	-2.781616659900007562e+02	6.754715455126322922e+03	3.188442785491218956e-01
2.100000000000000000e+01	3.190555137144379105e-01	2.717564029309839313e+00	9.258600526000009268e+01	-2.901877613150002162e+02	6.752709089423485239e+03	3.280855956568816678e-01
2.110000000000000142e+01	2.347238246247055626e-01	2.705852518910381033e+00	4.367369536000000352e+01	-1.860641774639998971e+02	6.791848173302188115e+03	2.413671054303836716e-01
2.119999999999999929e+01	2.877603465649530845e-01	2.694499973500308787e+00	5.780406508000006482e+01	-2.008757140100002232e+02	6.761024064707820799e+03	2.959046957379727338e-01
2.130000000000000071e+01	3.707355951614085127e-02	2.682082093061130657e+00	9.210957510000007176e+00	-2.484508536599998934e+02	6.821613997409436706e+03	3.812283547577353937e-02
2.140000000000000213e+01	2.764887169960687507e-01	2.670893286660827481e+00	3.688474410000008419e+01	-1.334041565989997764e+02	6.814456226266389422e+03	2.843140504045685302e-01
2.150000000000000000e+01	1.207360103700804571e-01	2.659087002974296787e+00	1.826009025000000108e+01	-1.512398015639998903e+02	6.859454823049371953e+03	1.241531463234850224e-01
2.160000000000000142e+01	5.350602305905954523e-03	2.646857802971216866e+00	1.387257959999999457e+00	-2.592713643600001205e+02	6.891331624062464471e+03	5.502037950133697834e-03
2.169999999999999929e+01	6.489804793802022020e-01	2.637693228092358844e+00	6.829492052000007618e+01	-1.052341675750000718e+02	6.918167612229739461e+03	6.673482763808671336e-01
2.180000000000000071e+01	2.351243904666254769e-01	2.626722594130597610e+00	5.265058272000003825e+01	-2.239265038200002493e+02	6.923746583170202030e+03	2.417790083036990556e-01
2.190000000000000213e+01	4.835493465953860093e-01	2.616980897550892138e+00	9.715191431000003774e+01	-2.009141672799999014e+02	6.913145352002892650e+03	4.972350220821904476e-01
2.200000000000000000e+01	3.475081038727503846e-02	2.605296598513952677e+00	1.176749162090002265e+01	-3.386249554977000571e+02	7.018173529955251070e+03	3.573434664311382625e-02
2.210000000000000142e+01	2.602638711754570178e-01	2.594733388030446175e+00	5.730500330000006670e+01	-2.201804001499995991e+02	6.923239673142001266e+03	2.676300002105298503e-01
2.219999999999999929e+01	3.948475132611332650e-01	2.584868428950762631e+00	7.709440734999994049e+01	-1.952510900049999520e+02	6.958219609082733768e+03	4.060227014219917052e-01
2.230000000000000071e+01	1.751042251493022395e-01	2.574110553040934946e+00	3.381844545999998530e+01	-1.931332349700000748e+02	7.006201952698769674e+03	1.800601197619919325e-01
2.240000000000000213e+01	7.180253921880238588e-01	2.565861285659366331e+00	1.264141275299999734e+02	-1.760580181500000094e+02	7.055599710750011582e+03	7.383473357041492324e-01
2.250000000000000000e+01	1.920331147123198190e-01	2.555357621186149508e+00	5.269623006100000850e+01	-2.744122030199997653e+02	7.033433000998251373e+03	1.974681399257282588e-01
2.260000000000000142e+01	2.536515963041723887e-01	2.545217947067726527e+00	-6.141227020000005155e+01	-2.421126895899998601e+02	7.071716638625113774e+03	2.608305811547786401e-01
2.269999999999999929e+01	2.045004037660697882e-01	2.534951642053245635e+00	6.300799958000001055e+01	-3.081069690800001695e+02	7.119353822382109684e+03	2.102882849462811010e-01
2.280000000000000071e+01	1.073141114281673247e-01	2.524350604801607556e+00	2.858760138999995704e+01	-2.663918193940001515e+02	7.126971364907609313e+03	1.103513735287189601e-01
2.290000000000000213e+01	5.084296024310867024e-01	2.515585730878257653e+00	9.877302181000001724e+01	-1.942707925299999658e+02	7.117072183225433946e+03	5.228194523931406490e-01
2.300000000000000000e+01	6.784316033397466694e-02	2.504989442694083301e+00	1.918965104399996946e+01	-2.828531417099997611e+02	7.174120496917200398e+03	6.976329420007816584e-02
2.310000000000000142e+01	1.400314263619443222e-01	2.494795658140926964e+00	3.601855126300002041e+01	-2.572176274910002007e+02	7.151562936617205196e+03	1.439946716287143769e-01
2.319999999999999929e+01	1.284265701593944320e-01	2.484639567634569168e+00	3.201118048700004692e+01	-2.492566798854000467e+02	7.224682270333491942e+03	1.320613685009905391e-01
2.330000000000000071e+01	2.671507940601305919e-01	2.475163119884251195e+00	4.757793806000003656e+01	-1.780939421400003084e+02	7.147267161887814837e+03	2.747118405164881705e-01
2.340000000000000213e+01	9.843493808102181386e-02	2.465049382940407430e+00	2.536104258800002853e+01	-2.576426935640001261e+02	7.200585880656701192e+03	1.012208970087417476e-01
2.350000000000000000e+01	1.908252674289463990e-01	2.455412840078070591e+00	7.436375723929999992e+01	-3.896955484000004049e+02	7.250942798961531480e+03	1.962261074943978667e-01
2.360000000000000142e+01	8.964995913538414962e-02	2.445430718217552979e+00	-2.817196333099993311e+01	-3.142440175399999021e+02	7.256845068601527601e+03	9.218728083123742256e-02
2.369999999999999929e+01	1.244345100005792293e-01	2.435678633309078300e+00	-2.713646965000001288e+01	-2.180783260999998845e+02	7.271901392686110739e+03	1.279563228935504671e-01
2.380000000000000071e+01	1.058793473307954175e-01	2.425930519141804798e+00	2.845485819999999322e+01	-2.687479562100000408e+02	7.205686256221388248e+03	1.088760019608272234e-01
2.390000000000000213e+01	2.470407986838432934e-01	2.416851811973230291e+00	5.355717389999998801e+01	-2.167948540699997295e+02	7.262575634155771695e+03	2.540326811599395440e-01
2.400000000000000000e+01	3.788449982998006171e-01	2.408395352165456416e+00	1.138491113200000626e+02	-3.005163373700002580e+02	7.342034222014342049e+03	3.895672746156208510e-01
2.410000000000000142e+01	5.751954958921524919e-02	2.398680989344893266e+00	1.330973621699998866e+01	-2.313950006919999680e+02	7.270452692046984339e+03	5.914749903298494038e-02
2.419999999999999929e+01	4.479806142398980451e-01	2.390653415784790514e+00	1.179679079699999846e+02	-2.633326180199998703e+02	7.363515881286733020e+03	4.606596042003511804e-01
2.430000000000000071e+01	1.671373356121973186e-02	2.380924154792070979e+00	5.270251303000011767e+00	-3.153245972059997371e+02	7.343302445603202614e+03	1.718677470025194859e-02
2.440000000000000213e+01	2.556858599563643919e-01	2.372249712772333652e+00	7.183940211699997747e+01	-2.809674423499999421e+02	7.359718508058068437e+03	2.629224196385664958e-01
2.450000000000000000e+01	1.588912385648091063e-01	2.363252320600758516e+00	5.218957193399991468e+01	-3.284609800100000712e+02	7.309473722734011972e+03	1.633882644505952053e-01
2.460000000000000142e+01	2.756005333235575505e-01	2.354800289073320396e+00	8.765034803499990801e+01	-3.180340291000002821e+02	7.358452058398001100e+03	2.834007288767375621e-01
2.469999999999999929e+01	6.924518207810362314e-02	2.345584341061242473e+00	-1.730180222000003809e+01	-2.498629031039999120e+02	7.381512665655572164e+03	7.120499672291294435e-02
2.480000000000000071e+01	1.774693302146395646e-01	2.336877051861055321e+00	5.672960544800000804e+01	-3.196586440000005496e+02	7.462454929861263736e+03	1.824921633117762010e-01
2.490000000000000213e+01	1.582560464767022723e-01	2.328162567839517916e+00	3.941948149800001744e+01	-2.490867323910001403e+02	7.450892506522006443e+03	1.627350948120050156e-01
2.500000000000000000e+01	1.139128978049806090e-01	2.319340856006711249e+00	-3.495042398999998312e+01	-3.068170915099997274e+02	7.423106341223271556e+03	1.171369223313232510e-01
2.510000000000000142e+01	7.525366677638779811e-02	2.310435748112940058e+00	2.724631773000001189e+01	-3.620596696100001850e+02	7.454628273971684393e+03	7.738353680918826083e-02
2.519999999999999929e+01	4.413720009427225810e-02	2.301478046342115391e+00	-1.211731398399998838e+01	-2.745374413900003674e+02	7.491438902500640324e+03	4.538639503505625949e-02
2.530000000000000071e+01	3.492517098508273188e-01	2.293792115883488414e+00	1.001692365999999623e+02	-2.868110127300001864e+02	7.518913384800446693e+03	3.591364208899045507e-01
2.540000000000000213e+01	8.412366421845816900e-02	2.285126749406370283e+00	1.752031570000006511e+01	-2.082685753500001340e+02	7.543306961442486681e+03	8.650457772265543466e-02
2.550000000000000000e+01	1.966052585604798064e-01	2.276968462332753962e+00	4.269762655800001028e+01	-2.171743872499999668e+02	7.504746099015308573e+03	2.021696870652492650e-01
2.560000000000000142e+01	1.383269466052199914e-01	2.268646900014747558e+00	-3.008078763000007072e+01	-2.174615168499998106e+02	7.562086231431840133e+03	1.422419507628072954e-01
2.569999999999999929e+01	1.410221566480321931e-01	2.260400292482318996e+00	3.482173310000002431e+01	-2.469238446474001307e+02	7.563670171322351962e+03	1.450134420999163731e-01
2.580000000000000071e+01	3.393093849119564465e-01	2.252982953070850058e+00	6.417618204000005733e+01	-1.891376569400000847e+02	7.536316258286177799e+03	3.489127028860739554e-01
2.590000000000000213e+01	4.252027273967021875e-02	2.244481173531114759e+00	-1.576893678999999437e+01	-3.708569059879999372e+02	7.609991247330755868e+03	4.372370452677274560e-02
2.600000000000000000e+01	1.088513238403067962e-01	2.236298683685556288e+00	3.790578266999999357e+01	-3.482344663590005780e+02	7.589166956971301261e+03	1.119320929590665037e-01
2.610000000000000142e+01	3.916218400334092742e-01	2.229257932373906570e+00	1.113027060999999804e+02	-2.842096500300002049e+02	7.563670984381458766e+03	4.027057334436244806e-01
2.619999999999999929e+01	4.282930286494317507e-01	2.222410157074574233e+00	1.266623826300001099e+02	-2.957376706070000978e+02	7.593596946965857569e+03	4.404148099001494732e-01
2.630000000000000071e+01	4.279658458256794390e-02	2.214154045057559195e+00	-8.298719420000002955e+00	-1.939107875299999080e+02	7.680759180443598780e+03	4.400783669709244783e-02
2.640000000000000213e+01	3.564845763228853270e-01	2.207143971590635800e+00	9.878366015999999661e+01	-2.771050045950006506e+02	7.627514055558754080e+03	3.665739958660127473e-01
2.650000000000000000e+01	6.278897965490090605e-02	2.199082486658546554e+00	1.895126018999998152e+01	-3.018246242279996636e+02	7.702959672308166773e+03	6.456606736219455689e-02
2.660000000000000142e+01	4.079935969910535309e-01	2.192374288569904017e+00	1.331874127199999691e+02	-3.264448601700004247e+02	7.696888924733490057e+03	4.195408527332597504e-01
2.669999999999999929e+01	1.699664824109030359e-01	2.184827990785728868e+00	-5.538447226800005296e+01	-3.258552597100005528e+02	7.693446896047075825e+03	1.747769658461245101e-01
2.680000000000000071e+01	4.800247644998948023e-03	2.176723798432045776e+00	-1.423084370999992743e+00	-2.964606154189998506e+02	7.758335918087559548e+03	4.936106853553981835e-03
2.690000000000000213e+01	3.844953966087297226e-02	2.168804264140300919e+00	-7.941743639999987892e+00	-2.065497717279998255e+02	7.756889398369478840e+03	3.953775935576180067e-02
2.700000000000000000e+01	2.031132666130467668e-01	2.161550791824701889e+00	6.332337859400001179e+01	-3.117638726900003689e+02	7.706482122060111578e+03	2.088618882863109150e-01
2.710000000000000142e+01	6.016275285963080220e-03	2.153626032572721005e+00	-1.937716545999987661e+00	-3.220791027499998336e+02	7.757981755750167395e+03	6.186551167385929972e-03
2.719999999999999929e+01	2.501377282891930065e-01	2.146653547941645979e+00	4.745112349700001175e+01	-1.896999857699998984e+02	7.768464168097109905e+03	2.572172617442073372e-01
2.730000000000000071e+01	1.879865302649486869e-01	2.139505128169103099e+00	4.567779580599997757e+01	-2.429844082000001606e+02	7.745602422660796037e+03	1.933070268537884218e-01
2.740000000000000213e+01	1.468021831364069996e-01	2.132258935641711428e+00	5.035907896000002637e+01	-3.430403954769999473e+02	7.829884605839550204e+03	1.509570580282976471e-01
2.750000000000000000e+01	3.621811077136310314e-02	2.124664584826964298e+00	-1.117984070900003069e+01	-3.086809463799999094e+02	7.819799275811065854e+03	3.724317535732927370e-02
2.760000000000000142e+01	3.925161127363487046e-02	2.117136018135435727e+00	1.108199477700003932e+01	-2.823322257969003317e+02	7.827306451421579368e+03	4.036253163369205033e-02
2.769999999999999929e+01	1.373991334922999019e-01	2.110014662435280464e+00	-4.744549113000005747e+01	-3.453114290030001712e+02	7.859927988061184806e+03	1.412878781806826134e-01
2.780000000000000071e+01	3.511874748032838833e-01	2.103710622336241176e+00	7.529318661700010296e+01	-2.143959908000000496e+02	7.885997212684161241e+03	3.611269729104123472e-01
2.790000000000000213e+01	2.123093675445095890e-02	2.096273194887734892e+00	4.535397979999950202e+00	-2.136221322900001951e+02	7.895061462751650652e+03	2.183182622467376433e-02
2.800000000000000000e+01	2.285435050319102324e-01	2.089626470012802884e+00	-2.659772298760002585e+01	-1.163792555990000039e+02	7.882093235776138499e+03	2.350118670853508229e-01
2.810000000000000142e+01	4.104171159313558248e-01	2.083671826913223502e+00	1.271140721999999244e+02	-3.097192277459996035e+02	7.894297684529718026e+03	4.220329634191338775e-01
2.819999999999999929e+01	8.165557941672614561e-02	2.076597564554578224e+00	-1.978696617000001723e+01	-2.423222798899997770e+02	7.880282293418877998e+03	8.396663984820551541e-02
2.830000000000000071e+01	5.328012221231372969e-01	2.071161661940383425e+00	1.268637520699999470e+02	-2.381070966100000419e+02	7.929951154812233654e+03	5.478808508648373987e-01
2.840000000000000213e+01	2.276177864359228420e-01	2.064693086938613309e+00	6.453549741000007600e+01	-2.835257227499996020e+02	7.941446713673949489e+03	2.340599483003114045e-01
2.850000000000000000e+01	1.479177310125790942e-02	2.057525599827293661e+00	-4.896888147910000377e+00	-3.310548447700001020e+02	7.944508832157564029e+03	1.521041787446168400e-02
2.860000000000000142e+01	1.126084463464021024e-01	2.050748885006802968e+00	3.534557253999998494e+01	-3.138802966100001868e+02	7.983526420424121170e+03	1.157955515811024544e-01
2.869999999999999929e+01	3.571730246433067468e-01	2.044868413269429475e+00	1.216025098999999159e+02	-3.404582695500005229e+02	8.035645089142915822e+03	3.672819290236468692e-01
2.880000000000000071e+01	3.758711169867546276e-01	2.039093336119662148e+00	7.591298824499995135e+01	-2.019654738399999587e+02	8.061777262118609542e+03	3.865092249030657179e-01
2.890000000000000213e+01	1.776782629216877019e-01	2.032674663453462482e+00	5.642287171000003809e+01	-3.175564122599994903e+02	8.031983379828964644e+03	1.827070093454524757e-01
2.900000000000000000e+01	2.770055175830038463e-01	2.026641436148065800e+00	9.855359480999996435e+01	-3.557820640900002331e+02	8.076483411628772956e+03	2.848454777616026279e-01
2.910000000000000142e+01	2.983082717559807154e-02	2.019803043651584584e+00	7.805806520000015070e+00	-2.616691275120002729e+02	8.071161195921910803e+03	3.067511540202761192e-02
2.919999999999999929e+01	4.317239518681444815e-02	2.013056863963991194e+00	-1.212742266999996943e+01	-2.809068762000001698e+02	8.131669715113454913e+03	4.439428369659091655e-02
2.930000000000000071e+01	2.480015765782329906e-02	2.006294086051385595e+00	7.064555370000022982e+00	-2.848592927299993676e+02	8.099174025948888811e+03	2.550206515106319752e-02
2.940000000000000213e+01	1.484784419665145516e-01	1.999996405901945273e+00	-3.048849398000001898e+01	-2.053395333100000073e+02	8.145997220425847445e+03	1.526807592436390248e-01
2.950000000000000000e+01	2.487096612450710731e-01	1.994079896629455950e+00	9.021552776000001472e+01	-3.627343115999998417e+02	8.058286652905312621e+03	2.557487767731936312e-01
2.960000000000000142e+01	3.503459877325710431e-02	1.987483784515462037e+00	-8.406215992999976905e+00	-2.399404099760000406e+02	8.144613520962429902e+03	3.602616696168937233e-02
2.969999999999999929e+01	9.927277013118945836e-02	1.981147505943702480e+00	-3.193932478999998992e+01	-3.217329862740005524e+02	8.095777152597748682e+03	1.020824418353442481e-01
2.980000000000000071e+01	2.460606536824923585e-01	1.975344539882628592e+00	-7.900735285000008901e+01	-3.210889334300000542e+02	8.110667943606988047e+03	2.530247955639358670e-01
2.990000000000000213e+01	9.834548500644056668e-02	1.969087876366374168e+00	-3.352328486999998347e+01	-3.408726375980002672e+02	8.055221739622727910e+03	1.011289121847979144e-01
3.000000000000000000e+01	5.909553452536764340e-02	1.962742386858597143e+00	-2.214029916999998804e+01	-3.746526594238001735e+02	8.137943732309352526e+03	6.076808834831835121e-02
3.010000000000000142e+01	3.485824315502126236e-01	1.957397486344330861e+00	8.641769928100013942e+01	-2.479118035199999497e+02	8.193487382656367117e+03	3.584482003123597993e-01
3.019999999999999929e+01	2.947627466998677948e-01	1.951910242979167487e+00	1.060314966940000403e+02	-3.597181050899998240e+02	8.147368815099296626e+03	3.031052815938484191e-01
3.030000000000000071e+01	6.793311840470345198e-02	1.945712949806225778e+00	2.230412917999998612e+01	-3.283248245300001713e+02	8.180814532592466094e+03	6.985579831284398356e-02
3.040000000000000213e+01	1.013727671060682539e-01	1.939665932813765981e+00	-3.619723268999997146e+01	-3.570705794400000741e+02	8.262106371197829503e+03	1.042418740619172335e-01
3.050000000000000000e+01	3.068413405716083897e-01	1.934329904734543248e+00	8.698918572999991738e+01	-2.834989104399999178e+02	8.246922565133305397e+03	3.155257303708420280e-01
3.060000000000000142e+01	7.475802502304519648e-02	1.928272667341346391e+00	-2.408387284700006248e+01	-3.221576926300002697e+02	8.221292713139509942e+03	7.687386713451412057e-02
3.069999999999999929e+01	1.547820598882661269e-01	1.922514580953511798e+00	5.600184660300000417e+01	-3.618109659700003249e+02	8.232134722234037326e+03	1.591627855737098585e-01
3.080000000000000071e+01	2.575025991406847403e-01	1.917126192662855333e+00	6.412696282999999653e+01	-2.490342351649999273e+02	8.293612653071990280e+03	2.647905771591865798e-01
3.090000000000000213e+01	1.362079043182893856e-01	1.911381294958517829e+00	3.503835635999998743e+01	-2.572417256939999106e+02	8.330576340678228007e+03	1.400629341934462868e-01
3.100000000000000000e+01	3.636435969791040196e-02	1.905352301597551312e+00	-1.028935150999997106e+01	-2.829515381399999114e+02	8.315556112302643669e+03	3.739356350020085068e-02
3.110000000000000142e+01	9.480061916092626106e-02	1.899549251333331634e+00	3.559950965999995987e+01	-3.755198011900002939e+02	8.349095195174384571e+03	9.748371762630417270e-02
3.119999999999999929e+01	1.193437361026099264e-02	1.893518532874152172e+00	-4.374538260000019108e+00	-3.665494648365003059e+02	8.354055331238312647e+03	1.227214671556720732e-02
3.130000000000000071e+01	3.119328522965525985e-01	1.888481635802248926e+00	1.198937558600000557e+02	-3.843575788099992110e+02	8.332099960004201421e+03	3.207613448180740012e-01
3.140000000000000213e+01	2.765004038076272486e-01	1.883364235065758008e+00	8.839078130099991881e+01	-3.196768615299999396e+02	8.348343687591037451e+03	2.843260679825970749e-01
3.150000000000000000e+01	6.932742455046168872e-02	1.877623612247671714e+00	2.237967526000001683e+01	-3.228112886800001320e+02	8.389353421968628027e+03	7.128956686626435058e-02
3.160000000000000142e+01	2.203823401407235538e-01	1.872395721799384960e+00	8.169520195000006879e+01	-3.706975881000001323e+02	8.404681208181908005e+03	2.266197204855102398e-01
3.169999999999999929e+01	2.371468869068305285e-01	1.867253429865760372e+00	4.763694086999991839e+01	-2.008752528499999244e+02	8.431389587165625926e+03	2.438587465334934312e-01
3.180000000000000071e+01	1.056682766867371448e-01	1.861731219354227473e+00	-2.810339210300005774e+01	-2.659586489360002020e+02	8.422056294804402569e+03	1.086589574810896963e-01
3.190000000000000213e+01	6.526536323266994566e-02	1.856117263553847652e+00	2.512015202999996077e+01	-3.848925492139993594e+02	8.502176703222079595e+03	6.711253888913533416e-02
3.200000000000000000e+01	2.153190643409595706e-02	1.850402044372789323e+00	-6.461462779999941120e+00	-3.000878161799997201e+02	8.468707234585244805e+03	2.214131411119048959e-02
3.210000000000000142e+01	1.717754460872874256e-01	1.845188918291157165e+00	4.426821348899996167e+01	-2.577097862199998985e+02	8.386051384560239967e+03	1.766371277921720273e-01
3.220000000000000284e+01	4.742179933352573540e-02	1.839623075817604203e+00	1.541068728999996296e+01	-3.249705305700006761e+02	8.428378430227952776e+03	4.876395678084423368e-02
3.229999999999999716e+01	1.687824375118056608e-01	1.834466160267277601e+00	-5.440684738400002374e+01	-3.223489848000002098e+02	8.478674404289820814e+03	1.735594094670407650e-01
3.239999999999999858e+01	1.814407005519335925e-01	1.829379928083538109e+00	5.012620181999995594e+01	-2.762676823200006311e+02	8.579398741355911625e+03	1.865759335231612637e-01
3.250000000000000000e+01	9.880844008089507968e-03	1.823798642549564253e+00	2.643062019999962153e+00	-2.674935479030000920e+02	8.534947385818151815e+03	1.016049700644957102e-02
3.260000000000000142e+01	1.101360518719419757e-01	1.818558084168286904e+00	3.943341231800000202e+01	-3.580427266799998165e+02	8.552333410409384669e+03	1.132531820592328625e-01
3.270000000000000284e+01	4.979467687607342513e-02	1.813165512804591373e+00	1.559987141399998123e+01	-3.132839169300000322e+02	8.592200943390580505e+03	5.120399278869827708e-02
3.279999999999999716e+01	5.978446632852166820e-01	1.809471528459547729e+00	1.225270785299999687e+02	-2.049480175280002072e+02	8.544624597362448185e+03	6.147651867247522217e-01
3.289999999999999858e+01	7.648015709596805989e-02	1.804220039455415758e+00	-2.367454125000005760e+01	-3.095514202500003762e+02	8.541935201308504475e+03	7.864473992203288577e-02
3.300000000000000000e+01	2.775270122309462240e-01	1.799607673814254127e+00	6.983817655999999374e+01	-2.516446092890000443e+02	8.560190582410619754e+03	2.853817320335008678e-01
3.310000000000000142e+01	3.133616077974940017e-01	1.795131029037095205e+00	9.494043854999999610e+01	-3.029740599600001474e+02	8.585350786863575195e+03	3.222305377309849228e-01
3.320000000000000284e+01	1.668644011642244490e-02	1.789790354595891975e+00	7.478638820000012899e+00	-4.481865974899998264e+02	8.584802107027784587e+03	1.715870878159849247e-02
3.329999999999999716e+01	3.380481673770317774e-02	1.784532912865777643e+00	-1.294370654599996939e+01	-3.828953325329996460e+02	8.600473246972454945e+03	3.476157896894287863e-02
3.339999999999999858e+01	1.551918030615399291e-01	1.779669208060391972e+00	6.028148668000016386e+01	-3.884321561500002531e+02	8.636192925116230981e+03	1.595841255201813635e-01
3.350000000000000000e+01	2.198527032923341118e-01	1.775026897034296391e+00	8.916366271000012489e+01	-4.055609113499997989e+02	8.687159740000150123e+03	2.260750935681982432e-01
3.360000000000000142e+01	1.696341178992373799e-01	1.770263120241610588e+00	4.702901832000003424e+01	-2.772379690030001029e+02	8.623393261170183905e+03	1.744351945740485466e-01
3.370000000000000284e+01	8.796045111255779148e-02	1.765285893409867857e+00	3.034870635999999777e+01	-3.450267248079998126e+02	8.580360936149963891e+03	9.044995543734944687e-02
3.379999999999999716e+01	2.017775429063177819e-02	1.760138081790046938e+00	6.823400280000027074e+00	-3.381645044200001280e+02	8.653754892046183159e+03	2.074883602038361460e-02
3.389999999999999858e+01	6.996100746557455674e-02	1.755166972747916221e+00	-2.035087353000004029e+01	-2.908888003080003841e+02	8.740558748037585246e+03	7.194108178817501531e-02
3.400000000000000000e+01	3.526270404989959723e-02	1.750123265215077772e+00	-1.030635367999999552e+01	-2.922734928499999683e+02	8.724894719877125681e+03	3.626072819740809583e-02
3.410000000000000142e+01	8.020181537400167260e-02	1.745240453958232241e+00	-3.113565852799999689e+01	-3.882163811729998883e+02	8.658801899146677897e+03	8.247173058821791192e-02
3.420000000000000284e+01	3.944531996720487127e-02	1.740267290302281555e+00	-1.241081876000002282e+01	-3.146334918900003572e+02	8.706876712954604955e+03	4.056172277561574668e-02
3.430000000000000426e+01	2.767037840232408272e-02	1.735288810907223755e+00	8.328314340000032345e+00	-3.009830302610000672e+02	8.768706925264323218e+03	2.845352043752191057e-02
3.439999999999999858e+01	1.437665178660406107e-01	1.730675702811452332e+00	-6.127755928299995958e+01	-4.262296965423996085e+02	8.673514696718111736e+03	1.478354757154012600e-01
3.450000000000000000e+01	2.199359911449500632e-02	1.725737315228513147e+00	-8.896574716999978705e+00	-4.045074510400000918e+02	8.757704051377251744e+03	2.261607386787257631e-02
3.460000000000000142e+01	5.389982258790998459e-02	1.720919339745399013e+00	1.229681331999997518e+01	-2.281419999099999814e+02	8.741096928506731274e+03	5.542532455772591904e-02
3.470000000000000284e+01	2.364033807510984853e-01	1.716653489288518797e+00	-8.428588734999976850e+01	-3.565341878030994280e+02	8.698557636620405901e+03	2.430941972638756277e-01
3.480000000000000426e+01	5.275622470515470980e-02	1.711885875349884456e+00	1.934233407499996460e+01	-3.666360544770001866e+02	8.779313497914286927e+03	5.424935994834598207e-02
3.489999999999999858e+01	6.404760926010109878e-02	1.707177766018199483e+00	2.004900311200001184e+01	-3.130328101799996148e+02	8.815262022842163788e+03	6.586031938412664766e-02
3.500000000000000000e+01	1.622583373764427406e-01	1.702776286164519259e+00	6.331155404000000431e+01	-3.901898359349995644e+02	8.789337234811337112e+03	1.668506607163407485e-01
3.510000000000000142e+01	3.493002192438296677e-04	1.697939845863538633e+00	-1.378207399999982763e-01	-3.945624205400004598e+02	8.856100233290033430e+03	3.591863032220192703e-04
3.520000000000000284e+01	1.778516922940764355e-01	1.693633647128214292e+00	-4.838310323599984031e+01	-2.720418490930001667e+02	8.914046699349817573e+03	1.828853472098639910e-01
3.530000000000000426e+01	6.036033303596697458e-02	1.689019880704225152e+00	-2.129465113700002021e+01	-3.527921412281001494e+02	8.807838281910006117e+03	6.206868387135112269e-02
3.539999999999999858e+01	1.470301513978266228e-03	1.684266219917773366e+00	5.444642779998911664e-01	-3.703079081559997121e+02	8.833906073059022674e+03	1.511914783709144726e-03
3.550000000000000000e+01	1.498946688557982465e-01	1.679956187470970308e+00	-3.895336533000004664e+01	-2.598715860100000441e+02	8.867444040481883349e+03	1.541370689533398952e-01
3.560000000000000142e+01	7.629004951626716657e-03	1.675271797603969270e+00	-3.155716327000016364e+00	-4.136471724699994752e+02	8.916301921793861766e+03	7.844925181465331465e-03
3.570000000000000284e+01	6.796476955736069359e-02	1.670782113168084893e+00	3.101612795100001918e+01	-4.563559643180004173e+02	8.895118840768698647e+03	6.988834527356528603e-02
3.580000000000000426e+01	9.903341323606784652e-02	1.666403983084708829e+00	-3.423246523999998203e+01	-3.456658123900000987e+02	8.901821210412099390e+03	1.018363105317465905e-01
3.589999999999999858e+01	8.989100153692665407e-02	1.662024780358187126e+00	2.300585758399996550e+01	-2.559305958399996825e+02	8.962600757335816525e+03	9.243514534537153327e-02
3.600000000000000000e+01	7.044500900511961421e-03	1.657440347451102136e+00	2.317789728500011304e+00	-3.290211416300003862e+02	8.959090001667327670e+03	7.243878180141664208e-03
3.610000000000000142e+01	1.480559230678403781e-01	1.653270777217999310e+00	4.355199858000001711e+01	-2.941591101360000948e+02	8.931704754071899515e+03	1.522462819862678285e-01
3.620000000000000284e+01	1.202845577830141816e-01	1.649047674685120368e+00	-3.529778101999998796e+01	-2.934523073500006376e+02	8.961021307300376066e+03	1.236889164808030184e-01
3.630000000000000426e+01	3.829586443288447994e-01	1.645569408118207511e+00	1.013808039200000763e+02	-2.647304230400002325e+02	8.979609124456883364e+03	3.937973472824373156e-01
3.639999999999999858e+01	1.063106014861277121e-01	1.641352260702777288e+00	-4.305993955800001771e+01	-4.050389985200002343e+02	8.974088952536672878e+03	1.093194617048213052e-01
3.650000000000000000e+01	7.766744803100070205e-02	1.637079897826624775e+00	2.931114465000008451e+01	-3.773929154760001552e+02	9.008154109944453012e+03	7.986563420811891578e-02
3.660000000000000142e+01	7.727381860485380005e-02	1.632829745022206014e+00	3.531009139100005001e+01	-4.569476703559997190e+02	9.024097385846926045e+03	7.946086406877235497e-02
3.670000000000000284e+01	4.759961006662002253e-02	1.628522054438087174e+00	1.717770013200007284e+01	-3.608790094699999713e+02	9.027527628117462882e+03	4.894680000960485722e-02
3.680000000000000426e+01	1.223542956374926854e-01	1.624440298994183074e+00	3.327231608999999679e+01	-2.719341884699996967e+02	9.012761558864887775e+03	1.258172331769625008e-01
3.689999999999999858e+01	7.049299501489220132e-02	1.620240441415860655e+00	-3.433143779999993228e+01	-4.870191398840004240e+02	9.028303631006661817e+03	7.248812593722596398e-02
3.700000000000000000e+01	1.484216013687786606e-01	1.616273274731097720e+00	-5.298582229999997395e+01	-3.569953552000002333e+02	9.055575897631613770e+03	1.526223099125224303e-01
3.710000000000000142e+01	4.017733217177330007e-02	1.612036457681206958e+00	-1.269688508199997656e+01	-3.160211093090001100e+02	9.074448835412064000e+03	4.131445278603923521e-02
3.720000000000000284e+01	1.646052389607587374e-01	1.608155945030482092e+00	-6.336167577300009413e+01	-3.849311004500001445e+02	9.070243951185882906e+03	1.692639855803252380e-01
3.730000000000000426e+01	1.155722206143088432e-01	1.604165079457176679e+00	-3.206045763999997433e+01	-2.774062613799999326e+02	9.029298478939806955e+03	1.188432081934530371e-01
3.739999999999999858e+01	5.437409526751293964e-02	1.600032303499337782e+00	-1.695497040999992677e+01	-3.118207360799999606e+02	9.092190277048404823e+03	5.591302035956242228e-02
3.750000000000000000e+01	3.644940053176962125e-02	1.595873838331870687e+00	9.560057640000016121e+00	-2.622829868399998645e+02	9.080308262842236218e+03	3.748101120579615253e-02
3.760000000000000142e+01	9.636750126418096307e-02	1.591896367941770585e+00	-3.410365189999998137e+01	-3.538916279099999542e+02	9.075266308593883878e+03	9.909494647543333479e-02
3.770000000000000284e+01	2.811962004228643064e-01	1.588428907181138605e+00	7.131882275999987542e+01	-2.536265520400000355e+02	9.130350546591773309e+03	2.891547675767764947e-01
3.780000000000000426e+01	5.616506132269169504e-02	1.584385994659084806e+00	2.003210703099999179e+01	-3.566649187099998812e+02	9.120381204533787241e+03	5.775467530598182159e-02
3.789999999999999858e+01	5.192173296320311271e-02	1.580353193970411185e+00	1.993113872999996872e+01	-3.838689040699999282e+02	9.137029857929099308e+03	5.339124996917169602e-02
3.800000000000000000e+01	1.561122614487575333e-01	1.576615028793189266e+00	4.429891223119997079e+01	-2.837631831099999431e+02	9.147912686082883738e+03	1.605306352191735730e-01
3.810000000000000142e+01	3.358076894710775862e-01	1.573366842041036939e+00	1.050728572799999654e+02	-3.128959239900004263e+02	9.119599252082130988e+03	3.453119005643877637e-01
3.820000000000000284e+01	4.304018593317938957e-02	1.569371211085142104e+00	1.539976954999999847e+01	-3.577997914299998570e+02	9.156020894313916870e+03	4.425833258505791623e-02
3.830000000000000426e+01	9.682894008196528401e-02	1.565536465587737958e+00	3.791926489799999445e+01	-3.916108641270006387e+02	9.194508378795586395e+03	9.956944518454348414e-02
3.839999999999999858e+01	2.228891573558867134e-01	1.562049069981940930e+00	-7.154279080999991436e+01	-3.209792331699997021e+02	9.172424380621208911e+03	2.291974869991328101e-01
3.850000000000000000e+01	5.520428163919281067e-02	1.558145327006959846e+00	-2.141164457400008914e+01	-3.878620269700002154e+02	9.190415557820710092e+03	5.676670311554386089e-02
3.860000000000000142e+01	1.513959685572068350e-02	1.554158232097008208e+00	5.312039925999991752e+00	-3.508706325950001883e+02	9.180631802188634538e+03	1.556808592519679478e-02
3.870000000000000284e+01	2.606023774362844700e-02	1.550219835204344809e+00	9.828010970000029545e+00	-3.771266811410004038e+02	9.184788640627923087e+03	2.679780870588786487e-02
3.880000000000000426e+01	1.194776863502517023e-01	1.546541834821686612e+00	-5.365756868099996524e+01	-4.491011695999997642e+02	9.234790192454029238e+03	1.228592085357670532e-01
3.889999999999999858e+01	1.521914452527082795e-01	1.542966577412535401e+00	4.560944936500004587e+01	-2.996847115110001027e+02	9.180386360939904989e+03	1.564988499597177729e-01
3.900000000000000000e+01	1.307569249945455814e-01	1.539354788020161902e+00	-3.309441387900002951e+01	-2.530987470099999257e+02	9.273124667390025934e+03	1.344576783007539744e-01
3.910000000000000142e+01	1.182726262940671513e-01	1.535729578423921771e+00	-2.952478121999999772e+01	-2.496332595726001387e+02	9.222086554972285739e+03	1.216200422172389189e-01
3.920000000000000284e+01	2.905557232538105716e-01	1.532561197113056606e+00	8.477772858000001577e+01	-2.917778649500003212e+02	9.230634266210085116e+03	2.987791886917914863e-01
3.930000000000000426e+01	3.173026225014876495e-02	1.528751981542338267e+00	-9.661791260000033077e+00	-3.044976805999999101e+02	9.277005668864798281e+03	3.262830931674959994e-02
3.939999999999999858e+01	1.591565519565750486e-01	1.525284651340855557e+00	4.159121331000001476e+01	-2.613226587200000495e+02	9.251513323270088222e+03	1.636610868856626655e-01
3.950000000000000000e+01	9.991345197106951681e-02	1.521685229120224747e+00	-4.055905582999999126e+01	-4.059418930070005445e+02	9.241734967329210122e+03	1.027412565996354832e-01
3.960000000000000142e+01	1.663748564166168675e-01	1.518271349088225808e+00	-6.389841503999997485e+01	-3.840629312399998980e+02	9.228650480753512966e+03	1.710836877078041052e-01
3.970000000000000284e+01	2.878216693678500859e-02	1.514528913957191802e+00	8.022949440000012089e+00	-2.787472346199998015e+02	9.282473065399206462e+03	2.959677541320484065e-02
