Friction coeff (normalized): 0.0670410922415847
Friction coeff (mean): 0.051526464394843464
fy: 14.944067765600002
fz: 290.0270364192801
Friction coeff (normalized): 0.37257070627989475
Friction coeff (mean): 0.23076638736750105
fy: 12.959056971232854
fz: 56.15660547042858
