units metal
boundary s s s
atom_style atomic

region r1 block 0.0 50.0 0.0 50.0 0.0 6.0 units box
create_box 2 r1

lattice custom 4.92 &
a1 1.0 0.0 0.0 &
a2 0.0 0.86666 0.0 &
a3 0.0 0.0 2.0 &
basis 0.0 0.0 0.15 &
basis 0.0 0.6666 0.15 &
basis 0.25 0.1666 0.15 &
basis 0.25 0.5 0.15 &
basis 0.5 0.0 0.15 &
basis 0.5 0.6666 0.15 &
basis 0.75 0.1666 0.15 &
basis 0.75 0.5 0.15 &
basis 0.0 0.0 0.0 &

create_atoms 1 region r1 &
basis 1 1 &
basis 2 1 &
basis 3 1 &
basis 4 1 &
basis 5 1 &
basis 6 1 &
basis 7 1 &
basis 8 1 &
basis 9 2 &

group g1 region r1

pair_style mlip ../potentials/HG_def_1.ini
pair_coeff * *

mass 1 12.011
mass 2 1.00784

timestep 5e-05

neighbor 0.3 nsq
neigh_modify delay 5

fix f1 g1 nvt temp 10 10.0 0.1

compute T_1 g1 temp

dump d1 all custom 100 HG_eq/dumps/HG0.eq.dump id type x y z vx vy vz fx fy fz
dump_modify d1 sort id

thermo 10

run 100
write_data HG_eq/data/HG0.eq.data